# results of the FBA model for the bactery Styphi
# the columns are: t and the metabolic fluxes 
# the compounds are: galactose, glucose, thiosulfate, butyrate, Fprau, Styphi,  
# the nominal flux is: -5.0, -5.0, -5.0, -5.0, -5.0, -5.0,  
# the initial concentration are: 47.0, 12.0, 22.0, 66.0, 0.5944336637564518, 0.06655885695517816,  

t,galactose,glucose,thiosulfate,butyrate,Fprau,Styphi
0.0,-5.0,-5.0,-5.0,0.0,0.0,0.6485490667406617
0.01,-5.0,-5.0,-5.0,0.0,0.0,0.6485490667406617
0.02,-5.0,-5.0,-5.0,0.0,0.0,0.6485490667406617
0.03,-5.0,-5.0,-5.0,0.0,0.0,0.6485490667406604
0.04,-5.0,-5.0,-5.0,0.0,0.0,0.6485490667406599
0.05,-5.0,-5.0,-5.0,0.0,0.0,0.6485490667406599
0.06,-5.0,-5.0,-5.0,0.0,0.0,0.6485490667406596
0.07,-5.0,-5.0,-5.0,0.0,0.0,0.6485490667406593
0.08,-5.0,-5.0,-5.0,0.0,0.0,0.6485490667406593
0.09,-5.0,-5.0,-5.0,0.0,0.0,0.6485490667406588
0.1,-5.0,-5.0,-5.0,0.0,0.0,0.6485490667406619
0.11,-5.0,-5.0,-5.0,0.0,0.0,0.648549066740662
0.12,-5.0,-5.0,-5.0,0.0,0.0,0.6485490667406617
0.13,-5.0,-5.0,-5.0,0.0,0.0,0.6485490667406618
0.14,-5.0,-5.0,-5.0,0.0,0.0,0.6485490667406617
0.15,-5.0,-5.0,-5.0,0.0,0.0,0.6485490667406606
0.16,-5.0,-5.0,-5.0,0.0,0.0,0.6485490667406607
0.17,-5.0,-5.0,-5.0,0.0,0.0,0.6485490667406641
0.18,-5.0,-5.0,-5.0,0.0,0.0,0.6485490667406641
0.19,-5.0,-5.0,-5.0,0.0,0.0,0.6485490667406641
0.2,-5.0,-5.0,-5.0,0.0,0.0,0.6485490667406641
0.21,-5.0,-5.0,-5.0,0.0,0.0,0.6485490667406641
0.22,-5.0,-5.0,-5.0,0.0,0.0,0.6485490667406641
0.23,-5.0,-5.0,-5.0,0.0,0.0,0.6485490667406598
0.24,-5.0,-5.0,-5.0,0.0,0.0,0.6485490667406604
0.25,-5.0,-5.0,-5.0,0.0,0.0,0.6485490667406605
0.26,-5.0,-5.0,-5.0,0.0,0.0,0.6485490667406595
0.27,-5.0,-5.0,-5.0,0.0,0.0,0.6485490667406599
0.28,-5.0,-5.0,-5.0,0.0,0.0,0.6485490667406578
0.29,-5.0,-5.0,-5.0,0.0,0.0,0.648549066740659
0.3,-5.0,-5.0,-5.0,0.0,0.0,0.6485490667406604
0.31,-5.0,-5.0,-5.0,0.0,0.0,0.64854906674066
0.32,-5.0,-5.0,-5.0,0.0,0.0,0.6485490667406599
0.33,-5.0,-5.0,-5.0,0.0,0.0,0.6485490667406609
0.34,-5.0,-5.0,-5.0,0.0,0.0,0.6485490667406597
0.35000000000000003,-5.0,-5.0,-5.0,0.0,0.0,0.6485490667406609
0.36,-5.0,-5.0,-5.0,0.0,0.0,0.6485490667406651
0.37,-5.0,-5.0,-5.0,0.0,0.0,0.6485490667406654
0.38,-5.0,-5.0,-5.0,0.0,0.0,0.6485490667406654
0.39,-5.0,-5.0,-5.0,0.0,0.0,0.6485490667406658
0.4,-5.0,-5.0,-5.0,0.0,0.0,0.6485490667406659
0.41000000000000003,-5.0,-5.0,-5.0,0.0,0.0,0.6485490667406661
0.42,-5.0,-5.0,-5.0,0.0,0.0,0.6485490667406656
0.43,-5.0,-5.0,-5.0,0.0,0.0,0.6485490667406568
0.44,-5.0,-5.0,-5.0,0.0,0.0,0.6485490667406577
0.45,-5.0,-5.0,-5.0,0.0,0.0,0.6485490667406559
0.46,-5.0,-5.0,-5.0,0.0,0.0,0.6485490667406582
0.47000000000000003,-5.0,-5.0,-5.0,0.0,0.0,0.6485490667406568
0.48,-5.0,-5.0,-5.0,0.0,0.0,0.6485490667406588
0.49,-5.0,-5.0,-5.0,0.0,0.0,0.6485490667406684
0.5,-5.0,-5.0,-5.0,0.0,0.0,0.6485490667406688
0.51,-5.0,-5.0,-5.0,0.0,0.0,0.6485490667406688
0.52,-5.0,-5.0,-5.0,0.0,0.0,0.6485490667406691
0.53,-5.0,-5.0,-5.0,0.0,0.0,0.6485490667406687
0.54,-5.0,-5.0,-5.0,0.0,0.0,0.6485490667406686
0.55,-5.0,-5.0,-5.0,0.0,0.0,0.6485490667406686
0.56,-5.0,-5.0,-5.0,0.0,0.0,0.6485490667406625
0.5700000000000001,-5.0,-5.0,-5.0,0.0,0.0,0.6485490667406617
0.58,-5.0,-5.0,-5.0,0.0,0.0,0.6485490667406613
0.59,-5.0,-5.0,-5.0,0.0,0.0,0.6485490667406604
0.6,-5.0,-5.0,-5.0,0.0,0.0,0.648549066740661
0.61,-5.0,-5.0,-5.0,0.0,0.0,0.64854906674066
0.62,-5.0,-5.0,-5.0,0.0,0.0,0.648549066740667
0.63,-5.0,-5.0,-5.0,0.0,0.0,0.648549066740667
0.64,-5.0,-5.0,-5.0,0.0,0.0,0.6485490667406684
0.65,-5.0,-5.0,-5.0,0.0,0.0,0.6485490667406681
0.66,-5.0,-5.0,-5.0,0.0,0.0,0.6485490667406681
0.67,-5.0,-5.0,-5.0,0.0,0.0,0.6485490667406686
0.68,-5.0,-5.0,-5.0,0.0,0.0,0.6485490667406684
0.6900000000000001,-5.0,-5.0,-5.0,0.0,0.0,0.6485490667406622
0.7000000000000001,-5.0,-5.0,-5.0,0.0,0.0,0.6485490667406618
0.71,-5.0,-5.0,-5.0,0.0,0.0,0.6485490667406624
0.72,-5.0,-5.0,-5.0,0.0,0.0,0.6485490667406631
0.73,-5.0,-5.0,-5.0,0.0,0.0,0.6485490667406636
0.74,-5.0,-5.0,-5.0,0.0,0.0,0.6485490667406628
0.75,-5.0,-5.0,-5.0,0.0,0.0,0.6485490667406649
0.76,-5.0,-5.0,-5.0,0.0,0.0,0.6485490667406665
0.77,-5.0,-5.0,-5.0,0.0,0.0,0.6485490667406649
0.78,-5.0,-5.0,-5.0,0.0,0.0,0.6485490667406657
0.79,-5.0,-5.0,-5.0,0.0,0.0,0.6485490667406657
0.8,-5.0,-5.0,-5.0,0.0,0.0,0.6485490667406665
0.81,-5.0,-5.0,-5.0,0.0,0.0,0.6485490667406657
0.8200000000000001,-5.0,-5.0,-5.0,0.0,0.0,0.6485490667406637
0.8300000000000001,-5.0,-5.0,-5.0,0.0,0.0,0.6485490667406635
0.84,-5.0,-5.0,-5.0,0.0,0.0,0.6485490667406635
0.85,-5.0,-5.0,-5.0,0.0,0.0,0.6485490667406635
0.86,-5.0,-5.0,-5.0,0.0,0.0,0.6485490667406634
0.87,-5.0,-5.0,-5.0,0.0,0.0,0.6485490667406641
0.88,-5.0,-5.0,-5.0,0.0,0.0,0.6485490667406669
0.89,-5.0,-5.0,-5.0,0.0,0.0,0.6485490667406674
0.9,-5.0,-5.0,-5.0,0.0,0.0,0.6485490667406668
0.91,-5.0,-5.0,-5.0,0.0,0.0,0.6485490667406675
0.92,-5.0,-5.0,-5.0,0.0,0.0,0.6485490667406668
0.93,-5.0,-5.0,-5.0,0.0,0.0,0.6485490667406669
0.9400000000000001,-5.0,-5.0,-5.0,0.0,0.0,0.648549066740667
0.9500000000000001,-5.0,-5.0,-5.0,0.0,0.0,0.6485490667406568
0.96,-5.0,-5.0,-5.0,0.0,0.0,0.6485490667406577
0.97,-5.0,-5.0,-5.0,0.0,0.0,0.6485490667406559
0.98,-5.0,-5.0,-5.0,0.0,0.0,0.6485490667406582
0.99,-5.0,-5.0,-5.0,0.0,0.0,0.6485490667406568
1.0,-5.0,-5.0,-5.0,0.0,0.0,0.6485490667406588
1.01,-5.0,-5.0,-5.0,0.0,0.0,0.6485490667406684
1.02,-5.0,-5.0,-5.0,0.0,0.0,0.6485490667406688
1.03,-5.0,-5.0,-5.0,0.0,0.0,0.6485490667406688
1.04,-5.0,-5.0,-5.0,0.0,0.0,0.6485490667406691
1.05,-5.0,-5.0,-5.0,0.0,0.0,0.6485490667406687
1.06,-5.0,-5.0,-5.0,0.0,0.0,0.6485490667406686
1.07,-5.0,-5.0,-5.0,0.0,0.0,0.6485490667406686
1.08,-5.0,-5.0,-5.0,0.0,0.0,0.6485490667406625
1.09,-5.0,-5.0,-5.0,0.0,0.0,0.6485490667406617
1.1,-5.0,-5.0,-5.0,0.0,0.0,0.6485490667406613
1.11,-5.0,-5.0,-5.0,0.0,0.0,0.6485490667406604
1.12,-5.0,-5.0,-5.0,0.0,0.0,0.648549066740661
1.1300000000000001,-5.0,-5.0,-5.0,0.0,0.0,0.64854906674066
1.1400000000000001,-5.0,-5.0,-5.0,0.0,0.0,0.648549066740667
1.1500000000000001,-5.0,-5.0,-5.0,0.0,0.0,0.648549066740667
1.16,-5.0,-5.0,-5.0,0.0,0.0,0.6485490667406684
1.17,-5.0,-5.0,-5.0,0.0,0.0,0.6485490667406681
1.18,-5.0,-5.0,-5.0,0.0,0.0,0.6485490667406681
1.19,-5.0,-5.0,-5.0,0.0,0.0,0.6485490667406686
1.2,-5.0,-5.0,-5.0,0.0,0.0,0.6485490667406684
1.21,-5.0,-5.0,-5.0,0.0,0.0,0.6485490667406628
1.22,-5.0,-5.0,-5.0,0.0,0.0,0.6485490667406634
1.23,-5.0,-5.0,-5.0,0.0,0.0,0.6485490667406634
1.24,-5.0,-5.0,-5.0,0.0,0.0,0.6485490667406634
1.25,-5.0,-5.0,-5.0,0.0,0.0,0.6485490667406624
1.26,-5.0,-5.0,-5.0,0.0,0.0,0.6485490667406628
1.27,-5.0,-5.0,-5.0,0.0,0.0,0.6485490667406517
1.28,-5.0,-5.0,-5.0,0.0,0.0,0.6485490667406519
1.29,-5.0,-5.0,-5.0,0.0,0.0,0.6485490667406519
1.3,-5.0,-5.0,-5.0,0.0,0.0,0.6485490667406513
1.31,-5.0,-5.0,-5.0,0.0,0.0,0.6485490667406513
1.32,-5.0,-5.0,-5.0,0.0,0.0,0.6485490667406513
1.33,-5.0,-5.0,-5.0,0.0,0.0,0.6485490667406513
1.34,-5.0,-5.0,-5.0,0.0,0.0,0.6485490667406596
1.35,-5.0,-5.0,-5.0,0.0,0.0,0.648549066740659
1.36,-5.0,-5.0,-5.0,0.0,0.0,0.6485490667406594
1.37,-5.0,-5.0,-5.0,0.0,0.0,0.6485490667406598
1.3800000000000001,-5.0,-5.0,-5.0,0.0,0.0,0.6485490667406602
1.3900000000000001,-5.0,-5.0,-5.0,0.0,0.0,0.6485490667406599
1.4000000000000001,-5.0,-5.0,-5.0,0.0,0.0,0.6485490667406557
1.41,-5.0,-5.0,-5.0,0.0,0.0,0.6485490667406549
1.42,-5.0,-5.0,-5.0,0.0,0.0,0.648549066740659
1.43,-5.0,-5.0,-5.0,0.0,0.0,0.6485490667406557
1.44,-5.0,-5.0,-5.0,0.0,0.0,0.648549066740658
1.45,-5.0,-5.0,-5.0,0.0,0.0,0.6485490667406532
1.46,-5.0,-5.0,-5.0,0.0,0.0,0.648549066740655
1.47,-5.0,-5.0,-5.0,0.0,0.0,0.6485490667406604
1.48,-5.0,-5.0,-5.0,0.0,0.0,0.64854906674066
1.49,-5.0,-5.0,-5.0,0.0,0.0,0.6485490667406599
1.5,-5.0,-5.0,-5.0,0.0,0.0,0.6485490667406609
1.51,-5.0,-5.0,-5.0,0.0,0.0,0.6485490667406597
1.52,-5.0,-5.0,-5.0,0.0,0.0,0.6485490667406609
1.53,-5.0,-5.0,-5.0,0.0,0.0,0.6485490667406644
1.54,-5.0,-5.0,-5.0,0.0,0.0,0.6485490667406644
1.55,-5.0,-5.0,-5.0,0.0,0.0,0.6485490667406644
1.56,-5.0,-5.0,-5.0,0.0,0.0,0.6485490667406649
1.57,-5.0,-5.0,-5.0,0.0,0.0,0.6485490667406648
1.58,-5.0,-5.0,-5.0,0.0,0.0,0.6485490667406647
1.59,-5.0,-5.0,-5.0,0.0,0.0,0.6485490667406646
1.6,-5.0,-5.0,-5.0,0.0,0.0,0.6485490667406568
1.61,-5.0,-5.0,-5.0,0.0,0.0,0.6485490667406577
1.62,-5.0,-5.0,-5.0,0.0,0.0,0.6485490667406559
1.6300000000000001,-5.0,-5.0,-5.0,0.0,0.0,0.6485490667406582
1.6400000000000001,-5.0,-5.0,-5.0,0.0,0.0,0.6485490667406568
1.6500000000000001,-5.0,-5.0,-5.0,0.0,0.0,0.6485490667406588
1.6600000000000001,-5.0,-5.0,-5.0,0.0,0.0,0.6485490667406684
1.67,-5.0,-5.0,-5.0,0.0,0.0,0.6485490667406688
1.68,-5.0,-5.0,-5.0,0.0,0.0,0.6485490667406688
1.69,-5.0,-5.0,-5.0,0.0,0.0,0.6485490667406691
1.7,-5.0,-5.0,-5.0,0.0,0.0,0.6485490667406687
1.71,-5.0,-5.0,-5.0,0.0,0.0,0.6485490667406686
1.72,-5.0,-5.0,-5.0,0.0,0.0,0.6485490667406686
1.73,-5.0,-5.0,-5.0,0.0,0.0,0.6485490667406628
1.74,-5.0,-5.0,-5.0,0.0,0.0,0.6485490667406634
1.75,-5.0,-5.0,-5.0,0.0,0.0,0.6485490667406634
1.76,-5.0,-5.0,-5.0,0.0,0.0,0.6485490667406634
1.77,-5.0,-5.0,-5.0,0.0,0.0,0.6485490667406624
1.78,-5.0,-5.0,-5.0,0.0,0.0,0.6485490667406628
1.79,-5.0,-5.0,-5.0,0.0,0.0,0.6485490667406517
1.8,-5.0,-5.0,-5.0,0.0,0.0,0.6485490667406519
1.81,-5.0,-5.0,-5.0,0.0,0.0,0.6485490667406519
1.82,-5.0,-5.0,-5.0,0.0,0.0,0.6485490667406513
1.83,-5.0,-5.0,-5.0,0.0,0.0,0.6485490667406513
1.84,-5.0,-4.98658472618012,-5.0,0.0,0.0,0.64816335693808
1.85,-5.0,-4.869803261583478,-5.0,0.0,0.0,0.6448057098069854
1.86,-5.0,-4.755957639456893,-5.0,0.0,0.0,0.641532472672646
1.87,-5.0,-4.644964558045321,-5.0,0.0,0.0,0.6383412504811803
1.8800000000000001,-5.0,-4.5367435217279635,-5.0,0.0,0.0,0.6352297288594047
1.8900000000000001,-5.0,-4.431216726203332,-5.0,0.0,0.0,0.6321956708137211
1.9000000000000001,-5.0,-4.3283089493003235,-5.0,0.0,0.0,0.6292369135907364
1.9100000000000001,-5.0,-4.227947447094799,-5.0,0.0,0.0,0.6263513656905085
1.92,-5.0,-4.130061855031851,-5.0,0.0,0.0,0.6235370040236065
1.93,-5.0,-4.034584093773166,-5.0,0.0,0.0,0.6207918712041075
1.94,-5.0,-3.9414482795067185,-5.0,0.0,0.0,0.6181140729708547
1.95,-5.0,-3.8505906384726347,-5.0,0.0,0.0,0.6155017757299371
1.96,-5.0,-3.7619494254744352,-5.0,0.0,0.0,0.6129532042117801
1.97,-5.0,-3.6754648461592434,-5.0,0.0,0.0,0.6104666392365584
1.98,-5.0,-3.5910789828638485,-5.0,0.0,0.0,0.6080404155821657
1.99,-5.0,-3.5087357238359766,-5.0,0.0,0.0,0.6056729199492364
2.0,-5.0,-3.428380695651653,-5.0,0.0,0.0,0.6033625890180057
2.0100000000000002,-5.0,-3.3499611986603735,-5.0,0.0,0.0,0.6011079075922847
2.02,-5.0,-3.2734261452998394,-5.0,0.0,0.0,0.5989074068259042
2.0300000000000002,-5.0,-3.198726001131428,-5.0,0.0,0.0,0.596759662527391
2.04,-5.0,-3.1258127284563244,-5.0,0.0,0.0,0.5946632935388567
2.05,-5.0,-3.0546397323804455,-5.0,0.0,0.0,0.5926169601852693
2.06,-5.0,-2.985161809203948,-5.0,0.0,0.0,0.5906193627905664
2.07,-5.0,-2.9173350970182743,-5.0,0.0,0.0,0.5886692402572657
2.08,-5.0,-2.851117028400392,-5.0,0.0,0.0,0.5867653687063377
2.09,-5.0,-2.786466285100161,-5.0,0.0,0.0,0.5849065601743941
2.1,-5.0,-2.723342754622628,-5.0,0.0,0.0,0.5830916613653723
2.11,-5.0,-2.661707488612577,-5.0,0.0,0.0,0.5813195524540155
2.12,-5.0,-2.6015226629537915,-5.0,0.0,0.0,0.5795891459386743
2.13,-5.0,-2.5427515395003666,-5.0,0.0,0.0,0.5778993855410314
2.14,-5.0,-2.485358429361899,-5.0,0.0,0.0,0.5762492451504604
2.15,-5.0,-2.429308657668709,-5.0,0.0,0.0,0.5746377278110095
2.16,-5.0,-2.374568529747187,-5.0,0.0,0.0,0.5730638647488709
2.17,-5.0,-2.321105298639172,-5.0,0.0,0.0,0.5715267144385093
2.18,-5.0,-2.2688871339027643,-5.0,0.0,0.0,0.5700253617056597
2.19,-5.0,-2.2178830916353323,-5.0,0.0,0.0,0.5685589168654295
2.2,-5.0,-2.1680630856625713,-5.0,0.0,0.0,0.5671265148939093
2.21,-5.0,-2.119397859840432,-5.0,0.0,0.0,0.5657273146318651
2.22,-5.0,-2.071858961419503,-5.0,0.0,0.0,0.5643604980188796
2.23,-5.0,-2.025418715424035,-5.0,0.0,0.0,0.5630252693567679
2.24,-5.0,-1.9800502000002576,-5.0,0.0,0.0,0.5617208546007021
2.25,-5.0,-1.935727222690965,-5.0,0.0,0.0,0.5604465006771722
2.2600000000000002,-5.0,-1.8924242975954984,-5.0,0.0,0.0,0.5592014748272444
2.27,-5.0,-1.8501166233763626,-5.0,0.0,0.0,0.5579850639742425
2.2800000000000002,-5.0,-1.8087800620756167,-5.0,0.0,0.0,0.5567965741146561
2.29,-5.0,-1.7683911187060295,-5.0,0.0,0.0,0.5556353297313871
2.3000000000000003,-5.0,-1.728926921583735,-5.0,0.0,0.0,0.5545006732282676
2.31,-5.0,-1.6903652033707353,-5.0,0.0,0.0,0.5533919643850008
2.32,-5.0,-1.652684282797165,-5.0,0.0,0.0,0.5523085798316526
2.33,-5.0,-1.615863047034692,-5.0,0.0,0.0,0.5512499125418725
2.34,-5.0,-1.5798809346937945,-5.0,0.0,0.0,0.550215371344011
2.35,-5.0,-1.544717919418988,-5.0,0.0,0.0,0.5492043804494685
2.36,-5.0,-1.5103544940572924,-5.0,0.0,0.0,0.5482163789975392
2.37,-5.0,-1.4767716553764119,-5.0,0.0,0.0,0.5472508206159897
2.38,-5.0,-1.4439508893102042,-5.0,0.0,0.0,0.5463071729968907
2.39,-5.0,-1.4118741567100748,-5.0,0.0,0.0,0.5453849174868953
2.4,-5.0,-1.3805238795819126,-5.0,0.0,0.0,0.5444835486915828
2.41,-5.0,-1.3498829277891415,-5.0,0.0,0.0,0.5436025740931176
2.42,-5.0,-1.3199346062033492,-5.0,0.0,0.0,0.5427415136808309
2.43,-5.0,-1.2906626422848047,-5.0,0.0,0.0,0.5418998995941054
2.44,-5.0,-1.2620511740759772,-5.0,0.0,0.0,0.5410772757772235
2.45,-5.0,-1.2340847385919422,-5.0,0.0,0.0,0.5402731976455196
2.46,-5.0,-1.2067482605922724,-5.0,0.0,0.0,0.5394872317626113
2.47,-5.0,-1.18002704171971,-5.0,0.0,0.0,0.5387189555280486
2.48,-5.0,-1.153906749991566,-5.0,0.0,0.0,0.5379679568752477
2.49,-5.0,-1.1283734096304114,-5.0,0.0,0.0,0.5372338339790548
2.5,-5.0,-1.1034133912212218,-5.0,0.0,0.0,0.5365161949727879
2.5100000000000002,-5.0,-1.079013402182687,-5.0,0.0,0.0,0.5358146576742401
2.52,-5.0,-1.055160477540946,-5.0,0.0,0.0,0.535128849320425
2.5300000000000002,-5.0,-1.0318419709944988,-5.0,0.0,0.0,0.534458406310677
2.54,-5.0,-1.009045546259541,-5.0,0.0,0.0,0.5338029739578136
2.5500000000000003,-5.0,-0.9867591686854186,-5.0,0.0,0.0,0.5331622062470942
2.56,-5.0,-0.9649710971303487,-5.0,0.0,0.0,0.5325357656025842
2.57,-5.0,-0.9436698760879488,-5.0,0.0,0.0,0.5319233226608178
2.58,-5.0,-0.9228443280555383,-5.0,0.0,0.0,0.5313245560513425
2.59,-5.0,-0.9024835461355313,-5.0,0.0,0.0,0.5307391521840711
2.6,-5.0,-0.8825768868616148,-5.0,0.0,0.0,0.5301668050429243
2.61,-5.0,-0.8631139632417422,-5.0,0.0,0.0,0.5296072159858758
2.62,-5.0,-0.8440846380103001,-5.0,0.0,0.0,0.529060093550899
2.63,-5.0,-0.8254790170821215,-5.0,0.0,0.0,0.528525153267801
2.64,-5.0,-0.8072874432013096,-5.0,0.0,0.0,0.5280021174756019
2.65,-5.0,-0.7895004897781298,-5.0,0.0,0.0,0.5274907151452848
2.66,-5.0,-0.7721089549074851,-5.0,0.0,0.0,0.5269906817079149
2.67,-5.0,-0.7551038555627649,-5.0,0.0,0.0,0.5265017588876186
2.68,-5.0,-0.7384764219590881,-5.0,0.0,0.0,0.5260236945395672
2.69,-5.0,-0.7222180920802085,-5.0,0.0,0.0,0.5255562424925935
2.7,-5.0,-0.7063205063635715,-5.0,0.0,0.0,0.5250991623963898
2.71,-5.0,-0.6907755025382243,-5.0,0.0,0.0,0.5246522195730695
2.72,-5.0,-0.6755751106104927,-5.0,0.0,0.0,0.5242151848730507
2.73,-5.0,-0.6607115479925276,-5.0,0.0,0.0,0.5237878345349254
2.74,-5.0,-0.64617721476902,-5.0,0.0,0.0,0.5233699500494147
2.75,-5.0,-0.6319646890975545,-5.0,0.0,0.0,0.5229613180271057
2.7600000000000002,-5.0,-0.6180667227382507,-5.0,0.0,0.0,0.5225617300699295
2.77,-5.0,-0.6044762367085024,-5.0,0.0,0.0,0.5221709826462211
2.7800000000000002,-5.0,-0.591186317058782,-5.0,0.0,0.0,0.5217888769692872
2.79,-5.0,-0.5781902107656305,-5.0,0.0,0.0,0.5214152188792704
2.8000000000000003,-5.0,-0.565481321738095,-5.0,0.0,0.0,0.5210498187283928
2.81,-5.0,-0.553053206934016,-5.0,0.0,0.0,0.5206924912692761
2.82,-5.0,-0.5408995725826985,-5.0,0.0,0.0,0.5203430555462992
2.83,-5.0,-0.5290142705106256,-5.0,0.0,0.0,0.5200013347899864
2.84,-5.0,-0.5173912945669992,-5.0,0.0,0.0,0.5196671563142629
2.85,-5.0,-0.5060247771460059,-5.0,0.0,0.0,0.5193403514164073
2.86,-5.0,-0.4949089858028153,-5.0,0.0,0.0,0.5190207552797934
2.87,-5.0,-0.4840383199604325,-5.0,0.0,0.0,0.5187082068791987
2.88,-5.0,-0.4734073077046213,-5.0,0.0,0.0,0.5184025488886553
2.89,-5.0,-0.4630106026642178,-5.0,0.0,0.0,0.5181036275917499
2.9,-5.0,-0.45284298097424747,-5.0,0.0,0.0,0.5178112927943136
2.91,-5.0,-0.442899338319349,-5.0,0.0,0.0,0.5175253977393952
2.92,-5.0,-0.4331746870550954,-5.0,0.0,0.0,0.5172457990245608
2.93,-5.0,-0.4236641534048868,-5.0,0.0,0.0,0.5169723565211962
2.94,-5.0,-0.41436297473016903,-5.0,0.0,0.0,0.5167049332961087
2.95,-5.0,-0.4052664968718114,-5.0,0.0,0.0,0.5164433955350456
2.96,-5.0,-0.3963701715605456,-5.0,0.0,0.0,0.5161876124682555
2.97,-5.0,-0.3876695538944461,-5.0,0.0,0.0,0.5159374562979605
2.98,-5.0,-0.3791602998814956,-5.0,0.0,0.0,0.5156928021276891
2.99,-5.0,-0.37083816404534586,-5.0,0.0,0.0,0.5154535278934487
3.0,-5.0,-0.3626989970924491,-5.0,0.0,0.0,0.5152195142966548
3.0100000000000002,-5.0,-0.3547387436387943,-5.0,0.0,0.0,0.5149906447387711
3.02,-5.0,-0.3469534399945406,-5.0,0.0,0.0,0.514766805257599
3.0300000000000002,-5.0,-0.3393392120048996,-5.0,0.0,0.0,0.5145478844652183
3.04,-5.0,-0.3318922729456676,-5.0,0.0,0.0,0.5143337734874669
3.0500000000000003,-5.0,-0.3246089214718648,-5.0,0.0,0.0,0.5141243659049797
3.06,-5.0,-0.3174855396179869,-5.0,0.0,0.0,0.5139195576956617
3.0700000000000003,-5.0,-0.3105185908484222,-5.0,0.0,0.0,0.5137192471786683
3.08,-5.0,-0.3037046181566361,-5.0,0.0,0.0,0.5135233349597299
3.09,-5.0,-0.29704024221176667,-5.0,0.0,0.0,0.5133317238778794
3.1,-5.0,-0.29052215955132005,-5.0,0.0,0.0,0.5131443189534726
3.11,-5.0,-0.2841471408186952,-5.0,0.0,0.0,0.5129610273375373
3.12,-5.0,-0.277912029044308,-5.0,0.0,0.0,0.512781758262306
3.13,-5.0,-0.27181373796912234,-5.0,0.0,0.0,0.5126064229931085
3.14,-5.0,-0.2658492504094341,-5.0,0.0,0.0,0.5124349347812415
3.15,-5.0,-0.26001561666178863,-5.0,0.0,0.0,0.5122672088181776
3.16,-5.0,-0.2543099529469487,-5.0,0.0,0.0,0.5121031621908368
3.17,-5.0,-0.24872943989186017,-5.0,0.0,0.0,0.5119427138378864
3.18,-5.0,-0.24327132104859794,-5.0,0.0,0.0,0.5117857845072015
3.19,-5.0,-0.23793290144930432,-5.0,0.0,0.0,0.5116322967143054
3.2,-5.0,-0.23271154619616138,-5.0,0.0,0.0,0.5114821747018209
3.21,-5.0,-0.22760467908546853,-5.0,0.0,0.0,0.5113353443999245
3.22,-5.0,-0.22260978126492478,-5.0,0.0,0.0,0.511191733387721
3.23,-5.0,-0.21772438992324078,-5.0,0.0,0.0,0.511051270855591
3.24,-5.0,-0.2129460970112328,-5.0,0.0,0.0,0.5109138875684182
3.25,-5.0,-0.208272547993576,-5.0,0.0,0.0,0.5107795158296735
3.2600000000000002,-5.0,-0.20370144063041726,-5.0,0.0,0.0,0.5106480894464095
3.27,-5.0,-0.19923052378807318,-5.0,0.0,0.0,0.5105195436950731
3.2800000000000002,-5.0,-0.1948575962780603,-5.0,0.0,0.0,0.5103938152880915
3.29,-5.0,-0.19058050572372595,-5.0,0.0,0.0,0.5102708423413254
3.3000000000000003,-5.0,-0.18639714745377148,-5.0,0.0,0.0,0.5101505643422263
3.31,-5.0,-0.18230546342197734,-5.0,0.0,0.0,0.510032922118796
3.3200000000000003,-5.0,-0.17830344115246133,-5.0,0.0,0.0,0.5099178578092481
3.33,-5.0,-0.17438911270981958,-5.0,0.0,0.0,0.5098053148324128
3.34,-5.0,-0.17056055369351847,-5.0,0.0,0.0,0.5096952378587917
3.35,-5.0,-0.16681588225592342,-5.0,0.0,0.0,0.5095875727823752
3.36,-5.0,-0.16315325814336842,-5.0,0.0,0.0,0.5094822666930393
3.37,-5.0,-0.1595708817596859,-5.0,0.0,0.0,0.5093792678496001
3.38,-5.0,-0.15606699325163406,-5.0,0.0,0.0,0.5092785256535909
3.39,-5.0,-0.1526398716156731,-5.0,0.0,0.0,0.5091799906234942
3.4,-5.0,-0.14928783382555835,-5.0,0.0,0.0,0.5090836143697084
3.41,-5.0,-0.14600923398023177,-5.0,0.0,0.0,0.5089893495700467
3.42,-5.0,-0.14280246247150874,-5.0,0.0,0.0,0.5088971499457863
3.43,-5.0,-0.13966594517106964,-5.0,0.0,0.0,0.5088069702383173
3.44,-5.0,-0.13659814263628037,-5.0,0.0,0.0,0.5087187661862935
3.45,-5.0,-0.13359754933437795,-5.0,0.0,0.0,0.508632494503309
3.46,-5.0,-0.13066269288457025,-5.0,0.0,0.0,0.5085481128561679
3.47,-5.0,-0.12779213331761138,-5.0,0.0,0.0,0.5084655798435176
3.48,-5.0,-0.12498446235242562,-5.0,0.0,0.0,0.5083848549751115
3.49,-5.0,-0.12223830268936396,-5.0,0.0,0.0,0.508305898651475
3.5,-5.0,-0.11955230731968997,-5.0,0.0,0.0,0.5082286721440112
3.5100000000000002,-5.0,-0.11692515885090009,-5.0,0.0,0.0,0.5081531375756633
3.52,-5.0,-0.11435556884749616,-5.0,0.0,0.0,0.5080792579019249
3.5300000000000002,-5.0,-0.11184227718683629,-5.0,0.0,0.0,0.5080069968923269
3.54,-5.0,-0.10938405142970152,-5.0,0.0,0.0,0.5079363191123428
3.5500000000000003,-5.0,-0.10697968620522427,-5.0,0.0,0.0,0.5078671899057041
3.56,-5.0,-0.10462800260983393,-5.0,0.0,0.0,0.5077995753771063
3.5700000000000003,-5.0,-0.1023278476198844,-5.0,0.0,0.0,0.5077334423753471
3.58,-5.0,-0.1000780935176369,-5.0,0.0,0.0,0.5076687584768088
3.59,-5.0,-0.09787763733027936,-5.0,0.0,0.0,0.5076054919693141
3.6,-5.0,-0.0957254002816726,-5.0,0.0,0.0,0.5075436118363986
3.61,-5.0,-0.09362032725652115,-5.0,0.0,0.0,0.5074830877418623
3.62,-5.0,-0.09156138627667428,-5.0,0.0,0.0,0.507423890014741
3.63,-5.0,-0.0895475679892706,-5.0,0.0,0.0,0.5073659896345856
3.64,-5.0,-0.0875778851664463,-5.0,0.0,0.0,0.5073093582170773
3.65,-5.0,-0.08565137221633523,-5.0,0.0,0.0,0.5072539679999535
3.66,-5.0,-0.08376708470509457,-5.0,0.0,0.0,0.5071997918292904
3.67,-5.0,-0.08192409888969811,-5.0,0.0,0.0,0.507146803146051
3.68,-5.0,-0.08012151126124403,-5.0,0.0,0.0,0.5070949759729585
3.69,-5.0,-0.0783584380985319,-5.0,0.0,0.0,0.5070442849016779
3.7,-5.0,-0.07663401503166851,-5.0,0.0,0.0,0.5069947050802271
3.71,-5.0,-0.07494739661546951,-5.0,0.0,0.0,0.5069462122007588
3.72,-5.0,-0.07329775591242788,-5.0,0.0,0.0,0.5068987824875514
3.73,-5.0,-0.07168428408502785,-5.0,0.0,0.0,0.5068523926852765
3.74,-5.0,-0.0701061899971868,-5.0,0.0,0.0,0.5068070200475452
3.75,-5.0,-0.06856269982461413,-5.0,0.0,0.0,0.5067626423257258
3.7600000000000002,-5.0,-0.06705305667388037,-5.0,0.0,0.0,0.5067192377579542
3.77,-5.0,-0.06557652020999599,-5.0,0.0,0.0,0.5066767850584712
3.7800000000000002,-5.0,-0.0641323662923031,-5.0,0.0,0.0,0.506635263407117
3.79,-5.0,-0.0627198866184888,-5.0,0.0,0.0,0.506594652439089
3.8000000000000003,-5.0,-0.06133838837653357,-5.0,0.0,0.0,0.5065549322349909
3.81,-5.0,-0.059987193904412164,-5.0,0.0,0.0,0.5065160833109921
3.8200000000000003,-5.0,-0.05866564035736943,-5.0,0.0,0.0,0.5064780866092792
3.83,-5.0,-0.05737307938259747,-5.0,0.0,0.0,0.5064409234887097
3.84,-5.0,-0.05610887680114487,-5.0,0.0,0.0,0.5064045757156674
3.85,-5.0,-0.05487241229689269,-5.0,0.0,0.0,0.5063690254551042
3.86,-5.0,-0.053663079112436174,-5.0,0.0,0.0,0.5063342552618088
3.87,-5.0,-0.05248028375171442,-5.0,0.0,0.0,0.5063002480718576
3.88,-5.0,-0.0513234456892349,-5.0,0.0,0.0,0.5062669871942436
3.89,-5.0,-0.05019199708574247,-5.0,0.0,0.0,0.5062344563027094
3.9,-5.0,-0.04908538251018669,-5.0,0.0,0.0,0.5062026394277679
3.91,-5.0,-0.04800305866784469,-5.0,0.0,0.0,0.5061715209488455
3.92,-5.0,-0.04694449413445978,-5.0,0.0,0.0,0.5061410855866912
3.93,-5.0,-0.04590916909625998,-5.0,0.0,0.0,0.5061113183958378
3.94,-5.0,-0.044896575095723285,-5.0,0.0,0.0,0.5060822047573666
3.95,-5.0,-0.04390621478295998,-5.0,0.0,0.0,0.5060537303716891
3.96,-5.0,-0.04293760167258515,-5.0,0.0,0.0,0.5060258812515994
3.97,-5.0,-0.041990259905957686,-5.0,0.0,0.0,0.5059986437154408
3.98,-5.0,-0.04106372401866494,-5.0,0.0,0.0,0.5059720043803877
3.99,-5.0,-0.04015753871313495,-5.0,0.0,0.0,0.5059459501559286
4.0,-5.0,-0.03927125863626099,-5.0,0.0,0.0,0.5059204682374739
4.01,-5.0,-0.03840444816192585,-5.0,0.0,0.0,0.505895546100106
4.0200000000000005,-5.0,-0.03755668117831597,-5.0,0.0,0.0,0.5058711714924607
4.03,-5.0,-0.03672754087991792,-5.0,0.0,0.0,0.505847332430711
4.04,-5.0,-0.035916619564092526,-5.0,0.0,0.0,0.5058240171928108
4.05,-5.0,-0.035123518432123926,-5.0,0.0,0.0,0.5058012143126649
4.0600000000000005,-5.0,-0.034347847394643756,-5.0,0.0,0.0,0.5057789125746042
4.07,-5.0,-0.03358922488133248,-5.0,0.0,0.0,0.5057571010078973
4.08,-5.0,-0.03284727765480247,-5.0,0.0,0.0,0.5057357688813876
4.09,-5.0,-0.03212164062856954,-5.0,0.0,0.0,0.5057149056982762
4.1,-5.0,-0.03141195668902167,-5.0,0.0,0.0,0.5056945011910128
4.11,-5.0,-0.030717876521296074,-5.0,0.0,0.0,0.5056745453162421
4.12,-5.0,-0.03003905843897735,-5.0,0.0,0.0,0.5056550282499445
4.13,-5.0,-0.029375168217531895,-5.0,0.0,0.0,0.5056359403826644
4.14,-5.0,-0.028725878931395422,-5.0,0.0,0.0,0.5056172723147716
4.15,-5.0,-0.028090870794632433,-5.0,0.0,0.0,0.5055990148519502
4.16,-5.0,-0.027469831005088385,-5.0,0.0,0.0,0.5055811590006367
4.17,-5.0,-0.026862453591956967,-5.0,0.0,0.0,0.5055636959637135
4.18,-5.0,-0.026268439266686802,-5.0,0.0,0.0,0.5055466171361636
4.19,-5.0,-0.025687495277153572,-5.0,0.0,0.0,0.5055299141009088
4.2,-5.0,-0.025119335265025224,-5.0,0.0,0.0,0.5055135786247177
4.21,-5.0,-0.02456367912624955,-5.0,0.0,0.0,0.5054976026541617
4.22,-5.0,-0.024020252874595135,-5.0,0.0,0.0,0.5054819783117056
4.23,-5.0,-0.023488788508178055,-5.0,0.0,0.0,0.5054666978918878
4.24,-5.0,-0.022969023878908423,-5.0,0.0,0.0,0.5054517538575525
4.25,-5.0,-0.022460702564792254,-5.0,0.0,0.0,0.505437138836173
4.26,-5.0,-0.02196357374502559,-5.0,0.0,0.0,0.5054228456162632
4.2700000000000005,-5.0,-0.021477392077819353,-5.0,0.0,0.0,0.5054088671438559
4.28,-5.0,-0.021001917580894574,-5.0,0.0,0.0,0.5053951965191062
4.29,-5.0,-0.020536915514589242,-5.0,0.0,0.0,0.5053818269928806
4.3,-5.0,-0.020082156267519143,-5.0,0.0,0.0,0.5053687519634948
4.3100000000000005,-5.0,-0.019637415244736528,-5.0,0.0,0.0,0.505355964973503
4.32,-5.0,-0.019202472758331507,-5.0,0.0,0.0,0.5053434597065336
4.33,-5.0,-0.018777113920422507,-5.0,0.0,0.0,0.5053312299842341
4.34,-5.0,-0.018361128538483224,-5.0,0.0,0.0,0.5053192697632422
4.3500000000000005,-5.0,-0.017954311012954634,-5.0,0.0,0.0,0.5053075731322567
4.36,-5.0,-0.017556460237091953,-5.0,0.0,0.0,0.5052961343091444
4.37,-5.0,-0.017167379498997312,-5.0,0.0,0.0,0.5052849476381406
4.38,-5.0,-0.016786876385790257,-5.0,0.0,0.0,0.5052740075870685
4.39,-5.0,-0.01641476268986908,-5.0,0.0,0.0,0.5052633087446816
4.4,-5.0,-0.016050854317217107,-5.0,0.0,0.0,0.5052528458179897
4.41,-5.0,-0.01569497119770907,-5.0,0.0,0.0,0.5052426136296911
4.42,-5.0,-0.015346937197373747,-5.0,0.0,0.0,0.5052326071156712
4.43,-5.0,-0.015006580032569916,-5.0,0.0,0.0,0.5052228213225108
4.44,-5.0,-0.014673731186033719,-5.0,0.0,0.0,0.5052132514050769
4.45,-5.0,-0.014348225824756457,-5.0,0.0,0.0,0.5052038926241585
4.46,-5.0,-0.014029902719652676,-5.0,0.0,0.0,0.5051947403441689
4.47,-5.0,-0.013718604166979384,-5.0,0.0,0.0,0.5051857900309006
4.48,-5.0,-0.013414175911468052,-5.0,0.0,0.0,0.5051770372492653
4.49,-5.0,-0.013116467071131887,-5.0,0.0,0.0,0.505168477661177
4.5,-5.0,-0.012825330063711787,-5.0,0.0,0.0,0.5051601070234092
4.51,-5.0,-0.012540620534725083,-5.0,0.0,0.0,0.5051519211855577
4.5200000000000005,-5.0,-0.012262197287082038,-5.0,0.0,0.0,0.505143916087989
4.53,-5.0,-0.011989922212235833,-5.0,0.0,0.0,0.5051360877598599
4.54,-5.0,-0.011723660222832513,-5.0,0.0,0.0,0.5051284323172132
4.55,-5.0,-0.011463279186828145,-5.0,0.0,0.0,0.5051209459610358
4.5600000000000005,-5.0,-0.01120864986304108,-5.0,0.0,0.0,0.5051136249754578
4.57,-5.0,-0.010959645838108054,-5.0,0.0,0.0,0.5051064657258878
4.58,-5.0,-0.010716143464813394,-5.0,0.0,0.0,0.5050994646572861
4.59,-5.0,-0.010478021801761394,-5.0,0.0,0.0,0.5050926182923918
4.6000000000000005,-5.0,-0.010245162554362554,-5.0,0.0,0.0,0.5050859232300733
4.61,-5.0,-0.010017450017104967,-5.0,0.0,0.0,0.5050793761435972
4.62,-5.0,-0.009794771017082851,-5.0,0.0,0.0,0.5050729737790745
4.63,-5.0,-0.00957701485875478,-5.0,0.0,0.0,0.5050667129538418
4.64,-5.0,-0.00936407326990481,-5.0,0.0,0.0,0.5050605905549046
4.65,-5.0,-0.00915584034878024,-5.0,0.0,0.0,0.5050546035374182
4.66,-5.0,-0.008952212512380391,-5.0,0.0,0.0,0.5050487489232217
4.67,-5.0,-0.008753088445871278,-5.0,0.0,0.0,0.5050430237993515
4.68,-5.0,-0.008558369053101648,-5.0,0.0,0.0,0.5050374253166449
4.69,-5.0,-0.008367957408196373,-5.0,0.0,0.0,0.5050319506883121
4.7,-5.0,-0.008181758708203743,-5.0,0.0,0.0,0.5050265971886526
4.71,-5.0,-0.00799968022677367,-5.0,0.0,0.0,0.5050213621516267
4.72,-5.0,-0.007821631268844356,-5.0,0.0,0.0,0.5050162429696212
4.73,-5.0,-0.007647523126315462,-5.0,0.0,0.0,0.5050112370921247
4.74,-5.0,-0.007477269034686301,-5.0,0.0,0.0,0.5050063420245359
4.75,-5.0,-0.007310784130637999,-5.0,0.0,0.0,0.5050015553269003
4.76,-5.0,-0.007147985410539145,-5.0,0.0,0.0,0.5049968746127456
4.7700000000000005,-5.0,-0.006988791689854733,-5.0,0.0,0.0,0.5049922975478659
4.78,-5.0,-0.006833123563438815,-5.0,0.0,0.0,0.504987821849267
4.79,-5.0,-0.00668090336669157,-5.0,0.0,0.0,0.504983445283959
4.8,-5.0,-0.0065320551375620105,-5.0,0.0,0.0,0.5049791656679122
4.8100000000000005,-5.0,-0.006386504579377902,-5.0,0.0,0.0,0.5049749808649902
4.82,-5.0,-0.006244179024484902,-5.0,0.0,0.0,0.5049708887858891
4.83,-5.0,-0.006105007398677323,-5.0,0.0,0.0,0.504966887387109
4.84,-5.0,-0.0059689201864032634,-5.0,0.0,0.0,0.5049629746699686
4.8500000000000005,-5.0,-0.005835849396727301,-5.0,0.0,0.0,0.5049591486796373
4.86,-5.0,-0.005705728530034227,-5.0,0.0,0.0,0.504955407504128
4.87,-5.0,-0.005578492545457742,-5.0,0.0,0.0,0.5049517492734279
4.88,-4.957902489017135,-0.0054540778290183105,-5.0,0.0,0.0,0.5038478373076508
4.89,-4.847370931235778,-0.0053324845302316565,-5.0,0.0,0.0,0.5009552934259176
4.9,-4.739435099286791,-0.005213746731476296,-5.0,0.0,0.0,0.4981306781161338
4.91,-4.634027878580665,-0.005097790601490833,-5.0,0.0,0.0,0.49537223503016964
4.92,-4.531084167764146,-0.004984544523730123,-5.0,0.0,0.0,0.4926782605050544
4.93,-4.430540806164815,-0.00487393901654868,-5.0,0.0,0.0,0.4900471016642673
4.94,-4.3323365043704385,-0.0047659066568325635,-5.0,0.0,0.0,0.48747715460103724
4.95,-4.236411777784956,-0.004660382006905808,-5.0,0.0,0.0,0.4849668626395379
4.96,-4.142708883012083,-0.004557301544547444,-5.0,0.0,0.0,0.48251471467007623
4.97,-4.051171756925955,-0.004456603595964479,-5.0,0.0,0.0,0.48011924355462443
4.98,-3.961745958296213,-0.004358228271574946,-5.0,0.0,0.0,0.47777902459917826
4.99,-3.874378611842333,-0.004262117404463331,-5.0,0.0,0.0,0.4754926740896923
5.0,-3.7890183545990257,-0.004168214491378343,-5.0,0.0,0.0,0.47325884788849093
5.01,-3.7056152844810404,-0.004076464636150202,-5.0,0.0,0.0,0.47107624008824645
5.0200000000000005,-3.6241209109418593,-0.003986814495411372,-5.0,0.0,0.0,0.46894358172074135
5.03,-3.544488107626534,-0.003899212226511002,-5.0,0.0,0.0,0.46685963951782444
5.04,-3.4666710669243077,-0.003813607437519283,-5.0,0.0,0.0,0.46482321472208965
5.05,-3.3906252563317762,-0.003729951139223535,-5.0,0.0,0.0,0.4628331419449095
5.0600000000000005,-3.3163073765420994,-0.00364819569902308,-5.0,0.0,0.0,0.46088828806965715
5.07,-3.2436753211802642,-0.003568294796634912,-5.0,0.0,0.0,0.4589875511980253
5.08,-3.172688138108641,-0.0034902033815267944,-5.0,0.0,0.0,0.45712985963738817
5.09,-3.1033059922310384,-0.00341387763199884,-5.0,0.0,0.0,0.45531417092741727
5.1000000000000005,-3.0354901297272057,-0.0033392749158386776,-5.0,0.0,0.0,0.4535394709041302
5.11,-2.9692028436532607,-0.0032663537524792573,-5.0,0.0,0.0,0.45180477279963493
5.12,-2.9044074408468408,-0.003195073776591941,-5.0,0.0,0.0,0.45010911637613343
5.13,-2.8410682100789,-0.00312539570305101,-5.0,0.0,0.0,0.44845156709239953
5.14,-2.7791503913970335,-0.003057281293208938,-5.0,0.0,0.0,0.44683121530153275
5.15,-2.7186201466079902,-0.0029906933224248615,-5.0,0.0,0.0,0.4452471754785289
5.16,-2.6594445308496564,-0.002925595548791557,-5.0,0.0,0.0,0.4436985854763178
5.17,-2.6015914652052845,-0.002861952683008963,-5.0,0.0,0.0,0.44218460580908603
5.18,-2.5450297103150707,-0.0027997303593548643,-5.0,0.0,0.0,0.4407044189617123
5.19,-2.4897288409423957,-0.0027388951077057864,-5.0,0.0,0.0,0.4392572287242035
5.2,-2.4356592214541455,-0.0026794143265634405,-5.0,0.0,0.0,0.43784225954999395
5.21,-2.3827919821764922,-0.002621256257044244,-5.0,0.0,0.0,0.43645875593721617
5.22,-2.3310989965893807,-0.0025643899577914887,-5.0,0.0,0.0,0.43510598183189064
5.23,-2.2805528593247475,-0.0025087852807716706,-5.0,0.0,0.0,0.43378322005213965
5.24,-2.231126864935154,-0.0024544128479183354,-5.0,0.0,0.0,0.4324897717325865
5.25,-2.1827949874011057,-0.0024012440285885437,-5.0,0.0,0.0,0.4312249557880801
5.26,-2.1355318603468376,-0.0023492509177986897,-5.0,0.0,0.0,0.4299881083959281
5.2700000000000005,-2.0893127579357316,-0.002298406315207985,-5.0,0.0,0.0,0.42877858249597817
5.28,-2.0441135764179243,-0.00224868370481939,-5.0,0.0,0.0,0.4275957473077124
5.29,-1.9999108163038946,-0.002200057235369173,-5.0,0.0,0.0,0.42643898786371415
5.3,-1.956681565139048,-0.002152501701377621,-5.0,0.0,0.0,0.42530770455893907
5.3100000000000005,-1.9144034808554684,-0.0021059925248346693,-5.0,0.0,0.0,0.42420131271501826
5.32,-1.8730547756780693,-0.0020605057374954183,-5.0,0.0,0.0,0.42311924215906954
5.33,-1.8326142005634354,-0.002016017963761651,-5.0,0.0,0.0,0.4220609368165103
5.34,-1.7930610301505998,-0.0019725064041265206,-5.0,0.0,0.0,0.421025854317207
5.3500000000000005,-1.7543750482039548,-0.0019299488191606199,-5.0,0.0,0.0,0.42001346561451774
5.36,-1.7165365335293554,-0.0018883235140186,-5.0,0.0,0.0,0.419023254616745
5.37,-1.6795262463453269,-0.001847609323446444,-5.0,0.0,0.0,0.41805471783047754
5.38,-1.6433254150920822,-0.0018077855972703579,-5.0,0.0,0.0,0.41710736401536525
5.39,-1.6079157236618058,-0.001768832186349092,-5.0,0.0,0.0,0.4161807138499619
5.4,-1.573279299034391,-0.0017307294289722933,-5.0,0.0,0.0,0.41527429960816203
5.41,-1.5393986993034927,-0.0016934581376882307,-5.0,0.0,0.0,0.4143876648458582
5.42,-1.506256902078419,-0.001656999586544977,-5.0,0.0,0.0,0.41352036409739323
5.43,-1.4738372932479946,-0.0016213354987297856,-5.0,0.0,0.0,0.41267196258155336
5.44,-1.4421236560931296,-0.0015864480345920695,-5.0,0.0,0.0,0.4118420359166184
5.45,-1.4111001607353821,-0.0015523197800360008,-5.0,0.0,0.0,0.4110301698442668
5.46,-1.3807513539093381,-0.0015189337352693357,-5.0,0.0,0.0,0.4102359599619082
5.47,-1.351062149047152,-0.0014862733038956376,-5.0,0.0,0.0,0.4094590114631988
5.48,-1.32201781666406,-0.0014543222823375944,-5.0,0.0,0.0,0.408698938886472
5.49,-1.2936039750341568,-0.0014230648495796513,-5.0,0.0,0.0,0.4079553658706498
5.5,-1.2658065811461623,-0.0013924855572186483,-5.0,0.0,0.0,0.4072279249186496
5.51,-1.23861192192932,-0.001362569319811629,-5.0,0.0,0.0,0.40651625716771567
5.5200000000000005,-1.2120066057399805,-0.0013333014055104213,-5.0,0.0,0.0,0.4058200121666574
5.53,-1.1859775540998005,-0.0013046674269730132,-5.0,0.0,0.0,0.405138847659609
5.54,-1.1605119936768507,-0.00127665333254215,-5.0,0.0,0.0,0.40447242937622907
5.55,-1.1355974485012839,-0.0012492453976819644,-5.0,0.0,0.0,0.40382043082793884
5.5600000000000005,-1.111221732407538,-0.001222430216663812,-5.0,0.0,0.0,0.4031825331101756
5.57,-1.0873729416953735,-0.0011961946944928424,-5.0,0.0,0.0,0.4025584247103152
5.58,-1.0640394480023418,-0.0011705260390671623,-5.0,0.0,0.0,0.4019478013211593
5.59,-1.0412098913805838,-0.0011454117535617747,-5.0,0.0,0.0,0.4013503656597553
5.6000000000000005,-1.0188731735711163,-0.001120839629029772,-5.0,0.0,0.0,0.4007658272913961
5.61,-0.9970184514690497,-0.001096797737213568,-5.0,0.0,0.0,0.40019390245859876
5.62,-0.9756351307734168,-0.0010732744235592167,-5.0,0.0,0.0,0.39963431391492227
5.63,-0.9547128598155463,-0.0010502583004271427,-5.0,0.0,0.0,0.3990867907634741
5.64,-0.9342415235601403,-0.0010277382404928613,-5.0,0.0,0.0,0.3985510682999177
5.65,-0.9142112377734394,-0.0010057033703315074,-5.0,0.0,0.0,0.39802688785982926
5.66,-0.8946123433530697,-0.000984143064180226,-5.0,0.0,0.0,0.3975139966703643
5.67,-0.8754354008143724,-0.0009630469378727074,-5.0,0.0,0.0,0.3970121477059255
5.68,-0.8566711849282056,-0.0009424048429403514,-5.0,0.0,0.0,0.3965210995478553
5.69,-0.8383106795054005,-0.0009222068608747656,-5.0,0.0,0.0,0.3960406162479484
5.7,-0.8203450723232266,-0.0009024432975464818,-5.0,0.0,0.0,0.39557046719568034
5.71,-0.8027657501893961,-0.0008831046777749776,-5.0,0.0,0.0,0.3951104269890341
5.72,-0.7855642941392978,-0.000864181740045262,-5.0,0.0,0.0,0.3946602753087925
5.73,-0.7687324747623117,-0.0008456654313664561,-5.0,0.0,0.0,0.3942197967962839
5.74,-0.7522622476531986,-0.000827546902267971,-5.0,0.0,0.0,0.39378878093429215
5.75,-0.7361457489847147,-0.0008098175019290372,-5.0,0.0,0.0,0.3933670219312131
5.76,-0.7203752911977253,-0.000792468773437497,-5.0,0.0,0.0,0.3929543186082943
5.7700000000000005,-0.7049433588052368,-0.000775492449173914,-5.0,0.0,0.0,0.39255047428979506
5.78,-0.6898426043068872,-0.0007588804463171928,-5.0,0.0,0.0,0.39215529669607824
5.79,-0.675065844210555,-0.0007426248624680429,-5.0,0.0,0.0,0.3917685978395099
5.8,-0.6606060551578723,-0.0007267179713867394,-5.0,0.0,0.0,0.3913901939230629
5.8100000000000005,-0.6464563701505283,-0.0007111522188417662,-5.0,0.0,0.0,0.3910199052415514
5.82,-0.6326100748743712,-0.0006959202185660406,-5.0,0.0,0.0,0.3906575560854389
5.83,-0.6190606041184056,-0.0006810147483175336,-5.0,0.0,0.0,0.39030297464713737
5.84,-0.6058015382858936,-0.0006664287460412092,-5.0,0.0,0.0,0.38995599292969174
5.8500000000000005,-0.5928265999948583,-0.0006521553061293151,-5.0,0.0,0.0,0.3896164466578147
5.86,-0.5801296507653795,-0.0006381876757771499,-5.0,0.0,0.0,0.3892841751912078
5.87,-0.5677046877911627,-0.0006245192514315384,-5.0,0.0,0.0,0.3889590214400705
5.88,-0.5555458407929447,-0.0006111435753293338,-5.0,0.0,0.0,0.3886408317827502
5.89,-0.5436473689513829,-0.0005980543321233576,-5.0,0.0,0.0,0.3883294559854845
5.9,-0.5320036579171524,-0.0005852453455932732,-5.0,0.0,0.0,0.3880247471241446
5.91,-0.5206092168960492,-0.0005727105754389743,-5.0,0.0,0.0,0.38772656150799506
5.92,-0.5094586758069751,-0.0005604441141541472,-5.0,0.0,0.0,0.38743475860525384
5.93,-0.4985467825107438,-0.0005484401839777418,-5.0,0.0,0.0,0.3871492009706284
5.94,-0.4878684001077192,-0.000536693133921164,-5.0,0.0,0.0,0.38686975417455705
5.95,-0.47741850430235977,-0.0005251974368690702,-5.0,0.0,0.0,0.38659628673428054
5.96,-0.4671921808328047,-0.0005139476867517123,-5.0,0.0,0.0,0.38632867004653604
5.97,-0.45718462296369994,-0.000502938595786851,-5.0,0.0,0.0,0.3860667783219785
5.98,-0.44739112904051587,-0.000492164991789316,-5.0,0.0,0.0,0.3858104885211587
5.99,-0.43780710010366825,-0.00048162181554635343,-5.0,0.0,0.0,0.38555968029209214
6.0,-0.428428037560805,-0.0004713041182569605,-5.0,0.0,0.0,0.385314235909332
6.01,-0.41924954091567307,-0.00046120705903346273,-5.0,0.0,0.0,0.38507404021457026
6.0200000000000005,-0.4102673055520311,-0.00045132590246364573,-5.0,0.0,0.0,0.3848389805586106
6.03,-0.40147712057111945,-0.0004416560162318041,-5.0,0.0,0.0,0.38460894674477497
6.04,-0.39287486668124677,-0.00043219286879712303,-5.0,0.0,0.0,0.3843838309736955
6.05,-0.38445651413809606,-0.0004229320271278549,-5.0,0.0,0.0,0.3841635277894144
6.0600000000000005,-0.3762181207343971,-0.0004138691544898025,-4.894338728921819,0.0,0.0,0.38325749665739733
6.07,-0.3681570221213296,-0.0004050013198923178,-4.780051397539382,0.0,0.0,0.3822997387382407
6.08,-0.36026947090009787,-0.0003963244009056568,-4.6684773229397605,0.0,0.0,0.3812431544636282
6.09,-0.3525518747421198,-0.00038783444568935536,-4.559555558461128,0.0,0.0,0.38011719513763936
6.1000000000000005,-0.34500066261616497,-0.0003795275258316901,-4.453225034202047,0.0,0.0,0.37901751828971236
6.11,-0.3376121825908174,-0.00037139962392445,-4.349421825613127,0.0,0.0,0.3779434887962943
6.12,-0.3303828660575559,-0.00036344681422108017,-4.248083689017492,0.0,0.0,0.3768944878623333
6.13,-0.3233092256880871,-0.00035566526038958947,-4.1491500127182315,0.0,0.0,0.37586991255742486
6.140000000000001,-0.3163878534477418,-0.0003480512133271322,-4.052561769735672,0.0,0.0,0.3748691753671284
6.15,-0.309615418663157,-0.0003406010090343086,-3.958261472111281,0.0,0.0,0.3738917037588288
6.16,-0.30298866614253006,-0.00033331106654729787,-3.866193126717791,0.0,0.0,0.3729369397615325
6.17,-0.29650441434679436,-0.00032617788592600956,-3.7763021925178513,0.0,0.0,0.3720043395591753
6.18,-0.2901595536101258,-0.00031919804629650263,-3.6885355392160237,0.0,0.0,0.3710933730968512
6.19,-0.28395104440824737,-0.00031236820394598585,-3.6028414072513866,0.0,0.0,0.3702035236995481
6.2,-0.27787591567305525,-0.00030568509046877596,-3.5191693690803048,0.0,0.0,0.3693342877028576
6.21,-0.27193126315214133,-0.00029914551096164415,-3.437470291701094,0.0,0.0,0.3684851740953207
6.22,-0.266114247811838,-0.00029274634226704216,-3.3576963003744185,0.0,0.0,0.3676557041718594
6.23,-0.2604220942824621,-0.0002864845312627495,-3.279800743495205,0.0,0.0,0.3668454111980398
6.24,-0.254852089344478,-0.0002803570931965353,-3.20373815857377,0.0,0.0,0.36605384008461234
6.25,-0.24940158045434846,-0.0002743611100644798,-3.129464239285638,0.0,0.0,0.36528054707210966
6.26,-0.24406797430888236,-0.0002684937290316452,-3.0569358035512213,0.0,0.0,0.3645250994250333
6.2700000000000005,-0.2388487354469309,-0.0002627521608938331,-2.9861107626081917,0.0,0.0,0.363787075135396
6.28,-0.23374138488732324,-0.00025713367857920763,-2.9169480910408865,0.0,0.0,0.3630660626351729
6.29,-0.22874349880197156,-0.0002516356156886081,-2.849407797732594,0.0,0.0,0.36236166051742846
6.3,-0.2238527072231104,-0.00024625536507341217,-2.78345089770796,0.0,0.0,0.3616734772658269
6.3100000000000005,-0.21906669278367263,-0.00024099037744985087,-2.7190393848340944,0.0,0.0,0.3610011309921688
6.32,-0.21438318948983606,-0.00023583816004871513,-2.6561362053502426,0.0,0.0,0.36034424918172014
6.33,-0.2097999815248091,-0.0002307962752994269,-2.5947052321971116,0.0,0.0,0.35970246844608783
6.34,-0.20531490208295397,-0.00022586233954748408,-2.534711240118091,0.0,0.0,0.3590754342833441
6.3500000000000005,-0.20092583223337596,-0.00022103402180432053,-2.4761198815057255,0.0,0.0,0.35846280084517984
6.36,-0.19663069981213774,-0.0002163090425286557,-2.41889766296787,0.0,0.0,0.357864230710848
6.37,-0.19242747834228283,-0.00021168517243843653,-2.363011922588945,0.0,0.0,0.35727939466761727
6.38,-0.18831418598088223,-0.0002071602313525071,-2.308430807862705,0.0,0.0,0.35670797149761874
6.390000000000001,-0.18428888449234135,-0.0002027320870611664,-2.2551232542738355,0.0,0.0,0.35614964777088853
6.4,-0.18034967824723047,-0.00019839865422480402,-2.203058964506583,0.0,0.0,0.3555558638150879
6.41,-0.17649475579143545,-0.00019415794010319476,-2.152209423102991,0.0,0.0,0.3549393761768013
6.42,-0.1727223317163175,-0.00019000798060815952,-2.102546473001168,0.0,0.0,0.3543370358164558
6.43,-0.16903062659210935,-0.00018594681822874196,-2.0540418405973697,0.0,0.0,0.35374851160113946
6.44,-0.16541790016483013,-0.00018197253855039392,-2.0066679523752735,0.0,0.0,0.35317348044085156
6.45,-0.16188245045608654,-0.0001780832692646863,-1.9603979163847565,0.0,0.0,0.3526116270800902
6.46,-0.15842261288520673,-0.0001742771792035885,-1.915205504263173,0.0,0.0,0.3520626438953693
6.47,-0.15503675941308506,-0.00017055247739763098,-1.87106513378098,0.0,0.0,0.35152623069856587
6.48,-0.15172329770713588,-0.00016690741215728955,-1.8279518518942675,0.0,0.0,0.35100209454587145
6.49,-0.14848067032677326,-0.00016334027017694987,-1.7858413182874153,0.0,0.0,0.3504899495521099
6.5,-0.1453073539288526,-0.00015984937566083156,-1.7447097893897445,0.0,0.0,0.34998951671028916
6.51,-0.1422018584925277,-0.00015643308947027059,-1.7045341028506282,0.0,0.0,0.34950052371628343
6.5200000000000005,-0.13916272656299353,-0.00015308980829177772,-1.6652916624581369,0.0,0.0,0.34902270479833725
6.53,-0.136188532513603,-0.0001498179638253096,-1.626960423486827,0.0,0.0,0.34855580055139873
6.54,-0.13327788182585992,-0.00014661602199220522,-1.5895188784608407,0.0,0.0,0.34809955777598284
6.55,-0.13042941038680758,-0.0001434824821622585,-1.5529460433189821,0.0,0.0,0.34765372932152466
6.5600000000000005,-0.12764178380334615,-0.00014041587639941437,-1.5172214439689389,0.0,0.0,0.34721807393405896
6.57,-0.12491369673302685,-0.0001374147687255905,-1.482325103218281,0.0,0.0,0.3467923561080676
6.58,-0.12224387223088458,-0.00013447775440214203,-1.4482375280703255,0.0,0.0,0.34637634594234423
6.59,-0.11963106111188375,-0.000131603459228503,-1.4149396973733872,0.0,0.0,0.34596981899986967
6.6000000000000005,-0.11707404132856562,-0.00012879053885754966,-1.3824130498123486,0.0,0.0,0.34557255617137794
6.61,-0.114571617363497,-0.00012603767812724702,-1.3506394722318826,0.0,0.0,0.34518434354273936
6.62,-0.11212261963613272,-0.0001233435904081516,-1.3196012882810406,0.0,0.0,0.34480497226581786
6.63,-0.10972590392371596,-0.00012070701696635656,-1.2892812473692863,0.0,0.0,0.3444342384328616
6.640000000000001,-0.10738035079585077,-0.0001181267263414778,-1.2596625139244053,0.0,0.0,0.3440719429542136
6.65,-0.10508486506239333,-0.00011560151373929125,-1.2307286569430573,0.0,0.0,0.34371789143932036
6.66,-0.10283837523431769,-0.00011313020043864353,-1.2024636398250623,0.0,0.0,0.34337189408090124
6.67,-0.10063983299722236,-0.0001107116332122681,-1.174851810482821,0.0,0.0,0.34303376554217946
6.68,-0.09848821269715397,-0.00010834468376115152,-1.1478778917175692,0.0,0.0,0.3427033248470854
6.69,-0.0963825108384331,-0.00010602824816210269,-1.121526971854446,0.0,0.0,0.3423803952733869
6.7,-0.09432174559317705,-0.00010376124632818991,-1.0957844956286455,0.0,0.0,0.34206480424861263
6.71,-0.09230495632222273,-0.00010154262148171888,-1.0706362553151647,0.0,0.0,0.34175638324868074
6.72,-0.09033120310716156,-9.937133963943463e-05,-1.0460683820949312,0.0,0.0,0.34145496769920236
6.73,-0.08839956629320621,-9.724638910963953e-05,-1.0220673376503338,0.0,0.0,0.34116039687936117
6.74,-0.08650914604261753,-9.516678000092812e-05,-0.9986199059834049,0.0,0.0,0.34087251382827266
6.75,-0.08465906189842679,-9.313154374224783e-05,-0.9757131854501443,0.0,0.0,0.34059116525376
6.76,-0.08284845235819677,-9.113973261400289e-05,-0.9533345810046757,0.0,0.0,0.34031620144351366
6.7700000000000005,-0.08107647445757195,-8.919041928992737e-05,-0.9314717966471482,0.0,0.0,0.3400474761785299
6.78,-0.07934230336337468,-8.728269638945928e-05,-0.9101128280694866,0.0,0.0,0.3397848466487607
6.79,-0.07764513197601196,-8.541567604035711e-05,-0.8892459554932934,0.0,0.0,0.33952817337092894
6.8,-0.07598417054096276,-8.35884894513058e-05,-0.8688597366943887,0.0,0.0,0.3392773201084755
6.8100000000000005,-0.07435864626912331,-8.180028649426696e-05,-0.848943000208652,0.0,0.0,0.3390321537934852
6.82,-0.07276780296579265,-8.005023529633425e-05,-0.8294848387140077,0.0,0.0,0.3387925444506753
6.83,-0.07121090066808836,-7.833752184086248e-05,-0.810474602583553,0.0,0.0,0.33855836512322557
6.84,-0.069687215290586,-7.666134957764347e-05,-0.7919018936049967,0.0,0.0,0.33832949180060085
6.8500000000000005,-0.0681960382789833,-7.502093904190978e-05,-0.7737565588617241,0.0,0.0,0.33810580334803425
6.86,-0.06673667627159462,-7.341552748195227e-05,-0.7560286847709549,0.0,0.0,0.3378871814379714
6.87,-0.06530845076848606,-7.184436849514308e-05,-0.738708591274603,0.0,0.0,0.3376735104830806
6.88,-0.06391069780806773,-7.030673167216199e-05,-0.7217868261785864,0.0,0.0,0.3374646775710372
6.890000000000001,-0.06254276765096366,-6.880190224922877e-05,-0.705254159636466,0.0,0.0,0.3372605724009103
6.9,-0.061204024470985094,-6.732918076814976e-05,-0.6891015787734227,0.0,0.0,0.33706108722114303
6.91,-0.05989384605303725,-6.588788274399193e-05,-0.6733202824467034,0.0,0.0,0.33686611676904876
6.92,-0.0586116234977945,-6.447733834020253e-05,-0.657901676138789,0.0,0.0,0.3366755582118529
6.93,-0.05735676093298258,-6.309689205099716e-05,-0.6428373669796493,0.0,0.0,0.3364893110892016
6.94,-0.05612867523111169,-6.174590239084427e-05,-0.6281191588945628,0.0,0.0,0.336307277257028
6.95,-0.05492679573350721,-6.0423741590877466e-05,-0.6137390478740851,0.0,0.0,0.33612936083288963
6.96,-0.05375056398048966,-5.9129795302072566e-05,-0.5996892173628563,0.0,0.0,0.3359554681425975
6.97,-0.05259943344755926,-5.786346230503002e-05,-0.5859620337640324,0.0,0.0,0.3357855076681768
6.98,-0.0514728692874435,-5.6624154226207325e-05,-0.5725500420562275,0.0,0.0,0.33561938999711777
6.99,-0.05037034807787061,-5.541129526045021e-05,-0.5594459615199436,0.0,0.0,0.3354570277728488
7.0,-0.049291357574934996,-5.422432189967541e-05,-0.5466426815705555,0.0,0.0,0.3352983356464455
7.01,-0.0482353964719239,-5.3062682667561296e-05,-0.5341332576950061,0.0,0.0,0.33514323022949377
7.0200000000000005,-0.047201974163478266,-5.192583786010651e-05,-0.5219109074894512,0.0,0.0,0.33499163004812776
7.03,-0.04619061051496373,-5.0813259291920166e-05,-0.5099690067951723,0.0,0.0,0.3348434554981683
7.04,-0.04520083563693103,-4.972443004811072e-05,-0.49830108593015743,0.0,0.0,0.3346986288013706
7.05,-0.04423218966454792,-4.865884424164402e-05,-0.48690082601382434,0.0,0.0,0.33455707396270745
7.0600000000000005,-0.04328422254188774,-4.761600677604389e-05,-0.47576205538243316,0.0,0.0,0.3344187167287293
7.07,-0.042356493810962806,-4.659543311331256e-05,-0.46487874609280827,0.0,0.0,0.3342834845468933
7.08,-0.04144857240539341,-4.5596649046950485e-05,-0.4542450105120566,0.0,0.0,0.3341513065258689
7.09,-0.040560036448605896,-4.461919047995856e-05,-0.4438550979910368,0.0,0.0,0.33402211339686355
7.1000000000000005,-0.039690473056456115,-4.3662603207708626e-05,-0.43370339161939664,0.0,0.0,0.3338314752112074
7.11,-0.03883949210368101,-4.272645806210943e-05,-0.4237846769097811,0.0,0.0,0.3336301487884063
7.12,-0.03800670015565507,-4.181032223451398e-05,-0.41409363223959755,0.0,0.0,0.33343339833852004
7.13,-0.037191708813405715,-4.091376845588465e-05,-0.40462499438520183,0.0,0.0,0.33324111915420707
7.140000000000001,-0.03639413800039677,-4.0036378612510275e-05,-0.395373623478165,0.0,0.0,0.33305320895590546
7.15,-0.03561361578201497,-3.917774354742727e-05,-0.38633450003871433,0.0,0.0,0.3328695678341401
7.16,-0.03484977818908384,-3.833746286627127e-05,-0.3775027220838827,0.0,0.0,0.3326900981932352
7.17,-0.03410226904531027,-3.751514474745483e-05,-0.3688735023083367,0.0,0.0,0.332514704696397
7.18,-0.03337073979857098,-3.671040575656956e-05,-0.360442165335917,0.0,0.0,0.3323432942121993
7.19,-0.03265484935594913,-3.59228706649135e-05,-0.3522041450399801,0.0,0.0,0.332175775762386
7.2,-0.031954263922433,-3.515217227204717e-05,-0.344154981930692,0.0,0.0,0.3320120604709158
7.21,-0.03126865684319147,-3.439795123228433e-05,-0.33629032060747704,0.0,0.0,0.3318520615143473
7.22,-0.030597708449342637,-3.3659855885025536e-05,-0.3286059072748788,0.0,0.0,0.33169569407335114
7.23,-0.02994110590713468,-3.293754208884528e-05,-0.3210975873201433,0.0,0.0,0.33154287528548987
7.24,-0.029298543070459402,-3.2230673059245525e-05,-0.31376130295088234,0.0,0.0,0.33139352419911394
7.25,-0.028669720336621577,-3.1538919209990726e-05,-0.3065930908912253,0.0,0.0,0.331247561728396
7.26,-0.028054344505288622,-3.086195799794152e-05,-0.2995890801349126,0.0,0.0,0.33110491060944397
7.2700000000000005,-0.02745212864054731,-3.0199473771306437e-05,-0.29274548975383013,0.0,0.0,0.3309654953575463
7.28,-0.02686279193599601,-2.9551157621232827e-05,-0.2860586267605272,0.0,0.0,0.3308292422253688
7.29,-0.026286059582802612,-2.8916707236660375e-05,-0.27952488402330256,0.0,0.0,0.3306960791622501
7.3,-0.02572166264066015,-2.829582676236222e-05,-0.27314073823248464,0.0,0.0,0.33056593577442145
7.3100000000000005,-0.025169337911573785,-2.76882266601009e-05,-0.26690274791657,0.0,0.0,0.33043874328624084
7.32,-0.024628827816414386,-2.709362357282762e-05,-0.2608075515069245,0.0,0.0,0.33031443450233
7.33,-0.02409988027417565,-2.6511740191855776e-05,-0.2548518654497861,0.0,0.0,0.3301929437706489
7.34,-0.02358224858387315,-2.594230512694069e-05,-0.24903248236434594,0.0,0.0,0.3300742069464399
7.3500000000000005,-0.023075691309025172,-2.5385052779199578e-05,-0.24334626924571806,0.0,0.0,0.32995816135704936
7.36,-0.022579972164656924,-2.4839723216807405e-05,-0.23779016571164183,0.0,0.0,0.3298447457676278
7.37,-0.022094859906770712,-2.4306062053405475e-05,-0.2323611822917931,0.0,0.0,0.32973390034758615
7.38,-0.021620128224226452,-2.378382032916162e-05,-0.227056398758613,0.0,0.0,0.32962556663792186
7.390000000000001,-0.02115555563297798,-2.3272754394421908e-05,-0.22187296249859179,0.0,0.0,0.3295196875192957
7.4,-0.02070092537261205,-2.277262579589552e-05,-0.21680808692297623,0.0,0.0,0.3294162071808569
7.41,-0.020256025305138217,-2.2283201165315735e-05,-0.21185904991689655,0.0,0.0,0.32931507108988767
7.42,-0.01982064781597887,-2.1804252110521316e-05,-0.20702319232593747,0.0,0.0,0.3292162259620596
7.43,-0.019394589717110163,-2.133555510890397e-05,-0.20229791647920403,0.0,0.0,0.3291196197324993
7.44,-0.01897765215230547,-2.0876891403168813e-05,-0.19768068474795922,0.0,0.0,0.329025201527487
7.45,-0.018569640504434413,-2.0428046899356084e-05,-0.19316901813893578,0.0,0.0,0.32893292163686777
7.46,-0.01817036430477144,-1.9988812067073568e-05,-0.1887604949214486,0.0,0.0,0.32884273148705434
7.47,-0.017779637144269073,-1.9558981841890236e-05,-0.18445274928745842,0.0,0.0,0.32875458361474663
7.48,-0.017397276586752088,-1.9138355529843123e-05,-0.1802434700437594,0.0,0.0,0.3286684316412332
7.49,-0.01702310408398975,-1.8726736714010197e-05,-0.17613039933548746,0.0,0.0,0.3285842302473012
7.5,-0.01665694489260442,-1.832393316310335e-05,-0.17211133140016557,0.0,0.0,0.3285019351487476
7.51,-0.0162986279927757,-1.792975674203666e-05,-0.16818411135152453,0.0,0.0,0.32842150307247187
7.5200000000000005,-0.015947986008700274,-1.754402332442604e-05,-0.16434663399235852,0.0,0.0,0.3283334324201452
7.53,-0.015604856004751312,-1.7166553668426412e-05,-0.1605968577973356,0.0,0.0,0.3282244314922933
7.54,-0.015269079664174677,-1.6797173613311412e-05,-0.15693280798447748,0.0,0.0,0.3281179060821963
7.55,-0.014940499842019684,-1.6435710287429504e-05,-0.15335251703461059,0.0,0.0,0.32801379976319334
7.5600000000000005,-0.014618962749780178,-1.6081994511478826e-05,-0.1498540629299766,0.0,0.0,0.3279120574042484
7.57,-0.014304317883388278,-1.5735860719294724e-05,-0.1464355680864813,0.0,0.0,0.32781262513981385
7.58,-0.01399641795277458,-1.5397146880360517e-05,-0.1430951983116922,0.0,0.0,0.32771545034033966
7.59,-0.013695118812959735,-1.5065694424002866e-05,-0.1398311617879327,0.0,0.0,0.327620481583533
7.6000000000000005,-0.013400279396643015,-1.4741348165233967e-05,-0.13664170807983966,0.0,0.0,0.3275276686262849
7.61,-0.013111761648254356,-1.442395623220367e-05,-0.13352512716576728,0.0,0.0,0.32743696237730197
7.62,-0.012829430459437192,-1.4113369995225591e-05,-0.1304797484924377,0.0,0.0,0.32734831487031585
7.63,-0.012553153605930109,-1.3809443997342028e-05,-0.1275039400522552,0.0,0.0,0.32726167923802973
7.640000000000001,-0.01228280168581615,-1.3512035886393402e-05,-0.12459610748271548,0.0,0.0,0.3271770096865749
7.65,-0.012018248059109289,-1.3221006348558682e-05,-0.12175469318735836,0.0,0.0,0.3270942614706636
7.66,-0.01175936878864837,-1.293621904333412e-05,-0.11897817547772592,0.0,0.0,0.3270133908693051
7.67,-0.01150604258226942,-1.2657540539918323e-05,-0.11626506773580253,0.0,0.0,0.32693435516206776
7.68,-0.011258150736228028,-1.238484025497246e-05,-0.11361391759642836,0.0,0.0,0.3268571126059052
7.69,-0.011015577079844047,-1.2117990391725138e-05,-0.11102330614918973,0.0,0.0,0.3267816224125985
7.7,-0.010778207921341562,-1.1856865880392165e-05,-0.10849184715930442,0.0,0.0,0.3267078447266386
7.71,-0.010545931994857736,-1.1601344319882152e-05,-0.10601818630703176,0.0,0.0,0.326635740603715
7.72,-0.01031864040859465,-1.1351305920759533e-05,-0.10360100044515033,0.0,0.0,0.32656527198960034
7.73,-0.010096226594088998,-1.1106633449437259e-05,-0.10123899687405785,0.0,0.0,0.3264964016996723
7.74,-0.009878586256574935,-1.0867212173572102e-05,-0.09893091263405943,0.0,0.0,0.32642909339882675
7.75,-0.009665617326416041,-1.0632929808636031e-05,-0.09667551381442223,0.0,0.0,0.32636331158187065
7.76,-0.009457219911582899,-1.0403676465637851e-05,-0.09447159487878488,0.0,0.0,0.32629902155438556
7.7700000000000005,-0.009253296251153257,-1.0179344599969784e-05,-0.0923179780065213,0.0,0.0,0.32623618941405985
7.78,-0.00905375066981242,-9.95982896135435e-06,-0.0902135124496685,0.0,0.0,0.32617478203244393
7.79,-0.008858489533331815,-9.745026544867354e-06,-0.08815707390503867,0.0,0.0,0.32611476703710734
7.8,-0.008667421205004432,-9.534836543013452e-06,-0.08614756390114492,0.0,0.0,0.32605611279424906
7.8100000000000005,-0.008480456003016083,-9.329160298831258e-06,-0.08418390919958023,0.0,0.0,0.32599878839172153
7.82,-0.008297506158732064,-9.127901260005422e-06,-0.08226506121049802,0.0,0.0,0.3259427636224118
7.83,-0.008118485775879218,-8.930964933963713e-06,-0.08038999542185199,0.0,0.0,0.32588800896803644
7.84,-0.00794331079060384,-8.738258843937634e-06,-0.07855771084206162,0.0,0.0,0.3258344955833011
7.8500000000000005,-0.007771898932386307,-8.549692485965474e-06,-0.07676722945577813,0.0,0.0,0.3257821952804773
7.86,-0.0076041696857937855,-8.3651772868173e-06,-0.07501759569243414,0.0,0.0,0.3257310805142537
7.87,-0.007440044253052738,-8.184626562821832e-06,-0.07330787590726809,0.0,0.0,0.32568112436701185
7.88,-0.007279445517423398,-8.007955479575498e-06,-0.07163715787452271,0.0,0.0,0.32563230053442754
7.890000000000001,-0.0071222980073587785,-7.835081012514572e-06,-0.07000455029252396,0.0,0.0,0.32558458331138024
7.9,-0.00696852786143116,-7.665921908331585e-06,-0.06840918230035475,0.0,0.0,0.3255379475782221
7.91,-0.006818062794009381,-7.500398647217677e-06,-0.06685020300584442,0.0,0.0,0.3254923687873428
7.92,-0.0066708320616706744,-7.33843340591301e-06,-0.06532678102460267,0.0,0.0,0.32544782295008595
7.930000000000001,-0.006526766430331069,-7.179950021547652e-06,-0.06383810402983277,0.0,0.0,0.32540428662390125
7.94,-0.006385798143078849,-7.024873956255888e-06,-0.06238337831266582,0.0,0.0,0.32536173689986514
7.95,-0.0062478608886957785,-6.873132262547123e-06,-0.06096182835276458,0.0,0.0,0.3253201513904438
7.96,-0.0061128897708512715,-6.724653549417071e-06,-0.05957269639895088,0.0,0.0,0.3252795082175778
7.97,-0.005980821277954898,-6.579367949183176e-06,-0.05821524205961775,0.0,0.0,0.32523978600098413
7.98,-0.005851593253653038,-6.437207085028637e-06,-0.05688874190269246,0.0,0.0,0.32520096384679703
7.99,-0.005725144867955746,-6.298104039239716e-06,-0.05559248906492314,0.0,0.0,0.3251630213364306
8.0,-0.005601416588980231,-6.161993322121369e-06,-0.054325792870266634,0.0,0.0,0.3251259385157067
8.01,-0.005480350155297635,-6.028810841576565e-06,-0.05308797845716159,0.0,0.0,0.32508969588423714
8.02,-0.005361888548870121,-5.898493873334965e-06,-0.05187838641447513,0.0,0.0,0.325054274385059
8.03,-0.005245975968565529,-5.770981031816998e-06,-0.050696372425917596,0.0,0.0,0.3250196553944945
8.040000000000001,-0.005132557804237164,-5.646212241619608e-06,-0.049541306922724175,0.0,0.0,0.324985820712229
8.05,-0.0050215806113565594,-5.5241287096103305e-06,-0.048412574744407764,0.0,0.0,0.324952752551689
8.06,-0.0049129920861872905,-5.404672897616554e-06,-0.047309574807391674,0.0,0.0,0.32492043353055516
8.07,-0.004806741041488235,-5.287788495697218e-06,-0.04623171978133596,0.0,0.0,0.3248888466615236
8.08,-0.0047027773827348724,-5.1734203959843995e-06,-0.045178435772975464,0.0,0.0,0.3248579753433352
8.09,-0.00460105208484749,-5.0615146670825295e-06,-0.04414916201729199,0.0,0.0,0.3248278033519177
8.1,-0.004501517169415436,-4.952018529013304e-06,-0.043143350575847735,0.0,0.0,0.32479831483180943
8.11,-0.004404125682406733,-4.8448803286945244e-06,-0.042160466042110906,0.0,0.0,0.3247694942877348
8.120000000000001,-0.004308831672352659,-4.740049515941446e-06,-0.041199985253608865,0.0,0.0,0.3247413265763738
8.13,-0.004215590168997106,-4.637476619979415e-06,-0.040261397010748,0.0,0.0,0.32471379689837815
8.14,-0.004124357162400743,-4.537113226456815e-06,-0.03934420180214341,0.0,0.0,0.32468656669449375
8.15,-0.004035089590853656,-4.438911964148046e-06,-0.03844791166051024,0.0,0.0,0.32465916423953894
8.16,-0.003947745323376625,-4.342826485703559e-06,-0.037572049936404735,0.0,0.0,0.3246323826214056
8.17,-0.0038622831076747305,-4.248811410394789e-06,-0.03671615056053508,0.0,0.0,0.3246062077638037
8.18,-0.0037786625726775086,-4.156822326908516e-06,-0.035879758117560036,0.0,0.0,0.3245806259101406
8.19,-0.003696844209768434,-4.066815772697841e-06,-0.03506242760161964,0.0,0.0,0.32455562361623724
8.2,-0.0036167893544141226,-3.978749213772884e-06,-0.03426372417751724,0.0,0.0,0.3245311877432169
8.21,-0.003538460168184708,-3.892581024921798e-06,-0.033483222947420344,0.0,0.0,0.32450730545052775
8.22,-0.0034618196211569996,-3.808270470352879e-06,-0.03272050872295104,0.0,0.0,0.3244839641891904
8.23,-0.003386831474692257,-3.7257776847487775e-06,-0.03197517580253969,0.0,0.0,0.32446115169510814
8.24,-0.003313460264580556,-3.6450636547239943e-06,-0.03124682775391879,0.0,0.0,0.32443885598258654
8.25,-0.0032416712845439147,-3.5660902006770377e-06,-0.030535077201636736,0.0,0.0,0.32441706533803266
8.26,-0.003171430570090512,-3.4888199590288085e-06,-0.029839545619474175,0.0,0.0,0.3243957683137118
8.27,-0.0031027048827125016,-3.4132163648389686e-06,-0.029159863127648396,0.0,0.0,0.32437495372171843
8.28,-0.0030354616944200737,-3.339243634792206e-06,-0.028495668294694035,0.0,0.0,0.3243546106280613
8.290000000000001,-0.0029696691726045963,-3.2668667505465187e-06,-0.02784660794391083,0.0,0.0,0.3243347283468669
8.3,-0.0029052961652238046,-3.196051442435768e-06,-0.027212336964272082,0.0,0.0,0.32431529643477547
8.31,-0.0028423121863021665,-3.1267641735189557e-06,-0.02659251812568971,0.0,0.0,0.3242963046853628
8.32,-0.0027806874017397044,-3.058972123968827e-06,-0.02598682189853447,0.0,0.0,0.32427774312379903
8.33,-0.0027203926154226866,-2.9926431757925513e-06,-0.0253949262773122,0.0,0.0,0.3242596020015615
8.34,-0.0026613992556297587,-2.9277458978774112e-06,-0.02481651660839946,0.0,0.0,0.324241871791279
8.35,-0.0026036793617272122,-2.864249531354564e-06,-0.024251285421743974,0.0,0.0,0.3242245431817336
8.36,-0.002547205571147227,-2.802123975274097e-06,-0.023698932266437815,0.0,0.0,0.3242076070728981
8.370000000000001,-0.002491951106643059,-2.741339772584745e-06,-0.023159163550073282,0.0,0.0,0.3241910545711698
8.38,-0.002437889763815276,-2.681868096411779e-06,-0.022631692381793574,0.0,0.0,0.32417487698467934
8.39,-0.0023849958989032565,-2.623680736626708e-06,-0.02211623841895248,0.0,0.0,0.3241590658186685
8.4,-0.0023332444168363167,-2.5667500867025928e-06,-0.02161252771729933,0.0,0.0,0.32414361277105835
8.41,-0.002282610759538928,-2.511049130848871e-06,-0.021120292584607386,0.0,0.0,0.3241285097280245
8.42,-0.0022330708944846155,-2.4565514314197624e-06,-0.02063927143766585,0.0,0.0,0.3241137487597646
8.43,-0.0021846013034932522,-2.403231116590419e-06,-0.02016920866255748,0.0,0.0,0.32409932211626963
8.44,0.0,0.0,-0.019709854478145713,0.0,0.0,0.32316004784551783
8.45,0.0,0.0,-0.01926114242620001,0.0,0.0,0.31580302710564134
8.46,0.0,0.0,-0.018824026122544604,0.0,0.0,0.30863612865086526
8.47,0.0,0.0,-0.018398144250962385,0.0,0.0,0.30165342839046205
8.48,0.0,0.0,-0.017983149537360892,0.0,0.0,0.2948492324664477
8.49,0.0,0.0,-0.017578708076278097,0.0,0.0,0.28821806621105317
8.5,0.0,0.0,-0.017184498695933356,0.0,0.0,0.281754663736188
8.51,0.0,0.0,-0.016800212359271302,0.0,0.0,0.27545395811302875
8.52,0.0,0.0,-0.016425551598637792,0.0,0.0,0.2693110721030684
8.53,0.0,0.0,-0.016060229981902336,0.0,0.0,0.2633213094047122
8.540000000000001,0.0,0.0,-0.01570397160800222,0.0,0.0,0.2574801463822985
8.55,0.0,0.0,-0.015356510630031187,0.0,0.0,0.2517832242467213
8.56,0.0,0.0,-0.015017590804131125,0.0,0.0,0.24622634165912577
8.57,0.0,0.0,-0.014686965062569921,0.0,0.0,0.24080544773114845
8.58,0.0,0.0,-0.014364395109503394,0.0,0.0,0.23551663539709067
8.59,0.0,0.0,-0.014049651038024911,0.0,0.0,0.2303561351351123
8.6,0.0,0.0,-0.013742510967203577,0.0,0.0,0.22532030901615585
8.61,0.0,0.0,-0.013442760697901828,0.0,0.0,0.22040564506078966
8.620000000000001,0.0,0.0,-0.013150193386246019,0.0,0.0,0.21560875188547218
8.63,0.0,0.0,-0.012864609233700216,0.0,0.0,0.21092635362104195
8.64,0.0,0.0,-0.01258581519276416,0.0,0.0,0.20635528508738843
8.65,0.0,0.0,-0.012313624687381725,0.0,0.0,0.20189248720930394
8.66,0.0,0.0,-0.01204785734720681,0.0,0.0,0.19753500265953597
8.67,0.0,0.0,-0.01178833875492969,0.0,0.0,0.19327997171600064
8.68,0.0,0.0,-0.011534900205918738,0.0,0.0,0.1891246283208939
8.69,0.0,0.0,-0.011287378479480702,0.0,0.0,0.18506629633030394
8.700000000000001,0.0,0.0,-0.011045615621087392,0.0,0.0,0.1811023859436375
8.71,0.0,0.0,-0.010809458734958095,0.0,0.0,0.17723039030281573
8.72,0.0,0.0,-0.010578759786425727,0.0,0.0,0.1734478822519185
8.73,0.0,0.0,-0.010353375413550397,0.0,0.0,0.16975251124840343
8.74,0.0,0.0,-0.010133166747477558,0.0,0.0,0.16614200041774485
8.75,0.0,0.0,-0.009917999241068842,0.0,0.0,0.1626141437436673
8.76,0.0,0.0,-0.009707742505362616,0.0,0.0,0.15916680338678782
8.77,0.0,0.0,-0.009502270153448183,0.0,0.0,0.15579790712481079
8.78,0.0,0.0,-0.009301459651362672,0.0,0.0,0.15250544590781975
8.790000000000001,0.0,0.0,-0.009105192175643019,0.0,0.0,0.14928747152275354
8.8,0.0,0.0,-0.008913352477187345,0.0,0.0,0.14614209436127437
8.81,0.0,0.0,-0.008725828751100357,0.0,0.0,0.14306748128579025
8.82,0.0,0.0,-0.008542512512216481,0.0,0.0,0.1400618535885257
8.83,0.0,0.0,-0.008363298476012259,0.0,0.0,0.1371234850389976
8.84,0.0,0.0,-0.008188084444636146,0.0,0.0,0.13425070001536699
8.85,0.0,0.0,-0.008016771197799448,0.0,0.0,0.13144187171551036
8.86,0.0,0.0,-0.007849262388286706,0.0,0.0,0.1286954204438026
8.870000000000001,0.0,0.0,-0.00768546444185752,0.0,0.0,0.12600981196994412
8.88,0.0,0.0,-0.007525286461324512,0.0,0.0,0.12338355595622005
8.89,0.0,0.0,-0.007368640134604261,0.0,0.0,0.12081520444992909
8.9,0.0,0.0,-0.00721543964654912,0.0,0.0,0.1183033504377766
8.91,0.0,0.0,-0.00706560159437852,0.0,0.0,0.11584662645931434
8.92,0.0,0.0,-0.006919044906538178,0.0,0.0,0.11344370327654255
8.93,0.0,0.0,-0.006775690764824971,0.0,0.0,0.1110932885971098
8.94,0.0,0.0,-0.006635462529623949,0.0,0.0,0.10879412584849117
8.950000000000001,0.0,0.0,-0.00649828566811219,0.0,0.0,0.10654499300083196
8.96,0.0,0.0,-0.0063640876852919135,0.0,0.0,0.10434470143616849
8.97,0.0,0.0,-0.006232798057722524,0.0,0.0,0.1021920948619316
8.98,0.0,0.0,-0.006104348169828099,0.0,0.0,0.1000860482666233
8.99,0.0,0.0,-0.005978671252663278,0.0,0.0,0.09802546691585193
9.0,0.0,0.0,-0.005855702325026531,0.0,0.0,0.09600928538682696
