# uptake constraint 
# the columns are: t and the constraint for each substrate metabolites
# the compounds are: galactose, glucose, thiosulfate, butyrate, Fprau, Styphi,  
# the nominal flux is: -5.0, -5.0, -5.0, -5.0, -5.0, -5.0,  
# the initial concentration are: 35.0, 75.0, 97.0, 89.0, 0.8674906317523249, 0.6519310255799742,  

t,galactose,glucose,thiosulfate
0.0,-5.0,-5.0,-5.0
0.01,-5.0,-5.0,-5.0
0.02,-5.0,-5.0,-5.0
0.03,-5.0,-5.0,-5.0
0.04,-5.0,-5.0,-5.0
0.05,-5.0,-5.0,-5.0
0.06,-5.0,-5.0,-5.0
0.07,-5.0,-5.0,-5.0
0.08,-5.0,-5.0,-5.0
0.09,-5.0,-5.0,-5.0
0.1,-5.0,-5.0,-5.0
0.11,-5.0,-5.0,-5.0
0.12,-5.0,-5.0,-5.0
0.13,-5.0,-5.0,-5.0
0.14,-5.0,-5.0,-5.0
0.15,-5.0,-5.0,-5.0
0.16,-5.0,-5.0,-5.0
0.17,-5.0,-5.0,-5.0
0.18,-5.0,-5.0,-5.0
0.19,-5.0,-5.0,-5.0
0.2,-5.0,-5.0,-5.0
0.21,-5.0,-5.0,-5.0
0.22,-5.0,-5.0,-5.0
0.23,-5.0,-5.0,-5.0
0.24,-5.0,-5.0,-5.0
0.25,-5.0,-5.0,-5.0
0.26,-5.0,-5.0,-5.0
0.27,-5.0,-5.0,-5.0
0.28,-5.0,-5.0,-5.0
0.29,-5.0,-5.0,-5.0
0.3,-5.0,-5.0,-5.0
0.31,-5.0,-5.0,-5.0
0.32,-5.0,-5.0,-5.0
0.33,-5.0,-5.0,-5.0
0.34,-5.0,-5.0,-5.0
0.35000000000000003,-5.0,-5.0,-5.0
0.36,-5.0,-5.0,-5.0
0.37,-5.0,-5.0,-5.0
0.38,-5.0,-5.0,-5.0
0.39,-5.0,-5.0,-5.0
0.4,-5.0,-5.0,-5.0
0.41000000000000003,-5.0,-5.0,-5.0
0.42,-5.0,-5.0,-5.0
0.43,-5.0,-5.0,-5.0
0.44,-5.0,-5.0,-5.0
0.45,-5.0,-5.0,-5.0
0.46,-5.0,-5.0,-5.0
0.47000000000000003,-5.0,-5.0,-5.0
0.48,-5.0,-5.0,-5.0
0.49,-5.0,-5.0,-5.0
0.5,-5.0,-5.0,-5.0
0.51,-5.0,-5.0,-5.0
0.52,-5.0,-5.0,-5.0
0.53,-5.0,-5.0,-5.0
0.54,-5.0,-5.0,-5.0
0.55,-5.0,-5.0,-5.0
0.56,-5.0,-5.0,-5.0
0.5700000000000001,-5.0,-5.0,-5.0
0.58,-5.0,-5.0,-5.0
0.59,-5.0,-5.0,-5.0
0.6,-5.0,-5.0,-5.0
0.61,-5.0,-5.0,-5.0
0.62,-5.0,-5.0,-5.0
0.63,-5.0,-5.0,-5.0
0.64,-5.0,-5.0,-5.0
0.65,-5.0,-5.0,-5.0
0.66,-5.0,-5.0,-5.0
0.67,-5.0,-5.0,-5.0
0.68,-5.0,-5.0,-5.0
0.6900000000000001,-5.0,-5.0,-5.0
0.7000000000000001,-5.0,-5.0,-5.0
0.71,-5.0,-5.0,-5.0
0.72,-5.0,-5.0,-5.0
0.73,-5.0,-5.0,-5.0
0.74,-5.0,-5.0,-5.0
0.75,-5.0,-5.0,-5.0
0.76,-5.0,-5.0,-5.0
0.77,-5.0,-5.0,-5.0
0.78,-5.0,-5.0,-5.0
0.79,-5.0,-5.0,-5.0
0.8,-5.0,-5.0,-5.0
0.81,-5.0,-5.0,-5.0
0.8200000000000001,-5.0,-5.0,-5.0
0.8300000000000001,-5.0,-5.0,-5.0
0.84,-5.0,-5.0,-5.0
0.85,-5.0,-5.0,-5.0
0.86,-5.0,-5.0,-5.0
0.87,-5.0,-5.0,-5.0
0.88,-5.0,-5.0,-5.0
0.89,-5.0,-5.0,-5.0
0.9,-5.0,-5.0,-5.0
0.91,-5.0,-5.0,-5.0
0.92,-5.0,-5.0,-5.0
0.93,-5.0,-5.0,-5.0
0.9400000000000001,-5.0,-5.0,-5.0
0.9500000000000001,-5.0,-5.0,-5.0
0.96,-5.0,-5.0,-5.0
0.97,-5.0,-5.0,-5.0
0.98,-5.0,-5.0,-5.0
0.99,-5.0,-5.0,-5.0
1.0,-5.0,-5.0,-5.0
1.01,-5.0,-5.0,-5.0
1.02,-5.0,-5.0,-5.0
1.03,-5.0,-5.0,-5.0
1.04,-5.0,-5.0,-5.0
1.05,-5.0,-5.0,-5.0
1.06,-5.0,-5.0,-5.0
1.07,-5.0,-5.0,-5.0
1.08,-5.0,-5.0,-5.0
1.09,-5.0,-5.0,-5.0
1.1,-5.0,-5.0,-5.0
1.11,-5.0,-5.0,-5.0
1.12,-5.0,-5.0,-5.0
1.1300000000000001,-5.0,-5.0,-5.0
1.1400000000000001,-5.0,-5.0,-5.0
1.1500000000000001,-5.0,-5.0,-5.0
1.16,-5.0,-5.0,-5.0
1.17,-5.0,-5.0,-5.0
1.18,-5.0,-5.0,-5.0
1.19,-5.0,-5.0,-5.0
1.2,-5.0,-5.0,-5.0
1.21,-5.0,-5.0,-5.0
1.22,-5.0,-5.0,-5.0
1.23,-5.0,-5.0,-5.0
1.24,-5.0,-5.0,-5.0
1.25,-5.0,-5.0,-5.0
1.26,-5.0,-5.0,-5.0
1.27,-5.0,-5.0,-5.0
1.28,-5.0,-5.0,-5.0
1.29,-5.0,-5.0,-5.0
1.3,-5.0,-5.0,-5.0
1.31,-5.0,-5.0,-5.0
1.32,-5.0,-5.0,-5.0
1.33,-5.0,-5.0,-5.0
1.34,-5.0,-5.0,-5.0
1.35,-5.0,-5.0,-5.0
1.36,-5.0,-5.0,-5.0
1.37,-5.0,-5.0,-5.0
1.3800000000000001,-5.0,-5.0,-5.0
1.3900000000000001,-5.0,-5.0,-5.0
1.4000000000000001,-5.0,-5.0,-5.0
1.41,-5.0,-5.0,-5.0
1.42,-5.0,-5.0,-5.0
1.43,-5.0,-5.0,-5.0
1.44,-5.0,-5.0,-5.0
1.45,-5.0,-5.0,-5.0
1.46,-5.0,-5.0,-5.0
1.47,-5.0,-5.0,-5.0
1.48,-5.0,-5.0,-5.0
1.49,-5.0,-5.0,-5.0
1.5,-5.0,-5.0,-5.0
1.51,-5.0,-5.0,-5.0
1.52,-5.0,-5.0,-5.0
1.53,-5.0,-5.0,-5.0
1.54,-5.0,-5.0,-5.0
1.55,-5.0,-5.0,-5.0
1.56,-5.0,-5.0,-5.0
1.57,-5.0,-5.0,-5.0
1.58,-5.0,-5.0,-5.0
1.59,-5.0,-5.0,-5.0
1.6,-5.0,-5.0,-5.0
1.61,-5.0,-5.0,-5.0
1.62,-5.0,-5.0,-5.0
1.6300000000000001,-5.0,-5.0,-5.0
1.6400000000000001,-5.0,-5.0,-5.0
1.6500000000000001,-5.0,-5.0,-5.0
1.6600000000000001,-5.0,-5.0,-5.0
1.67,-5.0,-5.0,-5.0
1.68,-5.0,-5.0,-5.0
1.69,-5.0,-5.0,-5.0
1.7,-5.0,-5.0,-5.0
1.71,-5.0,-5.0,-5.0
1.72,-5.0,-5.0,-5.0
1.73,-5.0,-5.0,-5.0
1.74,-5.0,-5.0,-5.0
1.75,-5.0,-5.0,-5.0
1.76,-5.0,-5.0,-5.0
1.77,-5.0,-5.0,-5.0
1.78,-5.0,-5.0,-5.0
1.79,-5.0,-5.0,-5.0
1.8,-5.0,-5.0,-5.0
1.81,-5.0,-5.0,-5.0
1.82,-5.0,-5.0,-5.0
1.83,-5.0,-5.0,-5.0
1.84,-5.0,-5.0,-5.0
1.85,-5.0,-5.0,-5.0
1.86,-5.0,-5.0,-5.0
1.87,-5.0,-5.0,-5.0
1.8800000000000001,-5.0,-5.0,-5.0
1.8900000000000001,-5.0,-5.0,-5.0
1.9000000000000001,-5.0,-5.0,-5.0
1.9100000000000001,-5.0,-5.0,-5.0
1.92,-5.0,-5.0,-5.0
1.93,-5.0,-5.0,-5.0
1.94,-5.0,-5.0,-5.0
1.95,-5.0,-5.0,-5.0
1.96,-5.0,-5.0,-5.0
1.97,-5.0,-5.0,-5.0
1.98,-4.9036125044636645,-5.0,-5.0
1.99,-4.782770395417983,-5.0,-5.0
2.0,-4.665048493546818,-5.0,-5.0
2.0100000000000002,-4.550359031675941,-5.0,-5.0
2.02,-4.438617067874811,-5.0,-5.0
2.0300000000000002,-4.3297403773033185,-5.0,-5.0
2.04,-4.2236493490081175,-5.0,-5.0
2.05,-4.120266887403813,-5.0,-5.0
2.06,-4.01951831819034,-5.0,-5.0
2.07,-3.921331298472912,-5.0,-5.0
2.08,-3.825635730864928,-5.0,-5.0
2.09,-3.7323636813672447,-5.0,-5.0
2.1,-3.6414493008294957,-5.0,-5.0
2.11,-3.5528287498104674,-5.0,-5.0
2.12,-3.4664401266652147,-5.0,-5.0
2.13,-3.382223398696581,-5.0,-5.0
2.14,-3.300120336218056,-5.0,-5.0
2.15,-3.2200744493836577,-5.0,-5.0
2.16,-3.142030927648685,-5.0,-5.0
2.17,-3.0659365817328164,-5.0,-5.0
2.18,-2.9917397879642134,-5.0,-5.0
2.19,-2.9193904348900186,-5.0,-5.0
2.2,-2.8488398720449157,-5.0,-5.0
2.21,-2.7800408607753613,-5.0,-5.0
2.22,-2.712947527022645,-5.0,-5.0
2.23,-2.6475153159731573,-5.0,-5.0
2.24,-2.5837009484891436,-5.0,-5.0
2.25,-2.5214623792378403,-5.0,-5.0
2.2600000000000002,-2.460758756441227,-5.0,-5.0
2.27,-2.4015503831727054,-5.0,-5.0
2.2800000000000002,-2.343798680130847,-5.0,-5.0
2.29,-2.2874661498240045,-5.0,-5.0
2.3000000000000003,-2.2325163421029393,-5.0,-5.0
2.31,-2.1789138209818675,-5.0,-5.0
2.32,-2.1266241326913358,-5.0,-5.0
2.33,-2.0756137749092054,-5.0,-5.0
2.34,-2.025850167118695,-5.0,-5.0
2.35,-1.977301622045003,-5.0,-5.0
2.36,-1.9299373181244102,-5.0,-5.0
2.37,-1.8837272729620376,-5.0,-5.0
2.38,-1.8386423177365736,-5.0,-5.0
2.39,-1.7946540725123152,-5.0,-5.0
2.4,-1.7517349224207732,-5.0,-5.0
2.41,-1.7098579946759092,-5.0,-5.0
2.42,-1.668997136388776,-5.0,-5.0
2.43,-1.6291268931489695,-5.0,-5.0
2.44,-1.5902224883418152,-5.0,-5.0
2.45,-1.5522598031716766,-5.0,-5.0
2.46,-1.515215357363157,-5.0,-5.0
2.47,-1.4790662905132506,-5.0,-5.0
2.48,-1.4437903440687547,-5.0,-5.0
2.49,-1.409365843904419,-5.0,-5.0
2.5,-1.3757716834784208,-5.0,-5.0
2.5100000000000002,-1.3429873075428125,-5.0,-5.0
2.52,-1.3109926963875862,-5.0,-5.0
2.5300000000000002,-1.2797683505979585,-5.0,-5.0
2.54,-1.2492952763053735,-5.0,-5.0
2.5500000000000003,-1.2195549709135862,-5.0,-5.0
2.56,-1.1905294092819982,-5.0,-5.0
2.57,-1.1622010303492016,-5.0,-5.0
2.58,-1.1345527241804136,-5.0,-5.0
2.59,-1.1075678194231924,-5.0,-5.0
2.6,-1.0812300711564904,-5.0,-5.0
2.61,-1.055523649118732,-5.0,-5.0
2.62,-1.03043312630121,-5.0,-5.0
2.63,-1.0059434678936716,-5.0,-5.0
2.64,-0.9820400205695066,-5.0,-5.0
2.65,-0.9587085020984791,-5.0,-5.0
2.66,-0.9359349912754349,-5.0,-5.0
2.67,-0.913705918153896,-5.0,-5.0
2.68,-0.8920080545739001,-5.0,-5.0
2.69,-0.8708285049738796,-5.0,-5.0
2.7,-0.8501546974767806,-5.0,-5.0
2.71,-0.8299743752410158,-5.0,-5.0
2.72,-0.810275588067223,-5.0,-5.0
2.73,-0.7910466842521509,-5.0,-5.0
2.74,-0.7722763026813433,-5.0,-5.0
2.75,-0.7539533651526126,-5.0,-5.0
2.7600000000000002,-0.7360670689226052,-5.0,-5.0
2.77,-0.7186068794690648,-5.0,-5.0
2.7800000000000002,-0.7015625234616736,-5.0,-5.0
2.79,-0.6849239819346348,-5.0,-5.0
2.8000000000000003,-0.668681483654409,-5.0,-5.0
2.81,-0.6528254986762742,-5.0,-5.0
2.82,-0.6373467320836101,-5.0,-5.0
2.83,-0.6222361179040428,-5.0,-5.0
2.84,-0.6074848131967931,-5.0,-5.0
2.85,-0.5930841923057931,-5.0,-5.0
2.86,-0.579025841273323,-5.0,-5.0
2.87,-0.5653015524091222,-5.0,-5.0
2.88,-0.5519033190101031,-5.0,-5.0
2.89,-0.538823330225979,-5.0,-5.0
2.9,-0.5260539660662799,-5.0,-5.0
2.91,-0.5135877925443973,-5.0,-5.0
2.92,-0.5014175569544472,-5.0,-5.0
2.93,-0.4895361832768961,-5.0,-5.0
2.94,-0.4779367677090316,-5.0,-5.0
2.95,-0.46661257431650005,-5.0,-5.0
2.96,-0.45555703080226073,-5.0,-5.0
2.97,-0.44476372438943723,-5.0,-5.0
2.98,-0.434226397814662,-5.0,-5.0
2.99,-0.42393894542863175,-5.0,-5.0
3.0,-0.413895409400699,-5.0,-5.0
3.0100000000000002,-0.40408997602443364,-5.0,-5.0
3.02,-0.3945169721211919,-5.0,-5.0
3.0300000000000002,-0.38517086153882973,-5.0,-5.0
3.04,-0.3760462417427906,-5.0,-5.0
3.0500000000000003,-0.36713784049689197,-5.0,-5.0
3.06,-0.35844051263122095,-5.0,-5.0
3.0700000000000003,-0.3499492368946361,-5.0,-5.0
3.08,-0.3416591128894524,-5.0,-5.0
3.09,-0.3335653580859659,-5.0,-5.0
3.1,-0.32566330491455,-5.0,-5.0
3.11,-0.3179483979331279,-5.0,-5.0
3.12,-0.3104161910678967,-5.0,-5.0
3.13,-0.30306234492524464,-5.0,-5.0
3.14,-0.2958826241728697,-5.0,-5.0
3.15,-0.2888728949881692,-5.0,-5.0
3.16,-0.2820291225720323,-5.0,-5.0
3.17,-0.27534736872622284,-5.0,-5.0
3.18,-0.26882378949259855,-5.0,-5.0
3.19,-0.26245463285246645,-5.0,-5.0
3.2,-0.25623623648442495,-4.997788617920477,-5.0
3.21,-0.2501652028736869,-4.879375457100408,-5.0
3.22,-0.2442471237154837,-4.763945613676923,-5.0
3.23,-0.23847770107857186,-4.651415258164605,-5.0
3.24,-0.23285277898401224,-4.541703329802794,-5.0
3.25,-0.2273683377325107,-4.434731425912556,-5.0
3.2600000000000002,-0.2220204885034497,-4.330423696552893,-5.0
3.27,-0.21680546821046545,-4.22870674418076,-5.0
3.2800000000000002,-0.21171963459938198,-4.129509528038167,-5.0
3.29,-0.20675946157520458,-4.032763273006994,-5.0
3.3000000000000003,-0.20192153474570154,-3.9384013826882835,-5.0
3.31,-0.1972025471698743,-3.8463593564777905,-5.0
3.3200000000000003,-0.1925992953003332,-3.7565747104235934,-5.0
3.33,-0.18810867510926393,-3.668986901664569,-5.0
3.34,-0.1837276783882926,-3.583537256260694,-5.0
3.35,-0.17945338921313922,-3.5001689002374796,-5.0
3.36,-0.17528298056449032,-3.4188266936773952,-5.0
3.37,-0.1712137110970285,-3.339457167701048,-5.0
3.38,-0.16724292204902907,-3.2620084641900555,-5.0
3.39,-0.16336803428537608,-3.186430278112219,-5.0
3.4,-0.15958654546726264,-3.1126738023176266,-5.0
3.41,-0.1558960273422285,-3.0406916746818813,-5.0
3.42,-0.1522941231485476,-2.9704379274796873,-5.0
3.43,-0.1487785451283191,-2.90186793887865,-5.0
3.44,-0.145347072143931,-2.834938386449329,-5.0
3.45,-0.14199754739286521,-2.769607202593383,-5.0
3.46,-0.138727876216089,-2.7058335317971056,-5.0
3.47,-0.13553602399554268,-2.643577689622729,-5.0
3.48,-0.1324200141364764,-2.5828011233546873,-5.0
3.49,-0.12937792613062135,-2.523466374222517,-5.0
3.5,-0.12640789369639616,-2.4655370411263076,-5.0
3.5100000000000002,-0.12350810299255374,-2.408977745794571,-5.0
3.52,-0.12067679090186498,-2.3537540993081576,-5.0
3.5300000000000002,-0.11791224338161556,-2.2998326699273344,-5.0
3.54,-0.11521279387786157,-2.2471809521624557,-5.0
3.5500000000000003,-0.11257682180055005,-2.1957673370317767,-5.0
3.56,-0.11000275105675882,-2.1455610834528698,-5.0
3.5700000000000003,-0.10748904863945374,-2.096532290716874,-5.0
3.58,-0.10503422326929296,-2.0486518719974174,-5.0
3.59,-0.10263682408713454,-2.001891528848483,-5.0
3.6,-0.10029543939502196,-1.9562237266478184,-5.0
3.61,-0.09800869544353391,-1.9116216709446623,-5.0
3.62,-0.09577525526349039,-1.868059284672624,-5.0
3.63,-0.09359381754010676,-1.8255111861904967,-5.0
3.64,-0.09146311552778162,-1.7839526681156104,-5.0
3.65,-0.08938191600379303,-1.743359676916085,-5.0
3.66,-0.08734901825926213,-1.7037087932299664,-5.0
3.67,-0.08536325312582235,-1.6649772128807838,-5.0
3.68,-0.0834234820365075,-1.6271427285605373,-5.0
3.69,-0.08152859611944345,-1.5901837121525042,-5.0
3.7,-0.07967751532299527,-1.554079097667573,-5.0
3.71,-0.07786918757108535,-1.5188083647690491,-5.0
3.72,-0.0761025879474584,-1.4843515228620614,-5.0
3.73,-0.07437671790772658,-1.4506890957248053,-5.0
3.74,-0.07269060451808179,-1.4178021066599225,-5.0
3.75,-0.07104329971961404,-1.3856720641453137,-5.0
3.7600000000000002,-0.0694338796172228,-1.3542809479646316,-5.0
3.77,-0.0678614437921554,-1.3236111957986068,-5.0
3.7800000000000002,-0.06632511463724915,-1.2936456902592033,-5.0
3.79,-0.06482403671399666,-1.2643677463494276,-5.0
3.8000000000000003,-0.06335737613059231,-1.2357610993323638,-5.0
3.81,-0.061924319940156104,-1.2078098929937633,-5.0
3.8200000000000003,-0.060524075558366044,-1.1804986682831913,-5.0
3.83,-0.05915587019976471,-1.1538123523194022,-5.0
3.84,-0.05781895033203731,-1.1277362477462463,-5.0
3.85,-0.05651258114758935,-1.102256022425996,-5.0
3.86,-0.05523604605178102,-1.0773576994575556,-5.0
3.87,-0.053988646167203315,-1.0530276475075586,-5.0
3.88,-0.05276969985340662,-1.0292525714428602,-5.0
3.89,-0.05157854224151841,-1.0060195032534351,-5.0
3.9,-0.05041452478320967,-0.9833157932551435,-5.0
3.91,-0.04927701481349312,-0.9611291015622765,-5.0
3.92,-0.04816539512685721,-0.9394473898202178,-5.0
3.93,-0.047079063566261306,-0.9182589131889511,-5.0
3.94,-0.04601743262453628,-0.8975522125685335,-5.0
3.95,-0.04497992905775395,-0.8773161070580163,-5.0
3.96,-0.04396599351014666,-0.8575396866396471,-5.0
3.97,-0.042975080150175045,-0.838212305080511,-5.0
3.98,-0.04200665631735834,-0.8193235730440942,-5.0
3.99,-0.04106020217949747,-0.8008633514045514,-5.0
4.0,-0.04013521039993521,-0.7828217447567452,-5.0
4.01,-0.03923118581451254,-0.7651890951154042,-5.0
4.0200000000000005,-0.038347645117893465,-0.7479559757970101,-5.0
4.03,-0.03748411655894324,-0.7311131854782682,-5.0
4.04,-0.03664013964485786,-0.7146517424252675,-5.0
4.05,-0.0358152648537537,-0.6985628788876528,-5.0
4.0600000000000005,-0.03500905335543801,-0.682838035652361,-5.0
4.07,-0.03422107674009132,-0.6674688567516766,-5.0
4.08,-0.03345091675460327,-0.6524471843205648,-5.0
4.09,-0.03269816504631328,-0.6377650535984309,-5.0
4.1,-0.03196242291391652,-0.6234146880706398,-5.0
4.11,-0.031243301065305092,-0.6093884947452995,-5.0
4.12,-0.030540419382122545,-0.5956790595609905,-5.0
4.13,-0.029853406690818412,-0.582279142921271,-5.0
4.14,-0.02918190053999699,-0.569181675351953,-5.0
4.15,-0.028525546983862546,-0.5563797532772828,-5.0
4.16,-0.02788400037156997,-0.543866634911309,-5.0
4.17,-0.02725692314229716,-0.5316357362608473,-5.0
4.18,-0.026643985625861833,-0.5196806272365891,-5.0
4.19,-0.026044865848711993,-0.5079950278690206,-5.0
4.2,-0.025459249345125258,-0.49657280462593895,-5.0
4.21,-0.02488682897345825,-0.4854079668284674,-5.0
4.22,-0.0243273047372927,-0.4744946631625793,-5.0
4.23,-0.023780383611330492,-0.4638271782832487,-5.0
4.24,-0.023245779371894888,-0.4533999295084421,-5.0
4.25,-0.02272321243190024,-0.4432074636002663,-5.0
4.26,-0.022212409680157252,-0.4332444536306801,-5.0
4.2700000000000005,-0.021713104324885286,-0.4235056959292624,-5.0
4.28,-0.02122503574130794,-0.41398610711062284,-5.0
4.29,-0.02074794932321189,-0.40468072117911424,-5.0
4.3,-0.020281596338353473,-0.39558468670859426,-5.0
4.3100000000000005,-0.01982573378760108,-0.3866932640950523,-5.0
4.32,-0.01938012426770538,-0.37800182287999573,-5.0
4.33,-0.018944535837592855,-0.3695058391425568,-5.0
4.34,-0.018518741888081638,-0.36120089295835106,-5.0
4.3500000000000005,-0.018102521014922088,-0.3530826659231825,-5.0
4.36,-0.017695656895067517,-0.34514693873975183,-5.0
4.37,-0.017297938166083736,-0.3373895888655869,-5.0
4.38,-0.016909158308609062,-0.3298065882204702,-5.0
4.39,-0.01652911553177918,-0.3223940009516951,-5.0
4.4,-0.016157612661534017,-0.3151479812555351,-5.0
4.41,-0.015794457031726616,-0.30806477125336396,-5.0
4.42,-0.015439460377956214,-0.30114069892091144,-5.0
4.43,-0.015092438734050534,-0.29437217606919025,-5.0
4.44,-0.014753212331124437,-0.28775569637567433,-5.0
4.45,-0.01442160549914444,-0.28128783346435254,-5.0
4.46,-0.014097446570930794,-0.27496523903332665,-5.0
4.47,-0.013780567788530962,-0.2687846410286621,-5.0
4.48,-0.013470805211900352,-0.26274284186324126,-5.0
4.49,-0.013167998629828094,-0.25683671667940483,-5.0
4.5,-0.012871991473047672,-0.25106321165420853,-5.0
4.51,-0.01258263072947388,-0.24541934234615306,-5.0
4.5200000000000005,-0.01229976686150955,-0.2399021920822831,-5.0
4.53,-0.012023253725366978,-0.23450891038458366,-5.0
4.54,-0.011752948492350826,-0.22923671143463314,-5.0
4.55,-0.011488711572050746,-0.22408287257550533,-5.0
4.5600000000000005,-0.011230406537393553,-0.21904473284994097,-5.0
4.57,-0.010977900051506236,-0.21411969157383934,-4.968260365449051
4.58,-0.010731082006649377,-0.20930560113835964,-4.852389864454423
4.59,-0.010489882171863479,-0.20460109171581922,-4.739274481112796
4.6000000000000005,-0.010254169185738349,-0.20000360115275506,-4.628846283094198
4.61,-0.010023814922471709,-0.195510630404984,-4.521039124170775
4.62,-0.009798694404715666,-0.19111974183770714,-4.415788592202437
4.63,-0.009578685719096867,-0.18682855757776307,-4.313031958862233
4.64,-0.00936366993431471,-0.18263475791616515,-4.212708131033565
4.65,-0.009153531021725878,-0.17853607975913374,-4.114757603814448
4.66,-0.008948155778327358,-0.17453031512590958,-4.019122415066886
4.67,-0.008747433752053616,-0.1706153096917043,-3.925746101452198
4.68,-0.008551257169307056,-0.16678896137420982,-3.834573655895749
4.69,-0.00835952086464422,-0.1630492189621552,-3.7455514864270283
4.7,-0.00817212221254323,-0.15939408078445685,-3.658627376343345
4.71,-0.007988961061181023,-0.15582159341856905,-3.5737504456477076
4.72,-0.007809939668151742,-0.1523298504366962,-3.490871113713544
4.73,-0.0076349626380603774,-0.1489169911885808,-3.4099410631309723
4.74,-0.0074639368619283525,-0.14558119961963303,-3.330913204691256
4.75,-0.007296771458350218,-0.1423207031232147,-3.253741643467926
4.76,-0.007133377716343,-0.139133771425938,-3.1783816459547847
4.7700000000000005,-0.0069736690398320015,-0.1360187155048824,-3.1047896082226982
4.78,-0.00681756089371903,-0.1329738865356765,-3.032923025058647
4.79,-0.006664970751481099,-0.1299976748704308,-2.962740460052037
4.8,-0.006515818044249596,-0.12708850904454674,-2.894201516594706
4.8100000000000005,-0.006370024111321876,-0.12424485481146443,-2.827266809762435
4.82,-0.006227512152058963,-0.1214652142044458,-2.761897939047096
4.83,-0.006088207179124843,-0.11874812462452534,-2.698057461909794
4.84,-0.005952035973024465,-0.11609215795379127,-2.6357088681265877
4.8500000000000005,-0.005818927037899154,-0.11349591969319212,-2.5748165548994777
4.86,-0.0056888105585396745,-0.11095804812409332,-2.515345802706465
4.87,-0.0055616183585786225,-0.10847721349283598,-2.457262751865499
4.88,-0.005437283859825251,-0.10605211721757823,-2.4005343797881458
4.89,-0.005315742042707144,-0.1036814911167255,-2.3451284788997304
4.9,-0.005196931144648729,-0.10136413053514612,-2.291014606145411
4.91,-0.005080790700673048,-0.09909885612686714,-2.2381629821996145
4.92,-0.004967259847241776,-0.0968844807721304,-2.1865435470035863
4.93,-0.004856279149481553,-0.09471984521673489,-2.136126984416221
4.94,-0.004747790565723901,-0.09260381738040169,-2.086884702535988
4.95,-0.004641737413010842,-0.09053529168397416,-2.0387888145998323
4.96,-0.004538064333536278,-0.08851318839487034,-1.991812120439691
4.97,-0.004436717261994286,-0.08653645299022385,-1.9459280884780186
4.98,-0.0043376433938064765,-0.08460405553717086,-1.9011108382444382
4.99,-0.004240791154201574,-0.08271499008975935,-1.8573351233963091
5.0,-0.0041461101681213326,-0.08086827410197563,-1.8145763152266698
5.01,-0.004053551230927793,-0.07906294785640067,-1.772810386643627
5.0200000000000005,-0.003963066279887768,-0.07729807390802601,-1.732013896605884
5.03,-0.0038746083664112667,-0.07557273654277509,-1.6921639749996495
5.04,-0.003788131629021417,-0.07388604125029191,-1.6532383079427377
5.05,-0.003703591267034153,-0.0722371142105736,-1.61521512350219
5.0600000000000005,-0.00362094351492673,-0.0706251017940382,-1.5780731778122505
5.07,-0.0035401456173748207,-0.06904917007463293,-1.5417917415800126
5.08,-0.003461155804938633,-0.06750850435560125,-1.506350586966519
5.09,-0.003383933270379141,-0.06600230870754013,-1.4717299748315333
5.1000000000000005,-0.0033084381455861745,-0.06452980551839144,-1.4379106423306371
5.11,-0.0032346314791007027,-0.0630902350550227,-1.4048737908537003
5.12,-0.0031624752142142376,-0.0616828550360645,-1.3726010742941794
5.13,-0.0030919321676288487,-0.06030694021568224,-1.3410745876390553
5.14,-0.0030229660086618184,-0.05896178197797113,-1.3102768558695985
5.15,-0.0029555412389795014,-0.05764668794167281,-1.2801908231634807
5.16,-0.0028896231728454194,-0.05636098157492219,-1.2507998423890905
5.17,-0.002825177917868157,-0.055104001819742544,-1.2220876648832302
5.18,-0.002762172356235039,-0.053875102726015714,-1.1940384305036664
5.19,-0.002700574126418051,-0.052673653094663105,-1.1666366579483127
5.2,-0.002640351605338881,-0.05149903612978177,-1.139867235333093
5.21,-0.0025814738909803792,-0.05035064909948764,-1.113715411020812
5.22,-0.0025239107854321333,-0.04922790300522604,-1.0881667846936167
5.23,-0.00246763277835824,-0.04813022225931698,-1.0632072986618801
5.24,-0.002412611030875738,-0.04705704437051023,-1.0388232294025863
5.25,-0.0023588173598325032,-0.04600781963733172,-1.0150011793205147
5.26,-0.0023062242224737707,-0.04498201084901002,-0.9917280687257563
5.2700000000000005,-0.002254804701486778,-0.04397909299377788,-0.9689911280213003
5.28,-0.0022045324904133475,-0.0429985529743503,-0.9467778900946368
5.29,-0.002155381879420521,-0.04203988933038628,-0.9250761829075217
5.3,-0.0021073277414196873,-0.04110261196774774,-0.903874122278236
5.3100000000000005,-0.002060345518524899,-0.040186241894374274,-0.8831601048508602
5.32,-0.0020144112088413867,-0.03929031096259818,-0.862922801246255
5.33,-0.0019695013535755233,-0.03841436161772934,-0.843151149389618
5.34,-0.0019255930244577617,-0.0375579466527445,-0.8238343480096384
5.3500000000000005,-0.0018826638114703223,-0.03672062896892053,-0.8049618503044411
5.36,-0.0018406918108716443,-0.03590198134225601,-0.7865233577696572
5.37,-0.0017996556135098523,-0.03510158619552988,-0.7685088141841043
5.38,-0.001759534293417715,-0.03431903537585058,-0.7509083997487054
5.39,-0.0017203073966817904,-0.033553929937552976,-0.7337125253744059
5.4,-0.001681954930578671,-0.03280587993030507,-0.7169118271149864
5.41,-0.0016444573529714353,-0.032074504192289875,-0.7004971607407894
5.42,-0.0016077955619596203,-0.03135943014833214,-0.6844595964495035
5.43,-0.0015719508857762162,-0.030660293612843132,-0.6687904137102669
5.44,-0.0015369050729253707,-0.02997673859746039,-0.6534810962374642
5.45,-0.001502640282554667,-0.029308417123262723,-0.6385233270907024
5.46,-0.0014691390750560206,-0.028654989037444335,-0.6239089838975561
5.47,-0.001436384402889395,-0.028016121834334957,-0.6096301341957762
5.48,-0.0014043596016237144,-0.027391490480656328,-0.5956790308917542
5.49,-0.0013730483811894942,-0.026780777244908124,-0.5820481078321305
5.5,-0.0013424348173378712,-0.02618367153077966,-0.5687299754855261
5.51,-0.00131250334330086,-0.025599869714486398,-0.5557174167314691
5.5200000000000005,-0.001283238741647806,-0.02502907498593324,-0.5430033827536709
5.53,-0.00125462613633314,-0.024470997193609043,-0.5305809890348905
5.54,-0.0012266509849306806,-0.02392535269311969,-0.5184435114507097
5.55,-0.0011992990710498488,-0.023391864199269325,-0.5065843824596132
5.5600000000000005,-0.0011725564969293023,-0.022870260641602004,-0.4949971873868506
5.57,-0.001146409676203599,-0.022360277023318293,-0.48367566079962354
5.58,-0.0011208453268386311,-0.02186165428348366,-0.4726136829712159
5.59,-0.0010958504642316859,-0.021374139162447802,-0.4618052764317521
5.6000000000000005,-0.001071412394472087,-0.020897484070396086,-0.45124460260333354
5.61,-0.0010475187077584977,-0.02043144695895657,-0.4409259585173689
5.62,-0.0010241575982899347,-0.019975797560550443,-0.4308439397300063
5.63,-0.0010013175130102058,-0.01953031053728822,-0.42099326083034394
5.64,-0.0009789868000703616,-0.019094758624365916,-0.4113685770262999
5.65,-0.0009571540703073998,-0.018668919680567286,-0.40196466865797387
5.66,-0.0009358081912117004,-0.01825257657060096,-0.39277643819381725
5.67,-0.0009149382810382421,-0.017845517050242007,-0.3837989073022353
5.68,-0.0008945337030579344,-0.01744753365420641,-0.37502721399658095
5.69,-0.0008745840599455096,-0.017058423586689034,-0.3664566098515588
5.7,-0.0008550791883005128,-0.016677988614497697,-0.3580824572891217
5.71,-0.0008360091532980304,-0.016306034962717673,-0.34990022693199535
5.72,-0.0008173642434658867,-0.015942373212842944,-0.3419054950230246
5.73,-0.0007991349655851333,-0.01558681820331221,-0.33409394090858674
5.74,-0.0007813120397107378,-0.015239188932389366,-0.3264613445843712
5.75,-0.000763886394309473,-0.014899308463329897,-0.3190035843018728
5.76,-0.000746849161512079,-0.014567003831776145,-0.31171663423399454
5.7700000000000005,-0.00073019167247686,-0.014242105955326056,-0.30459656219820447
5.78,-0.0007139054528619491,-0.013924449545221458,-0.29763952743573385
5.79,-0.0006979822184035525,-0.013613873020103431,-0.2908417784453491
5.8,-0.0006824138705975564,-0.013310218421783714,-0.28419965087027155
5.8100000000000005,-0.00066719249248195,-0.013013331332982495,-0.2777095654368611
5.82,-0.000652310344517586,-0.012723060796984252,-0.27136802594371784
5.83,-0.0006377598605648693,-0.012439259239164608,-0.26517161729989464
5.84,-0.0006235336439540237,-0.012161782390342421,-0.259117003610952
5.8500000000000005,-0.0006096244636466554,-0.011890489211912545,-0.2532009263116203
5.86,-0.0005960252504863846,-0.011625241822715869,-0.24742020234387022
5.87,-0.0005827290935363841,-0.011365905427604414,-0.241771722379227
5.88,-0.0005697292365017128,-0.011112348247660341,-0.2362524490841943
5.89,-0.0005570190742343934,-0.010864441452028835,-0.23085941542768684
5.9,-0.0005445921493192331,-0.010622059091325858,-0.2255897230294015
5.91,-0.0005324421487384398,-0.010385078032582802,-0.2204405405480849
5.92,-0.0005205629006131388,-0.010153377895690997,-0.2154091021086854
5.93,-0.0005089483710199397,-0.009926840991310108,-0.21049270576740522
5.94,-0.0004975926608807554,-0.009705352260205252,-0.2056887120136942
5.95,-0.00048649000292411913,-0.009488799213978655,-0.20099454230825473
5.96,-0.0004756347587162893,-0.009277071877162509,-0.19640767765615058
5.97,-0.00046502141576048,-0.009070062730640588,-0.1919256572141388
5.98,-0.00045464458466259246,-0.008867666656366924,-0.18754607693136666
5.99,-0.00044449899636186686,-0.008669780883350759,-0.1832665882225991
6.0,-0.00043457949942491433,-0.00847630493487767,-0.17908489667316413
6.01,-0.0004248810574016257,-0.008287140576937612,-0.17499876077482604
6.0200000000000005,-0.0004153987462414943,-0.008102191767831272,-0.17100599069181735
6.03,-0.00040612775176892434,-0.007921364608926954,-0.16710444705627964
6.04,-0.00039706336721613404,-0.007744567296540799,-0.1632920397923854
6.05,-0.00038820104794145394,-0.007571711189196023,-0.15956675473324472
6.0600000000000005,-0.0003795363375636174,-0.007402709366900833,-0.15592661764166554
6.07,-0.0003710648283769194,-0.007237475859061432,-0.15236967506939897
6.08,-0.000362782211305217,-0.007075926618815452,-0.1488940187101276
6.09,-0.0003546842736749822,-0.006917979479596222,-0.14549778434160002
6.1000000000000005,-0.0003467668970396608,-0.006763554112697718,-0.142179150793214
6.11,-0.0003390260550541033,-0.006612571985816176,-0.13893633893840793
6.12,-0.0003314578113978734,-0.006464956322545015,-0.13576761071123541
6.13,-0.000324058317746264,-0.006320632062800294,-0.1326712681465164
6.140000000000001,-0.00031682381178788446,-0.006179525824154516,-0.12964565244297382
6.15,-0.00030975061528770937,-0.006041565864057151,-0.12668914304878112
6.16,-0.0003028351321945086,-0.0059066820429207875,-0.12380015676896106
6.17,-0.0002960738467916064,-0.0057748057880524,-0.12097714689409146
6.18,-0.0002894633218899412,-0.0056458700584096876,-0.11821860234978819
6.19,-0.00028300019706242686,-0.005519809310162967,-0.1155230468664493
6.2,-0.00027668118691863967,-0.005396559463043614,-0.11288903816875859
6.21,-0.00027050307941887903,-0.005276057867460471,-0.11031516718445955
6.22,-0.0002644627342266759,-0.005158243272366157,-0.10780005727192402
6.23,-0.00025855708109884403,-0.005043055793855642,-0.10534236346605207
6.24,-0.0002527831183121924,-0.0049304368844798885,-0.10294077174205214
6.25,-0.00024713791112604,-0.0048203293032577825,-0.10059399829666187
6.26,-0.0002416185902796922,-0.0047126770863700086,-0.09830078884638167
6.2700000000000005,-0.00023622235052406454,-0.0046074255185189275,-0.09605991794230483
6.28,-0.0002309464491866527,-0.0045045211049388805,-0.09387018830113743
6.29,-0.0002257882047690733,-0.004403911544041753,-0.09173043015201345
6.3,-0.00022074499557641505,-0.004305545700683017,-0.08963950059871939
6.3100000000000005,-0.00021581425837766135,-0.004209373580033772,-0.08759628299695346
6.32,-0.00021099348709646058,-0.004115346302044745,-0.08559968634625353
6.33,-0.0002062802315315408,-0.0040234160764884615,-0.08364864469623788
6.34,-0.00020167209610608082,-0.003933536178566218,-0.08174211656681145
6.3500000000000005,-0.00019716673864536693,-0.003845660925066748,-0.07987908438199962
6.36,-0.00019276186918208073,-0.003759745651063824,-0.07805855391707966
6.37,-0.00018845524878857952,-0.00367574668714034,-0.07627955375868889
6.38,-0.0001842446884355461,-0.003593621337126714,-0.07454113477759632
6.390000000000001,-0.00018012804787639945,-0.0035133278563417533,-0.07284236961383268
6.4,-0.00017610323455687278,-0.003434825430324394,-0.07118235217388168
6.41,-0.00017216820254917957,-0.0033580741540450245,-0.069560197139642
6.42,-0.00016832095151020224,-0.0032830350115853574,-0.06797503948887801
6.43,-0.0001645595256631515,-0.00320966985627609,-0.06642603402688338
6.44,-0.00016088201280215714,-0.0031379413912818307,-0.06491235492908902
6.45,-0.00015728654331926498,-0.0030678131506230544,-0.06343319529435335
6.46,-0.00015377128925332605,-0.0029992494806250517,-0.061987766708679795
6.47,-0.00015033446336027695,-0.002932215521784109,-0.060575298819112326
6.48,-0.00014697431820432212,-0.0028666771910413674,-0.059195038917566195
6.49,-0.00014368914526954004,-0.002802601164455048,-0.057846251534357344
6.5,-0.0001404772740914471,-0.002739954860261943,-0.05652821804119931
6.51,-0.00013733707140806364,-0.0026787064223192827,-0.05524023626344267
6.5200000000000005,-0.00013426694033003735,-0.0026188247039183165,-0.0539816201013372
6.53,-0.00013126531952938972,-0.0025602792519611264,-0.052751699160102736
6.54,-0.00012833068244646196,-0.0025030402914924133,-0.05154981838859974
6.55,-0.00012546153651464548,-0.0024470787105781663,-0.05037533772639564
6.5600000000000005,-0.00012265642240249334,-0.0023923660455233385,-0.049227631759028355
6.57,-0.00011991391327281743,-0.0023388744664208237,-0.04810608938127305
6.58,-0.0001172326140583853,-0.002286576763024206,-0.04701011346822275
6.59,-0.00011461116075384077,-0.0022354463309369435,-0.04593912055399853
6.6000000000000005,-0.00011204821972347963,-0.002185457158110801,-0.04489254051790907
6.61,-0.0001095424870245216,-0.0021365838116465326,-0.04386981627788393
6.62,-0.00010709268774552733,-0.00208880142488996,-0.04287040349100919
6.63,-0.00010469757535961752,-0.0020420856848167644,-0.041893770260998234
6.640000000000001,-0.00010235593109215984,-0.0019964128196994606,-0.040939396852434404
6.65,-0.00010006656330259546,-0.001951759587050166,-0.040006775411626484
6.66,-9.782830688008696e-05,-0.0019081032618329468,-0.039095409693921494
6.67,-9.564002316800896e-05,-0.001865421634991035,-0.038204815033867086
6.68,-9.350059870938796e-05,-0.0018236929889771183,-0.037334517773543095
6.69,-9.140894441211159e-05,-0.0017828960814710727,-0.03648405488491774
6.7,-8.936399543318963e-05,-0.001743010143122515,-0.03565297392214087
6.71,-8.736471063871763e-05,-0.001704014867017603,-0.03484083277881819
6.72,-8.541007207590496e-05,-0.0016658903983811485,-0.03404719945089234
6.73,-8.34990844568955e-05,-0.0016286173245087384,-0.03327165180499957
6.74,-8.163077465411495e-05,-0.001592176664923678,-0.03251377735217398
6.75,-7.980419120688536e-05,-0.0015565498617537022,-0.031773173026774085
6.76,-7.801840383905325e-05,-0.0015217187703224948,-0.03104944497050982
6.7700000000000005,-7.627250298738334e-05,-0.0014876656499511927,-0.030342208321450688
6.78,-7.45655993404759e-05,-0.0014543731549651472,-0.02965108700789886
6.79,-7.289682338797113e-05,-0.0014218243259013284,-0.02897571354701369
6.8,-7.12653249798091e-05,-0.0013900025809118635,-0.02831572884807682
6.8100000000000005,-6.96702728953199e-05,-0.0013588917073593051,-0.027670782020289712
6.82,-6.811085442192268e-05,-0.0013284758535993188,-0.027040530184998048
6.83,-6.658627494321825e-05,-0.00129873952094659,-0.026424638292239865
6.84,-6.509575753626423e-05,-0.0012696675558198313,-0.025822778941516855
6.8500000000000005,-6.363854257782711e-05,-0.0012412451420618805,-0.025234632206690588
6.86,-6.221388735940947e-05,-0.001213457793430956,-0.02465988546490767
6.87,-6.082106571085597e-05,-0.0011862913462592382,-0.02409823322946034
6.88,-5.945936763234588e-05,-0.001159731952275025,-0.02354937698649095
6.890000000000001,-5.812809893458404e-05,-0.0011337660715847956,-0.023013025035451204
6.9,-5.682658088700695e-05,-0.001108380465811608,-0.0224888923332289
6.91,-5.555414987382427e-05,-0.0010835621913863201,-0.02197670034185716
6.92,-5.4310157057720575e-05,-0.0010592985929882232,-0.02147617687972307
6.93,-5.309396805104595e-05,-0.0010355772971317415,-0.020987055976194574
6.94,-5.190496259432767e-05,-0.0010123862058959271,-0.020509077729586482
6.95,-5.074253424193966e-05,-0.0009897134907935652,-0.020041988168388154
6.96,-4.960609005476934e-05,-0.0009675475867767579,-0.019585539115677487
6.97,-4.9348288354445725e-05,-0.0009625192643925574,-0.019140046078296884
6.98,-4.909525330456199e-05,-0.0009575839136802834,-0.018706048195354208
6.99,-4.884683994700429e-05,-0.0009527387072880301,-0.01828318807356512
7.0,-4.8602908833036294e-05,-0.0009479809253221682,-0.017871122172951864
7.01,-4.8363325768515304e-05,-0.0009433079503778836,-0.017469520144192757
7.0200000000000005,-4.8127961573109455e-05,-0.0009387172628428016,-0.017078064203796282
7.03,-4.7896691852626394e-05,-0.0009342064364563465,-0.016696448544601956
7.04,-4.766939678362819e-05,-0.0009297731341087383,-0.016324378779296655
7.05,-4.744596090956516e-05,-0.0009254151038646624,-0.015961571414806353
7.0600000000000005,-4.722627294771617e-05,-0.0009211301751977142,-0.015607753355580182
7.07,-4.701022560627269e-05,-0.0009169162554226952,-0.015262661433928106
7.08,-4.6797715410949996e-05,-0.0009127713263137306,-0.014926041965706007
7.09,-4.6588642540550695e-05,-0.0009086934408970008,-0.014597650329763569
7.1000000000000005,-4.638291067094632e-05,-0.0009046807204076614,-0.01427725056968299
7.11,-4.618042682697703e-05,-0.0009007313514012053,-0.01396461501643937
7.12,-4.5981101241805154e-05,-0.0008968435830102077,-0.013659523930709346
7.13,-4.578484722328718e-05,-0.0008930157243379628,-0.013361765163641926
7.140000000000001,-4.559158102695913e-05,-0.0008892461419811137,-0.013071133834986948
7.15,-4.5401221735255646e-05,-0.0008855332576738665,-0.012787432027551185
7.16,-4.5213691142608546e-05,-0.0008818755460468832,-0.012510468497021605
7.17,-4.5028913646093084e-05,-0.0008782715324943779,-0.012240058396259199
7.18,-4.4846816141311336e-05,-0.0008747197911433638,-0.011976023013226138
7.19,-4.466732792322202e-05,-0.0008712189429193768,-0.011718189521763865
7.2,-4.4490380591644195e-05,-0.0008677676537033614,-0.011466390744490745
7.21,-4.431590796117929e-05,-0.0008643646325747352,-0.011220464927134913
7.22,-4.414384597531207e-05,-0.0008610086301359612,-0.010980255523662023
7.23,-4.397413262446541e-05,-0.0008576984369142381,-0.010745610991598008
7.24,-4.3806707867797575e-05,-0.0008544328818361865,-0.010516384596984868
7.25,-4.3641513558544104e-05,-0.0008512108307716705,-0.010292434228442771
7.26,-4.347849337271732e-05,-0.0008480311851431102,-0.010073622219844161
7.2700000000000005,-4.331759274098845e-05,-0.0008448928805968694,-0.009859815181136239
7.28,-4.315875878358739e-05,-0.0008417948857334981,-0.009650883836876366
7.29,-4.30019402480646e-05,-0.0008387362008938057,-0.009446702872071383
7.3,-4.284708744976955e-05,-0.0008357158569979134,-0.00924715078493652
7.3100000000000005,-4.269415221490725e-05,-0.0008327329144345954,-0.009052109746212378
7.32,-4.254308782604382e-05,-0.0008297864619983857,-0.008861465464700059
7.33,-4.239384896993828e-05,-0.000826875615872057,-0.008675107058694431
7.34,-4.22463916875852e-05,-0.0008239995186522224,-0.008492926933014214
7.3500000000000005,-4.210067332635963e-05,-0.0008211573384159407,-0.008314820661345132
7.36,-4.195665249416111e-05,-0.0008183482678263134,-0.00814068687362864
7.37,-4.181428901545989e-05,-0.0008155715232751823,-0.00797042714824403
7.38,-4.167354388915351e-05,-0.0008128263440611386,-0.007803945908746091
7.390000000000001,-4.153437924814719e-05,-0.0008101119916011553,-0.007641150324933921
7.4,-4.139675832057577e-05,-0.0008074277486742347,-0.007481950218038911
7.41,-4.126064539259011e-05,-0.0008047729186955719,-0.0073262579698319405
7.42,-4.112600577263389e-05,-0.0008021468250197884,-0.007173988435460614
7.43,-4.099280575714211e-05,-0.0007995488102718935,-0.007025058859837971
7.44,-4.0861012597594985e-05,-0.0007969782357046836,-0.006879388797413663
7.45,-4.073059446886497e-05,-0.000794434480581364,-0.0067369000351678076
7.46,-4.06015204387981e-05,-0.0007919169415822439,-0.006597516518676327
7.47,-4.047376043897348e-05,-0.0007894250322344112,-0.006461164281104607
7.48,-4.034728523658789e-05,-0.0007869581823633535,-0.006327771374993972
7.49,-4.022206640741502e-05,-0.0007845158375655383,-0.006197267806712499
7.5,-4.00980763097918e-05,-0.0007820974587010258,-0.006069585473448577
7.51,-3.997528805958606e-05,-0.0007797025214052233,-0.005944658102631757
7.5200000000000005,-3.985367550610283e-05,-0.0007773305156189469,-0.0058224211936716026
7.53,-3.9733213208888154e-05,-0.0007749809451359889,-0.005702811961910695
7.54,-3.961387641539142e-05,-0.0007726533271674297,-0.00558576928469331
7.55,-3.9495641039449395e-05,-0.0007703471919219781,-0.005471233649456323
7.5600000000000005,-3.937848364055688e-05,-0.0007680620822016526,-0.0053591471037535395
7.57,-3.926238140389015e-05,-0.0007657975530121468,-0.005249453207129068
7.58,-3.914731212105184e-05,-0.0007635531711872656,-0.005142096984759679
7.59,-3.903325417150666e-05,-0.0007613285150268365,-0.005037024882789933
7.6000000000000005,-3.8920186504679295e-05,-0.0007591231739475352,-0.004934184725287621
7.61,-3.880808862268691e-05,-0.000756936748146091,-0.004833525672750668
7.62,-3.869694056368015e-05,-0.0007547688482743579,-0.0047349981820999166
7.63,-3.858672288576763e-05,-0.0007526190951257695,-0.00463855396809541
7.640000000000001,-3.847741665150046e-05,-0.0007504871193327149,-0.004544145966116812
7.65,-3.836900341289359e-05,-0.0007483725610743857,-0.004451728296251325
7.66,-3.826146519696294e-05,-0.000746275069794684,-0.004361256228635315
7.67,-3.815478449175732e-05,-0.0007441943039297798,-0.004272686149998225
7.68,-3.804894423286578e-05,-0.0007421299306449415,-0.004185975531359909
7.69,-3.794392779038114e-05,-0.0007400816255802669,-0.004101082896834635
7.7,-3.783971895630248e-05,-0.0007380490726049707,-0.004017967793497372
7.71,-3.77363019323586e-05,-0.0007360319635798881,-0.003936590762269787
7.72,-3.763366131823698e-05,-0.0007340299981278839,-0.003856913309785558
7.73,-3.753178210020183e-05,-0.0007320428834118524,-0.0037788978811962473
7.74,-3.743064964008682e-05,-0.0007300703339200252,-0.0037025078338808735
7.75,-3.733024966464812e-05,-0.0007281120712583053,-0.0036277074120239115
7.76,-3.723056825526373e-05,-0.0007261678239493582,-0.003554461722028029
7.7700000000000005,-3.7131591837966534e-05,-0.0007242373272382089,-0.003482736708729394
7.78,-3.703330717379824e-05,-0.0007223203229041,-0.0034124991323847926
7.79,-3.6935701349472264e-05,-0.0007204165590783744,-0.003343716546401137
7.8,-3.683876176833438e-05,-0.0007185257900681672,-0.0032763572757792798
7.8100000000000005,-3.674247614160986e-05,-0.0007166477761856834,-0.0032103903962452055
7.82,-3.664683247992659e-05,-0.0007147822835828603,-0.003145785714042866
7.83,-3.655181908510443e-05,-0.0007129290840912224,-0.003082513746364066
7.84,-3.645742454220088e-05,-0.0007110879550667338,-0.0030205457023917935
7.8500000000000005,-3.636363771180378e-05,-0.000709258679239472,-0.002959853464934444
7.86,-3.627044772256251e-05,-0.000707441044567951,-0.0029004095726293143
7.87,-3.6177843963948785e-05,-0.0007056348440979231,-0.0028421872026946674
7.88,-3.608581607923919e-05,-0.0007038398758255067,-0.002785160154210528
7.890000000000001,-3.59943539587115e-05,-0.0007020559425644829,-0.002729302831909191
7.9,-3.590344773304741e-05,-0.0007002828518176175,-0.0026745902304572355
7.91,-3.5813087766934255e-05,-0.0006985204156518668,-0.0026209979192115427
7.92,-3.572326465285898e-05,-0.0006967684505773294,-0.0025685020274325817
7.930000000000001,-3.5633969205087805e-05,-0.0006950267774298237,-0.002517079229938883
7.94,-3.554519245382496e-05,-0.0006932952212569543,-0.002466706733187263
7.95,-3.545692563954455e-05,-0.0006915736112075593,-0.0024173622617640203
7.96,-3.536916020748958e-05,-0.0006898617804244145,-0.002369024045272864
7.97,-3.5281887802332575e-05,-0.0006881595659400915,-0.002321670805605965
7.98,-3.5195100262992323e-05,-0.0006864668085758599,-0.002275281744585008
7.99,-3.510878961760145e-05,-0.0006847833528435317,-0.0022298365319596745
8.0,-3.502294807861991e-05,-0.0006831090468501528,-0.0021853152937514535
8.01,-3.4937568038089406e-05,-0.0006814437422054413,-0.002141698600931175
8.02,-3.4852642063024415e-05,-0.0006797872939318911,-0.002098967458419107
8.03,-3.476816289093482e-05,-0.0006781395603774437,-0.002057103294396852
8.040000000000001,-3.4684123425476405e-05,-0.0006765004031306516,-0.0020160879499207677
8.05,-3.46005167322247e-05,-0.0006748696869382494,-0.001975903668826948
8.06,-3.451733603456825e-05,-0.0006732472796250537,-0.0019365330879182348
8.07,-3.443457470971764e-05,-0.00067163305201612,-0.0018979592274240727
8.08,-3.435222628482636e-05,-0.0006700268778610827,-0.0018601654817243637
8.09,-3.4270284433220075e-05,-0.0006684286337606074,-0.0018231356103288155
8.1,-3.4188742970730734e-05,-0.0006668381990948899,-0.0017868537291035895
8.11,-3.410759585213249e-05,-0.0006652554559541397,-0.0017513043017373675
8.120000000000001,-3.4026837167675754e-05,-0.0006636802890709787,-0.0017164721314392286
8.13,-3.3946461139717005e-05,-0.000662112585754706,-0.0016823423528610428
8.14,-3.386646211944062e-05,-0.0006605522358273591,-0.0016489004242373042
8.15,-3.378683458367031e-05,-0.0006589991315615224,-0.0016161321197356222
8.16,-3.370757313176758e-05,-0.0006574531676198321,-0.0015840235220113397
8.17,-3.362867248261386e-05,-0.0006559142409961148,-0.0015525610149599316
8.18,-3.355012747167462e-05,-0.0006543822509581234,-0.0015217312766611366
8.19,-3.34719330481422e-05,-0.0006528570989918092,-0.0014915212725089217
8.2,-3.339408427215545e-05,-0.0006513386887470925,-0.0014619182485216386
8.21,-3.3316576312093734e-05,-0.0006498269259850826,-0.001432909724826904
8.22,-3.3239404441943e-05,-0.0006483217185267049,-0.0014044834893159367
8.23,-3.316256403873184e-05,-0.0006468229762026915,-0.00137662759146226
8.24,-3.308605058003542e-05,-0.000645330610804896,-0.0013493303362998755
8.25,-3.300985964154534e-05,-0.0006438445360388956,-0.0013225802785561548
8.26,-3.2933986894703326e-05,-0.0006423646674778367,-0.0012963662169348824
8.27,-3.2858428104397096e-05,-0.000640890922517493,-0.0012706771885450286
8.28,-3.2783179126716296e-05,-0.0006394232203324975,-0.0012455024634709846
8.290000000000001,-3.270823590676716e-05,-0.0006379614818337163,-0.0012208315394801389
8.3,-3.263359447654366e-05,-0.0006365056296267276,-0.0011966541368638019
8.31,-3.255925095285408e-05,-0.0006350555879713802,-0.0011729601934076484
8.32,-3.2485201535300944e-05,-0.000633611282742392,-0.0011497398594879271
8.33,-3.24114425043131e-05,-0.0006321726413909673,-0.0011269834932898697
8.34,-3.233797021922822e-05,-0.0006307395929073969,-0.0011046816561447982
8.35,-3.22647811164245e-05,-0.0006293120677846165,-0.0010828251079825762
8.36,-3.21918717075001e-05,-0.0006278899979826981,-0.001061404802896155
8.370000000000001,-3.211923857749871e-05,-0.0006264733168942411,-0.0010404118848150487
8.38,-3.20468783831805e-05,-0.0006250619593106465,-0.0010198376832847185
8.39,-3.197478785133667e-05,-0.0006236558613892432,-0.0009996737093488953
8.4,-3.190296377714657e-05,-0.0006222549606212453,-0.000979911651532003
8.41,-3.1831403022576264e-05,-0.000620859195800515,-0.0009605433719189129
8.42,-3.176010251481735e-05,-0.000619468506993114,-0.0009415609023293645
8.43,-3.1689059244764904e-05,-0.0006180828355076153,-0.0009229564405844581
8.44,-3.161827026553338e-05,-0.0006167021238661569,-0.0009047223468627078
8.45,-3.154773269100971e-05,-0.0006153263157762206,-0.0008868511401432443
8.46,-3.1477443694442254e-05,-0.0006139553561031097,-0.0008693354947337927
8.47,-3.140740050706483e-05,-0.0006125891908431111,-0.0008521682368811647
8.48,-3.13376004167548e-05,-0.0006112277670973232,-0.0008353423414620459
8.49,-3.126804076672434e-05,-0.0006098710330461269,-0.0008188509287519419
8.5,-3.11987189542439e-05,-0.0006085189379242903,-0.0008026872612702085
8.51,-3.1129632429397154e-05,-0.0006071714319966822,-0.0007868447406991537
8.52,-3.106077869386642e-05,-0.0006058284665345832,-0.0007713169048752602
8.53,-3.099215529974784e-05,-0.0006044899937925761,-0.0007560974248506398
8.540000000000001,-3.092375984839552e-05,-0.000603155966986001,-0.0007411801020228824
8.55,-3.0855589989293865e-05,-0.0006018263402689609,-0.0007265588653315209
8.56,-3.078764341895727e-05,-0.0006005010687128606,-0.0007122277685193891
8.57,-3.071991787985662e-05,-0.0005991801082854689,-0.0006981809874571904
8.58,-3.065241115937172e-05,-0.0005978634158304846,-0.0006844128175296584
8.59,-3.058512108876908e-05,-0.000596550949047601,-0.0006709176710817298
8.6,-3.0518045542204476e-05,-0.0005952426664730489,-0.0006576900749231967
8.61,-3.0451182435749288e-05,-0.0005939385274606073,-0.0006447246678903507
8.620000000000001,-3.038452972644044e-05,-0.0005926384921630722,-0.0006320161984631786
8.63,-3.0318085411353164e-05,-0.0005913425215141711,-0.0006195595224367077
8.64,-3.02518475266958e-05,-0.0005900505772109077,-0.0006073496006451333
8.65,-3.018581414692629e-05,-0.0005887626216963295,-0.0005953814967374117
8.66,-3.0119983383889924e-05,-0.0005874786181427095,-0.0005836503750030348
8.67,-3.005435338597734e-05,-0.0005861985304351241,-0.0005721514982467306
8.68,-2.9988922337302814e-05,-0.000584922323155425,-0.0005608802257108855
8.69,-2.992368845690183e-05,-0.0005836499615665885,-0.0005498320110445024
8.700000000000001,-2.9858649997947828e-05,-0.0005823814115974386,-0.0005390024003175535
8.71,-2.9793805246987363e-05,-0.0005811166398277291,-0.0005283870300796114
8.72,-2.9729152523193504e-05,-0.0005798556134735813,-0.0005179816254616786
8.73,-2.9664690177636555e-05,-0.0005785983003732596,-0.0005077819983201564
8.74,-2.960041659257227e-05,-0.0005773446689732888,-0.0004977840454219385
8.75,-2.95363301807465e-05,-0.000576094688314891,-0.00048798374666962396
8.76,-2.9472429384716373e-05,-0.0005748483280207455,-0.00047837716336588906
8.77,-2.9408712676187318e-05,-0.0005736055582820586,-0.00046896043651607164
8.78,-2.9345178555365522e-05,-0.0005723663498459323,-0.00045972978516805045
8.790000000000001,-2.928182555032566e-05,-0.0005711306740030327,-0.0004506815047885325
8.8,-2.9218652216393225e-05,-0.000569898502575543,-0.00044181196567487504
8.81,-2.915565713554141e-05,-0.000568669807905399,-0.00043311761140160237
8.82,-2.909283891580187e-05,-0.0005674445628427968,-0.0004245949573007908
8.83,-2.9030196190689245e-05,-0.0005662227407349685,-0.0004162405889755266
8.84,-2.8967727618639072e-05,-0.0005650043154152184,-0.00040805116084565357
8.85,-2.8905431882458614e-05,-0.0005637892611922119,-0.000400023394725054
8.86,-2.8843307688790538e-05,-0.0005625775528395151,-0.0003921540784297253
8.870000000000001,-2.878135376758886e-05,-0.0005613691655853723,-0.00038444006441592984
8.88,-2.871956887160702e-05,-0.0005601640751027223,-0.00037687826844772074
8.89,-2.8657951775897797e-05,-0.0005589622574994435,-0.0003694656682931602
8.9,-2.8596501277324742e-05,-0.0005577636893088253,-0.00036219930244856636
8.91,-2.8535216194084747e-05,-0.0005565683474802554,-0.00035507626889013896
8.92,-2.8474095365241764e-05,-0.0005553762093701256,-0.00034809372385233663
8.93,-2.8413137650271017e-05,-0.0005541872527329415,-0.0003412488806323875
8.94,-2.8352341928613745e-05,-0.0005530014557126381,-0.00033453900842033595
8.950000000000001,-2.829170709924217e-05,-0.0005518187968340948,-0.00032796143115404225
8.96,-2.823123208023442e-05,-0.0005506392549948444,-0.0003215135263985653
8.97,-2.8170915808359072e-05,-0.0005494628094569694,-0.00031519272424937255
8.98,-2.8110757238669223e-05,-0.0005482894398391847,-0.00030899650625883793
8.99,-2.8050755344105837e-05,-0.0005471191261091016,-0.0003029224043855014
9.0,-2.799090911511005e-05,-0.0005459518485756651,-0.0002969679999655726
