# results of the FBA model for the bactery Fprau
# the columns are: t and the metabolic fluxes 
# the compounds are: galactose, glucose, thiosulfate, butyrate, Fprau, Styphi,  
# the nominal flux is: -5.0, -5.0, -5.0, -5.0, -5.0, -5.0,  
# the initial concentration are: 12.0, 13.0, 92.0, 39.0, 0.09504919756440122, 0.5900758953583092,  

t,galactose,glucose,thiosulfate,butyrate,Fprau,Styphi
0.0,-5.0,-5.0,0.0,14.128509211352727,0.3399886624564588,0.0
0.01,-5.0,-5.0,0.0,14.128509211352727,0.3399886624564588,0.0
0.02,-5.0,-5.0,0.0,14.128509211352727,0.3399886624564588,0.0
0.03,-5.0,-5.0,0.0,14.128509211352727,0.3399886624564588,0.0
0.04,-5.0,-5.0,0.0,14.128509211352727,0.3399886624564588,0.0
0.05,-5.0,-5.0,0.0,14.128509211352727,0.3399886624564588,0.0
0.06,-5.0,-5.0,0.0,14.128509211352727,0.3399886624564588,0.0
0.07,-5.0,-5.0,0.0,14.128509211352727,0.3399886624564588,0.0
0.08,-5.0,-5.0,0.0,14.128509211352727,0.3399886624564588,0.0
0.09,-5.0,-5.0,0.0,14.128509211352727,0.3399886624564588,0.0
0.1,-5.0,-5.0,0.0,14.128509211352727,0.3399886624564588,0.0
0.11,-5.0,-5.0,0.0,14.128509211352727,0.3399886624564588,0.0
0.12,-5.0,-5.0,0.0,14.128509211352727,0.3399886624564588,0.0
0.13,-5.0,-5.0,0.0,14.128509211352727,0.3399886624564588,0.0
0.14,-5.0,-5.0,0.0,14.128509211352727,0.3399886624564588,0.0
0.15,-5.0,-5.0,0.0,14.128509211352727,0.3399886624564588,0.0
0.16,-5.0,-5.0,0.0,14.128509211352727,0.3399886624564588,0.0
0.17,-5.0,-5.0,0.0,14.128509211352727,0.3399886624564588,0.0
0.18,-5.0,-5.0,0.0,14.128509211352727,0.3399886624564588,0.0
0.19,-5.0,-5.0,0.0,14.128509211352727,0.3399886624564588,0.0
0.2,-5.0,-5.0,0.0,14.128509211352727,0.3399886624564588,0.0
0.21,-5.0,-5.0,0.0,14.128509211352727,0.3399886624564588,0.0
0.22,-5.0,-5.0,0.0,14.128509211352727,0.3399886624564588,0.0
0.23,-5.0,-5.0,0.0,14.128509211352727,0.3399886624564588,0.0
0.24,-5.0,-5.0,0.0,14.128509211352727,0.3399886624564588,0.0
0.25,-5.0,-5.0,0.0,14.128509211352727,0.3399886624564588,0.0
0.26,-5.0,-5.0,0.0,14.128509211352727,0.3399886624564588,0.0
0.27,-5.0,-5.0,0.0,14.128509211352727,0.3399886624564588,0.0
0.28,-5.0,-5.0,0.0,14.128509211352727,0.3399886624564588,0.0
0.29,-5.0,-5.0,0.0,14.128509211352727,0.3399886624564588,0.0
0.3,-5.0,-5.0,0.0,14.128509211352727,0.3399886624564588,0.0
0.31,-5.0,-5.0,0.0,14.128509211352727,0.3399886624564588,0.0
0.32,-5.0,-5.0,0.0,14.128509211352727,0.3399886624564588,0.0
0.33,-5.0,-5.0,0.0,14.128509211352727,0.3399886624564588,0.0
0.34,-5.0,-5.0,0.0,14.128509211352727,0.3399886624564588,0.0
0.35000000000000003,-5.0,-5.0,0.0,14.128509211352727,0.3399886624564588,0.0
0.36,-5.0,-5.0,0.0,14.128509211352727,0.3399886624564588,0.0
0.37,-5.0,-5.0,0.0,14.128509211352727,0.3399886624564588,0.0
0.38,-5.0,-5.0,0.0,14.128509211352727,0.3399886624564588,0.0
0.39,-5.0,-5.0,0.0,14.128509211352727,0.3399886624564588,0.0
0.4,-5.0,-5.0,0.0,14.128509211352727,0.3399886624564588,0.0
0.41000000000000003,-5.0,-5.0,0.0,14.128509211352727,0.3399886624564588,0.0
0.42,-5.0,-5.0,0.0,14.128509211352727,0.3399886624564588,0.0
0.43,-5.0,-5.0,0.0,14.128509211352727,0.3399886624564588,0.0
0.44,-5.0,-5.0,0.0,14.128509211352727,0.3399886624564588,0.0
0.45,-5.0,-5.0,0.0,14.128509211352727,0.3399886624564588,0.0
0.46,-5.0,-5.0,0.0,14.128509211352727,0.3399886624564588,0.0
0.47000000000000003,-5.0,-5.0,0.0,14.128509211352727,0.3399886624564588,0.0
0.48,-5.0,-5.0,0.0,14.128509211352727,0.3399886624564588,0.0
0.49,-5.0,-5.0,0.0,14.128509211352727,0.3399886624564588,0.0
0.5,-5.0,-5.0,0.0,14.128509211352727,0.3399886624564588,0.0
0.51,-5.0,-5.0,0.0,14.128509211352727,0.3399886624564588,0.0
0.52,-5.0,-5.0,0.0,14.128509211352727,0.3399886624564588,0.0
0.53,-5.0,-5.0,0.0,14.128509211352727,0.3399886624564588,0.0
0.54,-5.0,-5.0,0.0,14.128509211352727,0.3399886624564588,0.0
0.55,-5.0,-5.0,0.0,14.128509211352727,0.3399886624564588,0.0
0.56,-5.0,-5.0,0.0,14.128509211352727,0.3399886624564588,0.0
0.5700000000000001,-5.0,-5.0,0.0,14.128509211352727,0.3399886624564588,0.0
0.58,-5.0,-5.0,0.0,14.128509211352727,0.3399886624564588,0.0
0.59,-5.0,-5.0,0.0,14.128509211352727,0.3399886624564588,0.0
0.6,-5.0,-5.0,0.0,14.128509211352727,0.3399886624564588,0.0
0.61,-5.0,-5.0,0.0,14.128509211352727,0.3399886624564588,0.0
0.62,-5.0,-5.0,0.0,14.128509211352727,0.3399886624564588,0.0
0.63,-5.0,-5.0,0.0,14.128509211352727,0.3399886624564588,0.0
0.64,-5.0,-5.0,0.0,14.128509211352727,0.3399886624564588,0.0
0.65,-5.0,-5.0,0.0,14.128509211352727,0.3399886624564588,0.0
0.66,-5.0,-5.0,0.0,14.128509211352727,0.3399886624564588,0.0
0.67,-5.0,-5.0,0.0,14.128509211352727,0.3399886624564588,0.0
0.68,-5.0,-5.0,0.0,14.128509211352727,0.3399886624564588,0.0
0.6900000000000001,-5.0,-5.0,0.0,14.128509211352727,0.3399886624564588,0.0
0.7000000000000001,-5.0,-5.0,0.0,14.128509211352727,0.3399886624564588,0.0
0.71,-5.0,-5.0,0.0,14.128509211352727,0.3399886624564588,0.0
0.72,-5.0,-5.0,0.0,14.128509211352727,0.3399886624564588,0.0
0.73,-5.0,-5.0,0.0,14.128509211352727,0.3399886624564588,0.0
0.74,-5.0,-5.0,0.0,14.128509211352727,0.3399886624564588,0.0
0.75,-5.0,-5.0,0.0,14.128509211352727,0.3399886624564588,0.0
0.76,-5.0,-5.0,0.0,14.128509211352727,0.3399886624564588,0.0
0.77,-5.0,-5.0,0.0,14.128509211352727,0.3399886624564588,0.0
0.78,-5.0,-5.0,0.0,14.128509211352727,0.3399886624564588,0.0
0.79,-5.0,-5.0,0.0,14.128509211352727,0.3399886624564588,0.0
0.8,-5.0,-5.0,0.0,14.128509211352727,0.3399886624564588,0.0
0.81,-5.0,-5.0,0.0,14.128509211352727,0.3399886624564588,0.0
0.8200000000000001,-5.0,-5.0,0.0,14.128509211352727,0.3399886624564588,0.0
0.8300000000000001,-5.0,-5.0,0.0,14.128509211352727,0.3399886624564588,0.0
0.84,-5.0,-5.0,0.0,14.128509211352727,0.3399886624564588,0.0
0.85,-5.0,-5.0,0.0,14.128509211352727,0.3399886624564588,0.0
0.86,-5.0,-5.0,0.0,14.128509211352727,0.3399886624564588,0.0
0.87,-5.0,-5.0,0.0,14.128509211352727,0.3399886624564588,0.0
0.88,-5.0,-5.0,0.0,14.128509211352727,0.3399886624564588,0.0
0.89,-5.0,-5.0,0.0,14.128509211352727,0.3399886624564588,0.0
0.9,-5.0,-5.0,0.0,14.128509211352727,0.3399886624564588,0.0
0.91,-5.0,-5.0,0.0,14.128509211352727,0.3399886624564588,0.0
0.92,-5.0,-5.0,0.0,14.128509211352727,0.3399886624564588,0.0
0.93,-5.0,-5.0,0.0,14.128509211352727,0.3399886624564588,0.0
0.9400000000000001,-5.0,-5.0,0.0,14.128509211352727,0.3399886624564588,0.0
0.9500000000000001,-5.0,-5.0,0.0,14.128509211352727,0.3399886624564588,0.0
0.96,-5.0,-5.0,0.0,14.128509211352727,0.3399886624564588,0.0
0.97,-5.0,-5.0,0.0,14.128509211352727,0.3399886624564588,0.0
0.98,-5.0,-5.0,0.0,14.128509211352727,0.3399886624564588,0.0
0.99,-5.0,-5.0,0.0,14.128509211352727,0.3399886624564588,0.0
1.0,-5.0,-5.0,0.0,14.128509211352727,0.3399886624564588,0.0
1.01,-5.0,-5.0,0.0,14.128509211352727,0.3399886624564588,0.0
1.02,-5.0,-5.0,0.0,14.128509211352727,0.3399886624564588,0.0
1.03,-5.0,-5.0,0.0,14.128509211352727,0.3399886624564588,0.0
1.04,-5.0,-5.0,0.0,14.128509211352727,0.3399886624564588,0.0
1.05,-5.0,-5.0,0.0,14.128509211352727,0.3399886624564588,0.0
1.06,-5.0,-5.0,0.0,14.128509211352727,0.3399886624564588,0.0
1.07,-5.0,-5.0,0.0,14.128509211352727,0.3399886624564588,0.0
1.08,-5.0,-5.0,0.0,14.128509211352727,0.3399886624564588,0.0
1.09,-5.0,-5.0,0.0,14.128509211352727,0.3399886624564588,0.0
1.1,-5.0,-5.0,0.0,14.128509211352727,0.3399886624564588,0.0
1.11,-5.0,-5.0,0.0,14.128509211352727,0.3399886624564588,0.0
1.12,-5.0,-5.0,0.0,14.128509211352727,0.3399886624564588,0.0
1.1300000000000001,-5.0,-5.0,0.0,14.128509211352727,0.3399886624564588,0.0
1.1400000000000001,-5.0,-5.0,0.0,14.128509211352727,0.3399886624564588,0.0
1.1500000000000001,-5.0,-5.0,0.0,14.128509211352727,0.3399886624564588,0.0
1.16,-5.0,-5.0,0.0,14.128509211352727,0.3399886624564588,0.0
1.17,-5.0,-5.0,0.0,14.128509211352727,0.3399886624564588,0.0
1.18,-5.0,-5.0,0.0,14.128509211352727,0.3399886624564588,0.0
1.19,-5.0,-5.0,0.0,14.128509211352727,0.3399886624564588,0.0
1.2,-5.0,-5.0,0.0,14.128509211352727,0.3399886624564588,0.0
1.21,-5.0,-5.0,0.0,14.128509211352727,0.3399886624564588,0.0
1.22,-5.0,-5.0,0.0,14.128509211352727,0.3399886624564588,0.0
1.23,-5.0,-5.0,0.0,14.128509211352727,0.3399886624564588,0.0
1.24,-5.0,-5.0,0.0,14.128509211352727,0.3399886624564588,0.0
1.25,-5.0,-5.0,0.0,14.128509211352727,0.3399886624564588,0.0
1.26,-5.0,-5.0,0.0,14.128509211352727,0.3399886624564588,0.0
1.27,-5.0,-5.0,0.0,14.128509211352727,0.3399886624564588,0.0
1.28,-5.0,-5.0,0.0,14.128509211352727,0.3399886624564588,0.0
1.29,-5.0,-5.0,0.0,14.128509211352727,0.3399886624564588,0.0
1.3,-5.0,-5.0,0.0,14.128509211352727,0.3399886624564588,0.0
1.31,-5.0,-5.0,0.0,14.128509211352727,0.3399886624564588,0.0
1.32,-5.0,-5.0,0.0,14.128509211352727,0.3399886624564588,0.0
1.33,-5.0,-5.0,0.0,14.128509211352727,0.3399886624564588,0.0
1.34,-5.0,-5.0,0.0,14.128509211352727,0.3399886624564588,0.0
1.35,-5.0,-5.0,0.0,14.128509211352727,0.3399886624564588,0.0
1.36,-5.0,-5.0,0.0,14.128509211352727,0.3399886624564588,0.0
1.37,-5.0,-5.0,0.0,14.128509211352727,0.3399886624564588,0.0
1.3800000000000001,-5.0,-5.0,0.0,14.128509211352727,0.3399886624564588,0.0
1.3900000000000001,-5.0,-5.0,0.0,14.128509211352727,0.3399886624564588,0.0
1.4000000000000001,-5.0,-5.0,0.0,14.128509211352727,0.3399886624564588,0.0
1.41,-5.0,-5.0,0.0,14.128509211352727,0.3399886624564588,0.0
1.42,-5.0,-5.0,0.0,14.128509211352727,0.3399886624564588,0.0
1.43,-5.0,-5.0,0.0,14.128509211352727,0.3399886624564588,0.0
1.44,-5.0,-5.0,0.0,14.128509211352727,0.3399886624564588,0.0
1.45,-4.947965115720624,-5.0,0.0,14.06455388282326,0.33848758494190223,0.0
1.46,-4.821136586738705,-5.0,0.0,13.908670760370574,0.33482889605087895,0.0
1.47,-4.697711505305134,-5.0,0.0,13.756970766392213,0.3312683881908614,0.0
1.48,-4.577590743435042,-5.0,0.0,13.609332064106734,0.32780320176504624,0.0
1.49,-4.460678456300518,-5.0,0.0,13.465636852012912,0.3244305718875531,0.0
1.5,-4.3468819536967835,-5.0,0.0,13.325771205912586,0.32114782467559566,0.0
1.51,-4.236111577508448,-5.0,0.0,13.189624928303328,0.3179523737146067,0.0
1.52,-4.128280584848349,-5.0,0.0,13.057091404750434,0.31484171668720357,0.0
1.53,-4.023305036561881,-5.0,0.0,12.928067466844782,0.3118134321566927,0.0
1.54,-3.9211036908086188,-4.957446102290068,0.0,12.734511018430368,0.3071991824818741,0.0
1.55,-3.8216459172956423,-4.831701773518525,0.0,12.411503464297228,0.29940715525589184,0.0
1.56,-3.72494335109442,-4.709440849631343,0.0,12.09744395659117,0.29183098496727033,0.0
1.57,-3.6309079745512576,-4.590552050027795,0.0,11.79204664166711,0.2844637758658719,0.0
1.58,-3.5394551688440847,-4.474928391245383,0.0,11.495036704216796,0.2772988984833271,0.0
1.59,-3.4505035534625135,-4.362466984014696,0.0,11.206149845947767,0.2703299770570101,0.0
1.6,-3.363974834753165,-4.253068841775476,0.0,10.925131793709948,0.2635508776644104,0.0
1.61,-3.2797936629367728,-4.1466386999035265,0.0,10.651737835127998,0.25695569702101456,0.0
1.62,-3.197887497047544,-4.0430848449537375,0.0,10.385732379970326,0.2505387518990629,0.0
1.6300000000000001,-3.118186477285634,-3.942318953275483,0.0,10.126888545588253,0.24429456912694333,0.0
1.6400000000000001,-3.0406233043106274,-3.84425593840354,0.0,9.874987764900117,0.23821787613245474,0.0
1.6500000000000001,-2.9651331250380006,-3.7488138066707055,0.0,9.629819415492728,0.23230359199548384,0.0
1.6600000000000001,-2.8916534245318104,-3.655913520527869,0.0,9.391180468524585,0.22654681897837686,0.0
1.67,-2.82012392361572,-3.565478869093773,0.0,9.158875156197789,0.22094283450424143,0.0
1.68,-2.7504864818509818,-3.4774363454902057,0.0,8.932714656661306,0.21548708355575658,0.0
1.69,-2.6826850055544824,-3.3917150305493404,0.0,8.712516795281607,0.2101751714688138,0.0
1.7,-2.6166653605525187,-3.308246482508453,0.0,8.498105761296197,0.20500285709725424,0.0
1.71,-2.5523752893868044,-3.226964632333587,0.0,8.289311838923211,0.19996604632632392,0.0
1.72,-2.489764332708443,-3.147805684338058,0.0,8.085971152074105,0.195060785914287,0.0
1.73,-2.4287837546134,-3.070708021784196,0.0,7.887925421867669,0.190283257642853,0.0
1.74,-2.369386471689453,-2.995612117177497,0.0,7.695021736195464,0.1856297727583154,0.0
1.75,-2.311526985559825,-2.922460446981629,0.0,7.507112330645968,0.1810967666867113,0.0
1.76,-2.255161318722809,-2.8511974105005606,0.0,7.324054380130655,0.17668079400713801,0.0
1.77,-2.2002469534997724,-2.781769252690601,0.0,7.145709800607991,0.17237852366867465,0.0
1.78,-2.146742773916039,-2.7141239906804784,0.0,6.971945060328407,0.16818673443697013,0.0
1.79,-2.094609010350401,-2.6482113437917953,0.0,6.802631000076902,0.1641023105579014,0.0
1.8,-2.043807186799465,-2.5839826668654067,0.0,6.637642661899909,0.16012223762587718,0.0
1.81,-1.9943000706127223,-2.521390886711545,0.0,6.476859125864221,0.1562435986459254,0.0
1.82,-1.9460516245632762,-2.460390441512899,0.0,6.320163354395929,0.1524635702786207,0.0
1.83,-1.8990269611275323,-2.4009372230204917,0.0,6.1674420437955195,0.1487794192581296,0.0
1.84,-1.8531922988549825,-2.342988521392054,0.0,6.018585482541088,0.14518849897401012,0.0
1.85,-1.8085149207164701,-2.286502972531796,0.0,5.873487416016311,0.14168824620799492,0.0
1.86,-1.7649631343261192,-2.231440507799044,0.0,5.73204491732381,0.13827617801757558,0.0
1.87,-1.722506233938409,-2.1777623059611915,0.0,5.59415826386365,0.13494988875866168,0.0
1.8800000000000001,-1.6811144641277833,-2.125430747273883,0.0,5.4597308193762215,0.13170704724005944,0.0
1.8900000000000001,-1.6407589850636757,-2.07440936957827,0.0,5.328668921166062,0.12854539400292955,0.0
1.9000000000000001,-1.6014118392989634,-2.0246628263117015,0.0,5.200881772242008,0.1254627387188484,0.0
1.9100000000000001,-1.563045919994671,-1.976156846334259,0.0,5.076281338119713,0.12245695770033385,0.0
1.92,-1.5256349405082186,-1.9288581954792186,0.0,4.954782248055726,0.11952599151828558,0.0
1.93,-1.4891534052767068,-1.882734639740829,0.0,4.836301700483257,0.11666784272077019,0.0
1.94,-1.453576581930653,-1.8377549100177457,0.0,4.720759372448692,0.11388057364833395,0.0
1.95,-1.4188804745772685,-1.793888668335113,0.0,4.608077332842356,0.11116230434083112,0.0
1.96,-1.385041798195798,-1.751106475472628,0.0,4.498179959243452,0.1085112105314476,0.0
1.97,-1.3520379540906764,-1.709379759929999,0.0,4.3909938581993355,0.10592552172356798,0.0
1.98,-1.3198470063512666,-1.6686807881650234,0.0,4.286447788774554,0.10340351934652334,0.0
1.99,-1.2884476592697833,-1.6289826360431008,0.0,4.1844725892106345,0.10094353498637566,0.0
2.0,-1.257819235671663,-1.5902591614403476,0.0,4.085001106550883,0.09854394868823597,0.0
2.0100000000000002,-1.2279416561151335,-1.55248497794564,0.0,3.9879681290862385,0.09620318732662725,0.0
2.02,-1.198795418919077,-1.5156354296098715,0.0,3.8933103214928146,0.09391972304078736,0.0
2.0300000000000002,-1.1703615809804926,-1.4796865666934935,0.0,3.8009661625321205,0.0916920717317855,0.0
2.04,-1.1426217393449154,-1.4446151223660226,0.0,3.7108758851986674,0.08951879161868567,0.0
2.05,-1.1155580134951097,-1.4103984903136582,0.0,3.6229814191988474,0.08739848185094182,0.0
2.06,-1.0891530283251731,-1.3770147032134668,0.0,3.5372263356552955,0.08532978117447933,0.0
2.07,-1.0633898977689153,-1.3444424120347624,0.0,3.4535557939384285,0.08331136664909734,0.0
2.08,-1.0382522090529935,-1.3126608661303671,0.0,3.3719164905246863,0.08134195241475463,0.0
2.09,-1.0137240075468106,-1.2816498940823577,0.0,3.2922566097939394,0.07942028850463895,0.0
2.1,-0.9897897821826285,-1.251389885268735,0.0,3.2145257766786832,0.07754515970290615,0.0
2.11,-0.9664344514206913,-1.2218617721191478,0.0,3.1386750110832815,0.07571538444511992,0.0
2.12,-0.9436433497354416,-1.1930470130294342,0.0,3.064656683995023,0.07392981375950167,0.0
2.13,-0.9214022146001157,-1.1649275759062627,0.0,2.9924244752148588,0.07218733024725592,0.0
2.14,-0.8996971739481332,-1.1374859223145852,0.0,2.9219333326353016,0.07048684710021474,0.0
2.15,-0.8785147340907842,-1.1107049922019838,0.0,2.8531394330011657,0.0688273071542553,0.0
2.16,-0.8578417680717163,-1.0845681891752654,0.0,2.786000144088539,0.06720768197693017,0.0
2.17,-0.8376655044396897,-1.0590593663058707,0.0,2.720473988242367,0.06562697098787121,0.0
2.18,-0.81797351642197,-1.0341628124418092,0.0,2.6565206072149414,0.06408420061057585,0.0
2.19,-0.7987537114815865,-1.0098632390049154,0.0,2.594100728250983,0.06257842345426468,0.0
2.2,-0.7799943212424849,-0.9861457672532326,0.0,2.5331761313679753,0.06110871752457394,0.0
2.21,-0.7616838917673802,-0.9629959159893157,0.0,2.4737096177816915,0.05967418546187346,0.0
2.22,-0.7438112741738241,-0.9403995896961379,0.0,2.4156649794297653,0.0582739538060712,0.0
2.23,-0.7263656155747018,-0.9183430670831725,0.0,2.359006969549793,0.05690717228686038,0.0
2.24,-0.7093363503300084,-0.8968129900260265,0.0,2.3037012742674094,0.05557301313832675,0.0
2.25,-0.6927131915973779,-0.8757963528837852,0.0,2.2497144851554753,0.054270670436985226,0.0
2.2600000000000002,-0.6764861231694153,-0.855280492178962,0.0,2.1970140727238783,0.052999359462263584,0.0
2.27,-0.6606453915864354,-0.8352530766256456,0.0,2.145568360804472,0.05175831607858228,0.0
2.2800000000000002,-0.6451814985137367,-0.8157020974920969,0.0,2.095346501794818,0.05054679613814987,0.0
2.29,-0.6300851933730289,-0.7966158592846726,0.0,2.046318452727202,0.04936407490366686,0.0
2.3000000000000003,-0.6153474662181094,-0.7779829707405538,0.0,1.998454952131458,0.048209446490180594,0.0
2.31,-0.6009595408453277,-0.7597923361173138,0.0,1.9517274976595442,0.04708222332531353,0.0
2.32,-0.5869128681297977,-0.7420331467679018,0.0,1.9061083244437518,0.045981735627190906,0.0
2.33,-0.5731991195787274,-0.7246948729901252,0.0,1.861570384159955,0.044907330899376104,0.0
2.34,-0.5598101810936074,-0.707767256140194,0.0,1.8180873247695057,0.043858373442178016,0.0
2.35,-0.5467381469333736,-0.6912403010003544,0.0,1.7756334709127068,0.04283424387967346,0.0
2.36,-0.5339753138709955,-0.6751042683910721,0.0,1.7341838049321463,0.041834338701928875,0.0
2.37,-0.5215141755362733,-0.6593496680186379,0.0,1.693713948499157,0.04085806982176673,0.0
2.38,-0.5093474169379412,-0.6439672515494711,0.0,1.654200144823938,0.039904864145615844,0.0
2.39,-0.4974679091584647,-0.6289480059027575,0.0,1.615619241425254,0.03897416315785628,0.0
2.4,-0.48586870421520734,-0.6142831467534303,0.0,1.5779486734417487,0.038065422518234346,0.0
2.41,-0.4745430300819085,-0.5999641122378317,0.0,1.5411664474629256,0.03717811167181038,0.0
2.42,-0.46348428586466905,-0.5859825568547169,0.0,1.5052511258623982,0.03631171347102456,0.0
2.43,-0.452686037126887,-0.5723303455545773,0.0,1.4701818116146341,0.03546572380942536,0.0
2.44,-0.44214201135781495,-0.5589995480105439,0.0,1.4359381335783432,0.034639651266655754,0.0
2.45,-0.43184609357963316,-0.5459824330644147,0.0,1.4025002322297138,0.03383301676429121,0.0
2.46,-0.4217923220881422,-0.5332714633416201,0.0,1.3698487458292672,0.03304535323213689,0.0
2.47,-0.4119748843223806,-0.5208592900291837,0.0,1.3379647970079722,0.03227620528464059,0.0
2.48,-0.4023881128586621,-0.508738747810991,0.0,1.3068299797568759,0.031525128907038284,0.0
2.49,-0.3930264815247119,-0.496902849954896,0.0,1.2764263468072747,0.030791691150921917,0.0
2.5,-0.3838846016297538,-0.4853447835464257,0.0,1.2467363973870542,0.030075469838880955,0.0
2.5100000000000002,-0.3749572183065666,-0.47405790486404714,0.0,1.2177430653408823,0.02937605327792145,0.0
2.52,-0.36623920696168744,-0.463035734891164,0.0,1.1894297076018194,0.028693039981363362,0.0
2.5300000000000002,-0.35772556983008835,-0.45227195496019923,0.0,1.1617800930013182,0.02802603839889806,0.0
2.54,-0.3494114326308009,-0.44176040252430515,0.0,1.1347783914086815,0.027374666654598506,0.0
2.5500000000000003,-0.341292041320098,-0.43149506705241636,0.0,1.1084091631856428,0.026738552292525843,0.0
2.56,-0.3333627589389762,-0.4214700860435252,0.0,1.0826573489484195,0.026117332029757218,0.0
2.57,-0.3256190625518061,-0.4116797411562219,0.0,1.0575082596251633,0.025510651516537055,0.0
2.58,-0.31805654027314045,-0.4021184544496923,0.0,1.0329475668002077,0.024918165103348947,0.0
2.59,-0.3106708883797838,-0.3927807847325108,0.0,1.0089612933347218,0.024339535614653247,0.0
2.6,-0.30345790850533755,-0.3836614240157082,0.0,0.9855358042556778,0.02377443412909911,0.0
2.61,-0.2964135049145398,-0.37475519406672236,0.0,0.9626577979036568,0.02322253976597956,0.0
2.62,-0.2895336818548209,-0.3660570430609745,0.0,0.9403142973315689,0.022683539477739656,0.0
2.63,-0.28281454098259007,-0.3575620423279259,0.0,0.9184926419459994,0.022157127848337687,0.0
2.64,-0.27625227886186327,-0.3492653831885971,0.0,0.897180479383709,0.021643006897279608,0.0
2.65,-0.2698431845329291,-0.3411623738816354,0.0,0.8763657576150848,0.021140885889126552,0.0
2.66,-0.26358363714883426,-0.33324843657512626,0.0,0.8560367172686365,0.020650481148337462,0.0
2.67,-0.25747010367755246,-0.32551910446144894,0.0,0.8361818841679218,0.020171515879233194,0.0
2.68,-0.25149913666777685,-0.3179700189325706,0.0,0.8167900620758716,0.019703719990966276,0.0
2.69,-0.24566737207635142,-0.3105969268332711,0.0,0.7978503256387781,0.019246829927305652,0.0
2.7,-0.23997152715542783,-0.3033956777898778,0.0,0.7793520135245845,0.018800588501109567,0.0
2.71,-0.23440839839750213,-0.29636222161217873,0.0,0.7612847217488159,0.01836474473332404,0.0
2.72,-0.22897485953655308,-0.289492605766264,0.0,0.7436382971832225,0.017939053696390497,0.0
2.73,-0.22366785960356395,-0.28278297291612503,0.0,0.726402831240338,0.017523276361894876,0.0
2.74,-0.21848442103477295,-0.2762295585319179,0.0,0.7095686537299649,0.01711717945236634,0.0
2.75,-0.21342163783105347,-0.26982868856287023,0.0,0.6931263268813296,0.016720535297071328,0.0
2.7600000000000002,-0.20847667376688123,-0.263576777172881,0.0,0.67706663952632,0.016333121691693517,0.0
2.77,-0.20364676064739987,-0.2574703245369308,0.0,0.6613806014390655,0.015954721761785712,0.0
2.7800000000000002,-0.1989291966121465,-0.2515059146964841,0.0,0.646059437826907,0.0155851238298734,0.0
2.79,-0.19432134448404803,-0.24568021347212804,0.0,0.6310945839685161,0.015224121286108285,0.0
2.8000000000000003,-0.1898206301623482,-0.23998996643175188,0.0,0.6164776799945442,0.014871512462359819,0.0
2.81,-0.18542454105816783,-0.23443199691262787,0.0,0.6022005658069333,0.014527100509652219,0.0
2.82,-0.18113062457144669,-0.22900320409581135,0.0,0.5882552761323614,0.014190693278836597,0.0
2.83,-0.1769364866080569,-0.22370056113132858,0.0,0.5746340357064045,0.013862103204417005,0.0
2.84,-0.17283979013591713,-0.21852111331267463,0.0,0.5613292545841977,0.013541147191427787,0.0
2.85,-0.16883825377897727,-0.21346197629918934,0.0,0.5483335235742087,0.013227646505280962,0.0
2.86,-0.1649296504479791,-0.20852033438493053,0.0,0.5356396097912124,0.01292142666448859,0.0
2.87,-0.16111180600693575,-0.2036934388127053,0.0,0.5232404523256667,0.012622317336194297,0.0
2.88,-0.15738259797430568,-0.19897860613196627,0.0,0.5111291580253141,0.012330152234410537,0.0
2.89,-0.15373995425787232,-0.19437321659932172,0.0,0.4992989973866451,0.012044769020907585,0.0
2.9,-0.15018185192237044,-0.189874712620447,0.0,0.4877434005524354,0.011766009208660272,0.0
2.91,-0.14670631598893238,-0.18548059723222624,0.0,0.47645595341273167,0.011493718067790735,0.0
2.92,-0.14331141826545685,-0.18118843262398893,0.0,0.4654303938062739,0.011227744533933971,0.0
2.93,-0.13999527620703095,-0.17699583869674357,0.0,0.4546606078195801,0.010967941118959643,0.0
2.94,-0.1367560518055647,-0.17290049165934343,0.0,0.44414062618064654,0.01071416382397535,0.0
2.95,-0.13359195050782277,-0.16890012266055607,0.0,0.4338646207452355,0.010466272054564716,0.0
2.96,-0.13050122016106458,-0.1649925164560371,0.0,0.42382690107258386,0.010224128538181757,0.0
2.97,-0.1274821499855284,-0.16117551010924355,0.0,0.4140219110882716,0.009987599243647807,0.0
2.98,-0.12453306957301769,-0.15744699172534785,0.0,0.40444422583211104,0.009756553302700187,0.0
2.99,-0.12165234791087393,-0.1538048992172479,0.0,0.3950885482881576,0.009530862933520944,0.0
3.0,-0.11883839243063822,-0.15024721910279126,0.0,0.3859497062951715,0.009310403366207138,0.0
3.0100000000000002,-0.11608964808072848,-0.14677198533236227,0.0,0.37702264953490133,0.009095052770117885,0.0
3.02,-0.11340459642247848,-0.14337727814600526,0.0,0.3683024465963252,0.008884692183054143,0.0
3.0300000000000002,-0.11078175474890445,-0.14006122295928253,0.0,0.3597842821137061,0.008679205442218996,0.0
3.04,-0.10821967522558507,-0.13682198927708994,0.0,0.35146345397638745,0.008478479116908409,0.0
3.0500000000000003,-0.10571694405305843,-0.13365778963467664,0.0,0.3433353706085806,0.008282402442890776,0.0
3.06,-0.10327218065015789,-0.13056687856513766,0.0,0.33539554831704443,0.00809086725842383,0.0
3.0700000000000003,-0.10088403685772583,-0.12754755159267006,0.0,0.3276396087050421,0.007903767941870764,0.0
3.08,-0.09855119616216086,-0.12459814425090521,0.0,0.3200632761506256,0.007721001350867849,0.0
3.09,-0.0962723729382707,-0.1217170311256482,0.0,0.3126623753476864,0.007542466763006391,0.0
3.1,-0.09404631171091773,-0.11890262492137761,0.0,0.305432828908037,0.007368065817986963,0.0
3.11,-0.09187179900161524,-0.11615339143888105,0.0,0.2983706958353454,0.007197703445739688,0.0
3.12,-0.08974763709814272,-0.11346781641221519,0.0,0.29147208633716853,0.0070312858114045355,0.0
3.13,-0.08767265557997254,-0.11084442008028718,0.0,0.2847331992559322,0.006868721218292373,0.0
3.14,-0.08564571147411444,-0.1082817573838886,0.0,0.27815032257499256,0.006709920120092632,0.0
3.15,-0.08366568859959403,-0.10577841713692049,0.0,0.27171983128973837,0.0065547950695172405,0.0
3.16,-0.0817314969281475,-0.10333302121812063,0.0,0.2654381853313466,0.006403260668214688,0.0
3.17,-0.07984207196070565,-0.100944223782753,0.0,0.25930192754178716,0.006255233517920294,0.0
3.18,-0.07799637411925255,-0.09861071049373563,0.0,0.2533076816987759,0.006110632172811473,0.0
3.19,-0.07619338815365649,-0.09633119777169775,0.0,0.24745215058931327,0.005969377093034898,0.0
3.2,-0.07443212256308232,-0.09410443206347213,0.0,0.241732114130668,0.005831390599378467,0.0
3.21,-0.07271160903160513,-0.09192918912854225,0.0,0.2361444275373966,0.005696596829053585,0.0
3.22,-0.07103090187765676,-0.08980427334297829,0.0,0.23068601953332607,0.0055649216925622025,0.0
3.23,-0.06938907751694624,-0.08772851702040811,0.0,0.22535389060727445,0.005436292831618857,0.0
3.24,-0.06778523393850656,-0.08570077974958394,0.0,0.22014511131144823,0.005310639578102454,0.0
3.25,-0.06621849019352848,-0.08371994774811571,0.0,0.21505682060129166,0.005187892914007685,0.0
3.2600000000000002,-0.06468798589665331,-0.08178493323195603,0.0,0.2100862242158899,0.005067985432375062,0.0
3.27,-0.06319288073940431,-0.07989467380023225,0.0,0.20523059309771746,0.00495085129916987,0.0
3.2800000000000002,-0.06173235401544624,-0.07804813183503286,0.0,0.2004872618508153,0.004836426216088142,0.0
3.29,-0.06030560415737091,-0.07624429391576583,0.0,0.19585362723645627,0.004724647384267205,0.0
3.3000000000000003,-0.058911848284714775,-0.07448217024771812,0.0,0.19132714670523424,0.004615453468874683,0.0
3.31,-0.05755032176292314,-0.0727607941044546,0.0,0.18690533696470987,0.0045087845645552845,0.0
3.3200000000000003,-0.056220277772983086,-0.07107922128370552,0.0,0.18258577258170253,0.004404582161713335,0.0
3.33,-0.05492098689145486,-0.06943652957640083,0.0,0.17836608461840028,0.004302789113611294,0.0
3.34,-0.05365173668063919,-0.06783181824851922,0.0,0.17424395930132078,0.004203349604260527,0.0
3.35,-0.05241183128862461,-0.0662642075354285,0.0,0.17021713672240535,0.004106209117087365,0.0
3.36,-0.051200591058966294,-0.06473283814840314,0.0,0.1662834095713676,0.004011314404353066,0.0
3.37,-0.05001735214975452,-0.06323687079301288,0.0,0.1624406218985748,0.003918613457310438,0.0
3.38,-0.048861466161837036,-0.06177548569908502,0.0,0.15868666790759092,0.0038280554770758054,0.0
3.39,-0.04773229977596667,-0.0603478821619504,0.0,0.15501949077676808,0.0037395908462019025,0.0
3.4,-0.046629234398650944,-0.05895327809469165,0.0,0.15143708150909096,0.0036531711009322823,0.0
3.41,-0.045551665816486744,-0.057590909591119,0.0,0.1479374778095396,0.00356874890411949,0.0
3.42,-0.04449900385876911,-0.05626003049920695,0.0,0.14451876298935817,0.0034862780187923325,0.0
3.43,-0.04347067206816818,-0.05495991200473168,0.0,0.14117906489651966,0.003405713282355144,0.0
3.44,-0.04246610737927458,-0.0536898422248563,0.0,0.137916554871746,0.0033270105814034653,0.0
3.45,-0.04148475980481806,-0.05244912581141762,0.0,0.13472944672943396,0.003250126827140535,0.0
3.46,-0.040526092129370014,-0.05123708356367452,0.0,0.13161599576290278,0.00317501993138053,0.0
3.47,-0.03958957961034484,-0.05005305205028453,0.0,0.12857449777335345,0.003101648783123844,0.0
3.48,-0.03867470968612061,-0.04889638324028107,0.0,0.12560328812190016,0.003029973225688787,0.0
3.49,-0.037780981691103686,-0.04776644414283004,0.0,0.12270074080424238,0.002959954034389736,0.0
3.5,-0.03690790657756664,-0.04666261645554995,0.0,0.11986526754723108,0.002891552894743111,0.0
3.5100000000000002,-0.03605500664409357,-0.04558429622118564,0.0,0.11709531692698077,0.0028247323811934036,0.0
3.52,-0.035221815270470754,-0.04453089349243088,0.0,0.11438937350785122,0.002759455936342414,0.0
3.5300000000000002,-0.034407876658865,-0.04350183200470058,0.0,0.11174595700190217,0.002695687850672585,0.0
3.54,-0.033612745581136305,-0.04249654885665841,0.0,0.1091636214482216,0.0026333932427495517,0.0
3.5500000000000003,-0.032835987132134904,-0.041514494198310735,0.0,0.10664095441173471,0.0025725380398948063,0.0
3.56,-0.03207717648883721,-0.04055513092648238,0.0,0.10417657620091741,0.0025130889593142,0.0
3.5700000000000003,-0.031335898675178414,-0.039617934387494884,0.0,0.10176913910409174,0.002455013489674966,0.0
3.58,-0.0306117483324434,-0.038702392086872026,0.0,0.09941732664369403,0.002398279873116057,0.0
3.59,-0.029904329495081157,-0.03780800340590225,0.0,0.09711985284820182,0.0023428570876846155,0.0
3.6,-0.02921325537181108,-0.03693427932489172,0.0,0.0948754615412439,0.002288714830186939,0.0
3.61,-0.028538148131893294,-0.03608074215294612,0.0,0.09268292564745795,0.0022358234994433878,0.0
3.62,-0.027878638696437925,-0.03524692526412329,0.0,0.09054104651474155,0.0021841541799388436,0.0
3.63,-0.027234366534631748,-0.03443237283980284,0.0,0.08844865325245088,0.002133678625857809,0.0
3.64,-0.026604979464763617,-0.033636639617122856,0.0,0.08640460208520404,0.002084369245496006,0.0
3.65,-0.0259901334599329,-0.03285929064333735,0.0,0.08440777572187559,0.002036199086038379,0.0
3.66,-0.02538949245832837,-0.0320999010359521,0.0,0.08245708273944176,0.001989141818695366,0.0
3.67,-0.02480272817796754,-0.03135805574849989,0.0,0.08055145698131834,0.001943171724188817,0.0
3.68,-0.02422951993578939,-0.030633349341819632,0.0,0.07868985696982579,0.0018982636785786565,0.0
3.69,-0.023669554470995904,-0.029925385760707336,0.0,0.07687126533245837,0.0018543931394225718,0.0
3.7,-0.023122525772540745,-0.02923377811581027,0.0,0.07509468824162509,0.0018115361322606838,0.0
3.71,-0.02258813491066553,-0.028558148470638506,0.0,0.07335915486752616,0.0017696692374170899,0.0
3.72,-0.02206608987238712,-0.02789812763357172,0.0,0.07166371684387589,0.001728769577111308,0.0
3.73,-0.02155610540084124,-0.02725335495474154,0.0,0.07000744774613213,0.001688814802871405,0.0
3.74,-0.021057902838390496,-0.02662347812767323,0.0,0.06838944258197276,0.0016497830832426135,0.0
3.75,-0.020571209973406914,-0.026008152995573065,0.0,0.06680881729367653,0.0016116530917830252,0.0
3.7600000000000002,-0.020095760890641388,-0.025407043362150626,0.0,0.06526470827218504,0.001574403995341194,0.0
3.77,-0.019631295825094625,-0.024819820806868016,0.0,0.0637562718825138,0.0015380154426074184,0.0
3.7800000000000002,-0.01917756101930627,-0.024246164504510722,0.0,0.06228268400028224,0.001502467552933328,0.0
3.79,-0.01873430858398086,-0.023685761048977162,0.0,0.060843139559049464,0.0014677409054120343,0.0
3.8000000000000003,-0.018301296361871385,-0.02313830428118689,0.0,0.05943685210827458,0.0014338165282147186,0.0
3.81,-0.017878287794843087,-0.022603495121009527,0.0,0.05806305338157208,0.00140067588817548,0.0
3.8200000000000003,-0.017465051794042053,-0.022081041403119044,0.0,0.05672099287504822,0.001368300880619341,0.0
3.83,-0.01706136261309494,-0.02157065771668044,0.0,0.05540993743551968,0.0013366738194287972,0.0
3.84,-0.01666699972426817,-0.021072065248777878,0.0,0.05412917085829363,0.0013057774273408291,0.0
3.85,-0.016281747697516353,-0.020584991631495828,0.0,0.052877993494366275,0.001275594826471262,0.0
3.86,-0.015905396082351687,-0.0201091707925667,0.0,0.05165572186677609,0.001246109529059919,0.0
3.87,-0.015537739292467665,-0.019644342809500746,0.0,0.050461688295884856,0.0012173054284311032,0.0
3.88,-0.015178576493051953,-0.019190253767115893,0.0,0.0492952405334107,0.0011891667901652683,0.0
3.89,-0.014827711490724992,-0.018746655618387238,0.0,0.04815574140499353,0.0011616782434765195,0.0
3.9,-0.014484952626042337,-0.018313306048537942,0.0,0.04704256846105819,0.0011348247727902064,0.0
3.91,-0.014150112668500305,-0.017889968342294983,0.0,0.045955113635846936,0.0011085917095177084,0.0
3.92,-0.013823008713985925,-0.017476411254235276,0.0,0.044892782914345904,0.001082964724021507,0.0
3.93,-0.013503462084613642,-0.01707240888214935,0.0,0.043854996007005966,0.0010579298177684287,0.0
3.94,-0.013191298230892509,-0.01667774054335147,0.0,0.04284118603200212,0.0010334733156646255,0.0
3.95,-0.012886346636169202,-0.016292190653867052,0.0,0.04185079920489664,0.0010095818585692344,0.0
3.96,-0.012588440723293156,-0.015915548610429542,0.0,0.04088329453551713,0.0009862423959820443,0.0
3.97,-0.01229741776345173,-0.015547608675220825,0.0,0.0399381435318837,0.000963442178901239,0.0
3.98,-0.012013118787124414,-0.015188169863290742,0.0,0.0390148299110142,0.0009411687528470348,0.0
3.99,-0.011735388497106253,-0.014837035832592745,0.0,0.03811284931644855,0.0009194099510474157,0.0
4.0,-0.011464075183552051,-0.014494014776574382,0.0,0.03723170904234688,0.0008981538877824732,0.0
4.01,-0.011199030640993838,-0.01415891931926259,0.0,0.03637092776397855,0.0008773889518828683,0.0
4.0200000000000005,-0.01094011008728546,-0.013831566412785462,0.0,0.035530035274492576,0.0008571038003798876,0.0
4.03,-0.010687172084429028,-0.013511777237273231,0.0,0.034708572227774605,0.0008372873523022554,0.0
4.04,-0.010440078461239245,-0.013199377103082872,0.0,0.03390608988728672,0.0008179287826173058,0.0
4.05,-0.010198694237802506,-0.012894195355291857,0.0,0.03312214988074281,0.0007990175163129622,0.0
4.0600000000000005,-0.009962887551688848,-0.012596065280408011,0.0,0.0323563239604613,0.0007805432226166113,0.0
4.07,-0.009732529585875649,-0.012304824015243559,0.0,0.03160819376928283,0.0007624958093482533,0.0
4.08,-0.009507494498343186,-0.012020312457902861,0.0,0.0308773506119259,0.0007448654174048501,0.0
4.09,-0.009287659353302839,-0.011742375180834349,0.0,0.030163395231629128,0.0007276424153721632,0.0
4.1,-0.00907290405401991,-0.011470860345898488,0.0,0.029465937591986752,0.0007108173942619078,0.0
4.11,-0.008863111277193733,-0.01120561962140465,0.0,0.028784596663833456,0.0006943811623706936,0.0
4.12,-0.008658166408858784,-0.010946508101070965,0.0,0.028119000217074072,0.0006783247402582667,0.0
4.13,-0.00845795748177124,-0.010693384224862237,0.0,0.027468784617328254,0.0006626393558418732,0.0
4.14,-0.008262375114246382,-0.010446109701662156,0.0,0.026833594627301498,0.0006473164396046886,0.0
4.15,-0.008071312450412966,-0.01020454943373698,0.0,0.026213083212747738,0.0006323476199149739,0.0
4.16,-0.007884665101851564,-0.009968571442948963,0.0,0.0256069113529242,0.0006177247184535958,0.0
4.17,-0.0077023310905845735,-0.009738046798678703,0.0,0.025014747855448938,0.000603439745747796,0.0
4.18,-0.007524210793386472,-0.009512849547416678,0.0,0.02443626917542972,0.0005894848968079404,0.0
4.19,-0.007350206887383489,-0.00929285664398498,0.0,0.023871159238796808,0.0005758525468657437,0.0
4.2,-0.007180224296912748,-0.009077947884351397,0.0,0.023319109269711764,0.0005625352472107655,0.0
4.21,-0.007014170141611494,-0.0088680058399987,0.0,0.02277981762198069,0.0005495257211235425,0.0
4.22,-0.006851953685707834,-0.008662915793812986,0.0,0.022252989614367013,0.0005368168599027824,0.0
4.23,-0.006693486288485005,-0.008462565677455734,0.0,0.021738337369712743,0.0005244017189844196,0.0
4.24,-0.0065386813558919055,-0.008266846010185043,0.0,0.02123557965778733,0.0005122735141506093,0.0
4.25,-0.006387454293273194,-0.008075649839092383,0.0,0.020744441741767015,0.0005004256178262878,0.0
4.26,-0.006239722459192985,-0.007888872680721939,0.0,0.020264655228271474,0.0004888515554615572,0.0
4.2700000000000005,-0.006095405120326687,-0.00770641246404043,0.0,0.019795957920865533,0.00047754500199765417,0.0
4.28,-0.005954423407396172,-0.0075281694747260045,0.0,0.0193380936769482,0.0004664997784146248,0.0
4.29,-0.005816700272124059,-0.007354046300745593,0.0,0.018890812267959668,0.0004557098483590659,0.0
4.3,-0.005682160445183431,-0.007183947779190797,0.0,0.01845386924280898,0.0004451693148495214,0.0
4.3100000000000005,-0.005550730395119862,-0.007017780944343064,0.0,0.018027025794467442,0.0004348724170582741,0.0
4.32,-0.005422338288223218,-0.006855454976939657,0.0,0.017610048629648968,0.0004248135271676114,0.0
4.33,-0.005296913949327156,-0.006696881154612514,0.0,0.01720270984149204,0.0004149871472984615,0.0
4.34,-0.005174388823514815,-0.006541972803472805,0.0,0.01680478678519793,0.00040538790651039133,0.0
4.3500000000000005,-0.005054695938709661,-0.006390645250814589,0.0,0.016416061956535513,0.0003960105578707258,0.0
4.36,-0.004937769869130984,-0.006242815778911647,0.0,0.016036322873153548,0.00038684997559139503,0.0
4.37,-0.004823546699593963,-0.006098403579882106,0.0,0.01566536195864357,0.0003779011522321565,0.0
4.38,-0.004711963990634738,-0.005957329711596108,0.0,0.015302976429274029,0.0003691591959682331,0.0
4.39,-0.004602960744441363,-0.005819517054602364,0.0,0.014948968183343948,0.0003606193279211473,0.0
4.4,-0.004496477371571953,-0.0056848902700499535,0.0,0.014603143693095557,0.0003522768795512994,0.0
4.41,-0.004392455658441796,-0.005553375758582319,0.0,0.014265313899122455,0.0003441272901107338,0.0
4.42,-0.004290838735561604,-0.005424901620180937,0.0,0.013935294107218221,0.0003361661041547846,0.0
4.43,-0.00419157104650951,-0.005299397614936647,0.0,0.013612903887604279,0.0003283889691111047,0.0
4.44,-0.004094598317619808,-0.005176795124727175,0.0,0.013297966976492432,0.00032079163290503465,0.0
4.45,-0.003999867528371846,-0.005057027115779847,0.0,0.012990311179913705,0.00031336994163962047,0.0
4.46,-0.003907326882462862,-0.00494002810209901,0.0,0.012689768279774957,0.00030611983732939396,0.0
4.47,-0.0038169257795489134,-0.004825734109738135,0.0,0.012396173942080202,0.00029903735568635324,0.0
4.48,-0.003728614787638454,-0.00471408264189705,0.0,0.0121093676272744,0.0002921186239571597,0.0
4.49,-0.0036423456161234413,-0.004605012644825206,0.0,0.011829192502657078,0.00028535985881025756,0.0
4.5,-0.003558071089433228,-0.004498464474512326,0.0,0.011555495356818992,0.0002787573642718023,0.0
4.51,-0.0034757451212968173,-0.004394379864148212,0.0,0.011288126516052606,0.00027230752970919627,0.0
4.5200000000000005,-0.003395322689599418,-0.004292701892333918,0.0,0.011026939762695386,0.0002660068278612565,0.0
4.53,-0.0033167598118195468,-0.0041933749520269145,0.0,0.010771792255356667,0.0002598518129138202,0.0
4.54,-0.003240013521033245,-0.004096344720203255,0.0,0.010522544450986259,0.00025383911861977276,0.0
4.55,-0.003165041842472305,-0.004001558128220162,0.0,0.010279060028745176,0.0002479654564625629,0.0
4.5600000000000005,-0.0030918037706236805,-0.003908963332862855,0.0,0.010041205815628762,0.00024222761386197264,0.0
4.57,-0.0030202592468575795,-0.0038185096880597727,0.0,0.009808851713812237,0.00023662245242145598,0.0
4.58,-0.00295036913757201,-0.003730147717250753,0.0,0.009581870629669456,0.00023114690621582696,0.0
4.59,-0.0028820952128418443,-0.00364382908639307,0.0,0.00936013840443239,0.00022579798011853613,0.0
4.6000000000000005,-0.0028154001255607255,-0.003559506577590582,0.0,0.009143533746451256,0.0002205727481675595,0.0
4.61,-0.00275024739106445,-0.003477134063331595,0.0,0.008931938165015967,0.0002154683519689436,0.0
4.62,-0.0026866013672246745,-0.0033966664813213656,0.0,0.008725235905709164,0.00021048199913731148,0.0
4.63,-0.0026244272350020893,-0.003318059809895505,0.0,0.00852331388724643,0.00020561096177222784,0.0
4.64,-0.002563690979448443,-0.0032412710440008633,0.0,0.008326061639778537,0.00020085257496984862,0.0
4.65,-0.0025043593711470383,-0.003166258171730775,0.0,0.008133371244616152,0.00019620423536887652,0.0
4.66,-0.0024463999480815817,-0.0030929801514018676,0.0,0.00794513727534379,0.0001916633997300284,0.0
4.67,-0.0023897809979234815,-0.0030213968891599175,0.0,0.00776125674029693,0.00018722758354839641,0.0
4.68,-0.002334471540727926,-0.002951469217102528,0.0,0.007581629026362317,0.00018289435969771697,0.0
4.69,-0.0022804413120293115,-0.0028831588719066964,0.0,0.007406155844078704,0.00017866135710601966,0.0
4.7,-0.0022276607463267858,-0.002816428473949612,0.0,0.007234741174001643,0.0001745262594617629,0.0
4.71,-0.0021761009609508994,-0.0027512415069112857,0.0,0.007067291214308749,0.00017048680394989943,0.0
4.72,-0.0021257337403025696,-0.002687562297847892,0.0,0.006903714329612764,0.00016654078001707658,0.0
4.73,-0.002076531520455748,-0.0026253559977249424,0.0,0.006743921000953583,0.0001626860281652677,0.0
4.74,-0.0020284673741154066,-0.0025645885623996898,0.0,0.006587823776950869,0.0001589204387734239,0.0
4.75,-0.0019815149959226293,-0.00250522673404237,0.0,0.006435337226075089,0.0001552419509460761,0.0
4.76,-0.001935648688098795,-0.0024472380229861694,0.0,0.006286377890027327,0.00015164855138870897,0.0
4.7700000000000005,-0.0018908433464210296,-0.0023905906899960015,0.0,0.006140864238190643,0.00014813827330897083,0.0
4.78,-0.0018470744465212752,-0.0023352537289464416,0.0,0.005998716623134095,0.00014470919534328238,0.0
4.79,-0.0018043180305015024,-0.0022811968498993576,0.0,0.0058598572371431,0.00014135944050820188,0.0
4.8,-0.0017625506938577793,-0.002228390462572028,0.0,0.005724210069753317,0.00013808717517600246,0.0
4.8100000000000005,-0.0017217495727060513,-0.002176805660186711,0.0,0.005591700866263311,0.0001348906080738547,0.0
4.82,-0.001681892331302687,-0.0021264142036928903,0.0,0.0054622570872055725,0.00013176798930613357,0.0
4.83,-0.0016429571498529699,-0.0020771885063535648,0.0,0.005335807868752609,0.0001287176093992804,0.0
4.84,-0.0016049227126008984,-0.002029101618687201,0.0,0.005212283984035731,0.0001257377983686808,0.0
4.8500000000000005,-0.0015677681961938055,-0.0019821272137571368,0.0,0.005091617805357602,0.00012282692480710596,0.0
4.86,-0.0015314732583154452,-0.0019362395728004058,0.0,0.004973743267275743,0.00011998339499416157,0.0
4.87,-0.0014960180265813608,-0.001891413571188171,0.0,0.004858595830538229,0.00011720565202629636,0.0
4.88,-0.0014613830876904752,-0.0018476246647100903,0.0,0.004746112446851355,0.0001144921749668789,0.0
4.89,-0.001427549476826997,-0.0018048488761751636,0.0,0.004636231524461165,0.00011184147801591158,0.0
4.9,-0.001394498667306859,-0.0017630627823217388,0.0,0.004528892894526719,0.0001092521096988349,0.0
4.91,-0.0013622125604630547,-0.0017222435010295545,0.0,0.004424037778272392,0.00010672265207413652,0.0
4.92,-0.001330673475764355,-0.0016823686788268492,0.0,0.0043216087548961024,0.00010425171995918754,0.0
4.93,-0.0012998641411620232,-0.0016434164786857243,0.0,0.004221549730218156,0.00010183796017394664,0.0
4.94,-0.0012697676836592657,-0.0016053655680991147,0.0,0.004123805906053706,9.948005080212092e-05,0.0
4.95,-0.001240367620098283,-0.0015681951074328685,0.0,0.004028323750292953,9.717670046940235e-05,0.0
4.96,-0.0012116478481598953,-0.0015318847385465872,0.0,0.003935050967669618,9.492664763830178e-05,0.0
4.97,-0.0011835926375708449,-0.001496414573677029,0.0,0.0038439364712057776,9.27286599193051e-05,0.0
4.98,-0.0011561866215139805,-0.0014617651845780166,0.0,0.003754930354314404,9.058153339789084e-05,0.0
4.99,-0.001129414788236641,-0.0014279175919109284,0.0,0.0036679838635461587,8.848409197709185e-05,0.0
5.0,-0.0011032624728526729,-0.0013948532548800003,0.0,0.0035830493719653713,8.643518673523635e-05,0.0
5.01,-0.0010777153493336082,-0.0013625540611067817,0.0,0.0035000803531390337,8.44336952984716e-05,0.0
5.0200000000000005,-0.0010527594226846422,-0.001331002316738236,0.0,0.0034190313557275276,8.24785212278098e-05,0.0
5.03,-0.0010283810213011473,-0.001300180736783092,0.0,0.003339857978660884,8.056859342029511e-05,0.0
5.04,-0.0010045667895015598,-0.0012700724356711794,0.0,0.0032625168468876863,7.870286552398552e-05,0.0
5.05,-0.000981303680232568,-0.0012406609180306118,0.0,0.003186965587684017,7.688031536644502e-05,0.0
5.0600000000000005,-0.0009585789479426304,-0.001211930069677784,0.0,0.003113162807508695,7.509994439641416e-05,0.0
5.07,-0.0009363801416199393,-0.0011838641488152778,0.0,0.003041068069393304,7.336077713838295e-05,0.0
5.08,-0.0009146950979910381,-0.0011564477774328834,0.0,0.002970641870852674,7.166186065971528e-05,0.0
5.09,-0.0008935119348763826,-0.001129665932907046,0.0,0.002901845622306381,7.00022640501044e-05,0.0
5.1000000000000005,-0.0008728190446992331,-0.0011035039397941653,0.0,0.002834641625997376,6.838107791301876e-05,0.0
5.11,-0.0008526050881443324,-0.001077947461813271,0.0,0.00276899305539779,6.679741386890209e-05,0.0
5.12,-0.0008328589879629231,-0.0010529824940137152,0.0,0.0027048639350889226,6.52504040698092e-05,0.0
5.13,-0.0008135699229207202,-0.0010285953551236013,0.0,0.0026422191211069013,6.373920072527946e-05,0.0
5.14,-0.0007947273218855494,-0.0010047726800747937,0.0,0.0025810242817404182,6.226297563911104e-05,0.0
5.15,-0.0007763208580514238,-0.0009815014127004256,0.0,0.0025212458787730882,6.0820919756866626e-05,0.0
5.16,-0.0007583404432959157,-0.000958768798600932,0.0,0.002462851149157352,5.941224272378364e-05,0.0
5.17,-0.0007407762226677467,-0.0009365623781747171,0.0,0.0024058080871123665,5.8036172452917226e-05,0.0
5.18,-0.0007236185690015934,-0.0009148699798096602,0.0,0.00235008542663438,5.669195470323083e-05,0.0
5.19,-0.0007068624278763454,-0.000893685213207976,0.0,0.0022956667525538235,5.5379193485693436e-05,0.0
5.2,-0.0006905004011530729,-0.0008729987249126038,0.0,0.002242528038043496,5.409730919252476e-05,0.0
5.21,-0.0006745229360180603,-0.0008527984373140603,0.0,0.0021906382585701162,5.2845553407766634e-05,0.0
5.22,-0.0006589207242335899,-0.0008330725820199669,0.0,0.0021399671839063246,5.162319687678808e-05,0.0
5.23,-0.0006436846952827496,-0.0008138096911880376,0.0,0.002090485355867378,5.042952896922005e-05,0.0
5.24,-0.0006288060097328363,-0.00079499858913544,0.0,0.002042164066757093,4.9263857158997846e-05,0.0
5.25,-0.0006142760528092512,-0.0007766283842142805,0.0,0.0019949753384981834,4.8125506520915696e-05,0.0
5.26,-0.0006000864281721238,-0.0007586884609433966,0.0,0.0019488919024205338,4.7013819243051245e-05,0.0
5.2700000000000005,-0.0005862289518882344,-0.0007411684723870682,0.0,0.001903887179684322,4.5928154154507394e-05,0.0
5.28,-0.000572695646591123,-0.00072405833277165,0.0,0.0018599352623132506,4.486788626786745e-05,0.0
5.29,-0.0005594787358225658,-0.0007073482103315094,0.0,0.0018170108948178968,4.383240633589066e-05,0.0
5.3,-0.0005465706385488956,-0.0006910285203760158,0.0,0.0017750894563861894,4.282112042188523e-05,0.0
5.3100000000000005,-0.0005339639638459032,-0.0006750899185696708,0.0,0.0017341469436218991,4.1833449483304164e-05,0.0
5.32,-0.0005216515057463276,-0.0006595232944177949,0.0,0.0016941599538106992,4.0868828968065445e-05,0.0
5.33,-0.0005096262382441804,-0.0006443197649505033,0.0,0.0016551056686958932,3.9926708423168384e-05,0.0
5.34,-0.0004978813104503916,-0.0006294706685979942,0.0,0.001616961838745336,3.900655111515868e-05,0.0
5.3500000000000005,-0.00048641004189448457,-0.0006149675592504634,0.0,0.0015797067678929497,3.810783366204291e-05,0.0
5.36,-0.0004752059179672055,-0.000600802200496227,0.0,0.001543319298737686,3.7230045676237695e-05,0.0
5.37,-0.00046426258549923363,-0.0005869665600318904,0.0,0.0015077787981846655,3.63726894181857e-05,0.0
5.38,-0.00045357384847129667,-0.0005734528042386529,0.0,0.0014730651435127713,3.553527946025867e-05,0.0
5.39,-0.00044313366385119923,-0.000560253292919069,0.0,0.0014391587088549492,3.471734236061805e-05,0.0
5.4,-0.0004329361375534518,-0.0005473605741888119,0.0,0.001406040352076024,3.391841634666243e-05,0.0
5.41,-0.0004229755205173563,-0.0005347673795182031,0.0,0.0013736914020357966,3.313805100777174e-05,0.0
5.42,-0.0004132462048995667,-0.0005224666189184715,0.0,0.001342093646223556,3.2375806997009576e-05,0.0
5.43,-0.0004037427203772988,-0.0005104513762679066,0.0,0.001311229318752167,3.1631255741500645e-05,0.0
5.44,-0.0003944597305585091,-0.0004987149047732528,0.0,0.0012810810886993852,3.090397916118392e-05,0.0
5.45,-0.00038539202949550714,-0.0004872506225618735,0.0,0.0012516320487851182,3.0193569395669937e-05,0.0
5.46,-0.0003765345382985984,-0.00047605210840038543,0.0,0.0012228657043737187,2.949962853893946e-05,0.0
5.47,-0.0003678824194393531,-0.00046511324620812574,0.0,0.0011947663446949415,2.8821777594439787e-05,0.0
5.48,-0.0003594310112552838,-0.00045442814225150576,0.0,0.0011673188301358245,2.8159651343850596e-05,0.0
5.49,-0.0003511755697455222,-0.00044399079869663244,0.0,0.001140507753674226,2.7512878118043784e-05,0.0
5.5,-0.0003431114670726715,-0.0004337953645749334,0.0,0.0011143180855504792,2.6881095348729623e-05,0.0
5.51,-0.000335234188535129,-0.0004238361319552675,0.0,0.0010887351634342537,2.6263949331247852e-05,0.0
5.5200000000000005,-0.0003275393296265049,-0.00041410753222615305,0.0,0.0010637446828746916,2.5661094994193515e-05,0.0
5.53,-0.00032002259317927864,-0.00040460413248449536,0.0,0.0010393326880237708,2.5072195675632944e-05,0.0
5.54,-0.0003126797865899405,-0.00039532063202733775,0.0,0.0010154855626245702,2.449692290571087e-05,0.0
5.55,-0.0003055068191229717,-0.0003862518589432868,0.0,0.0009921900212551509,2.3934956195422434e-05,0.0
5.5600000000000005,-0.0002984996992911142,-0.00037739276680039124,0.0,0.0009694331008208766,2.3385982831380707e-05,0.0
5.57,-0.00029165453230947864,-0.0003687384314273739,0.0,0.0009472021522859333,2.284969767635227e-05,0.0
5.58,-0.000284967517621127,-0.00036028404778522933,0.0,0.0009254848326371632,2.2325802975397945e-05,0.0
5.59,-0.0002784349464918565,-0.000352024926926312,0.0,0.000904269097072836,2.181400816744011e-05,0.0
5.6000000000000005,-0.0002720531996719928,-0.00034395649303814544,0.0,0.0008835431914088858,2.1314029702075746e-05,0.0
5.61,-0.00026581874512308245,-0.00033607428056928147,0.0,0.0008632956446956574,2.0825590861466492e-05,0.0
5.62,-0.000259728135807449,-0.0003283739314346397,0.0,0.0008435152620394292,2.034842158717096e-05,0.0
5.63,-0.00025377800753865245,-0.0003208511922978463,0.0,0.0008241911176212086,1.9882258311734114e-05,0.0
5.64,-0.0002479650768909617,-0.00031350191192818227,0.0,0.0008053125479073007,1.9426843794902944e-05,0.0
5.65,-0.00024228613916601617,-0.00030632203862983716,0.0,0.0007868691450458119,1.89819269643287e-05,0.0
5.66,-0.00023673806641491974,-0.0002993076177412448,0.0,0.0007688507504428975,1.8547262760603844e-05,0.0
5.67,-0.0002313178055140697,-0.0002924547892023563,0.0,0.0007512474485137951,1.8122611986516402e-05,0.0
5.68,-0.00022602237629308506,-0.00028575978518778264,0.0,0.0007340495606027875,1.7707741160378623e-05,0.0
5.69,-0.00022084886971325448,-0.0002792189278038087,0.0,0.0007172476390674905,1.7302422373320585e-05,0.0
5.7,-0.00021579444609498064,-0.0002728286268473535,0.0,0.0007008324615220427,1.6906433150416136e-05,0.0
5.71,-0.00021085633339274753,-0.0002665853776250137,0.0,0.0006847950252348333,1.6519556315537577e-05,0.0
5.72,-0.0002060318255161921,-0.0002604857588303969,0.0,0.0006691265416758758,1.6141579859820106e-05,0.0
5.73,-0.00020131828069590635,-0.0002545264304780074,0.0,0.0006538184312092869,1.5772296813625965e-05,0.0
5.74,-0.00019671311989264483,-0.00024870413189200907,0.0,0.000638862317927133,1.5411505121920276e-05,0.0
5.75,-0.00019221382524865755,-0.00024301567974824802,0.0,0.000624250024619698,1.5059007522936542e-05,0.0
5.76,-0.00018781793857990933,-0.00023745796616796763,0.0,0.0006099735678786624,1.4714611430048737e-05,0.0
5.7700000000000005,-0.00018352305990799198,-0.00023202795686170653,0.0,0.0005960251533293168,1.4378128816756719e-05,0.0
5.78,-0.0001793268460305704,-0.00022672268932191623,0.0,0.0005823971709877692,1.4049376104686197e-05,0.0
5.79,-0.00017522700912924775,-0.00022153927106288628,0.0,0.0005690821907397122,1.372817405452143e-05,0.0
5.8,-0.00017122131541376652,-0.00021647487790661018,0.0,0.0005560729579372824,1.3414347659786802e-05,0.0
5.8100000000000005,-0.00016730758380150194,-0.00021152675231327002,0.0,0.0005433623891103512,1.3107726043388534e-05,0.0
5.82,-0.00016348368463123543,-0.00020669220175506263,0.0,0.0005309435677893794,1.280814235684808e-05,0.0
5.83,-0.0001597475384102309,-0.00020196859713212927,0.0,0.0005188097404362929,1.2515433682141266e-05,0.0
5.84,-0.00015609711459366624,-0.00019735337122939287,0.0,0.0005069543124803795,1.2229440936070436e-05,0.0
5.8500000000000005,-0.00015253043039550497,-0.0001928440172131445,0.0,0.0004953708444565148,1.1950008777106038e-05,0.0
5.86,-0.0001490455496299205,-0.0001884380871662577,0.0,0.0004840530482423459,1.1676985514614319e-05,0.0
5.87,-0.00014564058158241525,-0.00018413319066094597,0.0,0.0004729947833920615,1.1410223020415741e-05,0.0
5.88,-0.00014231367990980297,-0.00017992699336801158,0.0,0.0004621900535639771,1.1149576642606575e-05,0.0
5.89,-0.00013906304156824918,-0.00017581721570156912,0.0,0.00045163300303901777,1.0894905121572601e-05,0.0
5.9,-0.00013588690576859104,-0.00017180163149825721,0.0,0.0004413179133280321,1.064607050814647e-05,0.0
5.91,-0.00013278355295818004,-0.00016787806672998392,0.0,0.00043123919986507196,1.0402938083838305e-05,0.0
5.92,-0.000129751303828517,-0.00016404439824928114,0.0,0.00042139140878450355,1.0165376283088787e-05,0.0
5.93,-0.00012678851834796968,-0.00016029855256637036,0.0,0.00041176921377962967,9.933256617488699e-06,0.0
5.94,-0.000123893594818886,-0.00015663850465707263,0.0,0.0004023674130404495,9.706453601907358e-06,0.0
5.95,-0.00012106496895843685,-0.0001530622768007191,0.0,0.0003931809262685377,9.484844682481434e-06,0.0
5.96,-0.00011830111300254277,-0.00014956793744724673,0.0,0.00038420479176686813,9.268310166411726e-06,0.0
5.97,-0.0001156005348322585,-0.00014615360011268762,0.0,0.0003754341636026097,9.056733153520305e-06,0.0
5.98,-0.00011296177712200817,-0.0001428174223022838,0.0,0.0003668643088408077,8.849999469517494e-06,0.0
5.99,-0.00011038341650908269,-0.00013955760446048381,0.0,0.00035849060484727664,8.647997600938891e-06,0.0
6.0,-0.00010786406278382777,-0.00013637238894709881,0.0,0.00035030853665846666,8.450618631697293e-06,0.0
6.01,-0.00010540235809996932,-0.00013326005903891764,0.0,0.0003423136944169278,8.257756181217816e-06,0.0
6.0200000000000005,-0.00010299697620453766,-0.00013021893795610136,0.0,0.0003345017708703354,8.06930634410587e-06,0.0
6.03,-0.00010064662168687011,-0.00012724738791269815,0.0,0.0003268685589324218,7.885167631308458e-06,0.0
6.04,-9.8350029246185e-05,-0.00012434380919063804,0.0,0.00031940994930439344,7.705240912735141e-06,0.0
6.05,-9.610596297723605e-05,-0.00012150663923658681,0.0,0.0003121219281548961,7.529429361290759e-06,0.0
6.0600000000000005,-9.39132156735703e-05,-0.00011873435178105586,0.0,0.00030500057485719357,7.357638398288514e-06,0.0
6.07,-9.177060814792641e-05,-0.00011602545597918273,0.0,0.00029804205978209945,7.189775640208279e-06,0.0
6.08,-8.967698856932391e-05,-0.00011337849557261398,0.0,0.0002912426421450174,7.025750846759873e-06,0.0
6.09,-8.763123181640685e-05,-0.00011079204807193828,0.0,0.0002845986679057915,6.865475870220368e-06,0.0
6.1000000000000005,-8.563223884661758e-05,-0.00010826472395913384,0.0,0.0002781065677200203,6.708864606012997e-06,0.0
6.11,-8.367893608078927e-05,-0.00010579516590950956,0.0,0.0002717628549403531,6.555832944491533e-06,0.0
6.12,-8.17702748027568e-05,-0.00010338204803263376,0.0,0.0002655641236666818,6.4062987239046326e-06,0.0
6.13,-7.990523057359753e-05,-0.00010102407513175965,0.0,0.0002595070468436983,6.260181684502205e-06,0.0
6.140000000000001,-7.808280266012412e-05,-9.87199819812696e-05,0.0,0.00025358837440490916,6.117403423763132e-06,0.0
6.15,-7.63020134772626e-05,-9.646853262167448e-05,0.0,0.0002478049314615916,5.977887352706608e-06,0.0
6.16,-7.456190804395908e-05,-9.426851967171718e-05,0.0,0.0002421536165357509,5.841558653265121e-06,0.0
6.17,-7.28615534522683e-05,-9.211876365714208e-05,0.0,0.00023663139983592655,5.708344236691239e-06,0.0
6.18,-7.120003834928713e-05,-9.001811235570419e-05,0.0,0.0002312353215746453,5.5781727029688495e-06,0.0
6.19,-6.95764724316055e-05,-8.796544015800418e-05,0.0,0.0002259624903265622,5.450974301205974e-06,0.0
6.2,-6.798998595195631e-05,-8.595964744374652e-05,0.0,0.0002208100814262171,5.326680890983332e-06,0.0
6.21,-6.643972923775444e-05,-8.399965997302902e-05,0.0,0.00021577533540441694,5.205225904634658e-06,0.0
6.22,-6.492488103444661e-05,-8.208443943482876e-05,0.0,0.00021085558508475406,5.086545000905557e-06,0.0
6.23,-6.344467032840946e-05,-8.021301103766269e-05,0.0,0.00020604832645759237,4.970577774672389e-06,0.0
6.24,-6.199830045663891e-05,-7.838436756157036e-05,0.0,0.00020135097221216143,4.857261811308287e-06,0.0
6.25,-6.058499329549861e-05,-7.659752522588892e-05,0.0,0.00019676099524772972,4.746536148654785e-06,0.0
6.26,-5.920398881941437e-05,-7.485152313131102e-05,0.0,0.00019227592724036847,4.638341242447328e-06,0.0
6.2700000000000005,-5.785454467051841e-05,-7.314542271578674e-05,0.0,0.00018789335724530182,4.5326189325992556e-06,0.0
6.28,-5.653593573895238e-05,-7.147830722390114e-05,0.0,0.00018361093033387194,4.429312410320887e-06,0.0
6.29,-5.524745375354613e-05,-6.984928118937005e-05,0.0,0.00017942634626416933,4.328366186050564e-06,0.0
6.3,-5.398840688259769e-05,-6.825746993030672e-05,0.0,0.00017533735818451343,4.2297260581783265e-06,0.0
6.3100000000000005,-5.2758119344487924e-05,-6.670201905692252e-05,0.0,0.00017134177136883793,4.133339082539106e-06,0.0
6.32,-5.155593102787138e-05,-6.518209399133461e-05,0.0,0.00016743744198319474,4.039153542656685e-06,0.0
6.33,-5.0381197121191804e-05,-6.369687949916297e-05,0.0,0.00016362227588253441,3.947118920717978e-06,0.0
6.34,-4.923328775127865e-05,-6.224557923260853e-05,0.0,0.00015989422743699724,3.857185869259287e-06,0.0
6.3500000000000005,-4.811158763078753e-05,-6.082741528471246e-05,0.0,0.00015625129838687913,3.7693061835441388e-06,0.0
6.36,-4.701549571425459e-05,-5.944162775450632e-05,0.0,0.00015269153672563813,3.6834327746177355e-06,0.0
6.37,-4.594442486254129e-05,-5.8087474322769966e-05,0.0,0.00014921303561009046,3.5995196430171658e-06,0.0
6.38,-4.4897801515452385e-05,-5.6764229838122906e-05,0.0,0.0001458139322971887,3.517521853122938e-06,0.0
6.390000000000001,-4.3875065372316124e-05,-5.547118591318237e-05,0.0,0.00014249240710665444,3.4373955081342443e-06,0.0
6.4,-4.2875669080321765e-05,-5.42076505305287e-05,0.0,0.00013924668240877935,3.3590977256512377e-06,0.0
6.41,-4.189907793041496e-05,-5.297294765822642e-05,0.0,0.00013607502163680375,3.282586613850356e-06,0.0
6.42,-4.0944769560557524e-05,-5.17664168746559e-05,0.0,0.00013297572832318518,3.2078212482358292e-06,0.0
6.43,-4.001223366616321e-05,-5.0587413002417756e-05,0.0,0.00012994714515919442,3.1347616489540202e-06,0.0
6.44,-3.910097171752662e-05,-4.9435305751078505e-05,0.0,0.00012698765307720948,3.063368758655241e-06,0.0
6.45,-3.8210496684067236e-05,-4.830947936853275e-05,0.0,0.0001240956703551461,2.993604420889629e-06,0.0
6.46,-3.7340332765215575e-05,-4.720933230076291e-05,0.0,0.00012126965174246981,2.9254313590236275e-06,0.0
6.47,-3.649001512777334e-05,-4.613427685978395e-05,0.0,0.0001185080876072135,2.8588131556631667e-06,0.0
6.48,-3.565908964958382e-05,-4.5083738899566257e-05,0.0,0.00011580950310349409,2.7937142325713407e-06,0.0
6.49,-3.484711266935349e-05,-4.405715749973544e-05,0.0,0.00011317245735902399,2.730099831068505e-06,0.0
6.5,-3.405365074247005e-05,-4.3053984656853364e-05,0.0,0.00011059554268209983,2.6679359929022206e-06,0.0
6.51,-3.327828040266621e-05,-4.2073684983090026e-05,0.0,0.0001080773837875161,2.607189541573545e-06,0.0
6.5200000000000005,-3.25205879293829e-05,-4.111573541210119e-05,0.0,0.00010561663704107666,2.547828064112251e-06,0.0
6.53,-3.178016912068918e-05,-4.017962491193128e-05,0.0,0.00010321198972209173,2.489819893285724e-06,0.0
6.54,-3.1056629071620284e-05,-3.926485420476653e-05,0.0,0.00010086215930349003,2.433134090232836e-06,0.0
6.55,-3.0349581957798822e-05,-3.837093549336749e-05,0.0,9.856589274909919e-05,2.3777404275120335e-06,0.0
6.5600000000000005,-2.965865082420763e-05,-3.749739219401491e-05,0.0,9.632196582762597e-05,2.3236093725521687e-06,0.0
6.57,-2.8983467378986648e-05,-3.664375867580737e-05,0.0,9.412918244299255e-05,2.2707120714980236e-06,0.0
6.58,-2.832367179212915e-05,-3.5809580006153175e-05,0.0,9.198637398055824e-05,2.2190203334389535e-06,0.0
6.59,-2.767891249895635e-05,-3.49944117023036e-05,0.0,8.989239866886592e-05,2.168506615012069e-06,0.0
6.6000000000000005,-2.7048846008252317e-05,-3.4197819488778084e-05,0.0,8.784614095652228e-05,2.119144005370486e-06,0.0
6.61,-2.6433136714944408e-05,-3.341937906053642e-05,0.0,8.584651090385139e-05,2.0709062115079933e-06,0.0
6.62,-2.583145671721744e-05,-3.265867585175636e-05,0.0,8.389244358893071e-05,2.0237675439306187e-06,0.0
6.63,-2.524348563795266e-05,-3.191530481007922e-05,0.0,8.198289852768439e-05,1.9777029026673458e-06,0.0
6.640000000000001,-2.4668910450385468e-05,-3.1188870176189155e-05,0.0,8.011685910767549e-05,1.932687763611277e-06,0.0
6.65,-2.4107425307878737e-05,-3.047898526859576e-05,0.0,7.829333203526107e-05,1.888698165183156e-06,0.0
6.66,-2.3558736987395685e-05,-2.9785279365809542e-05,0.0,7.651136501427579e-05,1.8457111348005854e-06,0.0
6.67,-2.302255483051959e-05,-2.9107384988786643e-05,0.0,7.477001407764334e-05,1.80370390080681e-06,0.0
6.68,-2.2498592907667624e-05,-2.8444940637141553e-05,0.0,7.306835061604401e-05,1.7626540620257247e-06,0.0
6.69,-2.1986571867859063e-05,-2.7797593127806495e-05,0.0,7.140546738538788e-05,1.7225397326823307e-06,0.0
6.7,-2.148621878544992e-05,-2.7164997401258267e-05,0.0,6.978047800905883e-05,1.6833395303952102e-06,0.0
6.71,-2.0997267010524902e-05,-2.6546816332368964e-05,0.0,6.819251649203668e-05,1.6450325644555052e-06,0.0
6.72,-2.0519456022855526e-05,-2.5942720545765465e-05,0.0,6.664073674658801e-05,1.6075984243849655e-06,0.0
6.73,-2.0052531289335738e-05,-2.5352388235585435e-05,0.0,6.512431212927345e-05,1.5710171687670456e-06,0.0
6.74,-1.959624412480861e-05,-2.477550498952073e-05,0.0,6.364243498895124e-05,1.535269314343209e-06,0.0
6.75,-1.915035155620011e-05,-2.4211763617041882e-05,0.0,6.219431622552791e-05,1.5003358253685206e-06,0.0
6.76,-1.871461618987814e-05,-2.366086398170036e-05,0.0,6.077918485918681e-05,1.466198103220007e-06,0.0
6.7700000000000005,-1.8288806082157195e-05,-2.312251283740772e-05,0.0,5.9396287609811704e-05,1.4328379762508865e-06,0.0
6.78,-1.7872694612871075e-05,-2.2596423668593807e-05,0.0,5.8044888486413865e-05,1.40023768988625e-06,0.0
6.79,-1.746606036193817e-05,-2.2082316534148393e-05,0.0,5.6724268386229345e-05,1.3683798969518522e-06,0.0
6.8,-1.7068686988845815e-05,-2.1579917915053392e-05,0.0,5.543372470335325e-05,1.3372476482331623e-06,0.0
6.8100000000000005,-1.6680363114982062e-05,-2.1088960565615115e-05,0.0,5.417257094656195e-05,1.3068243832558533e-06,0.0
6.82,-1.630088220874521e-05,-2.0609183368208376e-05,0.0,5.294013636619288e-05,1.2770939212849208e-06,0.0
6.83,-1.5930042473363143e-05,-2.0140331191446637e-05,0.0,5.17357655898333e-05,1.248040452536325e-06,0.0
6.84,-1.5567646737356352e-05,-1.968215475169456e-05,0.0,5.055881826655027e-05,1.2196485295945232e-06,0.0
6.8500000000000005,-1.5213502347580158e-05,-1.9234410477841444e-05,0.0,4.940866871955117e-05,1.1919030590335677e-06,0.0
6.86,-1.4867421064783465e-05,-1.8796860379256268e-05,0.0,4.8284705606977775e-05,1.16478929323427e-06,0.0
6.87,-1.4529218961622784e-05,-1.8369271916846983e-05,0.0,4.7186331590689245e-05,1.138292822394138e-06,0.0
6.88,-1.4198716323072019e-05,-1.7951417877148745e-05,0.0,4.611296301282929e-05,1.1123995667251073e-06,0.0
6.890000000000001,-1.3875737549169953e-05,-1.7543076249367658e-05,0.0,4.5064029579975534e-05,1.0870957688341464e-06,0.0
6.9,-1.3560111060048835e-05,-1.7144030105308583e-05,0.0,4.403897405470498e-05,1.062367986282786e-06,0.0
6.91,-1.3251669203188997e-05,-1.6754067482117258e-05,0.0,4.303725195438597e-05,1.0382030843209715e-06,0.0
6.92,-1.295024816284576e-05,-1.6372981267768855e-05,0.0,4.205833125702327e-05,1.0145882287910511e-06,0.0
6.93,-1.2655687871596245e-05,-1.6000569089236743e-05,0.0,4.1101692113992845e-05,9.91510879197982e-07,0.0
6.94,-1.2367831923955126e-05,-1.5636633203276996e-05,0.0,4.0166826569491266e-05,9.689587819415034e-07,0.0
6.95,-1.2086527492009546e-05,-1.528098038976572e-05,0.0,3.925323828654361e-05,9.469199637065223e-07,0.0
6.96,-1.1811625243024726e-05,-1.4933421847527954e-05,0.0,3.836044227941527e-05,9.253827250079978e-07,0.0
6.97,-1.1542979258973012e-05,-1.4593773092598345e-05,0.0,3.748796465226562e-05,9.043356338863833e-07,0.0
6.98,-1.1280446957940296e-05,-1.4261853858855387e-05,0.0,3.6635342343901e-05,8.83767519750212e-07,0.0
6.99,-1.1023889017364871e-05,-1.393748800097242e-05,0.0,3.580212287847825e-05,8.636674673622255e-07,0.0
7.0,-1.0773169299064973e-05,-1.3620503399630044e-05,0.0,3.4987864122018985e-05,8.440248109656859e-07,0.0
7.01,-1.052815477601227e-05,-1.3310731868935938e-05,0.0,3.419213404459083e-05,8.248291285473823e-07,0.0
7.0200000000000005,-1.028871546080968e-05,-1.3008009065999479e-05,0.0,3.34145104880294e-05,8.06070236234314e-07,0.0
7.03,-1.005472433583295e-05,-1.2712174402609809e-05,0.0,3.2654580939056785e-05,7.877381828205363e-07,0.0
7.04,-9.826057284996361e-06,-1.2423070958967326e-05,0.0,3.191194230767915e-05,7.698232444213698e-07,0.0
7.05,-9.60259302710398e-06,-1.2140545399419763e-05,0.0,3.1186200710734636e-05,7.523159192518571e-07,0.0
7.0600000000000005,-9.384213050748825e-06,-1.1864447890155274e-05,0.0,3.0476971260460094e-05,7.352069225262576e-07,0.0
7.07,-9.170801550723183e-06,-1.15946320188061e-05,0.0,2.9783877857980575e-05,7.18487181476354e-07,0.0
7.08,-8.962245365904291e-06,-1.133095471591751e-05,0.0,2.9106552991575364e-05,7.021478304849268e-07,0.0
7.09,-8.75843391858045e-06,-1.1073276178237905e-05,0.0,2.8444637539628804e-05,6.861802063322717e-07,0.0
7.1000000000000005,-8.559259155183489e-06,-1.0821459793786926e-05,0.0,2.779778057815332e-05,6.705758435530239e-07,0.0
7.11,-8.36461548839434e-06,-1.0575372068659636e-05,0.0,2.7165639192755696e-05,6.553264699001151e-07,0.0
7.12,-8.174399740589307e-06,-1.0334882555525699e-05,0.0,2.654787829498067e-05,6.404240019144104e-07,0.0
7.13,-7.988511088595384e-06,-1.0099863783783606e-05,0.0,2.5944170442887273e-05,6.258605405963809e-07,0.0
7.140000000000001,-7.8068510097238e-06,-9.870191191330963e-06,0.0,2.5354195665778676e-05,6.11628367177987e-07,0.0
7.15,-7.6293232290516184e-06,-9.645743057912687e-06,0.0,2.477764129300181e-05,5.977199389927932e-07,0.0
7.16,-7.455833667922108e-06,-9.426400440010087e-06,0.0,2.4214201786680612e-05,5.841278854408883e-07,0.0
7.17,-7.28629039363513e-06,-9.212047107234503e-06,0.0,2.3663578578329988e-05,5.708450040474799e-07,0.0
7.18,-7.1206035702996626e-06,-9.0025694801902e-06,0.0,2.3125479909243435e-05,5.578642566125185e-07,0.0
7.19,-6.958685410821126e-06,-8.797856569772032e-06,0.0,2.2599620674559547e-05,5.451787654490457e-07,0.0
7.2,-6.800450129996892e-06,-8.597799917864136e-06,0.0,2.2085722270933322e-05,5.32781809708521e-07,0.0
7.21,-6.64581389869402e-06,-8.40229353940691e-06,0.0,2.158351244771656e-05,5.206668217907842e-07,0.0
7.22,-6.494694799083836e-06,-8.211233865800167e-06,0.0,2.1092725161577807e-05,5.088273838370137e-07,0.0
7.23,-6.3470127809086315e-06,-8.02451968961116e-06,0.0,2.0613100434467672e-05,4.972572243033598e-07,0.0
7.24,-6.2026896187563294e-06,-7.84205211055702e-06,0.0,2.014438421486048e-05,4.859502146136332e-07,0.0
7.25,-6.061648870319551e-06,-7.66373448273173e-06,0.0,1.968632824219478e-05,4.7490036588915584e-07,0.0
7.26,-5.9238158356160825e-06,-7.489472363048633e-06,0.0,1.9238689914432642e-05,4.641018257538441e-07,0.0
7.2700000000000005,-5.7891175171482995e-06,-7.319173460870042e-06,0.0,1.8801232158670514e-05,4.535488752129097e-07,0.0
7.28,-5.6574826301507705e-06,-7.152747650963259e-06,0.0,1.8373723464419457e-05,4.4323592945568715e-07,0.0
7.29,-5.5288414742733416e-06,-6.990106811269695e-06,0.0,1.795593746687368e-05,4.33157527802676e-07,0.0
7.3,-5.403125924195409e-06,-6.831164811038485e-06,0.0,1.75476529164275e-05,4.2330833297018374e-07,0.0
7.3100000000000005,-5.28026940700907e-06,-6.675837482232052e-06,0.0,1.7148653605222685e-05,4.1368312929840114e-07,0.0
7.32,-5.160206866737226e-06,-6.524042574666383e-06,0.0,1.675872825191546e-05,4.0427681997159853e-07,0.0
7.33,-5.042874729667658e-06,-6.375699712182952e-06,0.0,1.637767038909219e-05,3.950844243022101e-07,0.0
7.34,-4.928210870484099e-06,-6.2307303498282815e-06,0.0,1.6005278253272742e-05,3.861010750773474e-07,0.0
7.3500000000000005,-4.8161545791757376e-06,-6.089057732017666e-06,0.0,1.5641354677444866e-05,3.7732201596636903e-07,0.0
7.36,-4.706646528707057e-06,-5.950606851660204e-06,0.0,1.528570698606437e-05,3.687425989879294e-07,0.0
7.37,-4.599628743430356e-06,-5.815304410222781e-06,0.0,1.4938146892469137e-05,3.603582820352604e-07,0.0
7.38,-4.495044568223679e-06,-5.683078778711199e-06,0.0,1.4598490398649647e-05,3.521646264583013e-07,0.0
7.390000000000001,-4.392838638337313e-06,-5.553859959547148e-06,0.0,1.4266557697318933e-05,3.4415729470129676e-07,0.0
7.4,-4.292956849932439e-06,-5.427579549320253e-06,0.0,1.3942173076232858e-05,3.363320479946807e-07,0.0
7.41,-4.195346331295836e-06,-5.304170702394873e-06,0.0,1.3625164824702495e-05,3.286847440998403e-07,0.0
7.42,-4.09995541471501e-06,-5.183568095351861e-06,0.0,1.3315365142254925e-05,3.2121133510570625e-07,0.0
7.43,-4.006733608998418e-06,-5.06570789224592e-06,0.0,1.3012610049386704e-05,3.1390786527582857e-07,0.0
7.44,-3.915631572625859e-06,-4.950527710659674e-06,0.0,1.2716739300366609e-05,3.067704689448898e-07,0.0
7.45,-3.826601087514427e-06,-4.837966588536009e-06,0.0,1.242759629803108e-05,2.9979536846327017e-07,0.0
7.46,-3.7395950333858098e-06,-4.727964951770673e-06,0.0,1.2145028010544072e-05,2.929788721890372e-07,0.0
7.47,-3.6545673627209907e-06,-4.6204645825475404e-06,0.0,1.186888489005222e-05,2.863173725256177e-07,0.0
7.48,-3.5714730762887978e-06,-4.515408588399398e-06,0.0,1.1599020793211388e-05,2.7980734400463805e-07,0.0
7.49,-3.4902681992350273e-06,-4.412741371977448e-06,0.0,1.1335292903531693e-05,2.734453414126245e-07,0.0
7.5,-3.410909757719191e-06,-4.312408601513179e-06,0.0,1.1077561655501238e-05,2.6722799796061417e-07,0.0
7.51,-3.333355756086244e-06,-4.21435718195662e-06,0.0,1.0825690660446444e-05,2.611520234956556e-07,0.0
7.5200000000000005,-3.257565154560945e-06,-4.118535226775339e-06,0.0,1.0579546634089693e-05,2.552142027532526e-07,0.0
7.53,-3.183497847452779e-06,-4.02489203039897e-06,0.0,1.0338999325768056e-05,2.494113936498898e-07,0.0
7.54,-3.1111146418596828e-06,-3.933378041294346e-06,0.0,1.0103921449267133e-05,2.437405256145057e-07,0.0
7.55,-3.040377236859055e-06,-3.8439448356567375e-06,0.0,9.874188615242005e-06,2.3819859795826316e-07,0.0
7.5600000000000005,-2.97124820317483e-06,-3.7565450917029456e-06,0.0,9.649679265181102e-06,2.327826782815339e-07,0.0
7.57,-2.903690963309636e-06,-3.6711325645524297e-06,0.0,9.430274606881882e-06,2.2748990091735525e-07,0.0
7.58,-2.8938760473657077e-06,-3.6587235795759323e-06,0.0,9.398398848144323e-06,2.267209505421899e-07,0.0
7.59,-2.884302321579473e-06,-3.6466195309901682e-06,0.0,9.367306399149008e-06,2.259708962292372e-07,0.0
7.6000000000000005,-2.8749622952853507e-06,-3.6348109483567587e-06,0.0,9.336972932570502e-06,2.252391511216878e-07,0.0
7.61,-2.865848766962558e-06,-3.623288726802699e-06,0.0,9.307375060135968e-06,2.2452515101583936e-07,0.0
7.62,-2.8569548104823617e-06,-3.6120441096327833e-06,0.0,9.278490287958251e-06,2.238283532835726e-07,0.0
7.63,-2.848273762135731e-06,-3.601068671928681e-06,0.0,9.250296974407154e-06,2.231482358560709e-07,0.0
7.640000000000001,-2.839799208390146e-06,-3.5903543050698863e-06,0.0,9.22277429034682e-06,2.2248429626460895e-07,0.0
7.65,-2.8315249743281445e-06,-3.579893202116588e-06,0.0,9.195902181588724e-06,2.2183605073479626e-07,0.0
7.66,-2.823445112723667e-06,-3.5696778439989103e-06,0.0,9.169661333413437e-06,2.2120303333071884e-07,0.0
7.67,-2.8155538937154702e-06,-3.559700986461017e-06,0.0,9.144033137034731e-06,2.2058479514594384e-07,0.0
7.68,-2.807845795039825e-06,-3.5499556477123336e-06,0.0,9.118999657877718e-06,2.199809035382814e-07,0.0
7.69,-2.8003154927874255e-06,-3.5404350967415116e-06,0.0,9.094543605560395e-06,2.1939094140563818e-07,0.0
7.7,-2.7929578526519183e-06,-3.531132842251959e-06,0.0,9.070648305470542e-06,2.1881450650035298e-07,0.0
7.71,-2.7857679216397658e-06,-3.5220426221806354e-06,0.0,9.047297671843736e-06,2.1825121077975437e-07,0.0
7.72,-2.7787409202132583e-06,-3.513158393764467e-06,0.0,9.02447618224599e-06,2.177006797905951e-07,0.0
7.73,-2.7718722348404616e-06,-3.504474324121257e-06,0.0,9.002168853376427e-06,2.1716255208532455e-07,0.0
7.74,-2.765157410927654e-06,-3.495984781314179e-06,0.0,8.980361218116972e-06,2.1663647866846058e-07,0.0
7.75,-2.7585921461114986e-06,-3.487684325871074e-06,0.0,8.95903930374468e-06,2.1612212247098762e-07,0.0
7.76,-2.7521722838897184e-06,-3.479567702731725e-06,0.0,8.938189611248038e-06,2.1561915785140354e-07,0.0
7.7700000000000005,-2.7458938075704504e-06,-3.4716298335980324e-06,0.0,8.91779909567642e-06,2.1512727012168175e-07,0.0
7.78,-2.7397528345217967e-06,-3.463865809663731e-06,0.0,8.89785514746163e-06,2.1464615509667593e-07,0.0
7.79,-2.7337456107042887e-06,-3.456270884701788e-06,0.0,8.878345574666722e-06,2.1417551866591943e-07,0.0
7.8,-2.7278685054701005e-06,-3.4488404684890596e-06,0.0,8.859258586087841e-06,2.137150763859602e-07,0.0
7.8100000000000005,-2.7221180066139185e-06,-3.4415701205491084e-06,0.0,8.840582775188912e-06,2.1326455309283763e-07,0.0
7.82,-2.7164907156613206e-06,-3.4344555441953127e-06,0.0,8.822307104793528e-06,2.1282368253277913e-07,0.0
7.83,-2.7109833433814357e-06,-3.4274925808575217e-06,0.0,8.804420892514757e-06,2.1239220701072878e-07,0.0
7.84,-2.7055927055114725e-06,-3.420677204676589e-06,0.0,8.786913796868957e-06,2.1196987705536212e-07,0.0
7.8500000000000005,-2.7003157186815073e-06,-3.4140055173520814e-06,0.0,8.769775804040962e-06,2.1155645109982073e-07,0.0
7.86,-2.6951493965286213e-06,-3.4074737432293936e-06,0.0,8.752997215264082e-06,2.1115169517727406e-07,0.0
7.87,-2.690090845990169e-06,-3.4010782246133282e-06,0.0,8.736568634780437e-06,2.1075538263047817e-07,0.0
7.88,-2.6851372637665717e-06,-3.394815417296014e-06,0.0,8.720480958355024e-06,2.103672938347028e-07,0.0
7.890000000000001,-2.6802859329446228e-06,-3.3886818862877502e-06,0.0,8.704725362309426e-06,2.0998721593318713e-07,0.0
7.9,-2.675534219772831e-06,-3.382674301740084e-06,0.0,8.68929329304677e-06,2.0961494258443967e-07,0.0
7.91,-2.6708795705808434e-06,-3.3767894350510353e-06,0.0,8.674176457049451e-06,2.092502737209577e-07,0.0
7.92,-2.6663195088354458e-06,-3.371024155143004e-06,0.0,8.659366811317148e-06,2.08893015318557e-07,0.0
7.930000000000001,-2.6618516323261024e-06,-3.3653754249044552e-06,0.0,8.64485655422522e-06,2.0854297917584247e-07,0.0
7.94,-2.6574736104733967e-06,-3.359840297786978e-06,0.0,8.630638116785383e-06,2.081999827033925e-07,0.0
7.95,-2.653183181754117e-06,-3.3544159145498285e-06,0.0,8.616704154282192e-06,2.0786384872200045e-07,0.0
7.96,-2.648978151237108e-06,-3.3490995001445116e-06,0.0,8.603047538269418e-06,2.075344052695962e-07,0.0
7.97,-2.6448563882243312e-06,-3.3438883607323735e-06,0.0,8.589661348910362e-06,2.0721148541647427e-07,0.0
7.98,-2.6408158239918986e-06,-3.338779880828595e-06,0.0,8.57653886764079e-06,2.0689492708829715e-07,0.0
7.99,-2.6368544496261432e-06,-3.3337715205663404e-06,0.0,8.563673570141123e-06,2.0658457289656032e-07,0.0
8.0,-2.6329703139500667e-06,-3.3288608130751645e-06,0.0,8.55105911960288e-06,2.0628026997615866e-07,0.0
8.01,-2.629161521535754e-06,-3.3240453619681133e-06,0.0,8.538689360271595e-06,2.0598186982961334e-07,0.0
8.02,-2.6254262307986055e-06,-3.319322838932264e-06,0.0,8.526558311261009e-06,2.0568922817786084e-07,0.0
8.03,-2.6217626521694566e-06,-3.314690981417738e-06,0.0,8.51466016061316e-06,2.0540220481695063e-07,0.0
8.040000000000001,-2.618169046340861e-06,-3.310147590420479e-06,0.0,8.502989259604343e-06,2.051206634806911e-07,0.0
8.05,-2.614643722584035e-06,-3.3056905283543693e-06,0.0,8.491540117279875e-06,2.0484447170881162e-07,0.0
8.06,-2.6111850371331353e-06,-3.301317717008471e-06,0.0,8.480307395205548e-06,2.0457350072034715e-07,0.0
8.07,-2.607791391633717e-06,-3.297027135585419e-06,0.0,8.469285902428784e-06,2.043076252920835e-07,0.0
8.08,-2.6044612316524084e-06,-3.292816818817199e-06,0.0,8.45847059063956e-06,2.0404672364182643e-07,0.0
8.09,-2.601193045244965e-06,-3.288684855154744e-06,0.0,8.447856549517872e-06,2.0379067731616068e-07,0.0
8.1,-2.5979853615800385e-06,-3.2846293850279674e-06,0.0,8.437439002266762e-06,2.0353937108269914e-07,0.0
8.11,-2.5948367496161287e-06,-3.2806485991730312e-06,0.0,8.427213301313941e-06,2.0329269282638722e-07,0.0
8.120000000000001,-2.591745816829305e-06,-3.276740737023811e-06,0.0,8.41717492417972e-06,2.03050533449823e-07,0.0
8.13,-2.5887112079894293e-06,-3.2729040851646724e-06,0.0,8.407319469502955e-06,2.0281278677739045e-07,0.0
8.14,-2.585731603982715e-06,-3.2691369758418353e-06,0.0,8.397642653217136e-06,2.0257934946301515e-07,0.0
8.15,-2.582805720678564e-06,-3.2654377855307198e-06,0.0,8.388140304869904e-06,2.0235012090137611e-07,0.0
8.16,-2.5799323078387422e-06,-3.2618049335568143e-06,0.0,8.378808364081072e-06,2.0212500314246475e-07,0.0
8.17,-2.577110148067032e-06,-3.258236880767723e-06,0.0,8.369642877130938e-06,2.0190390080928126e-07,0.0
8.18,-2.574338055797612e-06,-3.25473212825418e-06,0.0,8.360639993674434e-06,2.0168672101856793e-07,0.0
8.19,-2.5716148763204875e-06,-3.251289216117897e-06,0.0,8.351795963576905e-06,2.0147337330448e-07,0.0
8.2,-2.568939484842381e-06,-3.2479067222842536e-06,0.0,8.343107133864012e-06,2.012637695450063e-07,0.0
8.21,-2.5663107855815834e-06,-3.2445832613579125e-06,0.0,8.334569945781232e-06,2.0105782389103315e-07,0.0
8.22,-2.563727710895302e-06,-3.2413174835195334e-06,0.0,8.326180931960626e-06,2.008554526979976e-07,0.0
8.23,-2.561189220438171e-06,-3.2381080734618743e-06,0.0,8.31793671368814e-06,2.006565744599687e-07,0.0
8.24,-2.5586943003505893e-06,-3.2349537493636103e-06,0.0,8.309833998266457e-06,2.0046110974602544e-07,0.0
8.25,-2.5562419624756735e-06,-3.2318532618993293e-06,0.0,8.301869576472922e-06,2.00268981138937e-07,0.0
8.26,-2.5538312436036206e-06,-3.228805393284176e-06,0.0,8.294040320105733e-06,2.0008011317596992e-07,0.0
8.27,-2.551461204742372e-06,-3.2258089563517596e-06,0.0,8.286343179613382e-06,1.998944322916957e-07,0.0
8.28,-2.5491309304134974e-06,-3.2228627936639363e-06,0.0,8.278775181810488e-06,1.997118667628969e-07,0.0
8.290000000000001,-2.5468395279722797e-06,-3.2199657766511956e-06,0.0,8.271333427667704e-06,1.9953234665524725e-07,0.0
8.3,-2.544586126951021e-06,-3.2171168047824027e-06,0.0,8.264015090179958e-06,1.993558037718884e-07,0.0
8.31,-2.5423698784246483e-06,-3.2143148047627326e-06,0.0,8.256817412305525e-06,1.9918217160371215e-07,0.0
8.32,-2.540189954397717e-06,-3.211558729758664e-06,0.0,8.249737704975654e-06,1.990113852813471e-07,0.0
8.33,-2.538045547211984e-06,-3.2088475586489696e-06,0.0,8.242773345170972e-06,1.9884338152875646e-07,0.0
8.34,-2.5359358689737205e-06,-3.2061802953006727e-06,0.0,8.235921774060255e-06,1.986780986183348e-07,0.0
8.35,-2.5338601510000135e-06,-3.203555967869004e-06,0.0,8.229180495202896e-06,1.985154763275474e-07,0.0
8.36,-2.5318176432832984e-06,-3.200973628120412e-06,0.0,8.222547072811e-06,1.9835545589701047e-07,0.0
8.370000000000001,-2.5298076139734364e-06,-3.198432350777754e-06,0.0,8.216019130065276e-06,1.9819797998985786e-07,0.0
8.38,-2.5278293488766456e-06,-3.195931232886796e-06,0.0,8.209594347489206e-06,1.9804299265252482e-07,0.0
8.39,-2.525882150970654e-06,-3.1934693932032217e-06,0.0,8.203270461373164e-06,1.9789043927672933e-07,0.0
8.4,-2.5239653399354607e-06,-3.1910459715993707e-06,0.0,8.197045262252662e-06,1.9774026656276862e-07,0.0
8.41,-2.5220782516991003e-06,-3.1886601284899538e-06,0.0,8.19091659343043e-06,1.9759242248385858e-07,0.0
8.42,-2.5202202379978667e-06,-3.1863110442760444e-06,0.0,8.184882349549771e-06,1.9744685625172264e-07,0.0
8.43,-2.5183906659504453e-06,-3.1839979188066496e-06,0.0,8.17894047521192e-06,1.973035182832406e-07,0.0
8.44,-2.5165889176454396e-06,-3.181719970857225e-06,0.0,8.173088963634903e-06,1.971623601680898e-07,0.0
8.45,-2.5148143897418027e-06,-3.1794764376245e-06,0.0,8.167325855356232e-06,1.970233346374504e-07,0.0
8.46,-2.5130664930816925e-06,-3.17726657423701e-06,0.0,8.161649236977334e-06,1.9688639553372423e-07,0.0
8.47,-2.511344652315312e-06,-3.1750896532807833e-06,0.0,8.156057239942391e-06,1.9675149778106606e-07,0.0
8.48,-2.5096483055372767e-06,-3.172944964339602e-06,0.0,8.150548039360475e-06,1.966185973569793e-07,0.0
8.49,-2.507976903934124e-06,-3.1708318135493456e-06,0.0,8.145119852857291e-06,1.964876512646066e-07,0.0
8.5,-2.5063299114425394e-06,-3.1687495231658885e-06,0.0,8.13977093946831e-06,1.9635861750603657e-07,0.0
8.51,-2.5047068044179265e-06,-3.166697431146076e-06,0.0,8.1344995985604e-06,1.962314550562843e-07,0.0
8.52,-2.5031070713129653e-06,-3.1646748907413204e-06,0.0,8.129304168789305e-06,1.9610612383814785e-07,0.0
8.53,-2.5015302123657857e-06,-3.1626812701033654e-06,0.0,8.124183027085032e-06,1.9598258469772435e-07,0.0
8.540000000000001,-2.499975739297436e-06,-3.1607159519017915e-06,0.0,8.119134587671682e-06,1.958607993807739e-07,0.0
8.55,-2.49844317501832e-06,-3.1587783329528662e-06,0.0,8.114157301112371e-06,1.957407305096743e-07,0.0
8.56,-2.4969320533432837e-06,-3.156867823859328e-06,0.0,8.109249653383823e-06,1.956223415610963e-07,0.0
8.57,-2.4954419187150585e-06,-3.1549838486607384e-06,0.0,8.104410164979953e-06,1.9550559684438538e-07,0.0
8.58,-2.493972325935781e-06,-3.153125844494039e-06,0.0,8.099637390038029e-06,1.9539046148047505e-07,0.0
8.59,-2.492522839906302e-06,-3.1512932612639632e-06,0.0,8.094929915492749e-06,1.9527690138148296e-07,0.0
8.6,-2.49109303537303e-06,-3.149485561322969e-06,0.0,8.090286360254555e-06,1.951648832308908e-07,0.0
8.61,-2.4896824966820497e-06,-3.147702219160373e-06,0.0,8.085705374409889e-06,1.950543744642476e-07,0.0
8.620000000000001,-2.488290817540275e-06,-3.1459427211003743e-06,0.0,8.081185638447102e-06,1.9494534325050126e-07,0.0
8.63,-2.486917600783399e-06,-3.1442065650086773e-06,0.0,8.07672586250145e-06,1.9483775847378185e-07,0.0
8.64,-2.485562458150423e-06,-3.1424932600074235e-06,0.0,8.072324785623082e-06,1.9473158971574153e-07,0.0
8.65,-2.484225010064529e-06,-3.1408023261981564e-06,0.0,8.067981175065936e-06,1.9462680723840494e-07,0.0
8.66,-2.4829048854201133e-06,-3.139133294392562e-06,0.0,8.063693825596456e-06,1.9452338196749205e-07,0.0
8.67,-2.4816017213757606e-06,-3.137485705850728e-06,0.0,8.059461558819048e-06,1.9442128547614027e-07,0.0
8.68,-2.48031516315297e-06,-3.1358591120266746e-06,0.0,8.055283222524872e-06,1.9432048996920232e-07,0.0
8.69,-2.479044863840453e-06,-3.134253074320928e-06,0.0,8.05115769005573e-06,1.942209682678993e-07,0.0
8.700000000000001,-2.4777904842038165e-06,-3.132667163839904e-06,0.0,8.047083859684324e-06,1.941226937948657e-07,0.0
8.71,-2.476551692500465e-06,-3.1311009611618866e-06,0.0,8.043060654015826e-06,1.9402564055972158e-07,0.0
8.72,-2.4753281642995552e-06,-3.1295540561093984e-06,0.0,8.039087019400563e-06,1.9392978314489647e-07,0.0
8.73,-2.4741195823068363e-06,-3.1280260475277465e-06,0.0,8.035161925366778e-06,1.9383509669195007e-07,0.0
8.74,-2.4729256361942296e-06,-3.1265165430695596e-06,0.0,8.031284364066418e-06,1.9374155688820205e-07,0.0
8.75,-2.471746022433999e-06,-3.1250251589851325e-06,0.0,8.027453349736972e-06,1.9364913995374932e-07,0.0
8.76,-2.470580444137363e-06,-3.1235515199183773e-06,0.0,8.023667918176392e-06,1.935578226287974e-07,0.0
8.77,-2.4694286108974177e-06,-3.1220952587082395e-06,0.0,8.019927126235968e-06,1.9346758216143626e-07,0.0
8.78,-2.4682902386362345e-06,-3.120656016195376e-06,0.0,8.016230051318631e-06,1.933783962955211e-07,0.0
8.790000000000001,-2.4671650494559998e-06,-3.119233441033957e-06,0.0,8.012575790900472e-06,1.93290243259146e-07,0.0
8.8,-2.4660527714940856e-06,-3.1178271895084284e-06,0.0,8.008963462056587e-06,1.9320310175319444e-07,0.0
8.81,-2.4649531387819175e-06,-3.1164369253550804e-06,0.0,8.005392201005312e-06,1.931169509403529e-07,0.0
8.82,-2.4638658911075345e-06,-3.115062319588284e-06,0.0,8.001861162660001e-06,1.930317704342926e-07,0.0
8.83,-2.4627907738817264e-06,-3.113703050331243e-06,0.0,7.99836952019433e-06,1.9294754028918283e-07,0.0
8.84,-2.4617275380076443e-06,-3.112358802651148e-06,0.0,7.99491646462079e-06,1.9286424098952985e-07,0.0
8.85,-2.4606759397537717e-06,-3.1110292683985707e-06,0.0,7.991501204376081e-06,1.9278185344016748e-07,0.0
8.86,-2.459635740630171e-06,-3.1097141460510065e-06,0.0,7.988122964919661e-06,1.9270035895657575e-07,0.0
8.870000000000001,-2.458606707267895e-06,-3.1084131405604097e-06,0.0,7.98478098834256e-06,1.9261973925544372e-07,0.0
8.88,-2.4575886113014826e-06,-3.1071259632046357e-06,0.0,7.981474532986048e-06,1.925399764454731e-07,0.0
8.89,-2.456581229254433e-06,-3.105852331442648e-06,0.0,7.978202873068432e-06,1.9246105301837048e-07,0.0
8.9,-2.4555843424275937e-06,-3.1045919687734016e-06,0.0,7.974965298323774e-06,1.9238295184013565e-07,0.0
8.91,-2.454597736790353e-06,-3.1033446045982844e-06,0.0,7.971761113647902e-06,1.92305656142521e-07,0.0
8.92,-2.4536212028745765e-06,-3.102109974087016e-06,0.0,7.968589638754454e-06,1.9222914951473465e-07,0.0
8.93,-2.4526545356711984e-06,-3.1008878180469115e-06,0.0,7.965450207838294e-06,1.921534158953202e-07,0.0
8.94,-2.451697534529394e-06,-3.0996778827954035e-06,0.0,7.962342169248789e-06,1.9207843956427534e-07,0.0
8.950000000000001,-2.4507500030582563e-06,-3.0984799200357347e-06,0.0,7.959264885169926e-06,1.920042051353349e-07,0.0
8.96,-2.4498117490309205e-06,-3.0972936867357393e-06,0.0,7.956217731309183e-06,1.9193069754846568e-07,0.0
8.97,-2.4488825842910476e-06,-3.0961189450096108e-06,0.0,7.953200096594503e-06,1.918579020625589e-07,0.0
8.98,-2.44796232466161e-06,-3.0949554620025826e-06,0.0,7.95021138287625e-06,1.91785804248234e-07,0.0
8.99,-2.447050789855922e-06,-3.093803009778442e-06,0.0,7.947251004640482e-06,1.9171438998092956e-07,0.0
9.0,-2.4461478033908346e-06,-3.0926613652097812e-06,0.0,7.944318388725368e-06,1.9164364543405634e-07,0.0
