# results of the FBA model for the bactery Styphi
# the columns are: t and the metabolic fluxes 
# the compounds are: galactose, glucose, thiosulfate, butyrate, Fprau, Styphi,  
# the nominal flux is: -5.0, -5.0, -5.0, -5.0, -5.0, -5.0,  
# the initial concentration are: 93.0, 25.0, 0.0, 4.0, 0.5327222760657402, 0.8043918279470774,  

t,galactose,glucose,thiosulfate,butyrate,Fprau,Styphi
0.0,-3.2671119870737826e-33,-4.194999999999995,0.0,0.0,0.0,2.5270814540653e-32
0.01,-3.2671119870737826e-33,-4.194999999999995,0.0,0.0,0.0,2.5270814540653e-32
0.02,-3.2671119870737826e-33,-4.194999999999995,0.0,0.0,0.0,2.5270814540653e-32
0.03,-3.2671119870737826e-33,-4.194999999999995,0.0,0.0,0.0,2.5270814540653e-32
0.04,-3.2671119870737826e-33,-4.194999999999995,0.0,0.0,0.0,2.5270814540653e-32
0.05,-3.2671119870737826e-33,-4.194999999999995,0.0,0.0,0.0,2.5270814540653e-32
0.06,-3.2671119870737826e-33,-4.194999999999995,0.0,0.0,0.0,2.5270814540653e-32
0.07,-3.2671119870737826e-33,-4.194999999999995,0.0,0.0,0.0,2.5270814540653e-32
0.08,-3.2671119870737826e-33,-4.194999999999995,0.0,0.0,0.0,2.5270814540653e-32
0.09,-3.2671119870737826e-33,-4.194999999999995,0.0,0.0,0.0,2.5270814540653e-32
0.1,-3.2671119870737826e-33,-4.194999999999995,0.0,0.0,0.0,2.5270814540653e-32
0.11,-3.2671119870737826e-33,-4.194999999999995,0.0,0.0,0.0,2.5270814540653e-32
0.12,-3.2671119870737826e-33,-4.194999999999995,0.0,0.0,0.0,2.5270814540653e-32
0.13,-3.2671119870737826e-33,-4.194999999999995,0.0,0.0,0.0,2.5270814540653e-32
0.14,-3.2671119870737826e-33,-4.194999999999995,0.0,0.0,0.0,2.5270814540653e-32
0.15,-3.2671119870737826e-33,-4.194999999999995,0.0,0.0,0.0,2.5270814540653e-32
0.16,-3.2671119870737826e-33,-4.194999999999995,0.0,0.0,0.0,2.5270814540653e-32
0.17,-3.2671119870737826e-33,-4.194999999999995,0.0,0.0,0.0,2.5270814540653e-32
0.18,-3.2671119870737826e-33,-4.194999999999995,0.0,0.0,0.0,2.5270814540653e-32
0.19,-3.2671119870737826e-33,-4.194999999999995,0.0,0.0,0.0,2.5270814540653e-32
0.2,-3.2671119870737826e-33,-4.194999999999995,0.0,0.0,0.0,2.5270814540653e-32
0.21,-3.2671119870737826e-33,-4.194999999999995,0.0,0.0,0.0,2.5270814540653e-32
0.22,-3.2671119870737826e-33,-4.194999999999995,0.0,0.0,0.0,2.5270814540653e-32
0.23,-3.2671119870737826e-33,-4.194999999999995,0.0,0.0,0.0,2.5270814540653e-32
0.24,-3.2671119870737826e-33,-4.194999999999995,0.0,0.0,0.0,2.5270814540653e-32
0.25,-3.2671119870737826e-33,-4.194999999999995,0.0,0.0,0.0,2.5270814540653e-32
0.26,-3.2671119870737826e-33,-4.194999999999995,0.0,0.0,0.0,2.5270814540653e-32
0.27,-3.2671119870737826e-33,-4.194999999999995,0.0,0.0,0.0,2.5270814540653e-32
0.28,-3.2671119870737826e-33,-4.194999999999995,0.0,0.0,0.0,2.5270814540653e-32
0.29,-3.2671119870737826e-33,-4.194999999999995,0.0,0.0,0.0,2.5270814540653e-32
0.3,-3.2671119870737826e-33,-4.194999999999995,0.0,0.0,0.0,2.5270814540653e-32
0.31,-3.2671119870737826e-33,-4.194999999999995,0.0,0.0,0.0,2.5270814540653e-32
0.32,-3.2671119870737826e-33,-4.194999999999995,0.0,0.0,0.0,2.5270814540653e-32
0.33,-3.2671119870737826e-33,-4.194999999999995,0.0,0.0,0.0,2.5270814540653e-32
0.34,-3.2671119870737826e-33,-4.194999999999995,0.0,0.0,0.0,2.5270814540653e-32
0.35000000000000003,-3.2671119870737826e-33,-4.194999999999995,0.0,0.0,0.0,2.5270814540653e-32
0.36,-3.2671119870737826e-33,-4.194999999999995,0.0,0.0,0.0,2.5270814540653e-32
0.37,-3.2671119870737826e-33,-4.194999999999995,0.0,0.0,0.0,2.5270814540653e-32
0.38,-3.2671119870737826e-33,-4.194999999999995,0.0,0.0,0.0,2.5270814540653e-32
0.39,-3.2671119870737826e-33,-4.194999999999995,0.0,0.0,0.0,2.5270814540653e-32
0.4,-3.2671119870737826e-33,-4.194999999999995,0.0,0.0,0.0,2.5270814540653e-32
0.41000000000000003,-3.2671119870737826e-33,-4.194999999999995,0.0,0.0,0.0,2.5270814540653e-32
0.42,-3.2671119870737826e-33,-4.194999999999995,0.0,0.0,0.0,2.5270814540653e-32
0.43,-3.2671119870737826e-33,-4.194999999999995,0.0,0.0,0.0,2.5270814540653e-32
0.44,-3.2671119870737826e-33,-4.194999999999995,0.0,0.0,0.0,2.5270814540653e-32
0.45,-3.2671119870737826e-33,-4.194999999999995,0.0,0.0,0.0,2.5270814540653e-32
0.46,-3.2671119870737826e-33,-4.194999999999995,0.0,0.0,0.0,2.5270814540653e-32
0.47000000000000003,-3.2671119870737826e-33,-4.194999999999995,0.0,0.0,0.0,2.5270814540653e-32
0.48,-3.2671119870737826e-33,-4.194999999999995,0.0,0.0,0.0,2.5270814540653e-32
0.49,-3.2671119870737826e-33,-4.194999999999995,0.0,0.0,0.0,2.5270814540653e-32
0.5,-3.2671119870737826e-33,-4.194999999999995,0.0,0.0,0.0,2.5270814540653e-32
0.51,-3.2671119870737826e-33,-4.194999999999995,0.0,0.0,0.0,2.5270814540653e-32
0.52,-3.2671119870737826e-33,-4.194999999999995,0.0,0.0,0.0,2.5270814540653e-32
0.53,-3.2671119870737826e-33,-4.194999999999995,0.0,0.0,0.0,2.5270814540653e-32
0.54,-3.2671119870737826e-33,-4.194999999999995,0.0,0.0,0.0,2.5270814540653e-32
0.55,-3.2671119870737826e-33,-4.194999999999995,0.0,0.0,0.0,2.5270814540653e-32
0.56,-3.2671119870737826e-33,-4.194999999999995,0.0,0.0,0.0,2.5270814540653e-32
0.5700000000000001,-3.2671119870737826e-33,-4.194999999999995,0.0,0.0,0.0,2.5270814540653e-32
0.58,-3.2671119870737826e-33,-4.194999999999995,0.0,0.0,0.0,2.5270814540653e-32
0.59,-3.2671119870737826e-33,-4.194999999999995,0.0,0.0,0.0,2.5270814540653e-32
0.6,-3.2671119870737826e-33,-4.194999999999995,0.0,0.0,0.0,2.5270814540653e-32
0.61,-3.2671119870737826e-33,-4.194999999999995,0.0,0.0,0.0,2.5270814540653e-32
0.62,-3.2671119870737826e-33,-4.194999999999995,0.0,0.0,0.0,2.5270814540653e-32
0.63,-3.2671119870737826e-33,-4.194999999999995,0.0,0.0,0.0,2.5270814540653e-32
0.64,-3.2671119870737826e-33,-4.194999999999995,0.0,0.0,0.0,2.5270814540653e-32
0.65,-3.2671119870737826e-33,-4.194999999999995,0.0,0.0,0.0,2.5270814540653e-32
0.66,-3.2671119870737826e-33,-4.194999999999995,0.0,0.0,0.0,2.5270814540653e-32
0.67,-3.2671119870737826e-33,-4.194999999999995,0.0,0.0,0.0,2.5270814540653e-32
0.68,-3.2671119870737826e-33,-4.194999999999995,0.0,0.0,0.0,2.5270814540653e-32
0.6900000000000001,-3.2671119870737826e-33,-4.194999999999995,0.0,0.0,0.0,2.5270814540653e-32
0.7000000000000001,-3.2671119870737826e-33,-4.194999999999995,0.0,0.0,0.0,2.5270814540653e-32
0.71,-3.2671119870737826e-33,-4.194999999999995,0.0,0.0,0.0,2.5270814540653e-32
0.72,-3.2671119870737826e-33,-4.194999999999995,0.0,0.0,0.0,2.5270814540653e-32
0.73,-3.2671119870737826e-33,-4.194999999999995,0.0,0.0,0.0,2.5270814540653e-32
0.74,-3.2671119870737826e-33,-4.194999999999995,0.0,0.0,0.0,2.5270814540653e-32
0.75,-3.2671119870737826e-33,-4.194999999999995,0.0,0.0,0.0,2.5270814540653e-32
0.76,-3.2671119870737826e-33,-4.194999999999995,0.0,0.0,0.0,2.5270814540653e-32
0.77,-3.2671119870737826e-33,-4.194999999999995,0.0,0.0,0.0,2.5270814540653e-32
0.78,-3.2671119870737826e-33,-4.194999999999995,0.0,0.0,0.0,2.5270814540653e-32
0.79,-3.2671119870737826e-33,-4.194999999999995,0.0,0.0,0.0,2.5270814540653e-32
0.8,-3.2671119870737826e-33,-4.194999999999995,0.0,0.0,0.0,2.5270814540653e-32
0.81,-3.2671119870737826e-33,-4.194999999999995,0.0,0.0,0.0,2.5270814540653e-32
0.8200000000000001,-3.2671119870737826e-33,-4.194999999999995,0.0,0.0,0.0,2.5270814540653e-32
0.8300000000000001,-3.2671119870737826e-33,-4.194999999999995,0.0,0.0,0.0,2.5270814540653e-32
0.84,-3.2671119870737826e-33,-4.194999999999995,0.0,0.0,0.0,2.5270814540653e-32
0.85,-3.2671119870737826e-33,-4.194999999999995,0.0,0.0,0.0,2.5270814540653e-32
0.86,-3.2671119870737826e-33,-4.194999999999995,0.0,0.0,0.0,2.5270814540653e-32
0.87,-3.2671119870737826e-33,-4.194999999999995,0.0,0.0,0.0,2.5270814540653e-32
0.88,-3.2671119870737826e-33,-4.194999999999995,0.0,0.0,0.0,2.5270814540653e-32
0.89,-3.2671119870737826e-33,-4.194999999999995,0.0,0.0,0.0,2.5270814540653e-32
0.9,-3.2671119870737826e-33,-4.194999999999995,0.0,0.0,0.0,2.5270814540653e-32
0.91,-3.2671119870737826e-33,-4.194999999999995,0.0,0.0,0.0,2.5270814540653e-32
0.92,-3.2671119870737826e-33,-4.194999999999995,0.0,0.0,0.0,2.5270814540653e-32
0.93,-3.2671119870737826e-33,-4.194999999999995,0.0,0.0,0.0,2.5270814540653e-32
0.9400000000000001,-3.2671119870737826e-33,-4.194999999999995,0.0,0.0,0.0,2.5270814540653e-32
0.9500000000000001,-3.2671119870737826e-33,-4.194999999999995,0.0,0.0,0.0,2.5270814540653e-32
0.96,-3.2671119870737826e-33,-4.194999999999995,0.0,0.0,0.0,2.5270814540653e-32
0.97,-3.2671119870737826e-33,-4.194999999999995,0.0,0.0,0.0,2.5270814540653e-32
0.98,-3.2671119870737826e-33,-4.194999999999995,0.0,0.0,0.0,2.5270814540653e-32
0.99,-3.2671119870737826e-33,-4.194999999999995,0.0,0.0,0.0,2.5270814540653e-32
1.0,-3.2671119870737826e-33,-4.194999999999995,0.0,0.0,0.0,2.5270814540653e-32
1.01,-3.2671119870737826e-33,-4.194999999999995,0.0,0.0,0.0,2.5270814540653e-32
1.02,-3.2671119870737826e-33,-4.194999999999995,0.0,0.0,0.0,2.5270814540653e-32
1.03,-3.2671119870737826e-33,-4.194999999999995,0.0,0.0,0.0,2.5270814540653e-32
1.04,-3.2671119870737826e-33,-4.194999999999995,0.0,0.0,0.0,2.5270814540653e-32
1.05,-3.2671119870737826e-33,-4.194999999999995,0.0,0.0,0.0,2.5270814540653e-32
1.06,-3.2671119870737826e-33,-4.194999999999995,0.0,0.0,0.0,2.5270814540653e-32
1.07,-3.2671119870737826e-33,-4.194999999999995,0.0,0.0,0.0,2.5270814540653e-32
1.08,-3.2671119870737826e-33,-4.194999999999995,0.0,0.0,0.0,2.5270814540653e-32
1.09,-3.2671119870737826e-33,-4.194999999999995,0.0,0.0,0.0,2.5270814540653e-32
1.1,-3.2671119870737826e-33,-4.194999999999995,0.0,0.0,0.0,2.5270814540653e-32
1.11,-3.2671119870737826e-33,-4.194999999999995,0.0,0.0,0.0,2.5270814540653e-32
1.12,-3.2671119870737826e-33,-4.194999999999995,0.0,0.0,0.0,2.5270814540653e-32
1.1300000000000001,-3.2671119870737826e-33,-4.194999999999995,0.0,0.0,0.0,2.5270814540653e-32
1.1400000000000001,-3.2671119870737826e-33,-4.194999999999995,0.0,0.0,0.0,2.5270814540653e-32
1.1500000000000001,-3.2671119870737826e-33,-4.194999999999995,0.0,0.0,0.0,2.5270814540653e-32
1.16,-3.2671119870737826e-33,-4.194999999999995,0.0,0.0,0.0,2.5270814540653e-32
1.17,-3.2671119870737826e-33,-4.194999999999995,0.0,0.0,0.0,2.5270814540653e-32
1.18,-3.2671119870737826e-33,-4.194999999999995,0.0,0.0,0.0,2.5270814540653e-32
1.19,-3.2671119870737826e-33,-4.194999999999995,0.0,0.0,0.0,2.5270814540653e-32
1.2,-3.2671119870737826e-33,-4.194999999999995,0.0,0.0,0.0,2.5270814540653e-32
1.21,-3.2671119870737826e-33,-4.194999999999995,0.0,0.0,0.0,2.5270814540653e-32
1.22,-3.2671119870737826e-33,-4.194999999999995,0.0,0.0,0.0,2.5270814540653e-32
1.23,-3.2671119870737826e-33,-4.194999999999995,0.0,0.0,0.0,2.5270814540653e-32
1.24,-3.2671119870737826e-33,-4.194999999999995,0.0,0.0,0.0,2.5270814540653e-32
1.25,-3.2671119870737826e-33,-4.194999999999995,0.0,0.0,0.0,2.5270814540653e-32
1.26,-3.2671119870737826e-33,-4.194999999999995,0.0,0.0,0.0,2.5270814540653e-32
1.27,-3.2671119870737826e-33,-4.194999999999995,0.0,0.0,0.0,2.5270814540653e-32
1.28,-3.2671119870737826e-33,-4.194999999999995,0.0,0.0,0.0,2.5270814540653e-32
1.29,-3.2671119870737826e-33,-4.194999999999995,0.0,0.0,0.0,2.5270814540653e-32
1.3,-3.2671119870737826e-33,-4.194999999999995,0.0,0.0,0.0,2.5270814540653e-32
1.31,-3.2671119870737826e-33,-4.194999999999995,0.0,0.0,0.0,2.5270814540653e-32
1.32,-3.2671119870737826e-33,-4.194999999999995,0.0,0.0,0.0,2.5270814540653e-32
1.33,-3.2671119870737826e-33,-4.194999999999995,0.0,0.0,0.0,2.5270814540653e-32
1.34,-3.2671119870737826e-33,-4.194999999999995,0.0,0.0,0.0,2.5270814540653e-32
1.35,-3.2671119870737826e-33,-4.194999999999995,0.0,0.0,0.0,2.5270814540653e-32
1.36,-3.2671119870737826e-33,-4.194999999999995,0.0,0.0,0.0,2.5270814540653e-32
1.37,-3.2671119870737826e-33,-4.194999999999995,0.0,0.0,0.0,2.5270814540653e-32
1.3800000000000001,-3.2671119870737826e-33,-4.194999999999995,0.0,0.0,0.0,2.5270814540653e-32
1.3900000000000001,-3.2671119870737826e-33,-4.194999999999995,0.0,0.0,0.0,2.5270814540653e-32
1.4000000000000001,-3.2671119870737826e-33,-4.194999999999995,0.0,0.0,0.0,2.5270814540653e-32
1.41,-3.2671119870737826e-33,-4.194999999999995,0.0,0.0,0.0,2.5270814540653e-32
1.42,-3.2671119870737826e-33,-4.194999999999995,0.0,0.0,0.0,2.5270814540653e-32
1.43,-3.2671119870737826e-33,-4.194999999999995,0.0,0.0,0.0,2.5270814540653e-32
1.44,-3.2671119870737826e-33,-4.194999999999995,0.0,0.0,0.0,2.5270814540653e-32
1.45,-3.2671119870737826e-33,-4.194999999999995,0.0,0.0,0.0,2.5270814540653e-32
1.46,-3.2671119870737826e-33,-4.194999999999995,0.0,0.0,0.0,2.5270814540653e-32
1.47,-3.2671119870737826e-33,-4.194999999999995,0.0,0.0,0.0,2.5270814540653e-32
1.48,-3.2671119870737826e-33,-4.194999999999995,0.0,0.0,0.0,2.5270814540653e-32
1.49,-3.2671119870737826e-33,-4.194999999999995,0.0,0.0,0.0,2.5270814540653e-32
1.5,-3.2671119870737826e-33,-4.194999999999995,0.0,0.0,0.0,2.5270814540653e-32
1.51,-3.2671119870737826e-33,-4.194999999999995,0.0,0.0,0.0,2.5270814540653e-32
1.52,-3.2671119870737826e-33,-4.194999999999995,0.0,0.0,0.0,2.5270814540653e-32
1.53,-3.2671119870737826e-33,-4.194999999999995,0.0,0.0,0.0,2.5270814540653e-32
1.54,-3.2671119870737826e-33,-4.194999999999995,0.0,0.0,0.0,2.5270814540653e-32
1.55,-3.2671119870737826e-33,-4.194999999999995,0.0,0.0,0.0,2.5270814540653e-32
1.56,-3.2671119870737826e-33,-4.194999999999995,0.0,0.0,0.0,2.5270814540653e-32
1.57,-3.2671119870737826e-33,-4.194999999999995,0.0,0.0,0.0,2.5270814540653e-32
1.58,-3.2671119870737826e-33,-4.194999999999995,0.0,0.0,0.0,2.5270814540653e-32
1.59,-3.2671119870737826e-33,-4.194999999999995,0.0,0.0,0.0,2.5270814540653e-32
1.6,-3.2671119870737826e-33,-4.194999999999995,0.0,0.0,0.0,2.5270814540653e-32
1.61,-3.2671119870737826e-33,-4.194999999999995,0.0,0.0,0.0,2.5270814540653e-32
1.62,-3.2671119870737826e-33,-4.194999999999995,0.0,0.0,0.0,2.5270814540653e-32
1.6300000000000001,-3.2671119870737826e-33,-4.194999999999995,0.0,0.0,0.0,2.5270814540653e-32
1.6400000000000001,-3.2671119870737826e-33,-4.194999999999995,0.0,0.0,0.0,2.5270814540653e-32
1.6500000000000001,-3.2671119870737826e-33,-4.194999999999995,0.0,0.0,0.0,2.5270814540653e-32
1.6600000000000001,-3.2671119870737826e-33,-4.194999999999995,0.0,0.0,0.0,2.5270814540653e-32
1.67,-3.2671119870737826e-33,-4.194999999999995,0.0,0.0,0.0,2.5270814540653e-32
1.68,-3.2671119870737826e-33,-4.194999999999995,0.0,0.0,0.0,2.5270814540653e-32
1.69,-3.2671119870737826e-33,-4.194999999999995,0.0,0.0,0.0,2.5270814540653e-32
1.7,-3.2671119870737826e-33,-4.194999999999995,0.0,0.0,0.0,2.5270814540653e-32
1.71,-3.2671119870737826e-33,-4.194999999999995,0.0,0.0,0.0,2.5270814540653e-32
1.72,-3.2671119870737826e-33,-4.194999999999995,0.0,0.0,0.0,2.5270814540653e-32
1.73,-3.2671119870737826e-33,-4.194999999999995,0.0,0.0,0.0,2.5270814540653e-32
1.74,-3.2671119870737826e-33,-4.194999999999995,0.0,0.0,0.0,2.5270814540653e-32
1.75,-3.2671119870737826e-33,-4.194999999999995,0.0,0.0,0.0,2.5270814540653e-32
1.76,-3.2671119870737826e-33,-4.194999999999995,0.0,0.0,0.0,2.5270814540653e-32
1.77,-3.2671119870737826e-33,-4.194999999999995,0.0,0.0,0.0,2.5270814540653e-32
1.78,-3.2671119870737826e-33,-4.194999999999995,0.0,0.0,0.0,2.5270814540653e-32
1.79,-3.2671119870737826e-33,-4.194999999999995,0.0,0.0,0.0,2.5270814540653e-32
1.8,-3.2671119870737826e-33,-4.194999999999995,0.0,0.0,0.0,2.5270814540653e-32
1.81,-3.2671119870737826e-33,-4.194999999999995,0.0,0.0,0.0,2.5270814540653e-32
1.82,-3.2671119870737826e-33,-4.194999999999995,0.0,0.0,0.0,2.5270814540653e-32
1.83,-3.2671119870737826e-33,-4.194999999999995,0.0,0.0,0.0,2.5270814540653e-32
1.84,-3.2671119870737826e-33,-4.194999999999995,0.0,0.0,0.0,2.5270814540653e-32
1.85,-3.2671119870737826e-33,-4.194999999999995,0.0,0.0,0.0,2.5270814540653e-32
1.86,-3.2671119870737826e-33,-4.194999999999995,0.0,0.0,0.0,2.5270814540653e-32
1.87,-3.2671119870737826e-33,-4.194999999999995,0.0,0.0,0.0,2.5270814540653e-32
1.8800000000000001,-3.2671119870737826e-33,-4.194999999999995,0.0,0.0,0.0,2.5270814540653e-32
1.8900000000000001,-3.2671119870737826e-33,-4.194999999999995,0.0,0.0,0.0,2.5270814540653e-32
1.9000000000000001,-3.2671119870737826e-33,-4.194999999999995,0.0,0.0,0.0,2.5270814540653e-32
1.9100000000000001,-3.2671119870737826e-33,-4.194999999999995,0.0,0.0,0.0,2.5270814540653e-32
1.92,-3.2671119870737826e-33,-4.194999999999995,0.0,0.0,0.0,2.5270814540653e-32
1.93,-3.2671119870737826e-33,-4.194999999999995,0.0,0.0,0.0,2.5270814540653e-32
1.94,-3.2671119870737826e-33,-4.194999999999995,0.0,0.0,0.0,2.5270814540653e-32
1.95,-3.2671119870737826e-33,-4.194999999999995,0.0,0.0,0.0,2.5270814540653e-32
1.96,-3.2671119870737826e-33,-4.194999999999995,0.0,0.0,0.0,2.5270814540653e-32
1.97,-3.2671119870737826e-33,-4.194999999999995,0.0,0.0,0.0,2.5270814540653e-32
1.98,-3.2671119870737826e-33,-4.194999999999995,0.0,0.0,0.0,2.5270814540653e-32
1.99,-3.2671119870737826e-33,-4.194999999999995,0.0,0.0,0.0,2.5270814540653e-32
2.0,-3.2671119870737826e-33,-4.194999999999995,0.0,0.0,0.0,2.5270814540653e-32
2.0100000000000002,-3.2671119870737826e-33,-4.194999999999995,0.0,0.0,0.0,2.5270814540653e-32
2.02,-3.2671119870737826e-33,-4.194999999999995,0.0,0.0,0.0,2.5270814540653e-32
2.0300000000000002,-3.2671119870737826e-33,-4.194999999999995,0.0,0.0,0.0,2.5270814540653e-32
2.04,-3.2671119870737826e-33,-4.194999999999995,0.0,0.0,0.0,2.5270814540653e-32
2.05,-3.2671119870737826e-33,-4.194999999999995,0.0,0.0,0.0,2.5270814540653e-32
2.06,-3.2671119870737826e-33,-4.194999999999995,0.0,0.0,0.0,2.5270814540653e-32
2.07,-3.2671119870737826e-33,-4.194999999999995,0.0,0.0,0.0,2.5270814540653e-32
2.08,-3.2671119870737826e-33,-4.194999999999995,0.0,0.0,0.0,2.5270814540653e-32
2.09,-3.2671119870737826e-33,-4.194999999999995,0.0,0.0,0.0,2.5270814540653e-32
2.1,-3.2671119870737826e-33,-4.194999999999995,0.0,0.0,0.0,2.5270814540653e-32
2.11,-3.2671119870737826e-33,-4.194999999999995,0.0,0.0,0.0,2.5270814540653e-32
2.12,-3.2671119870737826e-33,-4.194999999999995,0.0,0.0,0.0,2.5270814540653e-32
2.13,-3.2671119870737826e-33,-4.194999999999995,0.0,0.0,0.0,2.5270814540653e-32
2.14,-3.2671119870737826e-33,-4.194999999999995,0.0,0.0,0.0,2.5270814540653e-32
2.15,-3.2671119870737826e-33,-4.194999999999995,0.0,0.0,0.0,2.5270814540653e-32
2.16,-3.2671119870737826e-33,-4.194999999999995,0.0,0.0,0.0,2.5270814540653e-32
2.17,-3.2671119870737826e-33,-4.194999999999995,0.0,0.0,0.0,2.5270814540653e-32
2.18,-3.2671119870737826e-33,-4.194999999999995,0.0,0.0,0.0,2.5270814540653e-32
2.19,-3.2671119870737826e-33,-4.194999999999995,0.0,0.0,0.0,2.5270814540653e-32
2.2,-3.2671119870737826e-33,-4.194999999999995,0.0,0.0,0.0,2.5270814540653e-32
2.21,-3.2671119870737826e-33,-4.194999999999995,0.0,0.0,0.0,2.5270814540653e-32
2.22,-3.2671119870737826e-33,-4.194999999999995,0.0,0.0,0.0,2.5270814540653e-32
2.23,-3.2671119870737826e-33,-4.194999999999995,0.0,0.0,0.0,2.5270814540653e-32
2.24,-3.2671119870737826e-33,-4.194999999999995,0.0,0.0,0.0,2.5270814540653e-32
2.25,-3.2671119870737826e-33,-4.194999999999995,0.0,0.0,0.0,2.5270814540653e-32
2.2600000000000002,-3.2671119870737826e-33,-4.194999999999995,0.0,0.0,0.0,2.5270814540653e-32
2.27,-3.2671119870737826e-33,-4.194999999999995,0.0,0.0,0.0,2.5270814540653e-32
2.2800000000000002,-3.2671119870737826e-33,-4.194999999999995,0.0,0.0,0.0,2.5270814540653e-32
2.29,-3.2671119870737826e-33,-4.194999999999995,0.0,0.0,0.0,2.5270814540653e-32
2.3000000000000003,-3.2671119870737826e-33,-4.194999999999995,0.0,0.0,0.0,2.5270814540653e-32
2.31,-3.2671119870737826e-33,-4.194999999999995,0.0,0.0,0.0,2.5270814540653e-32
2.32,-3.2671119870737826e-33,-4.194999999999995,0.0,0.0,0.0,2.5270814540653e-32
2.33,-3.2671119870737826e-33,-4.194999999999995,0.0,0.0,0.0,2.5270814540653e-32
2.34,-3.2671119870737826e-33,-4.194999999999995,0.0,0.0,0.0,2.5270814540653e-32
2.35,-3.2671119870737826e-33,-4.194999999999995,0.0,0.0,0.0,2.5270814540653e-32
2.36,-3.2671119870737826e-33,-4.194999999999995,0.0,0.0,0.0,2.5270814540653e-32
2.37,-3.2671119870737826e-33,-4.194999999999995,0.0,0.0,0.0,2.5270814540653e-32
2.38,-3.2671119870737826e-33,-4.194999999999995,0.0,0.0,0.0,2.5270814540653e-32
2.39,-3.2671119870737826e-33,-4.194999999999995,0.0,0.0,0.0,2.5270814540653e-32
2.4,-3.2671119870737826e-33,-4.194999999999995,0.0,0.0,0.0,2.5270814540653e-32
2.41,-3.2671119870737826e-33,-4.194999999999995,0.0,0.0,0.0,2.5270814540653e-32
2.42,-3.2671119870737826e-33,-4.194999999999995,0.0,0.0,0.0,2.5270814540653e-32
2.43,-3.2671119870737826e-33,-4.194999999999995,0.0,0.0,0.0,2.5270814540653e-32
2.44,-3.2671119870737826e-33,-4.194999999999995,0.0,0.0,0.0,2.5270814540653e-32
2.45,-3.2671119870737826e-33,-4.194999999999995,0.0,0.0,0.0,2.5270814540653e-32
2.46,-3.2671119870737826e-33,-4.194999999999995,0.0,0.0,0.0,2.5270814540653e-32
2.47,-3.2671119870737826e-33,-4.194999999999995,0.0,0.0,0.0,2.5270814540653e-32
2.48,-3.2671119870737826e-33,-4.194999999999995,0.0,0.0,0.0,2.5270814540653e-32
2.49,-3.2671119870737826e-33,-4.194999999999995,0.0,0.0,0.0,2.5270814540653e-32
2.5,-3.2671119870737826e-33,-4.194999999999995,0.0,0.0,0.0,2.5270814540653e-32
2.5100000000000002,-3.2671119870737826e-33,-4.194999999999995,0.0,0.0,0.0,2.5270814540653e-32
2.52,-3.2671119870737826e-33,-4.194999999999995,0.0,0.0,0.0,2.5270814540653e-32
2.5300000000000002,-3.2671119870737826e-33,-4.194999999999995,0.0,0.0,0.0,2.5270814540653e-32
2.54,-3.2671119870737826e-33,-4.194999999999995,0.0,0.0,0.0,2.5270814540653e-32
2.5500000000000003,-3.2671119870737826e-33,-4.194999999999995,0.0,0.0,0.0,2.5270814540653e-32
2.56,-3.2671119870737826e-33,-4.194999999999995,0.0,0.0,0.0,2.5270814540653e-32
2.57,-3.2671119870737826e-33,-4.194999999999995,0.0,0.0,0.0,2.5270814540653e-32
2.58,-3.2671119870737826e-33,-4.194999999999995,0.0,0.0,0.0,2.5270814540653e-32
2.59,-3.2671119870737826e-33,-4.194999999999995,0.0,0.0,0.0,2.5270814540653e-32
2.6,-3.2671119870737826e-33,-4.194999999999995,0.0,0.0,0.0,2.5270814540653e-32
2.61,-3.2671119870737826e-33,-4.194999999999995,0.0,0.0,0.0,2.5270814540653e-32
2.62,-3.2671119870737826e-33,-4.194999999999995,0.0,0.0,0.0,2.5270814540653e-32
2.63,-3.2671119870737826e-33,-4.194999999999995,0.0,0.0,0.0,2.5270814540653e-32
2.64,-3.2671119870737826e-33,-4.194999999999995,0.0,0.0,0.0,2.5270814540653e-32
2.65,-3.2671119870737826e-33,-4.194999999999995,0.0,0.0,0.0,2.5270814540653e-32
2.66,-3.2671119870737826e-33,-4.194999999999995,0.0,0.0,0.0,2.5270814540653e-32
2.67,-3.2671119870737826e-33,-4.194999999999995,0.0,0.0,0.0,2.5270814540653e-32
2.68,-3.2671119870737826e-33,-4.194999999999995,0.0,0.0,0.0,2.5270814540653e-32
2.69,-0.046908333980125505,-4.15395520776739,0.0,0.0,0.0,0.0
2.7,-4.794285714285715,0.0,0.0,0.0,0.0,0.0
2.71,-4.794285714285715,0.0,0.0,0.0,0.0,0.0
2.72,-4.794285714285715,0.0,0.0,0.0,0.0,0.0
2.73,-4.794285714285715,0.0,0.0,0.0,0.0,0.0
2.74,-4.794285714285715,0.0,0.0,0.0,0.0,0.0
2.75,-4.794285714285715,0.0,0.0,0.0,0.0,0.0
2.7600000000000002,-4.794285714285715,0.0,0.0,0.0,0.0,0.0
2.77,-4.794285714285715,0.0,0.0,0.0,0.0,0.0
2.7800000000000002,-4.794285714285715,0.0,0.0,0.0,0.0,0.0
2.79,-4.794285714285715,0.0,0.0,0.0,0.0,0.0
2.8000000000000003,-4.794285714285715,0.0,0.0,0.0,0.0,0.0
2.81,-4.794285714285715,0.0,0.0,0.0,0.0,0.0
2.82,-4.794285714285715,0.0,0.0,0.0,0.0,0.0
2.83,-4.794285714285715,0.0,0.0,0.0,0.0,0.0
2.84,-4.794285714285715,0.0,0.0,0.0,0.0,0.0
2.85,-4.794285714285715,0.0,0.0,0.0,0.0,0.0
2.86,-4.794285714285715,0.0,0.0,0.0,0.0,0.0
2.87,-4.794285714285715,0.0,0.0,0.0,0.0,0.0
2.88,-4.794285714285715,0.0,0.0,0.0,0.0,0.0
2.89,-4.794285714285715,0.0,0.0,0.0,0.0,0.0
2.9,-4.794285714285715,0.0,0.0,0.0,0.0,0.0
2.91,-4.794285714285715,0.0,0.0,0.0,0.0,0.0
2.92,-4.794285714285715,0.0,0.0,0.0,0.0,0.0
2.93,-4.794285714285715,0.0,0.0,0.0,0.0,0.0
2.94,-4.794285714285715,0.0,0.0,0.0,0.0,0.0
2.95,-4.794285714285715,0.0,0.0,0.0,0.0,0.0
2.96,-4.794285714285715,0.0,0.0,0.0,0.0,0.0
2.97,-4.794285714285715,0.0,0.0,0.0,0.0,0.0
2.98,-4.794285714285715,0.0,0.0,0.0,0.0,0.0
2.99,-4.794285714285715,0.0,0.0,0.0,0.0,0.0
3.0,-4.794285714285715,0.0,0.0,0.0,0.0,0.0
3.0100000000000002,-4.794285714285715,0.0,0.0,0.0,0.0,0.0
3.02,-4.794285714285715,0.0,0.0,0.0,0.0,0.0
3.0300000000000002,-4.794285714285715,0.0,0.0,0.0,0.0,0.0
3.04,-4.794285714285715,0.0,0.0,0.0,0.0,0.0
3.0500000000000003,-4.794285714285715,0.0,0.0,0.0,0.0,0.0
3.06,-4.794285714285715,0.0,0.0,0.0,0.0,0.0
3.0700000000000003,-4.794285714285715,0.0,0.0,0.0,0.0,0.0
3.08,-4.794285714285715,0.0,0.0,0.0,0.0,0.0
3.09,-4.794285714285715,0.0,0.0,0.0,0.0,0.0
3.1,-4.794285714285715,0.0,0.0,0.0,0.0,0.0
3.11,-4.794285714285715,0.0,0.0,0.0,0.0,0.0
3.12,-4.794285714285715,0.0,0.0,0.0,0.0,0.0
3.13,-4.794285714285715,0.0,0.0,0.0,0.0,0.0
3.14,-4.794285714285715,0.0,0.0,0.0,0.0,0.0
3.15,-4.794285714285715,0.0,0.0,0.0,0.0,0.0
3.16,-4.794285714285715,0.0,0.0,0.0,0.0,0.0
3.17,-4.794285714285715,0.0,0.0,0.0,0.0,0.0
3.18,-4.794285714285715,0.0,0.0,0.0,0.0,0.0
3.19,-4.794285714285715,0.0,0.0,0.0,0.0,0.0
3.2,-4.794285714285715,0.0,0.0,0.0,0.0,0.0
3.21,-4.794285714285715,0.0,0.0,0.0,0.0,0.0
3.22,-4.794285714285715,0.0,0.0,0.0,0.0,0.0
3.23,-4.794285714285715,0.0,0.0,0.0,0.0,0.0
3.24,-4.794285714285715,0.0,0.0,0.0,0.0,0.0
3.25,-4.794285714285715,0.0,0.0,0.0,0.0,0.0
3.2600000000000002,-4.794285714285715,0.0,0.0,0.0,0.0,0.0
3.27,-4.794285714285715,0.0,0.0,0.0,0.0,0.0
3.2800000000000002,-4.794285714285715,0.0,0.0,0.0,0.0,0.0
3.29,-4.794285714285715,0.0,0.0,0.0,0.0,0.0
3.3000000000000003,-4.794285714285715,0.0,0.0,0.0,0.0,0.0
3.31,-4.794285714285715,0.0,0.0,0.0,0.0,0.0
3.3200000000000003,-4.794285714285715,0.0,0.0,0.0,0.0,0.0
3.33,-4.794285714285715,0.0,0.0,0.0,0.0,0.0
3.34,-4.794285714285715,0.0,0.0,0.0,0.0,0.0
3.35,-4.794285714285715,0.0,0.0,0.0,0.0,0.0
3.36,-4.794285714285715,0.0,0.0,0.0,0.0,0.0
3.37,-4.794285714285715,0.0,0.0,0.0,0.0,0.0
3.38,-4.794285714285715,0.0,0.0,0.0,0.0,0.0
3.39,-4.794285714285715,0.0,0.0,0.0,0.0,0.0
3.4,-4.794285714285715,0.0,0.0,0.0,0.0,0.0
3.41,-4.794285714285715,0.0,0.0,0.0,0.0,0.0
3.42,-4.794285714285715,0.0,0.0,0.0,0.0,0.0
3.43,-4.794285714285715,0.0,0.0,0.0,0.0,0.0
3.44,-4.794285714285715,0.0,0.0,0.0,0.0,0.0
3.45,-4.794285714285715,0.0,0.0,0.0,0.0,0.0
3.46,-4.794285714285715,0.0,0.0,0.0,0.0,0.0
3.47,-4.794285714285715,0.0,0.0,0.0,0.0,0.0
3.48,-4.794285714285715,0.0,0.0,0.0,0.0,0.0
3.49,-4.794285714285715,0.0,0.0,0.0,0.0,0.0
3.5,-4.794285714285715,0.0,0.0,0.0,0.0,0.0
3.5100000000000002,-4.794285714285715,0.0,0.0,0.0,0.0,0.0
3.52,-4.794285714285715,0.0,0.0,0.0,0.0,0.0
3.5300000000000002,-4.794285714285715,0.0,0.0,0.0,0.0,0.0
3.54,-4.794285714285715,0.0,0.0,0.0,0.0,0.0
3.5500000000000003,-4.794285714285715,0.0,0.0,0.0,0.0,0.0
3.56,-4.794285714285715,0.0,0.0,0.0,0.0,0.0
3.5700000000000003,-4.794285714285715,0.0,0.0,0.0,0.0,0.0
3.58,-4.794285714285715,0.0,0.0,0.0,0.0,0.0
3.59,-4.794285714285715,0.0,0.0,0.0,0.0,0.0
3.6,-4.794285714285715,0.0,0.0,0.0,0.0,0.0
3.61,-4.794285714285715,0.0,0.0,0.0,0.0,0.0
3.62,-4.794285714285715,0.0,0.0,0.0,0.0,0.0
3.63,-4.794285714285715,0.0,0.0,0.0,0.0,0.0
3.64,-4.794285714285715,0.0,0.0,0.0,0.0,0.0
3.65,-4.794285714285715,0.0,0.0,0.0,0.0,0.0
3.66,-4.794285714285715,0.0,0.0,0.0,0.0,0.0
3.67,-4.794285714285715,0.0,0.0,0.0,0.0,0.0
3.68,-4.794285714285715,0.0,0.0,0.0,0.0,0.0
3.69,-4.794285714285715,0.0,0.0,0.0,0.0,0.0
3.7,-4.794285714285715,0.0,0.0,0.0,0.0,0.0
3.71,-4.794285714285715,0.0,0.0,0.0,0.0,0.0
3.72,-4.794285714285715,0.0,0.0,0.0,0.0,0.0
3.73,-4.794285714285715,0.0,0.0,0.0,0.0,0.0
3.74,-4.794285714285715,0.0,0.0,0.0,0.0,0.0
3.75,-4.794285714285715,0.0,0.0,0.0,0.0,0.0
3.7600000000000002,-4.794285714285715,0.0,0.0,0.0,0.0,0.0
3.77,-4.794285714285715,0.0,0.0,0.0,0.0,0.0
3.7800000000000002,-4.794285714285715,0.0,0.0,0.0,0.0,0.0
3.79,-4.794285714285715,0.0,0.0,0.0,0.0,0.0
3.8000000000000003,-4.794285714285715,0.0,0.0,0.0,0.0,0.0
3.81,-4.794285714285715,0.0,0.0,0.0,0.0,0.0
3.8200000000000003,-4.794285714285715,0.0,0.0,0.0,0.0,0.0
3.83,-4.794285714285715,0.0,0.0,0.0,0.0,0.0
3.84,-4.794285714285715,0.0,0.0,0.0,0.0,0.0
3.85,-4.794285714285715,0.0,0.0,0.0,0.0,0.0
3.86,-4.794285714285715,0.0,0.0,0.0,0.0,0.0
3.87,-4.794285714285715,0.0,0.0,0.0,0.0,0.0
3.88,-4.794285714285715,0.0,0.0,0.0,0.0,0.0
3.89,-4.794285714285715,0.0,0.0,0.0,0.0,0.0
3.9,-4.794285714285715,0.0,0.0,0.0,0.0,0.0
3.91,-4.794285714285715,0.0,0.0,0.0,0.0,0.0
3.92,-4.794285714285715,0.0,0.0,0.0,0.0,0.0
3.93,-4.794285714285715,0.0,0.0,0.0,0.0,0.0
3.94,-4.794285714285715,0.0,0.0,0.0,0.0,0.0
3.95,-4.794285714285715,0.0,0.0,0.0,0.0,0.0
3.96,-4.794285714285715,0.0,0.0,0.0,0.0,0.0
3.97,-4.794285714285715,0.0,0.0,0.0,0.0,0.0
3.98,-4.794285714285715,0.0,0.0,0.0,0.0,0.0
3.99,-4.794285714285715,0.0,0.0,0.0,0.0,0.0
4.0,-4.794285714285715,0.0,0.0,0.0,0.0,0.0
4.01,-4.794285714285715,0.0,0.0,0.0,0.0,0.0
4.0200000000000005,-4.794285714285715,0.0,0.0,0.0,0.0,0.0
4.03,-4.794285714285715,0.0,0.0,0.0,0.0,0.0
4.04,-4.794285714285715,0.0,0.0,0.0,0.0,0.0
4.05,-4.794285714285715,0.0,0.0,0.0,0.0,0.0
4.0600000000000005,-4.794285714285715,0.0,0.0,0.0,0.0,0.0
4.07,-4.794285714285715,0.0,0.0,0.0,0.0,0.0
4.08,-4.794285714285715,0.0,0.0,0.0,0.0,0.0
4.09,-4.794285714285715,0.0,0.0,0.0,0.0,0.0
4.1,-4.794285714285715,0.0,0.0,0.0,0.0,0.0
4.11,-4.794285714285715,0.0,0.0,0.0,0.0,0.0
4.12,-4.794285714285715,0.0,0.0,0.0,0.0,0.0
4.13,-4.794285714285715,0.0,0.0,0.0,0.0,0.0
4.14,-4.794285714285715,0.0,0.0,0.0,0.0,0.0
4.15,-4.794285714285715,0.0,0.0,0.0,0.0,0.0
4.16,-4.794285714285715,0.0,0.0,0.0,0.0,0.0
4.17,-4.794285714285715,0.0,0.0,0.0,0.0,0.0
4.18,-4.794285714285715,0.0,0.0,0.0,0.0,0.0
4.19,-4.794285714285715,0.0,0.0,0.0,0.0,0.0
4.2,-4.794285714285715,0.0,0.0,0.0,0.0,0.0
4.21,-4.794285714285715,0.0,0.0,0.0,0.0,0.0
4.22,-4.794285714285715,0.0,0.0,0.0,0.0,0.0
4.23,-4.794285714285715,0.0,0.0,0.0,0.0,0.0
4.24,-4.794285714285715,0.0,0.0,0.0,0.0,0.0
4.25,-4.794285714285715,0.0,0.0,0.0,0.0,0.0
4.26,-4.794285714285715,0.0,0.0,0.0,0.0,0.0
4.2700000000000005,-4.794285714285715,0.0,0.0,0.0,0.0,0.0
4.28,-4.794285714285715,0.0,0.0,0.0,0.0,0.0
4.29,-4.794285714285715,0.0,0.0,0.0,0.0,0.0
4.3,-4.794285714285715,0.0,0.0,0.0,0.0,0.0
4.3100000000000005,-4.794285714285715,0.0,0.0,0.0,0.0,0.0
4.32,-4.794285714285715,0.0,0.0,0.0,0.0,0.0
4.33,-4.794285714285715,0.0,0.0,0.0,0.0,0.0
4.34,-4.794285714285715,0.0,0.0,0.0,0.0,0.0
4.3500000000000005,-4.794285714285715,0.0,0.0,0.0,0.0,0.0
4.36,-4.794285714285715,0.0,0.0,0.0,0.0,0.0
4.37,-4.794285714285715,0.0,0.0,0.0,0.0,0.0
4.38,-4.794285714285715,0.0,0.0,0.0,0.0,0.0
4.39,-4.794285714285715,0.0,0.0,0.0,0.0,0.0
4.4,-4.794285714285715,0.0,0.0,0.0,0.0,0.0
4.41,-4.794285714285715,0.0,0.0,0.0,0.0,0.0
4.42,-4.794285714285715,0.0,0.0,0.0,0.0,0.0
4.43,-4.794285714285715,0.0,0.0,0.0,0.0,0.0
4.44,-4.794285714285715,0.0,0.0,0.0,0.0,0.0
4.45,-4.794285714285715,0.0,0.0,0.0,0.0,0.0
4.46,-4.794285714285715,0.0,0.0,0.0,0.0,0.0
4.47,-4.794285714285715,0.0,0.0,0.0,0.0,0.0
4.48,-4.794285714285715,0.0,0.0,0.0,0.0,0.0
4.49,-4.794285714285715,0.0,0.0,0.0,0.0,0.0
4.5,-4.794285714285715,0.0,0.0,0.0,0.0,0.0
4.51,-4.794285714285715,0.0,0.0,0.0,0.0,0.0
4.5200000000000005,-4.794285714285715,0.0,0.0,0.0,0.0,0.0
4.53,-4.794285714285715,0.0,0.0,0.0,0.0,0.0
4.54,-4.794285714285715,0.0,0.0,0.0,0.0,0.0
4.55,-4.794285714285715,0.0,0.0,0.0,0.0,0.0
4.5600000000000005,-4.794285714285715,0.0,0.0,0.0,0.0,0.0
4.57,-4.794285714285715,0.0,0.0,0.0,0.0,0.0
4.58,-4.794285714285715,0.0,0.0,0.0,0.0,0.0
4.59,-4.794285714285715,0.0,0.0,0.0,0.0,0.0
4.6000000000000005,-4.794285714285715,0.0,0.0,0.0,0.0,0.0
4.61,-4.794285714285715,0.0,0.0,0.0,0.0,0.0
4.62,-4.794285714285715,0.0,0.0,0.0,0.0,0.0
4.63,-4.794285714285715,0.0,0.0,0.0,0.0,0.0
4.64,-4.794285714285715,0.0,0.0,0.0,0.0,0.0
4.65,-4.794285714285715,0.0,0.0,0.0,0.0,0.0
4.66,-4.794285714285715,0.0,0.0,0.0,0.0,0.0
4.67,-4.794285714285715,0.0,0.0,0.0,0.0,0.0
4.68,-4.794285714285715,0.0,0.0,0.0,0.0,0.0
4.69,-4.794285714285715,0.0,0.0,0.0,0.0,0.0
4.7,-4.794285714285715,0.0,0.0,0.0,0.0,0.0
4.71,-4.794285714285715,0.0,0.0,0.0,0.0,0.0
4.72,-4.794285714285715,0.0,0.0,0.0,0.0,0.0
4.73,-4.794285714285715,0.0,0.0,0.0,0.0,0.0
4.74,-4.794285714285715,0.0,0.0,0.0,0.0,0.0
4.75,-4.794285714285715,0.0,0.0,0.0,0.0,0.0
4.76,-4.794285714285715,0.0,0.0,0.0,0.0,0.0
4.7700000000000005,-4.794285714285715,0.0,0.0,0.0,0.0,0.0
4.78,-4.794285714285715,0.0,0.0,0.0,0.0,0.0
4.79,-4.794285714285715,0.0,0.0,0.0,0.0,0.0
4.8,-4.794285714285715,0.0,0.0,0.0,0.0,0.0
4.8100000000000005,-4.794285714285715,0.0,0.0,0.0,0.0,0.0
4.82,-4.794285714285715,0.0,0.0,0.0,0.0,0.0
4.83,-4.794285714285715,0.0,0.0,0.0,0.0,0.0
4.84,-4.794285714285715,0.0,0.0,0.0,0.0,0.0
4.8500000000000005,-4.794285714285715,0.0,0.0,0.0,0.0,0.0
4.86,-4.794285714285715,0.0,0.0,0.0,0.0,0.0
4.87,-4.794285714285715,0.0,0.0,0.0,0.0,0.0
4.88,-4.794285714285715,0.0,0.0,0.0,0.0,0.0
4.89,-4.794285714285715,0.0,0.0,0.0,0.0,0.0
4.9,-4.794285714285715,0.0,0.0,0.0,0.0,0.0
4.91,-4.794285714285715,0.0,0.0,0.0,0.0,0.0
4.92,-4.794285714285715,0.0,0.0,0.0,0.0,0.0
4.93,-4.794285714285715,0.0,0.0,0.0,0.0,0.0
4.94,-4.794285714285715,0.0,0.0,0.0,0.0,0.0
4.95,-4.794285714285715,0.0,0.0,0.0,0.0,0.0
4.96,-4.794285714285715,0.0,0.0,0.0,0.0,0.0
4.97,-4.794285714285715,0.0,0.0,0.0,0.0,0.0
4.98,-4.794285714285715,0.0,0.0,0.0,0.0,0.0
4.99,-4.794285714285715,0.0,0.0,0.0,0.0,0.0
5.0,-4.794285714285715,0.0,0.0,0.0,0.0,0.0
5.01,-4.794285714285715,0.0,0.0,0.0,0.0,0.0
5.0200000000000005,-4.794285714285715,0.0,0.0,0.0,0.0,0.0
5.03,-4.794285714285715,0.0,0.0,0.0,0.0,0.0
5.04,-4.794285714285715,0.0,0.0,0.0,0.0,0.0
5.05,-4.794285714285715,0.0,0.0,0.0,0.0,0.0
5.0600000000000005,-4.794285714285715,0.0,0.0,0.0,0.0,0.0
5.07,-4.794285714285715,0.0,0.0,0.0,0.0,0.0
5.08,-4.794285714285715,0.0,0.0,0.0,0.0,0.0
5.09,-4.794285714285715,0.0,0.0,0.0,0.0,0.0
5.1000000000000005,-4.794285714285715,0.0,0.0,0.0,0.0,0.0
5.11,-4.794285714285715,0.0,0.0,0.0,0.0,0.0
5.12,-4.794285714285715,0.0,0.0,0.0,0.0,0.0
5.13,-4.794285714285715,0.0,0.0,0.0,0.0,0.0
5.14,-4.794285714285715,0.0,0.0,0.0,0.0,0.0
5.15,-4.794285714285715,0.0,0.0,0.0,0.0,0.0
5.16,-4.794285714285715,0.0,0.0,0.0,0.0,0.0
5.17,-4.794285714285715,0.0,0.0,0.0,0.0,0.0
5.18,-4.794285714285715,0.0,0.0,0.0,0.0,0.0
5.19,-4.794285714285715,0.0,0.0,0.0,0.0,0.0
5.2,-4.794285714285715,0.0,0.0,0.0,0.0,0.0
5.21,-4.794285714285715,0.0,0.0,0.0,0.0,0.0
5.22,-4.794285714285715,0.0,0.0,0.0,0.0,0.0
5.23,-4.794285714285715,0.0,0.0,0.0,0.0,0.0
5.24,-4.794285714285715,0.0,0.0,0.0,0.0,0.0
5.25,-4.794285714285715,0.0,0.0,0.0,0.0,0.0
5.26,-4.794285714285715,0.0,0.0,0.0,0.0,0.0
5.2700000000000005,-4.794285714285715,0.0,0.0,0.0,0.0,0.0
5.28,-4.794285714285715,0.0,0.0,0.0,0.0,0.0
5.29,-4.794285714285715,0.0,0.0,0.0,0.0,0.0
5.3,-4.794285714285715,0.0,0.0,0.0,0.0,0.0
5.3100000000000005,-4.794285714285715,0.0,0.0,0.0,0.0,0.0
5.32,-4.794285714285715,0.0,0.0,0.0,0.0,0.0
5.33,-4.794285714285715,0.0,0.0,0.0,0.0,0.0
5.34,-4.794285714285715,0.0,0.0,0.0,0.0,0.0
5.3500000000000005,-4.794285714285715,0.0,0.0,0.0,0.0,0.0
5.36,-4.794285714285715,0.0,0.0,0.0,0.0,0.0
5.37,-4.794285714285715,0.0,0.0,0.0,0.0,0.0
5.38,-4.794285714285715,0.0,0.0,0.0,0.0,0.0
5.39,-4.794285714285715,0.0,0.0,0.0,0.0,0.0
5.4,-4.794285714285715,0.0,0.0,0.0,0.0,0.0
5.41,-4.794285714285715,0.0,0.0,0.0,0.0,0.0
5.42,-4.794285714285715,0.0,0.0,0.0,0.0,0.0
5.43,-4.794285714285715,0.0,0.0,0.0,0.0,0.0
5.44,-4.794285714285715,0.0,0.0,0.0,0.0,0.0
5.45,-4.794285714285715,0.0,0.0,0.0,0.0,0.0
5.46,-4.794285714285715,0.0,0.0,0.0,0.0,0.0
5.47,-4.794285714285715,0.0,0.0,0.0,0.0,0.0
5.48,-4.794285714285715,0.0,0.0,0.0,0.0,0.0
5.49,-4.794285714285715,0.0,0.0,0.0,0.0,0.0
5.5,-4.794285714285715,0.0,0.0,0.0,0.0,0.0
5.51,-4.794285714285715,0.0,0.0,0.0,0.0,0.0
5.5200000000000005,-4.794285714285715,0.0,0.0,0.0,0.0,0.0
5.53,-4.794285714285715,0.0,0.0,0.0,0.0,0.0
5.54,-4.794285714285715,0.0,0.0,0.0,0.0,0.0
5.55,-4.794285714285715,0.0,0.0,0.0,0.0,0.0
5.5600000000000005,-4.794285714285715,0.0,0.0,0.0,0.0,0.0
5.57,-4.794285714285715,0.0,0.0,0.0,0.0,0.0
5.58,-4.794285714285715,0.0,0.0,0.0,0.0,0.0
5.59,-4.794285714285715,0.0,0.0,0.0,0.0,0.0
5.6000000000000005,-4.794285714285715,0.0,0.0,0.0,0.0,0.0
5.61,-4.794285714285715,0.0,0.0,0.0,0.0,0.0
5.62,-4.794285714285715,0.0,0.0,0.0,0.0,0.0
5.63,-4.794285714285715,0.0,0.0,0.0,0.0,0.0
5.64,-4.794285714285715,0.0,0.0,0.0,0.0,0.0
5.65,-4.794285714285715,0.0,0.0,0.0,0.0,0.0
5.66,-4.794285714285715,0.0,0.0,0.0,0.0,0.0
5.67,-4.794285714285715,0.0,0.0,0.0,0.0,0.0
5.68,-4.794285714285715,0.0,0.0,0.0,0.0,0.0
5.69,-4.794285714285715,0.0,0.0,0.0,0.0,0.0
5.7,-4.794285714285715,0.0,0.0,0.0,0.0,0.0
5.71,-4.794285714285715,0.0,0.0,0.0,0.0,0.0
5.72,-4.794285714285715,0.0,0.0,0.0,0.0,0.0
5.73,-4.794285714285715,0.0,0.0,0.0,0.0,0.0
5.74,-4.794285714285715,0.0,0.0,0.0,0.0,0.0
5.75,-4.794285714285715,0.0,0.0,0.0,0.0,0.0
5.76,-4.794285714285715,0.0,0.0,0.0,0.0,0.0
5.7700000000000005,-4.794285714285715,0.0,0.0,0.0,0.0,0.0
5.78,-4.794285714285715,0.0,0.0,0.0,0.0,0.0
5.79,-4.794285714285715,0.0,0.0,0.0,0.0,0.0
5.8,-4.794285714285715,0.0,0.0,0.0,0.0,0.0
5.8100000000000005,-4.794285714285715,0.0,0.0,0.0,0.0,0.0
5.82,-4.794285714285715,0.0,0.0,0.0,0.0,0.0
5.83,-4.794285714285715,0.0,0.0,0.0,0.0,0.0
5.84,-4.794285714285715,0.0,0.0,0.0,0.0,0.0
5.8500000000000005,-4.794285714285715,0.0,0.0,0.0,0.0,0.0
5.86,-4.794285714285715,0.0,0.0,0.0,0.0,0.0
5.87,-4.794285714285715,0.0,0.0,0.0,0.0,0.0
5.88,-4.794285714285715,0.0,0.0,0.0,0.0,0.0
5.89,-4.794285714285715,0.0,0.0,0.0,0.0,0.0
5.9,-4.794285714285715,0.0,0.0,0.0,0.0,0.0
5.91,-4.794285714285715,0.0,0.0,0.0,0.0,0.0
5.92,-4.794285714285715,0.0,0.0,0.0,0.0,0.0
5.93,-4.794285714285715,0.0,0.0,0.0,0.0,0.0
5.94,-4.794285714285715,0.0,0.0,0.0,0.0,0.0
5.95,-4.794285714285715,0.0,0.0,0.0,0.0,0.0
5.96,-4.794285714285715,0.0,0.0,0.0,0.0,0.0
5.97,-4.794285714285715,0.0,0.0,0.0,0.0,0.0
5.98,-4.794285714285715,0.0,0.0,0.0,0.0,0.0
5.99,-4.794285714285715,0.0,0.0,0.0,0.0,0.0
6.0,-4.794285714285715,0.0,0.0,0.0,0.0,0.0
6.01,-4.794285714285715,0.0,0.0,0.0,0.0,0.0
6.0200000000000005,-4.794285714285715,0.0,0.0,0.0,0.0,0.0
6.03,-4.794285714285715,0.0,0.0,0.0,0.0,0.0
6.04,-4.794285714285715,0.0,0.0,0.0,0.0,0.0
6.05,-4.794285714285715,0.0,0.0,0.0,0.0,0.0
6.0600000000000005,-4.794285714285715,0.0,0.0,0.0,0.0,0.0
6.07,-4.794285714285715,0.0,0.0,0.0,0.0,0.0
6.08,-4.794285714285715,0.0,0.0,0.0,0.0,0.0
6.09,-4.794285714285715,0.0,0.0,0.0,0.0,0.0
6.1000000000000005,-4.794285714285715,0.0,0.0,0.0,0.0,0.0
6.11,-4.794285714285715,0.0,0.0,0.0,0.0,0.0
6.12,-4.794285714285715,0.0,0.0,0.0,0.0,0.0
6.13,-4.794285714285715,0.0,0.0,0.0,0.0,0.0
6.140000000000001,-4.794285714285715,0.0,0.0,0.0,0.0,0.0
6.15,-4.794285714285715,0.0,0.0,0.0,0.0,0.0
6.16,-4.794285714285715,0.0,0.0,0.0,0.0,0.0
6.17,-4.794285714285715,0.0,0.0,0.0,0.0,0.0
6.18,-4.794285714285715,0.0,0.0,0.0,0.0,0.0
6.19,-4.794285714285715,0.0,0.0,0.0,0.0,0.0
6.2,-4.794285714285715,0.0,0.0,0.0,0.0,0.0
6.21,-4.794285714285715,0.0,0.0,0.0,0.0,0.0
6.22,-4.794285714285715,0.0,0.0,0.0,0.0,0.0
6.23,-4.794285714285715,0.0,0.0,0.0,0.0,0.0
6.24,-4.794285714285715,0.0,0.0,0.0,0.0,0.0
6.25,-4.794285714285715,0.0,0.0,0.0,0.0,0.0
6.26,-4.794285714285715,0.0,0.0,0.0,0.0,0.0
6.2700000000000005,-4.794285714285715,0.0,0.0,0.0,0.0,0.0
6.28,-4.794285714285715,0.0,0.0,0.0,0.0,0.0
6.29,-4.794285714285715,0.0,0.0,0.0,0.0,0.0
6.3,-4.794285714285715,0.0,0.0,0.0,0.0,0.0
6.3100000000000005,-4.794285714285715,0.0,0.0,0.0,0.0,0.0
6.32,-4.794285714285715,0.0,0.0,0.0,0.0,0.0
6.33,-4.794285714285715,0.0,0.0,0.0,0.0,0.0
6.34,-4.794285714285715,0.0,0.0,0.0,0.0,0.0
6.3500000000000005,-4.794285714285715,0.0,0.0,0.0,0.0,0.0
6.36,-4.794285714285715,0.0,0.0,0.0,0.0,0.0
6.37,-4.794285714285715,0.0,0.0,0.0,0.0,0.0
6.38,-4.794285714285715,0.0,0.0,0.0,0.0,0.0
6.390000000000001,-4.794285714285715,0.0,0.0,0.0,0.0,0.0
6.4,-4.794285714285715,0.0,0.0,0.0,0.0,0.0
6.41,-4.794285714285715,0.0,0.0,0.0,0.0,0.0
6.42,-4.794285714285715,0.0,0.0,0.0,0.0,0.0
6.43,-4.794285714285715,0.0,0.0,0.0,0.0,0.0
6.44,-4.794285714285715,0.0,0.0,0.0,0.0,0.0
6.45,-4.794285714285715,0.0,0.0,0.0,0.0,0.0
6.46,-4.794285714285715,0.0,0.0,0.0,0.0,0.0
6.47,-4.794285714285715,0.0,0.0,0.0,0.0,0.0
6.48,-4.794285714285715,0.0,0.0,0.0,0.0,0.0
6.49,-4.794285714285715,0.0,0.0,0.0,0.0,0.0
6.5,-4.794285714285715,0.0,0.0,0.0,0.0,0.0
6.51,-4.794285714285715,0.0,0.0,0.0,0.0,0.0
6.5200000000000005,-4.794285714285715,0.0,0.0,0.0,0.0,0.0
6.53,-4.794285714285715,0.0,0.0,0.0,0.0,0.0
6.54,-4.794285714285715,0.0,0.0,0.0,0.0,0.0
6.55,-4.794285714285715,0.0,0.0,0.0,0.0,0.0
6.5600000000000005,-4.794285714285715,0.0,0.0,0.0,0.0,0.0
6.57,-4.794285714285715,0.0,0.0,0.0,0.0,0.0
6.58,-4.794285714285715,0.0,0.0,0.0,0.0,0.0
6.59,-4.794285714285715,0.0,0.0,0.0,0.0,0.0
6.6000000000000005,-4.794285714285715,0.0,0.0,0.0,0.0,0.0
6.61,-4.794285714285715,0.0,0.0,0.0,0.0,0.0
6.62,-4.794285714285715,0.0,0.0,0.0,0.0,0.0
6.63,-4.794285714285715,0.0,0.0,0.0,0.0,0.0
6.640000000000001,-4.794285714285715,0.0,0.0,0.0,0.0,0.0
6.65,-4.794285714285715,0.0,0.0,0.0,0.0,0.0
6.66,-4.794285714285715,0.0,0.0,0.0,0.0,0.0
6.67,-4.794285714285715,0.0,0.0,0.0,0.0,0.0
6.68,-4.794285714285715,0.0,0.0,0.0,0.0,0.0
6.69,-4.794285714285715,0.0,0.0,0.0,0.0,0.0
6.7,-4.794285714285715,0.0,0.0,0.0,0.0,0.0
6.71,-4.794285714285715,0.0,0.0,0.0,0.0,0.0
6.72,-4.794285714285715,0.0,0.0,0.0,0.0,0.0
6.73,-4.794285714285715,0.0,0.0,0.0,0.0,0.0
6.74,-4.794285714285715,0.0,0.0,0.0,0.0,0.0
6.75,-4.794285714285715,0.0,0.0,0.0,0.0,0.0
6.76,-4.794285714285715,0.0,0.0,0.0,0.0,0.0
6.7700000000000005,-4.794285714285715,0.0,0.0,0.0,0.0,0.0
6.78,-4.794285714285715,0.0,0.0,0.0,0.0,0.0
6.79,-4.794285714285715,0.0,0.0,0.0,0.0,0.0
6.8,-4.794285714285715,0.0,0.0,0.0,0.0,0.0
6.8100000000000005,-4.794285714285715,0.0,0.0,0.0,0.0,0.0
6.82,-4.794285714285715,0.0,0.0,0.0,0.0,0.0
6.83,-4.794285714285715,0.0,0.0,0.0,0.0,0.0
6.84,-4.794285714285715,0.0,0.0,0.0,0.0,0.0
6.8500000000000005,-4.794285714285715,0.0,0.0,0.0,0.0,0.0
6.86,-4.794285714285715,0.0,0.0,0.0,0.0,0.0
6.87,-4.794285714285715,0.0,0.0,0.0,0.0,0.0
6.88,-4.794285714285715,0.0,0.0,0.0,0.0,0.0
6.890000000000001,-4.794285714285715,0.0,0.0,0.0,0.0,0.0
6.9,-4.794285714285715,0.0,0.0,0.0,0.0,0.0
6.91,-4.794285714285715,0.0,0.0,0.0,0.0,0.0
6.92,-4.794285714285715,0.0,0.0,0.0,0.0,0.0
6.93,-4.794285714285715,0.0,0.0,0.0,0.0,0.0
6.94,-4.794285714285715,0.0,0.0,0.0,0.0,0.0
6.95,-4.794285714285715,0.0,0.0,0.0,0.0,0.0
6.96,-4.794285714285715,0.0,0.0,0.0,0.0,0.0
6.97,-4.794285714285715,0.0,0.0,0.0,0.0,0.0
6.98,-4.794285714285715,0.0,0.0,0.0,0.0,0.0
6.99,-4.794285714285715,0.0,0.0,0.0,0.0,0.0
7.0,-4.794285714285715,0.0,0.0,0.0,0.0,0.0
7.01,-4.794285714285715,0.0,0.0,0.0,0.0,0.0
7.0200000000000005,-4.794285714285715,0.0,0.0,0.0,0.0,0.0
7.03,-4.794285714285715,0.0,0.0,0.0,0.0,0.0
7.04,-4.794285714285715,0.0,0.0,0.0,0.0,0.0
7.05,-4.794285714285715,0.0,0.0,0.0,0.0,0.0
7.0600000000000005,-4.794285714285715,0.0,0.0,0.0,0.0,0.0
7.07,-4.794285714285715,0.0,0.0,0.0,0.0,0.0
7.08,-4.794285714285715,0.0,0.0,0.0,0.0,0.0
7.09,-4.794285714285715,0.0,0.0,0.0,0.0,0.0
7.1000000000000005,-4.794285714285715,0.0,0.0,0.0,0.0,0.0
7.11,-4.794285714285715,0.0,0.0,0.0,0.0,0.0
7.12,-4.794285714285715,0.0,0.0,0.0,0.0,0.0
7.13,-4.794285714285715,0.0,0.0,0.0,0.0,0.0
7.140000000000001,-4.794285714285715,0.0,0.0,0.0,0.0,0.0
7.15,-4.794285714285715,0.0,0.0,0.0,0.0,0.0
7.16,-4.794285714285715,0.0,0.0,0.0,0.0,0.0
7.17,-4.794285714285715,0.0,0.0,0.0,0.0,0.0
7.18,-4.794285714285715,0.0,0.0,0.0,0.0,0.0
7.19,-4.794285714285715,0.0,0.0,0.0,0.0,0.0
7.2,-4.794285714285715,0.0,0.0,0.0,0.0,0.0
7.21,-4.794285714285715,0.0,0.0,0.0,0.0,0.0
7.22,-4.794285714285715,0.0,0.0,0.0,0.0,0.0
7.23,-4.794285714285715,0.0,0.0,0.0,0.0,0.0
7.24,-4.794285714285715,0.0,0.0,0.0,0.0,0.0
7.25,-4.794285714285715,0.0,0.0,0.0,0.0,0.0
7.26,-4.794285714285715,0.0,0.0,0.0,0.0,0.0
7.2700000000000005,-4.794285714285715,0.0,0.0,0.0,0.0,0.0
7.28,-4.794285714285715,0.0,0.0,0.0,0.0,0.0
7.29,-4.794285714285715,0.0,0.0,0.0,0.0,0.0
7.3,-4.794285714285715,0.0,0.0,0.0,0.0,0.0
7.3100000000000005,-4.794285714285715,0.0,0.0,0.0,0.0,0.0
7.32,-4.794285714285715,0.0,0.0,0.0,0.0,0.0
7.33,-4.794285714285715,0.0,0.0,0.0,0.0,0.0
7.34,-4.794285714285715,0.0,0.0,0.0,0.0,0.0
7.3500000000000005,-4.794285714285715,0.0,0.0,0.0,0.0,0.0
7.36,-4.794285714285715,0.0,0.0,0.0,0.0,0.0
7.37,-4.794285714285715,0.0,0.0,0.0,0.0,0.0
7.38,-4.794285714285715,0.0,0.0,0.0,0.0,0.0
7.390000000000001,-4.794285714285715,0.0,0.0,0.0,0.0,0.0
7.4,-4.794285714285715,0.0,0.0,0.0,0.0,0.0
7.41,-4.794285714285715,0.0,0.0,0.0,0.0,0.0
7.42,-4.794285714285715,0.0,0.0,0.0,0.0,0.0
7.43,-4.794285714285715,0.0,0.0,0.0,0.0,0.0
7.44,-4.794285714285715,0.0,0.0,0.0,0.0,0.0
7.45,-4.794285714285715,0.0,0.0,0.0,0.0,0.0
7.46,-4.794285714285715,0.0,0.0,0.0,0.0,0.0
7.47,-4.794285714285715,0.0,0.0,0.0,0.0,0.0
7.48,-4.794285714285715,0.0,0.0,0.0,0.0,0.0
7.49,-4.794285714285715,0.0,0.0,0.0,0.0,0.0
7.5,-4.794285714285715,0.0,0.0,0.0,0.0,0.0
7.51,-4.794285714285715,0.0,0.0,0.0,0.0,0.0
7.5200000000000005,-4.794285714285715,0.0,0.0,0.0,0.0,0.0
7.53,-4.794285714285715,0.0,0.0,0.0,0.0,0.0
7.54,-4.794285714285715,0.0,0.0,0.0,0.0,0.0
7.55,-4.794285714285715,0.0,0.0,0.0,0.0,0.0
7.5600000000000005,-4.794285714285715,0.0,0.0,0.0,0.0,0.0
7.57,-4.794285714285715,0.0,0.0,0.0,0.0,0.0
7.58,-4.794285714285715,0.0,0.0,0.0,0.0,0.0
7.59,-4.794285714285715,0.0,0.0,0.0,0.0,0.0
7.6000000000000005,-4.794285714285715,0.0,0.0,0.0,0.0,0.0
7.61,-4.794285714285715,0.0,0.0,0.0,0.0,0.0
7.62,-4.794285714285715,0.0,0.0,0.0,0.0,0.0
7.63,-4.794285714285715,0.0,0.0,0.0,0.0,0.0
7.640000000000001,-4.794285714285715,0.0,0.0,0.0,0.0,0.0
7.65,-4.794285714285715,0.0,0.0,0.0,0.0,0.0
7.66,-4.794285714285715,0.0,0.0,0.0,0.0,0.0
7.67,-4.768495050087867,0.0,0.0,0.0,0.0,-1.811504825062807e-18
7.68,-3.0872675574342337e-15,0.0,0.0,0.0,0.0,-1.0847438375073292e-16
7.69,-3.0872675574342337e-15,0.0,0.0,0.0,0.0,-1.0847438375073292e-16
7.7,-3.0872675574342337e-15,0.0,0.0,0.0,0.0,-1.0847438375073292e-16
7.71,-3.0872675574342337e-15,0.0,0.0,0.0,0.0,-1.0847438375073292e-16
7.72,-3.0872675574342337e-15,0.0,0.0,0.0,0.0,-1.0847438375073292e-16
7.73,-3.0872675574342337e-15,0.0,0.0,0.0,0.0,-1.0847438375073292e-16
7.74,-3.0872675574342337e-15,0.0,0.0,0.0,0.0,-1.0847438375073292e-16
7.75,-3.0872675574342337e-15,0.0,0.0,0.0,0.0,-1.0847438375073292e-16
7.76,-3.0872675574342337e-15,0.0,0.0,0.0,0.0,-1.0847438375073292e-16
7.7700000000000005,-3.0872675574342337e-15,0.0,0.0,0.0,0.0,-1.0847438375073292e-16
7.78,-3.0872675574342337e-15,0.0,0.0,0.0,0.0,-1.0847438375073292e-16
7.79,-3.0872675574342337e-15,0.0,0.0,0.0,0.0,-1.0847438375073292e-16
7.8,-3.0872675574342337e-15,0.0,0.0,0.0,0.0,-1.0847438375073292e-16
7.8100000000000005,-3.0872675574342337e-15,0.0,0.0,0.0,0.0,-1.0847438375073292e-16
7.82,-3.0872675574342337e-15,0.0,0.0,0.0,0.0,-1.0847438375073292e-16
7.83,-3.0872675574342337e-15,0.0,0.0,0.0,0.0,-1.0847438375073292e-16
7.84,-3.0872675574342337e-15,0.0,0.0,0.0,0.0,-1.0847438375073292e-16
7.8500000000000005,-3.0872675574342337e-15,0.0,0.0,0.0,0.0,-1.0847438375073292e-16
7.86,-3.0872675574342337e-15,0.0,0.0,0.0,0.0,-1.0847438375073292e-16
7.87,-3.0872675574342337e-15,0.0,0.0,0.0,0.0,-1.0847438375073292e-16
7.88,-3.0872675574342337e-15,0.0,0.0,0.0,0.0,-1.0847438375073292e-16
7.890000000000001,-3.0872675574342337e-15,0.0,0.0,0.0,0.0,-1.0847438375073292e-16
7.9,-3.0872675574342337e-15,0.0,0.0,0.0,0.0,-1.0847438375073292e-16
7.91,-3.0872675574342337e-15,0.0,0.0,0.0,0.0,-1.0847438375073292e-16
7.92,-3.0872675574342337e-15,0.0,0.0,0.0,0.0,-1.0847438375073292e-16
7.930000000000001,-3.0872675574342337e-15,0.0,0.0,0.0,0.0,-1.0847438375073292e-16
7.94,-3.0872675574342337e-15,0.0,0.0,0.0,0.0,-1.0847438375073292e-16
7.95,-3.0872675574342337e-15,0.0,0.0,0.0,0.0,-1.0847438375073292e-16
7.96,-3.0872675574342337e-15,0.0,0.0,0.0,0.0,-1.0847438375073292e-16
7.97,-3.0872675574342337e-15,0.0,0.0,0.0,0.0,-1.0847438375073292e-16
7.98,-3.0872675574342337e-15,0.0,0.0,0.0,0.0,-1.0847438375073292e-16
7.99,-3.0872675574342337e-15,0.0,0.0,0.0,0.0,-1.0847438375073292e-16
8.0,-3.0872675574342337e-15,0.0,0.0,0.0,0.0,-1.0847438375073292e-16
8.01,-3.0872675574342337e-15,0.0,0.0,0.0,0.0,-1.0847438375073292e-16
8.02,-3.0872675574342337e-15,0.0,0.0,0.0,0.0,-1.0847438375073292e-16
8.03,-3.0872675574342337e-15,0.0,0.0,0.0,0.0,-1.0847438375073292e-16
8.040000000000001,-3.0872675574342337e-15,0.0,0.0,0.0,0.0,-1.0847438375073292e-16
8.05,-3.0872675574342337e-15,0.0,0.0,0.0,0.0,-1.0847438375073292e-16
8.06,-3.0872675574342337e-15,0.0,0.0,0.0,0.0,-1.0847438375073292e-16
8.07,-3.0872675574342337e-15,0.0,0.0,0.0,0.0,-1.0847438375073292e-16
8.08,-3.0872675574342337e-15,0.0,0.0,0.0,0.0,-1.0847438375073292e-16
8.09,-3.0872675574342337e-15,0.0,0.0,0.0,0.0,-1.0847438375073292e-16
8.1,-3.0872675574342337e-15,0.0,0.0,0.0,0.0,-1.0847438375073292e-16
8.11,-3.0872675574342337e-15,0.0,0.0,0.0,0.0,-1.0847438375073292e-16
8.120000000000001,-3.0872675574342337e-15,0.0,0.0,0.0,0.0,-1.0847438375073292e-16
8.13,-3.0872675574342337e-15,0.0,0.0,0.0,0.0,-1.0847438375073292e-16
8.14,-3.0872675574342337e-15,0.0,0.0,0.0,0.0,-1.0847438375073292e-16
8.15,-3.0872675574342337e-15,0.0,0.0,0.0,0.0,-1.0847438375073292e-16
8.16,-3.0872675574342337e-15,0.0,0.0,0.0,0.0,-1.0847438375073292e-16
8.17,-3.0872675574342337e-15,0.0,0.0,0.0,0.0,-1.0847438375073292e-16
8.18,-3.0872675574342337e-15,0.0,0.0,0.0,0.0,-1.0847438375073292e-16
8.19,-3.0872675574342337e-15,0.0,0.0,0.0,0.0,-1.0847438375073292e-16
8.2,-3.0872675574342337e-15,0.0,0.0,0.0,0.0,-1.0847438375073292e-16
8.21,-3.0872675574342337e-15,0.0,0.0,0.0,0.0,-1.0847438375073292e-16
8.22,-3.0872675574342337e-15,0.0,0.0,0.0,0.0,-1.0847438375073292e-16
8.23,-3.0872675574342337e-15,0.0,0.0,0.0,0.0,-1.0847438375073292e-16
8.24,-3.0872675574342337e-15,0.0,0.0,0.0,0.0,-1.0847438375073292e-16
8.25,-3.0872675574342337e-15,0.0,0.0,0.0,0.0,-1.0847438375073292e-16
8.26,-3.0872675574342337e-15,0.0,0.0,0.0,0.0,-1.0847438375073292e-16
8.27,-3.0872675574342337e-15,0.0,0.0,0.0,0.0,-1.0847438375073292e-16
8.28,-3.0872675574342337e-15,0.0,0.0,0.0,0.0,-1.0847438375073292e-16
8.290000000000001,-3.0872675574342337e-15,0.0,0.0,0.0,0.0,-1.0847438375073292e-16
8.3,-3.0872675574342337e-15,0.0,0.0,0.0,0.0,-1.0847438375073292e-16
8.31,-3.0872675574342337e-15,0.0,0.0,0.0,0.0,-1.0847438375073292e-16
8.32,-3.0872675574342337e-15,0.0,0.0,0.0,0.0,-1.0847438375073292e-16
8.33,-3.0872675574342337e-15,0.0,0.0,0.0,0.0,-1.0847438375073292e-16
8.34,-3.0872675574342337e-15,0.0,0.0,0.0,0.0,-1.0847438375073292e-16
8.35,-3.0872675574342337e-15,0.0,0.0,0.0,0.0,-1.0847438375073292e-16
8.36,-3.0872675574342337e-15,0.0,0.0,0.0,0.0,-1.0847438375073292e-16
8.370000000000001,-3.0872675574342337e-15,0.0,0.0,0.0,0.0,-1.0847438375073292e-16
8.38,-3.0872675574342337e-15,0.0,0.0,0.0,0.0,-1.0847438375073292e-16
8.39,-3.0872675574342337e-15,0.0,0.0,0.0,0.0,-1.0847438375073292e-16
8.4,-3.0872675574342337e-15,0.0,0.0,0.0,0.0,-1.0847438375073292e-16
8.41,-3.0872675574342337e-15,0.0,0.0,0.0,0.0,-1.0847438375073292e-16
8.42,-3.0872675574342337e-15,0.0,0.0,0.0,0.0,-1.0847438375073292e-16
8.43,-3.0872675574342337e-15,0.0,0.0,0.0,0.0,-1.0847438375073292e-16
8.44,-3.0872675574342337e-15,0.0,0.0,0.0,0.0,-1.0847438375073292e-16
8.45,-3.0872675574342337e-15,0.0,0.0,0.0,0.0,-1.0847438375073292e-16
8.46,-3.0872675574342337e-15,0.0,0.0,0.0,0.0,-1.0847438375073292e-16
8.47,-3.0872675574342337e-15,0.0,0.0,0.0,0.0,-1.0847438375073292e-16
8.48,-3.0872675574342337e-15,0.0,0.0,0.0,0.0,-1.0847438375073292e-16
8.49,-3.0872675574342337e-15,0.0,0.0,0.0,0.0,-1.0847438375073292e-16
8.5,-3.0872675574342337e-15,0.0,0.0,0.0,0.0,-1.0847438375073292e-16
8.51,-3.0872675574342337e-15,0.0,0.0,0.0,0.0,-1.0847438375073292e-16
8.52,-3.0872675574342337e-15,0.0,0.0,0.0,0.0,-1.0847438375073292e-16
8.53,-3.0872675574342337e-15,0.0,0.0,0.0,0.0,-1.0847438375073292e-16
8.540000000000001,-3.0872675574342337e-15,0.0,0.0,0.0,0.0,-1.0847438375073292e-16
8.55,-3.0872675574342337e-15,0.0,0.0,0.0,0.0,-1.0847438375073292e-16
8.56,-3.0872675574342337e-15,0.0,0.0,0.0,0.0,-1.0847438375073292e-16
8.57,-3.0872675574342337e-15,0.0,0.0,0.0,0.0,-1.0847438375073292e-16
8.58,-3.0872675574342337e-15,0.0,0.0,0.0,0.0,-1.0847438375073292e-16
8.59,-3.0872675574342337e-15,0.0,0.0,0.0,0.0,-1.0847438375073292e-16
8.6,-3.0872675574342337e-15,0.0,0.0,0.0,0.0,-1.0847438375073292e-16
8.61,-3.0872675574342337e-15,0.0,0.0,0.0,0.0,-1.0847438375073292e-16
8.620000000000001,-3.0872675574342337e-15,0.0,0.0,0.0,0.0,-1.0847438375073292e-16
8.63,-3.0872675574342337e-15,0.0,0.0,0.0,0.0,-1.0847438375073292e-16
8.64,-3.0872675574342337e-15,0.0,0.0,0.0,0.0,-1.0847438375073292e-16
8.65,-3.0872675574342337e-15,0.0,0.0,0.0,0.0,-1.0847438375073292e-16
8.66,-3.0872675574342337e-15,0.0,0.0,0.0,0.0,-1.0847438375073292e-16
8.67,-3.0872675574342337e-15,0.0,0.0,0.0,0.0,-1.0847438375073292e-16
8.68,-3.0872675574342337e-15,0.0,0.0,0.0,0.0,-1.0847438375073292e-16
8.69,-3.0872675574342337e-15,0.0,0.0,0.0,0.0,-1.0847438375073292e-16
8.700000000000001,-3.0872675574342337e-15,0.0,0.0,0.0,0.0,-1.0847438375073292e-16
8.71,-3.0872675574342337e-15,0.0,0.0,0.0,0.0,-1.0847438375073292e-16
8.72,-3.0872675574342337e-15,0.0,0.0,0.0,0.0,-1.0847438375073292e-16
8.73,-3.0872675574342337e-15,0.0,0.0,0.0,0.0,-1.0847438375073292e-16
8.74,-3.0872675574342337e-15,0.0,0.0,0.0,0.0,-1.0847438375073292e-16
8.75,-3.0872675574342337e-15,0.0,0.0,0.0,0.0,-1.0847438375073292e-16
8.76,-3.0872675574342337e-15,0.0,0.0,0.0,0.0,-1.0847438375073292e-16
8.77,-3.0872675574342337e-15,0.0,0.0,0.0,0.0,-1.0847438375073292e-16
8.78,-3.0872675574342337e-15,0.0,0.0,0.0,0.0,-1.0847438375073292e-16
8.790000000000001,-3.0872675574342337e-15,0.0,0.0,0.0,0.0,-1.0847438375073292e-16
8.8,-3.0872675574342337e-15,0.0,0.0,0.0,0.0,-1.0847438375073292e-16
8.81,-3.0872675574342337e-15,0.0,0.0,0.0,0.0,-1.0847438375073292e-16
8.82,-3.0872675574342337e-15,0.0,0.0,0.0,0.0,-1.0847438375073292e-16
8.83,-3.0872675574342337e-15,0.0,0.0,0.0,0.0,-1.0847438375073292e-16
8.84,-3.0872675574342337e-15,0.0,0.0,0.0,0.0,-1.0847438375073292e-16
8.85,-3.0872675574342337e-15,0.0,0.0,0.0,0.0,-1.0847438375073292e-16
8.86,-3.0872675574342337e-15,0.0,0.0,0.0,0.0,-1.0847438375073292e-16
8.870000000000001,-3.0872675574342337e-15,0.0,0.0,0.0,0.0,-1.0847438375073292e-16
8.88,-3.0872675574342337e-15,0.0,0.0,0.0,0.0,-1.0847438375073292e-16
8.89,-3.0872675574342337e-15,0.0,0.0,0.0,0.0,-1.0847438375073292e-16
8.9,-3.0872675574342337e-15,0.0,0.0,0.0,0.0,-1.0847438375073292e-16
8.91,-3.0872675574342337e-15,0.0,0.0,0.0,0.0,-1.0847438375073292e-16
8.92,-3.0872675574342337e-15,0.0,0.0,0.0,0.0,-1.0847438375073292e-16
8.93,-3.0872675574342337e-15,0.0,0.0,0.0,0.0,-1.0847438375073292e-16
8.94,-3.0872675574342337e-15,0.0,0.0,0.0,0.0,-1.0847438375073292e-16
8.950000000000001,-3.0872675574342337e-15,0.0,0.0,0.0,0.0,-1.0847438375073292e-16
8.96,-3.0872675574342337e-15,0.0,0.0,0.0,0.0,-1.0847438375073292e-16
8.97,-3.0872675574342337e-15,0.0,0.0,0.0,0.0,-1.0847438375073292e-16
8.98,-3.0872675574342337e-15,0.0,0.0,0.0,0.0,-1.0847438375073292e-16
8.99,-3.0872675574342337e-15,0.0,0.0,0.0,0.0,-1.0847438375073292e-16
9.0,-3.0872675574342337e-15,0.0,0.0,0.0,0.0,-1.0847438375073292e-16
