# results of the FBA model for the bactery Styphi
# the columns are: t and the metabolic fluxes 
# the compounds are: galactose, glucose, thiosulfate, butyrate, Fprau, Styphi,  
# the nominal flux is: -5.0, -5.0, -5.0, -5.0, -5.0, -5.0,  
# the initial concentration are: 26.0, 74.0, 93.0, 24.0, 0.6143797405419198, 0.13210283730154393,  

t,galactose,glucose,thiosulfate,butyrate,Fprau,Styphi
0.0,-5.0,-5.0,-5.0,0.0,0.0,0.6485490667406617
0.01,-5.0,-5.0,-5.0,0.0,0.0,0.6485490667406617
0.02,-5.0,-5.0,-5.0,0.0,0.0,0.6485490667406617
0.03,-5.0,-5.0,-5.0,0.0,0.0,0.6485490667406604
0.04,-5.0,-5.0,-5.0,0.0,0.0,0.6485490667406599
0.05,-5.0,-5.0,-5.0,0.0,0.0,0.6485490667406599
0.06,-5.0,-5.0,-5.0,0.0,0.0,0.6485490667406596
0.07,-5.0,-5.0,-5.0,0.0,0.0,0.6485490667406593
0.08,-5.0,-5.0,-5.0,0.0,0.0,0.6485490667406593
0.09,-5.0,-5.0,-5.0,0.0,0.0,0.6485490667406588
0.1,-5.0,-5.0,-5.0,0.0,0.0,0.6485490667406619
0.11,-5.0,-5.0,-5.0,0.0,0.0,0.648549066740662
0.12,-5.0,-5.0,-5.0,0.0,0.0,0.6485490667406617
0.13,-5.0,-5.0,-5.0,0.0,0.0,0.6485490667406618
0.14,-5.0,-5.0,-5.0,0.0,0.0,0.6485490667406617
0.15,-5.0,-5.0,-5.0,0.0,0.0,0.6485490667406606
0.16,-5.0,-5.0,-5.0,0.0,0.0,0.6485490667406607
0.17,-5.0,-5.0,-5.0,0.0,0.0,0.6485490667406641
0.18,-5.0,-5.0,-5.0,0.0,0.0,0.6485490667406641
0.19,-5.0,-5.0,-5.0,0.0,0.0,0.6485490667406641
0.2,-5.0,-5.0,-5.0,0.0,0.0,0.6485490667406641
0.21,-5.0,-5.0,-5.0,0.0,0.0,0.6485490667406641
0.22,-5.0,-5.0,-5.0,0.0,0.0,0.6485490667406641
0.23,-5.0,-5.0,-5.0,0.0,0.0,0.6485490667406598
0.24,-5.0,-5.0,-5.0,0.0,0.0,0.6485490667406604
0.25,-5.0,-5.0,-5.0,0.0,0.0,0.6485490667406605
0.26,-5.0,-5.0,-5.0,0.0,0.0,0.6485490667406595
0.27,-5.0,-5.0,-5.0,0.0,0.0,0.6485490667406599
0.28,-5.0,-5.0,-5.0,0.0,0.0,0.6485490667406578
0.29,-5.0,-5.0,-5.0,0.0,0.0,0.648549066740659
0.3,-5.0,-5.0,-5.0,0.0,0.0,0.6485490667406604
0.31,-5.0,-5.0,-5.0,0.0,0.0,0.64854906674066
0.32,-5.0,-5.0,-5.0,0.0,0.0,0.6485490667406599
0.33,-5.0,-5.0,-5.0,0.0,0.0,0.6485490667406609
0.34,-5.0,-5.0,-5.0,0.0,0.0,0.6485490667406597
0.35000000000000003,-5.0,-5.0,-5.0,0.0,0.0,0.6485490667406609
0.36,-5.0,-5.0,-5.0,0.0,0.0,0.6485490667406651
0.37,-5.0,-5.0,-5.0,0.0,0.0,0.6485490667406654
0.38,-5.0,-5.0,-5.0,0.0,0.0,0.6485490667406654
0.39,-5.0,-5.0,-5.0,0.0,0.0,0.6485490667406658
0.4,-5.0,-5.0,-5.0,0.0,0.0,0.6485490667406659
0.41000000000000003,-5.0,-5.0,-5.0,0.0,0.0,0.6485490667406661
0.42,-5.0,-5.0,-5.0,0.0,0.0,0.6485490667406656
0.43,-5.0,-5.0,-5.0,0.0,0.0,0.6485490667406568
0.44,-5.0,-5.0,-5.0,0.0,0.0,0.6485490667406577
0.45,-5.0,-5.0,-5.0,0.0,0.0,0.6485490667406559
0.46,-5.0,-5.0,-5.0,0.0,0.0,0.6485490667406582
0.47000000000000003,-5.0,-5.0,-5.0,0.0,0.0,0.6485490667406568
0.48,-5.0,-5.0,-5.0,0.0,0.0,0.6485490667406588
0.49,-5.0,-5.0,-5.0,0.0,0.0,0.6485490667406684
0.5,-5.0,-5.0,-5.0,0.0,0.0,0.6485490667406688
0.51,-5.0,-5.0,-5.0,0.0,0.0,0.6485490667406688
0.52,-5.0,-5.0,-5.0,0.0,0.0,0.6485490667406691
0.53,-5.0,-5.0,-5.0,0.0,0.0,0.6485490667406687
0.54,-5.0,-5.0,-5.0,0.0,0.0,0.6485490667406686
0.55,-5.0,-5.0,-5.0,0.0,0.0,0.6485490667406686
0.56,-5.0,-5.0,-5.0,0.0,0.0,0.6485490667406625
0.5700000000000001,-5.0,-5.0,-5.0,0.0,0.0,0.6485490667406617
0.58,-5.0,-5.0,-5.0,0.0,0.0,0.6485490667406613
0.59,-5.0,-5.0,-5.0,0.0,0.0,0.6485490667406604
0.6,-5.0,-5.0,-5.0,0.0,0.0,0.648549066740661
0.61,-5.0,-5.0,-5.0,0.0,0.0,0.64854906674066
0.62,-5.0,-5.0,-5.0,0.0,0.0,0.648549066740667
0.63,-5.0,-5.0,-5.0,0.0,0.0,0.648549066740667
0.64,-5.0,-5.0,-5.0,0.0,0.0,0.6485490667406684
0.65,-5.0,-5.0,-5.0,0.0,0.0,0.6485490667406681
0.66,-5.0,-5.0,-5.0,0.0,0.0,0.6485490667406681
0.67,-5.0,-5.0,-5.0,0.0,0.0,0.6485490667406686
0.68,-5.0,-5.0,-5.0,0.0,0.0,0.6485490667406684
0.6900000000000001,-5.0,-5.0,-5.0,0.0,0.0,0.6485490667406622
0.7000000000000001,-5.0,-5.0,-5.0,0.0,0.0,0.6485490667406618
0.71,-5.0,-5.0,-5.0,0.0,0.0,0.6485490667406624
0.72,-5.0,-5.0,-5.0,0.0,0.0,0.6485490667406631
0.73,-5.0,-5.0,-5.0,0.0,0.0,0.6485490667406636
0.74,-5.0,-5.0,-5.0,0.0,0.0,0.6485490667406628
0.75,-5.0,-5.0,-5.0,0.0,0.0,0.6485490667406649
0.76,-5.0,-5.0,-5.0,0.0,0.0,0.6485490667406665
0.77,-5.0,-5.0,-5.0,0.0,0.0,0.6485490667406649
0.78,-5.0,-5.0,-5.0,0.0,0.0,0.6485490667406657
0.79,-5.0,-5.0,-5.0,0.0,0.0,0.6485490667406657
0.8,-5.0,-5.0,-5.0,0.0,0.0,0.6485490667406665
0.81,-5.0,-5.0,-5.0,0.0,0.0,0.6485490667406657
0.8200000000000001,-5.0,-5.0,-5.0,0.0,0.0,0.6485490667406637
0.8300000000000001,-5.0,-5.0,-5.0,0.0,0.0,0.6485490667406635
0.84,-5.0,-5.0,-5.0,0.0,0.0,0.6485490667406635
0.85,-5.0,-5.0,-5.0,0.0,0.0,0.6485490667406635
0.86,-5.0,-5.0,-5.0,0.0,0.0,0.6485490667406634
0.87,-5.0,-5.0,-5.0,0.0,0.0,0.6485490667406641
0.88,-5.0,-5.0,-5.0,0.0,0.0,0.6485490667406669
0.89,-5.0,-5.0,-5.0,0.0,0.0,0.6485490667406674
0.9,-5.0,-5.0,-5.0,0.0,0.0,0.6485490667406668
0.91,-5.0,-5.0,-5.0,0.0,0.0,0.6485490667406675
0.92,-5.0,-5.0,-5.0,0.0,0.0,0.6485490667406668
0.93,-5.0,-5.0,-5.0,0.0,0.0,0.6485490667406669
0.9400000000000001,-5.0,-5.0,-5.0,0.0,0.0,0.648549066740667
0.9500000000000001,-5.0,-5.0,-5.0,0.0,0.0,0.6485490667406568
0.96,-5.0,-5.0,-5.0,0.0,0.0,0.6485490667406577
0.97,-5.0,-5.0,-5.0,0.0,0.0,0.6485490667406559
0.98,-5.0,-5.0,-5.0,0.0,0.0,0.6485490667406582
0.99,-5.0,-5.0,-5.0,0.0,0.0,0.6485490667406568
1.0,-5.0,-5.0,-5.0,0.0,0.0,0.6485490667406588
1.01,-5.0,-5.0,-5.0,0.0,0.0,0.6485490667406684
1.02,-5.0,-5.0,-5.0,0.0,0.0,0.6485490667406688
1.03,-5.0,-5.0,-5.0,0.0,0.0,0.6485490667406688
1.04,-5.0,-5.0,-5.0,0.0,0.0,0.6485490667406691
1.05,-5.0,-5.0,-5.0,0.0,0.0,0.6485490667406687
1.06,-5.0,-5.0,-5.0,0.0,0.0,0.6485490667406686
1.07,-5.0,-5.0,-5.0,0.0,0.0,0.6485490667406686
1.08,-5.0,-5.0,-5.0,0.0,0.0,0.6485490667406625
1.09,-5.0,-5.0,-5.0,0.0,0.0,0.6485490667406617
1.1,-5.0,-5.0,-5.0,0.0,0.0,0.6485490667406613
1.11,-5.0,-5.0,-5.0,0.0,0.0,0.6485490667406604
1.12,-5.0,-5.0,-5.0,0.0,0.0,0.648549066740661
1.1300000000000001,-5.0,-5.0,-5.0,0.0,0.0,0.64854906674066
1.1400000000000001,-5.0,-5.0,-5.0,0.0,0.0,0.648549066740667
1.1500000000000001,-5.0,-5.0,-5.0,0.0,0.0,0.648549066740667
1.16,-5.0,-5.0,-5.0,0.0,0.0,0.6485490667406684
1.17,-5.0,-5.0,-5.0,0.0,0.0,0.6485490667406681
1.18,-5.0,-5.0,-5.0,0.0,0.0,0.6485490667406681
1.19,-5.0,-5.0,-5.0,0.0,0.0,0.6485490667406686
1.2,-5.0,-5.0,-5.0,0.0,0.0,0.6485490667406684
1.21,-5.0,-5.0,-5.0,0.0,0.0,0.6485490667406628
1.22,-5.0,-5.0,-5.0,0.0,0.0,0.6485490667406634
1.23,-5.0,-5.0,-5.0,0.0,0.0,0.6485490667406634
1.24,-5.0,-5.0,-5.0,0.0,0.0,0.6485490667406634
1.25,-5.0,-5.0,-5.0,0.0,0.0,0.6485490667406624
1.26,-5.0,-5.0,-5.0,0.0,0.0,0.6485490667406628
1.27,-5.0,-5.0,-5.0,0.0,0.0,0.6485490667406517
1.28,-5.0,-5.0,-5.0,0.0,0.0,0.6485490667406519
1.29,-5.0,-5.0,-5.0,0.0,0.0,0.6485490667406519
1.3,-5.0,-5.0,-5.0,0.0,0.0,0.6485490667406513
1.31,-5.0,-5.0,-5.0,0.0,0.0,0.6485490667406513
1.32,-5.0,-5.0,-5.0,0.0,0.0,0.6485490667406513
1.33,-5.0,-5.0,-5.0,0.0,0.0,0.6485490667406513
1.34,-5.0,-5.0,-5.0,0.0,0.0,0.6485490667406596
1.35,-5.0,-5.0,-5.0,0.0,0.0,0.648549066740659
1.36,-5.0,-5.0,-5.0,0.0,0.0,0.6485490667406594
1.37,-5.0,-5.0,-5.0,0.0,0.0,0.6485490667406598
1.3800000000000001,-5.0,-5.0,-5.0,0.0,0.0,0.6485490667406602
1.3900000000000001,-5.0,-5.0,-5.0,0.0,0.0,0.6485490667406599
1.4000000000000001,-5.0,-5.0,-5.0,0.0,0.0,0.6485490667406557
1.41,-5.0,-5.0,-5.0,0.0,0.0,0.6485490667406549
1.42,-5.0,-5.0,-5.0,0.0,0.0,0.648549066740659
1.43,-5.0,-5.0,-5.0,0.0,0.0,0.6485490667406557
1.44,-5.0,-5.0,-5.0,0.0,0.0,0.648549066740658
1.45,-5.0,-5.0,-5.0,0.0,0.0,0.6485490667406532
1.46,-5.0,-5.0,-5.0,0.0,0.0,0.648549066740655
1.47,-5.0,-5.0,-5.0,0.0,0.0,0.6485490667406604
1.48,-5.0,-5.0,-5.0,0.0,0.0,0.64854906674066
1.49,-5.0,-5.0,-5.0,0.0,0.0,0.6485490667406599
1.5,-5.0,-5.0,-5.0,0.0,0.0,0.6485490667406609
1.51,-5.0,-5.0,-5.0,0.0,0.0,0.6485490667406597
1.52,-5.0,-5.0,-5.0,0.0,0.0,0.6485490667406609
1.53,-5.0,-5.0,-5.0,0.0,0.0,0.6485490667406644
1.54,-5.0,-5.0,-5.0,0.0,0.0,0.6485490667406644
1.55,-5.0,-5.0,-5.0,0.0,0.0,0.6485490667406644
1.56,-5.0,-5.0,-5.0,0.0,0.0,0.6485490667406649
1.57,-5.0,-5.0,-5.0,0.0,0.0,0.6485490667406648
1.58,-5.0,-5.0,-5.0,0.0,0.0,0.6485490667406647
1.59,-5.0,-5.0,-5.0,0.0,0.0,0.6485490667406646
1.6,-5.0,-5.0,-5.0,0.0,0.0,0.6485490667406568
1.61,-5.0,-5.0,-5.0,0.0,0.0,0.6485490667406577
1.62,-5.0,-5.0,-5.0,0.0,0.0,0.6485490667406559
1.6300000000000001,-5.0,-5.0,-5.0,0.0,0.0,0.6485490667406582
1.6400000000000001,-5.0,-5.0,-5.0,0.0,0.0,0.6485490667406568
1.6500000000000001,-5.0,-5.0,-5.0,0.0,0.0,0.6485490667406588
1.6600000000000001,-5.0,-5.0,-5.0,0.0,0.0,0.6485490667406684
1.67,-5.0,-5.0,-5.0,0.0,0.0,0.6485490667406688
1.68,-5.0,-5.0,-5.0,0.0,0.0,0.6485490667406688
1.69,-5.0,-5.0,-5.0,0.0,0.0,0.6485490667406691
1.7,-5.0,-5.0,-5.0,0.0,0.0,0.6485490667406687
1.71,-5.0,-5.0,-5.0,0.0,0.0,0.6485490667406686
1.72,-5.0,-5.0,-5.0,0.0,0.0,0.6485490667406686
1.73,-5.0,-5.0,-5.0,0.0,0.0,0.6485490667406628
1.74,-5.0,-5.0,-5.0,0.0,0.0,0.6485490667406634
1.75,-5.0,-5.0,-5.0,0.0,0.0,0.6485490667406634
1.76,-5.0,-5.0,-5.0,0.0,0.0,0.6485490667406634
1.77,-5.0,-5.0,-5.0,0.0,0.0,0.6485490667406624
1.78,-5.0,-5.0,-5.0,0.0,0.0,0.6485490667406628
1.79,-5.0,-5.0,-5.0,0.0,0.0,0.6485490667406517
1.8,-5.0,-5.0,-5.0,0.0,0.0,0.6485490667406519
1.81,-5.0,-5.0,-5.0,0.0,0.0,0.6485490667406519
1.82,-5.0,-5.0,-5.0,0.0,0.0,0.6485490667406513
1.83,-5.0,-5.0,-5.0,0.0,0.0,0.6485490667406513
1.84,-5.0,-5.0,-5.0,0.0,0.0,0.6485490667406513
1.85,-5.0,-5.0,-5.0,0.0,0.0,0.6485490667406513
1.86,-5.0,-5.0,-5.0,0.0,0.0,0.6485490667406596
1.87,-5.0,-5.0,-5.0,0.0,0.0,0.648549066740659
1.8800000000000001,-5.0,-5.0,-5.0,0.0,0.0,0.6485490667406594
1.8900000000000001,-5.0,-5.0,-5.0,0.0,0.0,0.6485490667406598
1.9000000000000001,-5.0,-5.0,-5.0,0.0,0.0,0.6485490667406602
1.9100000000000001,-5.0,-5.0,-5.0,0.0,0.0,0.6485490667406599
1.92,-5.0,-5.0,-5.0,0.0,0.0,0.6485490667406557
1.93,-5.0,-5.0,-5.0,0.0,0.0,0.6485490667406549
1.94,-5.0,-5.0,-5.0,0.0,0.0,0.648549066740659
1.95,-5.0,-5.0,-5.0,0.0,0.0,0.6485490667406559
1.96,-5.0,-5.0,-5.0,0.0,0.0,0.6485490667406579
1.97,-5.0,-5.0,-5.0,0.0,0.0,0.6485490667406557
1.98,-5.0,-5.0,-5.0,0.0,0.0,0.6485490667406565
1.99,-5.0,-5.0,-5.0,0.0,0.0,0.6485490667406599
2.0,-5.0,-5.0,-5.0,0.0,0.0,0.6485490667406596
2.0100000000000002,-5.0,-5.0,-5.0,0.0,0.0,0.6485490667406596
2.02,-5.0,-5.0,-5.0,0.0,0.0,0.6485490667406604
2.0300000000000002,-5.0,-5.0,-5.0,0.0,0.0,0.64854906674066
2.04,-5.0,-5.0,-5.0,0.0,0.0,0.64854906674066
2.05,-5.0,-5.0,-5.0,0.0,0.0,0.6485490667406644
2.06,-5.0,-5.0,-5.0,0.0,0.0,0.6485490667406643
2.07,-5.0,-5.0,-5.0,0.0,0.0,0.6485490667406644
2.08,-5.0,-5.0,-5.0,0.0,0.0,0.6485490667406646
2.09,-5.0,-5.0,-5.0,0.0,0.0,0.6485490667406646
2.1,-5.0,-5.0,-5.0,0.0,0.0,0.6485490667406641
2.11,-5.0,-5.0,-5.0,0.0,0.0,0.6485490667406643
2.12,-5.0,-5.0,-5.0,0.0,0.0,0.6485490667406624
2.13,-5.0,-5.0,-5.0,0.0,0.0,0.6485490667406613
2.14,-5.0,-5.0,-5.0,0.0,0.0,0.6485490667406616
2.15,-5.0,-5.0,-5.0,0.0,0.0,0.648549066740662
2.16,-5.0,-5.0,-5.0,0.0,0.0,0.6485490667406613
2.17,-5.0,-5.0,-5.0,0.0,0.0,0.6485490667406614
2.18,-5.0,-5.0,-5.0,0.0,0.0,0.6485490667406618
2.19,-5.0,-5.0,-5.0,0.0,0.0,0.6485490667406641
2.2,-5.0,-5.0,-5.0,0.0,0.0,0.6485490667406641
2.21,-5.0,-5.0,-5.0,0.0,0.0,0.6485490667406641
2.22,-5.0,-5.0,-5.0,0.0,0.0,0.6485490667406641
2.23,-5.0,-5.0,-5.0,0.0,0.0,0.6485490667406641
2.24,-5.0,-5.0,-5.0,0.0,0.0,0.6485490667406641
2.25,-5.0,-5.0,-5.0,0.0,0.0,0.6485490667406649
2.2600000000000002,-5.0,-5.0,-5.0,0.0,0.0,0.6485490667406665
2.27,-5.0,-5.0,-5.0,0.0,0.0,0.6485490667406649
2.2800000000000002,-5.0,-5.0,-5.0,0.0,0.0,0.6485490667406657
2.29,-5.0,-5.0,-5.0,0.0,0.0,0.6485490667406657
2.3000000000000003,-5.0,-5.0,-5.0,0.0,0.0,0.6485490667406658
2.31,-5.0,-5.0,-5.0,0.0,0.0,0.6485490667406655
2.32,-5.0,-5.0,-5.0,0.0,0.0,0.6485490667406605
2.33,-5.0,-5.0,-5.0,0.0,0.0,0.6485490667406609
2.34,-5.0,-5.0,-5.0,0.0,0.0,0.6485490667406613
2.35,-5.0,-5.0,-5.0,0.0,0.0,0.6485490667406606
2.36,-5.0,-5.0,-5.0,0.0,0.0,0.6485490667406608
2.37,-5.0,-5.0,-5.0,0.0,0.0,0.6485490667406608
2.38,-5.0,-5.0,-5.0,0.0,0.0,0.6485490667406684
2.39,-5.0,-5.0,-5.0,0.0,0.0,0.6485490667406688
2.4,-5.0,-5.0,-5.0,0.0,0.0,0.6485490667406688
2.41,-5.0,-5.0,-5.0,0.0,0.0,0.6485490667406688
2.42,-5.0,-5.0,-5.0,0.0,0.0,0.6485490667406688
2.43,-5.0,-5.0,-5.0,0.0,0.0,0.6485490667406688
2.44,-5.0,-5.0,-5.0,0.0,0.0,0.6485490667406691
2.45,-5.0,-5.0,-5.0,0.0,0.0,0.6485490667406633
2.46,-5.0,-5.0,-5.0,0.0,0.0,0.6485490667406646
2.47,-5.0,-5.0,-5.0,0.0,0.0,0.6485490667406644
2.48,-5.0,-5.0,-5.0,0.0,0.0,0.648549066740664
2.49,-5.0,-5.0,-5.0,0.0,0.0,0.6485490667406641
2.5,-5.0,-5.0,-5.0,0.0,0.0,0.6485490667406647
2.5100000000000002,-5.0,-5.0,-5.0,0.0,0.0,0.6485490667406684
2.52,-5.0,-5.0,-5.0,0.0,0.0,0.6485490667406688
2.5300000000000002,-5.0,-5.0,-5.0,0.0,0.0,0.6485490667406688
2.54,-5.0,-5.0,-5.0,0.0,0.0,0.6485490667406688
2.5500000000000003,-5.0,-5.0,-5.0,0.0,0.0,0.6485490667406688
2.56,-5.0,-5.0,-5.0,0.0,0.0,0.6485490667406688
2.57,-5.0,-5.0,-5.0,0.0,0.0,0.6485490667406691
2.58,-5.0,-5.0,-5.0,0.0,0.0,0.6485490667406542
2.59,-5.0,-5.0,-5.0,0.0,0.0,0.6485490667406546
2.6,-5.0,-5.0,-5.0,0.0,0.0,0.6485490667406544
2.61,-5.0,-5.0,-5.0,0.0,0.0,0.6485490667406536
2.62,-5.0,-5.0,-5.0,0.0,0.0,0.6485490667406536
2.63,-5.0,-5.0,-5.0,0.0,0.0,0.6485490667406548
2.64,-5.0,-5.0,-5.0,0.0,0.0,0.6485490667406684
2.65,-5.0,-5.0,-5.0,0.0,0.0,0.6485490667406688
2.66,-5.0,-5.0,-5.0,0.0,0.0,0.6485490667406688
2.67,-5.0,-5.0,-5.0,0.0,0.0,0.6485490667406688
2.68,-5.0,-5.0,-5.0,0.0,0.0,0.6485490667406688
2.69,-5.0,-5.0,-5.0,0.0,0.0,0.6485490667406688
2.7,-5.0,-5.0,-5.0,0.0,0.0,0.6485490667406691
2.71,-5.0,-5.0,-5.0,0.0,0.0,0.6485490667406512
2.72,-5.0,-5.0,-5.0,0.0,0.0,0.6485490667406509
2.73,-5.0,-5.0,-5.0,0.0,0.0,0.6485490667406514
2.74,-5.0,-5.0,-5.0,0.0,0.0,0.648549066740651
2.75,-5.0,-5.0,-5.0,0.0,0.0,0.6485490667406516
2.7600000000000002,-5.0,-5.0,-5.0,0.0,0.0,0.6485490667406522
2.77,-5.0,-5.0,-5.0,0.0,0.0,0.648549066740652
2.7800000000000002,-5.0,-5.0,-5.0,0.0,0.0,0.6485490667406602
2.79,-5.0,-5.0,-5.0,0.0,0.0,0.6485490667406599
2.8000000000000003,-5.0,-5.0,-5.0,0.0,0.0,0.6485490667406597
2.81,-5.0,-5.0,-5.0,0.0,0.0,0.6485490667406599
2.82,-5.0,-5.0,-5.0,0.0,0.0,0.6485490667406599
2.83,-5.0,-5.0,-5.0,0.0,0.0,0.6485490667406597
2.84,-5.0,-5.0,-5.0,0.0,0.0,0.6485490667406651
2.85,-4.885165689827399,-5.0,-5.0,0.0,0.0,0.6455475545226894
2.86,-4.768312446877933,-5.0,-5.0,0.0,0.0,0.6424932719141564
2.87,-4.65439565726863,-5.0,-5.0,0.0,0.0,0.6395157416330833
2.88,-4.543334588488264,-5.0,-5.0,0.0,0.0,0.6366128535120607
2.89,-4.4350510606020705,-5.0,-5.0,0.0,0.0,0.6337825641023235
2.9,-4.329469349958397,-5.0,-5.0,0.0,0.0,0.6310228941568558
2.91,-4.2265160972408,-5.0,-5.0,0.0,0.0,0.6283319262270718
2.92,-4.12612021963652,-5.0,-5.0,0.0,0.0,0.625707802367131
2.93,-4.028212826906,-5.0,-5.0,0.0,0.0,0.6231487219401309
2.94,-3.932727141150932,-5.0,-5.0,0.0,0.0,0.6206529395210528
2.95,-3.839598420090276,-5.0,-5.0,0.0,0.0,0.6182187628913662
2.96,-3.748763883664859,-5.0,-5.0,0.0,0.0,0.6158445511206405
2.97,-3.660162643801611,-5.0,-5.0,0.0,0.0,0.6135287127307262
2.98,-3.573735637178273,-5.0,-5.0,0.0,0.0,0.6112697039383788
2.99,-3.4894255608384968,-5.0,-5.0,0.0,0.0,0.6090660269723913
3.0,-3.407176810515878,-5.0,-5.0,0.0,0.0,0.6069162284615142
3.0100000000000002,-3.32693542153339,-5.0,-5.0,0.0,0.0,0.6048188978896989
3.02,-3.248649012152255,-5.0,-5.0,0.0,0.0,0.6027726661153637
3.0300000000000002,-3.172266729251265,-5.0,-5.0,0.0,0.0,0.6007762039515756
3.04,-3.0977391962241922,-5.0,-5.0,0.0,0.0,0.5988282208042036
3.0500000000000003,-3.025018462989079,-5.0,-5.0,0.0,0.0,0.5969274633652681
3.06,-2.954057958009041,-5.0,-5.0,0.0,0.0,0.5950727143588835
3.0700000000000003,-2.8848124422296237,-5.0,-5.0,0.0,0.0,0.5932627913372743
3.08,-2.8172379648429007,-5.0,-5.0,0.0,0.0,0.5914965455245498
3.09,-2.7512918207932957,-5.0,-5.0,0.0,0.0,0.5897728607059972
3.1,-2.686932509944646,-5.0,-5.0,0.0,0.0,0.5880906521608119
3.11,-2.624119697832261,-5.0,-5.0,0.0,0.0,0.5864488656362467
3.12,-2.5628141779277525,-5.0,-5.0,0.0,0.0,0.5848464763612417
3.13,-2.502977835348156,-5.0,-5.0,0.0,0.0,0.5832824880979647
3.14,-2.4445736119444366,-5.0,-5.0,0.0,0.0,0.5817559322292114
3.15,-2.387565472707789,-5.0,-5.0,0.0,0.0,0.5802658668804008
3.16,-2.3319183734353106,-5.0,-5.0,0.0,0.0,0.5788113760743819
3.17,-2.277598229599587,-5.0,-5.0,0.0,0.0,0.5773915689177824
3.18,-2.2245718863695254,-5.0,-5.0,0.0,0.0,0.5760055788174349
3.19,-2.1728070897324208,-5.0,-5.0,0.0,0.0,0.5746525627255202
3.2,-2.122272458669735,-5.0,-5.0,0.0,0.0,0.5733317004123502
3.21,-2.072937458341411,-5.0,-5.0,0.0,0.0,0.5720421937654552
3.22,-2.024772374235785,-5.0,-5.0,0.0,0.0,0.5707832661139041
3.23,-1.9777482872442413,-5.0,-5.0,0.0,0.0,0.5695541615768346
3.24,-1.931837049621758,-5.0,-5.0,0.0,0.0,0.5683541444351127
3.25,-1.8870112617963617,-5.0,-5.0,0.0,0.0,0.5671824985251398
3.2600000000000002,-1.8432442499922796,-5.0,-5.0,0.0,0.0,0.5660385266540413
3.27,-1.8005100446332682,-5.0,-5.0,0.0,0.0,0.5649215500351389
3.2800000000000002,-1.75878335949418,-5.0,-5.0,0.0,0.0,0.5638309077430186
3.29,-1.7180395715703418,-5.0,-5.0,0.0,0.0,0.5627659561873727
3.3000000000000003,-1.678254701635735,-5.0,-5.0,0.0,0.0,0.5617260686048103
3.31,-1.6394053954623276,-5.0,-5.0,0.0,0.0,0.5607106345680335
3.3200000000000003,-1.6014689056741855,-5.0,-5.0,0.0,0.0,0.5597190595114587
3.33,-1.5644230742111995,-5.0,-5.0,0.0,0.0,0.5587507642729159
3.34,-1.5282463153784218,-5.0,-5.0,0.0,0.0,0.5578051846505871
3.35,-1.4929175994580932,-5.0,-5.0,0.0,0.0,0.556881770974649
3.36,-1.458416436862477,-5.0,-5.0,0.0,0.0,0.555979987693079
3.37,-1.4247228628066058,-5.0,-5.0,0.0,0.0,0.5550993129710026
3.38,-1.3918174224809683,-5.0,-5.0,0.0,0.0,0.5542392383031897
3.39,-1.3596811567050635,-5.0,-5.0,0.0,0.0,0.5533992681390336
3.4,-1.3282955880435776,-5.0,-5.0,0.0,0.0,0.5525789195196695
3.41,-1.2976427073677541,-5.0,-5.0,0.0,0.0,0.551777721726725
3.42,-1.2677049608452706,-5.0,-5.0,0.0,0.0,0.5509952159422477
3.43,-1.2384652373426799,-5.0,-5.0,0.0,0.0,0.5502309549194644
3.44,-1.209906856225137,-5.0,-5.0,0.0,0.0,0.5494845026638515
3.45,-1.1820135555388076,-5.0,-5.0,0.0,0.0,0.5487554341242847
3.46,-1.154769480561969,-5.0,-5.0,0.0,0.0,0.5480433348937722
3.47,-1.1281591727113987,-5.0,-5.0,0.0,0.0,0.5473478009194946
3.48,-1.1021675587912252,-5.0,-5.0,0.0,0.0,0.5466684382217976
3.49,-1.0767799405719438,-5.0,-5.0,0.0,0.0,0.5460048626218209
3.5,-1.0519819846878102,-5.0,-5.0,0.0,0.0,0.5453566994774027
3.5100000000000002,-1.027759712841318,-5.0,-5.0,0.0,0.0,0.5447235834271235
3.52,-1.004099492303929,-5.0,-5.0,0.0,0.0,0.544105158141894
3.5300000000000002,-0.9809880267026648,-5.0,-5.0,0.0,0.0,0.5435010760842437
3.54,-0.9584123470826001,-5.0,-5.0,0.0,0.0,0.5429109982746885
3.5500000000000003,-0.9363598032356861,-5.0,-5.0,0.0,0.0,0.5423345940650566
3.56,-0.9148180552867327,-5.0,-5.0,0.0,0.0,0.5417715409185877
3.5700000000000003,-0.8937750655277357,-5.0,-5.0,0.0,0.0,0.541221524196499
3.58,-0.8732190904920863,-5.0,-5.0,0.0,0.0,0.5406842369508208
3.59,-0.8531386732605396,-5.0,-5.0,0.0,0.0,0.5401593797232914
3.6,-0.8335226359911314,-5.0,-5.0,0.0,0.0,0.5396466603501007
3.61,-0.8143600726655429,-5.0,-5.0,0.0,0.0,0.5391457937723055
3.62,-0.795640342044704,-5.0,-5.0,0.0,0.0,0.5386565018516997
3.63,-0.7773530608266995,-5.0,-5.0,0.0,0.0,0.5381785131919803
3.64,-0.7594880970003154,-5.0,-5.0,0.0,0.0,0.5377115629650124
3.65,-0.7420355633878147,-5.0,-5.0,0.0,0.0,0.5372553927420737
3.66,-0.7249858113707728,-5.0,-5.0,0.0,0.0,0.5368097503298368
3.67,-0.7083294247930397,-5.0,-5.0,0.0,0.0,0.5363743896110246
3.68,-0.6920572140351184,-5.0,-5.0,0.0,0.0,0.535949070389531
3.69,-0.67616021025446,-5.0,-5.0,0.0,0.0,0.5355335582398489
3.7,-0.6606296597863803,-5.0,-5.0,0.0,0.0,0.5351276243607528
3.71,-0.6454570187005045,-5.0,-5.0,0.0,0.0,0.534731045432995
3.72,-0.6306339475078241,-5.0,-5.0,0.0,0.0,0.5343436034809681
3.73,-0.6161523060136368,-5.0,-5.0,0.0,0.0,0.5339650857381851
3.74,-0.602004148311811,-5.0,-5.0,0.0,0.0,0.5335952845164061
3.75,-0.5881817179159766,-5.0,-5.0,0.0,0.0,0.5332339970784213
3.7600000000000002,-0.5746774430234098,-5.0,-5.0,0.0,0.0,0.5328810255142281
3.77,-0.5614839319075228,-5.0,-5.0,0.0,0.0,0.5325361766206081
3.7800000000000002,-0.5485939684350203,-5.0,-5.0,0.0,0.0,0.5321992617839746
3.79,-0.5360005077039217,-5.0,-5.0,0.0,0.0,0.5318700968663321
3.8000000000000003,-0.5236966717987814,-5.0,-5.0,0.0,0.0,0.5315485020943356
3.81,-0.5116757456595689,-5.0,-5.0,0.0,0.0,0.5312343019513295
3.8200000000000003,-0.49993117306079177,-5.0,-5.0,0.0,0.0,0.5309273250722321
3.83,-0.48845655269756616,-5.0,-5.0,0.0,0.0,0.5306274041412391
3.84,-0.47724563437544826,-5.0,-5.0,0.0,0.0,0.530334375792238
3.85,-0.46629231530095305,-5.0,-5.0,0.0,0.0,0.5300480805118364
3.86,-0.4555906364697898,-5.0,-5.0,0.0,0.0,0.5297683625449949
3.87,-0.4451347791499447,-5.0,-5.0,0.0,0.0,0.5294950698030642
3.88,-0.4349190614568367,-5.0,-5.0,0.0,0.0,0.5292280537742773
3.89,-0.424937935017867,-5.0,-5.0,0.0,0.0,0.5289671694365725
3.9,-0.415185981723773,-5.0,-5.0,0.0,0.0,0.528712275172672
3.91,-0.40565791056427836,-5.0,-5.0,0.0,0.0,0.5284632326874135
3.92,-0.3963485545456206,-5.0,-5.0,0.0,0.0,0.5282199069271097
3.93,-0.3872528676876114,-5.0,-5.0,0.0,0.0,0.5279821660011271
3.94,-0.3783659220979644,-5.0,-5.0,0.0,0.0,0.5277498811053694
3.95,-0.3696829051216978,-5.0,-5.0,0.0,0.0,0.5275229264477924
3.96,-0.3611991165634906,-5.0,-5.0,0.0,0.0,0.5273011791757984
3.97,-0.35290996598093805,-5.0,-5.0,0.0,0.0,0.5270845193054804
3.98,-0.34481097004672007,-5.0,-5.0,0.0,0.0,0.5268728296526787
3.99,-0.33689774997775745,-5.0,-5.0,0.0,0.0,0.5266659957657959
4.0,-0.3291660290294927,-5.0,-5.0,0.0,0.0,0.526463905860284
4.01,-0.32161163005349114,-5.0,-5.0,0.0,0.0,0.5262664507548216
4.0200000000000005,-0.3142304731166144,-5.0,-5.0,0.0,0.0,0.5260735238090705
4.03,-0.30701857318007253,-5.0,-5.0,0.0,0.0,0.525885020863028
4.04,-0.29997203783671467,-5.0,-5.0,0.0,0.0,0.5257008401778639
4.05,-0.29308706510496757,-5.0,-5.0,0.0,0.0,0.525520882378285
4.0600000000000005,-0.2863599412778819,-5.0,-5.0,0.0,0.0,0.5253450503962876
4.07,-0.27978703882579153,-5.0,-5.0,0.0,0.0,0.5251732494163565
4.08,-0.27336481435113846,-5.0,-5.0,0.0,0.0,0.5250053868219946
4.09,-0.2670898065940584,-5.0,-5.0,0.0,0.0,0.5248413721436064
4.1,-0.2609586344873658,-5.0,-5.0,0.0,0.0,0.5246811170076656
4.11,-0.2549679952596165,-5.0,-5.0,0.0,0.0,0.5245245350870827
4.12,-0.24911466258496862,-5.0,-5.0,0.0,0.0,0.524371542052923
4.13,-0.2433954847785953,-5.0,-5.0,0.0,0.0,0.5242220555271916
4.14,-0.23780738303644688,-5.0,-5.0,0.0,0.0,0.5240759950368284
4.15,-0.23234734971818866,-5.0,-5.0,0.0,0.0,0.5239332819688373
4.16,-0.22701244667217998,-5.0,-5.0,0.0,0.0,0.5237938395265024
4.17,-0.22179980360139095,-5.0,-5.0,0.0,0.0,0.523657592686672
4.18,-0.21670661646918626,-5.0,-5.0,0.0,0.0,0.5235244681580997
4.19,-0.21173014594393633,-5.0,-5.0,0.0,0.0,0.5233943943407772
4.2,-0.20686771588144628,-5.0,-5.0,0.0,0.0,0.5232673012862725
4.21,-0.20211671184422228,-5.0,-5.0,0.0,0.0,0.5231431206590365
4.22,-0.19747457965662238,-5.0,-5.0,0.0,0.0,0.5230217856986278
4.23,-0.19293882399496742,-5.0,-5.0,0.0,0.0,0.5229032311828615
4.24,-0.1885070070117123,-5.0,-5.0,0.0,0.0,0.5227873933918428
4.25,-0.18417674699280465,-5.0,-5.0,0.0,0.0,0.5226742100728994
4.26,-0.1799457170473819,-5.0,-5.0,0.0,0.0,0.5225636204062998
4.2700000000000005,-0.175811643828982,-5.0,-5.0,0.0,0.0,0.5224555649718579
4.28,-0.17177230628746576,-5.0,-5.0,0.0,0.0,0.5223499857162774
4.29,-0.16782553445087098,-5.0,-5.0,0.0,0.0,0.5222468259213378
4.3,-0.16396920823644182,-5.0,-5.0,0.0,0.0,0.522146030172822
4.3100000000000005,-0.1602012562900947,-5.0,-5.0,0.0,0.0,0.5220475443301611
4.32,-0.15651965485360567,-5.0,-5.0,0.0,0.0,0.5219513154968386
4.33,-0.1529224266588219,-5.0,-5.0,0.0,0.0,0.521857291991483
4.34,-0.14940763984821914,-5.0,-5.0,0.0,0.0,0.5217654233196569
4.3500000000000005,-0.1459734069211468,-5.0,-5.0,0.0,0.0,0.5216756601463136
4.36,-0.142617883705118,-5.0,-5.0,0.0,0.0,0.5215879542689009
4.37,-0.13933926835152202,-5.0,-5.0,0.0,0.0,0.5215022585911268
4.38,-0.13613580035515077,-5.0,-5.0,0.0,0.0,0.5214185270973211
4.39,-0.13300575959694935,-5.0,-5.0,0.0,0.0,0.5213367148274134
4.4,-0.12994746540941504,-5.0,-5.0,0.0,0.0,0.521256777852513
4.41,-0.126959275664086,-5.0,-5.0,0.0,0.0,0.5211786732510492
4.42,-0.12403958588057376,-5.0,-5.0,0.0,0.0,0.5211023590854925
4.43,-0.12118682835661068,-5.0,-5.0,0.0,0.0,0.5210277943796126
4.44,-0.11839947131859492,-5.0,-5.0,0.0,0.0,0.5209549390962663
4.45,-0.11567601809213116,-5.0,-5.0,0.0,0.0,0.5208837541157298
4.46,-0.1130150062920775,-5.0,-5.0,0.0,0.0,0.5208142012145297
4.47,-0.11041500703162184,-5.0,-5.0,0.0,0.0,0.5207462430447538
4.48,-0.1078746241499239,-5.0,-5.0,0.0,0.0,0.5206798431138666
4.49,-0.10539249345787104,-5.0,-5.0,0.0,0.0,0.5206149657650474
4.5,-0.1029672820015071,-5.0,-5.0,0.0,0.0,0.5205515761578187
4.51,-0.10059768734270623,-5.0,-5.0,0.0,0.0,0.5204896402493809
4.5200000000000005,-0.09828243685667357,-5.0,-5.0,0.0,0.0,0.5204291247761745
4.53,-0.09602028704586568,-5.0,-5.0,0.0,0.0,0.5203699972359317
4.54,-0.09381002286993469,-5.0,-5.0,0.0,0.0,0.5203122258702216
4.55,-0.0916504570913096,-5.0,-5.0,0.0,0.0,0.5202557796473085
4.5600000000000005,-0.08954042963603831,-5.0,-5.0,0.0,0.0,0.5202006282454515
4.57,-0.08747880696952351,-5.0,-5.0,0.0,0.0,0.520146742036591
4.58,-0.08546448148679503,-5.0,-5.0,0.0,0.0,0.5200940920704064
4.59,-0.0834963709169704,-5.0,-5.0,0.0,0.0,0.520042650058757
4.6000000000000005,-0.08157341774156338,-5.0,-5.0,0.0,0.0,0.5199923883604672
4.61,-0.07969458862631022,-5.0,-5.0,0.0,0.0,0.5199432799665007
4.62,-0.0778588738661905,-5.0,-5.0,0.0,0.0,0.5198952984854186
4.63,-0.07606528684332806,-5.0,-5.0,0.0,0.0,0.5198484181292329
4.64,-0.07431286349746523,-5.0,-5.0,0.0,0.0,0.5198026136995657
4.65,-0.07260066180871177,-5.0,-5.0,0.0,0.0,0.5197578605741217
4.66,-0.07092776129227642,-5.0,-5.0,0.0,0.0,0.5197141346934827
4.67,-0.069293262504897,-5.0,-5.0,0.0,0.0,0.519671412548218
4.68,-0.06769628656269212,-5.0,-5.0,0.0,0.0,0.5196296711662639
4.69,-0.06613597467016367,-5.0,-5.0,0.0,0.0,0.5195888881006271
4.7,-0.06461148766008677,-5.0,-5.0,0.0,0.0,0.5195490414173489
4.71,-0.06312200554402989,-5.0,-5.0,0.0,0.0,0.5195101096837657
4.72,-0.06166672707325453,-5.0,-5.0,0.0,0.0,0.5194720719570247
4.73,-0.06024486930974958,-5.0,-5.0,0.0,0.0,0.5194349077728828
4.74,-0.05885566720716191,-5.0,-5.0,0.0,0.0,0.5193985971347292
4.75,-0.05749837320139043,-5.0,-5.0,0.0,0.0,0.5193631205029151
4.76,-0.05617225681061641,-5.0,-5.0,0.0,0.0,0.5193284587842738
4.7700000000000005,-0.054876604244548766,-5.0,-5.0,0.0,0.0,0.5192945933219268
4.78,-0.05361071802266784,-5.0,-5.0,0.0,0.0,0.5192615058852943
4.79,-0.05237391660125727,-5.0,-5.0,0.0,0.0,0.51922917866034
4.8,-0.05116553400901769,-5.0,-5.0,0.0,0.0,0.5191975942400615
4.8100000000000005,-0.049984919491061965,-5.0,-5.0,0.0,0.0,0.5191667356151881
4.82,-0.048831437161095795,-5.0,-5.0,0.0,0.0,0.5191365861650677
4.83,-0.04770446566159259,-5.0,-5.0,0.0,0.0,0.5191071296488057
4.84,-0.04660339783177616,-5.0,-5.0,0.0,0.0,0.5190783501965769
4.8500000000000005,-0.04552764038322911,-5.0,-5.0,0.0,0.0,0.5190502323011446
4.86,-0.04447661358294918,-5.0,-5.0,0.0,0.0,0.519022760809586
4.87,-0.04344975094368038,-5.0,-5.0,0.0,0.0,0.5189959209151918
4.88,-0.04244649892134945,-5.0,-5.0,0.0,0.0,0.5189696981495564
4.89,-0.041466316619442535,-5.0,-5.0,0.0,0.0,0.5189440783748498
4.9,-0.040508675500161,-5.0,-5.0,0.0,0.0,0.5189190477762838
4.91,-0.039573059102198695,-5.0,-5.0,0.0,0.0,0.5188945928547033
4.92,-0.038658962764987384,-5.0,-5.0,0.0,0.0,0.5188707004194167
4.93,-0.03776589335926016,-5.0,-5.0,0.0,0.0,0.5188473575811248
4.94,-0.036893369023786496,-5.0,-5.0,0.0,0.0,0.5188245517450502
4.95,-0.03604091890813612,-5.0,-5.0,0.0,0.0,0.518802270604218
4.96,-0.03520808292133206,-5.0,-5.0,0.0,0.0,0.5187805021328726
4.97,-0.034394411486256736,-5.0,-5.0,0.0,0.0,0.5187592345800818
4.98,-0.03359946529967808,-5.0,-5.0,0.0,0.0,0.5187384564634069
4.99,-0.032822815097765905,-5.0,-5.0,0.0,0.0,0.5187181565629644
5.0,-0.032064041426971564,-5.0,-5.0,0.0,0.0,0.5186983239149818
5.01,-0.03132273442014747,-5.0,-5.0,0.0,0.0,0.5186789478066538
5.0200000000000005,-0.03059849357778519,-5.0,-5.0,0.0,0.0,0.5186600177696845
5.03,-0.029890927554254466,-5.0,-5.0,0.0,0.0,0.518641523575204
5.04,-0.02919965394892773,-4.945349922165966,-5.0,0.0,0.0,0.5170521812448184
5.05,-0.0285248250364402,-4.831058666670861,-5.0,0.0,0.0,0.5137484929446122
5.0600000000000005,-0.027866599455523708,-4.71957940629858,-5.0,0.0,0.0,0.5105260878129751
5.07,-0.027224520344903483,-4.610834765513317,-5.0,0.0,0.0,0.5073827292426657
5.08,-0.026598145669187005,-4.504749879739698,-5.0,0.0,0.0,0.5043162532078929
5.09,-0.025987047635522637,-4.401252296566154,-5.0,0.0,0.0,0.5013245654086038
5.1000000000000005,-0.025390812137774554,-4.300271881608554,-5.0,0.0,0.0,0.4984056385493203
5.11,-0.024809038226703745,-4.2017407287783035,-5.0,0.0,0.0,0.4955575097454012
5.12,-0.02424133760473886,-4.105593074715071,-5.0,0.0,0.0,0.49277827804963
5.13,-0.023687334144008188,-4.011765217159084,-5.0,0.0,0.0,0.49006610209269413
5.14,-0.023146663426385286,-3.920195437051741,-5.0,0.0,0.0,0.4874191978314471
5.15,-0.022618972304377025,-3.8308239241661557,-5.0,0.0,0.0,0.48483583639917405
5.16,-0.02210391848175316,-3.743592706081197,-5.0,0.0,0.0,0.4823143420525292
5.17,-0.02160117011288275,-3.6584455803237823,-5.0,0.0,0.0,0.4798530902101012
5.18,-0.02111040541980426,-3.5753280495145976,-5.0,0.0,0.0,0.47745050557764623
5.19,-0.02063131232611359,-3.4941872593621714,-5.0,0.0,0.0,0.4751050603558318
5.2,-0.020163588106808034,-3.4149719393592846,-5.0,0.0,0.0,0.4728152725259839
5.21,-0.019706939053274346,-3.337632346044245,-5.0,0.0,0.0,0.4705797042100047
5.22,-0.019261080152655992,-3.262120208697461,-5.0,0.0,0.0,0.46839696010070686
5.23,-0.018825734780878532,-3.1883886773512127,-5.0,0.0,0.0,0.4662656859589504
5.24,-0.01840063440865328,-3.1163922729974525,-5.0,0.0,0.0,0.4641845671744037
5.25,-0.017985518319817748,-3.0460868398850156,-5.0,0.0,0.0,0.4621523273866009
5.26,-0.01758013334140745,-2.9774294998036877,-5.0,0.0,0.0,0.4601677271635387
5.2700000000000005,-0.01718423358488751,-2.910378608258334,-5.0,0.0,0.0,0.4582295627347937
5.28,-0.016797580198004123,-2.844893712441643,-5.0,0.0,0.0,0.4563366647767375
5.29,-0.01641994112674563,-2.780935510919066,-5.0,0.0,0.0,0.45448789724717126
5.3,-0.016051090886930963,-2.718465814944284,-5.0,0.0,0.0,0.4526821562671162
5.3100000000000005,-0.015690810344969327,-2.657447511327939,-5.0,0.0,0.0,0.4509183690474979
5.32,-0.015338886507359612,-2.59784452678656,-5.0,0.0,0.0,0.4491954928586427
5.33,-0.014995112318521183,-2.5396217937025187,-5.0,0.0,0.0,0.4475125140405114
5.34,-0.014659286466569436,-2.4827452172295335,-5.0,0.0,0.0,0.44586844705186873
5.3500000000000005,-0.014331213196669914,-2.4271816436817066,-5.0,0.0,0.0,0.4442623335565481
5.36,-0.014010702131624097,-2.3728988301473404,-5.0,0.0,0.0,0.44269324154509704
5.37,-0.013697568099358024,-2.319865415271839,-5.0,0.0,0.0,0.44116026449024454
5.38,-0.013391630967002013,-2.268050891156904,-5.0,0.0,0.0,0.43966252053461474
5.39,-0.013092715481265796,-2.2174255763259354,-5.0,0.0,0.0,0.4381991517092608
5.4,-0.012800651114828527,-2.1679605897081387,-5.0,0.0,0.0,0.43676932318168415
5.41,-0.012515271918477436,-2.119627825596238,-5.0,0.0,0.0,0.43537222253193253
5.42,-0.012236416378742294,-2.0723999295349773,-5.0,0.0,0.0,0.4340070590556401
5.43,-0.011963927280785646,-2.0262502750997586,-5.0,0.0,0.0,0.43267306309282333
5.44,-0.01169765157632075,-1.9811529415267861,-5.0,0.0,0.0,0.43136948538120556
5.45,-0.011437440256340385,-1.9370826921579964,-5.0,0.0,0.0,0.4300955964332198
5.46,-0.011183148228450518,-1.8940149536658848,-5.0,0.0,0.0,0.42885068593542064
5.47,-0.01093463419861288,-1.851925796025034,-5.0,0.0,0.0,0.4276340621695745
5.48,-0.01069176055710998,-1.8107919131987738,-5.0,0.0,0.0,0.4264450514543843
5.49,-0.01045439326855523,-1.770590604510933,-5.0,0.0,0.0,0.42528299760705135
5.5,-0.010222401765779335,-1.7312997566740849,-5.0,0.0,0.0,0.42414726142372877
5.51,-0.009995658847432178,-1.6928978264470667,-5.0,0.0,0.0,0.4230372201782528
5.5200000000000005,-0.009774040579147098,-1.6553638238958335,-5.0,0.0,0.0,0.42195226713831135
5.53,-0.009557426198121709,-1.6186772962329508,-5.0,0.0,0.0,0.42089181109825496
5.54,-0.009345698020976229,-1.5828183122121764,-5.0,0.0,0.0,0.41985527592804267
5.55,-0.00913874135475684,-1.5477674470556952,-5.0,0.0,0.0,0.4188421001375787
5.5600000000000005,-0.00893644441095769,-1.5135057678926007,-5.0,0.0,0.0,0.4178517364557143
5.57,-0.008738698222441044,-1.480014819688219,-5.0,0.0,0.0,0.4168836514236058
5.58,-0.00854539656314061,-1.4472766116447962,-5.0,0.0,0.0,0.4159373250015692
5.59,-0.008356435870438285,-1.4152736040549683,-5.0,0.0,0.0,0.4150122501890842
5.6000000000000005,-0.008171715170109561,-1.3839886955902692,-5.0,0.0,0.0,0.4141079326573487
5.61,-0.007991136003737635,-1.3534052110077404,-5.0,0.0,0.0,0.41322389039395085
5.62,-0.007814602358500568,-1.3235068892584563,-5.0,0.0,0.0,0.41235965335909336
5.63,-0.007642020599240362,-1.2942778719825148,-5.0,0.0,0.0,0.41151476315307534
5.64,-0.007473299402726598,-1.2657026923757122,-5.0,0.0,0.0,0.41068877269444815
5.65,-0.007308349694031346,-1.2377662644137868,-5.0,0.0,0.0,0.4098812459085396
5.66,-0.007147084584935586,-1.2104538724207272,-5.0,0.0,0.0,0.4090917574259134
5.67,-0.006989419314290902,-1.183751160968231,-5.0,0.0,0.0,0.4083198922904106
5.68,-0.006835271190263518,-1.1576441250939633,-5.0,0.0,0.0,0.4075652456763928
5.69,-0.006684559534390864,-1.1321191008267937,-5.0,0.0,0.0,0.4068274226148774
5.7,-0.006537205627383877,-1.1071627560076933,-5.0,0.0,0.0,0.40610603772819215
5.71,-0.006393132656611101,-1.0827620813954677,-5.0,0.0,0.0,0.40540071497287583
5.72,-0.0062522656652033055,-1.0589043820469495,-5.0,0.0,0.0,0.40471108739055345
5.73,-0.006114531502719986,-1.0355772689617104,-5.0,0.0,0.0,0.4040367968663762
5.74,-0.005979858777321542,-1.0127686509817864,-5.0,0.0,0.0,0.4033774938948734
5.75,-0.005848177809393265,-0.9904667269372804,-5.0,0.0,0.0,0.4027328373529651
5.76,-0.005719420586569502,-0.9686599780291077,-5.0,0.0,0.0,0.4021024942797235
5.7700000000000005,-0.005593520720108518,-0.9473371604404974,-5.0,0.0,0.0,0.40148613966282853
5.78,-0.005470413402570566,-0.9264872981692107,-5.0,0.0,0.0,0.4008834562313766
5.79,-0.0053500353667536305,-0.9060996760727635,-5.0,0.0,0.0,0.40029413425484334
5.8,-0.005232324845843181,-0.8861638331192554,-5.0,0.0,0.0,0.39971787134798253
5.8100000000000005,-0.0051172215347339714,-0.8666695558367029,-5.0,0.0,0.0,0.39915437228149714
5.82,-0.0050046665524836635,-0.8476068719540608,-5.0,0.0,0.0,0.3986033487981966
5.83,-0.004894602405859632,-0.8289660442273882,-5.0,0.0,0.0,0.39806451943456433
5.84,-0.004786972953941834,-0.8107375644448737,-5.0,0.0,0.0,0.39753760934745586
5.8500000000000005,-0.004681723373746097,-0.7929121476046821,-5.0,0.0,0.0,0.3970223501458105
5.86,-0.004578800126833597,-0.7754807262598241,-5.0,0.0,0.0,0.3965184797271696
5.87,-0.004478150926873582,-0.7584344450244742,-5.0,0.0,0.0,0.3960257421189
5.88,-0.004379724708127752,-0.7417646552363779,-5.0,0.0,0.0,0.3955438873238737
5.89,-0.0042834715948258315,-0.7254629097702004,-5.0,0.0,0.0,0.3950726711705865
5.9,-0.0041893428714031315,-0.70952095799686,-5.0,0.0,0.0,0.39461185516739705
5.91,-0.004097290953571947,-0.6939307408840852,-5.0,0.0,0.0,0.394161206360985
5.92,-0.004007269360199735,-0.6786843862336093,-5.0,0.0,0.0,0.3937204971985742
5.93,-0.003919232685968036,-0.6637742040505951,-5.0,0.0,0.0,0.3932895053941871
5.94,-0.0038331365747870604,-0.6491926820410417,-5.0,0.0,0.0,0.3928680137983965
5.95,-0.0037489376939418397,-0.6349324812330913,-5.0,0.0,0.0,0.3924558102718579
5.96,-0.0036665937089466897,-0.6209864317182971,-5.0,0.0,0.0,0.39205268756210654
5.97,-0.0035860632590856167,-0.6073475285090668,-5.0,0.0,0.0,0.3916584431838685
5.98,-0.003507305933617133,-0.5940089275086304,-5.0,0.0,0.0,0.3912728793025819
5.99,-0.0034302822486226947,-0.5809639415900159,-5.0,0.0,0.0,0.39089580262099577
6.0,-0.003354953624478775,-0.5682060367806445,-5.0,0.0,0.0,0.39052702426896113
6.01,-0.0032812823639332715,-0.5557288285492795,-5.0,0.0,0.0,0.3901663596960231
6.0200000000000005,-0.003209231630767672,-0.5435260781921786,-5.0,0.0,0.0,0.38981362856703294
6.03,-0.0031387654290270382,-0.5315916893154168,-5.0,0.0,0.0,0.3894686546603952
6.04,-0.003069848582800534,-0.519919704410449,-5.0,0.0,0.0,0.3891312657691471
6.05,-0.0030024467165358057,-0.5085043015200885,-5.0,0.0,0.0,0.388801293604539
6.0600000000000005,-0.0029365262358711343,-0.49733979099217707,-5.0,0.0,0.0,0.3884785737022344
6.07,-0.0028720543089698395,-0.4864206123183175,-5.0,0.0,0.0,0.38816294533087586
6.08,-0.0028089988483419284,-0.4757413310551288,-5.0,0.0,0.0,0.3878542514031322
6.09,-0.002747328493138549,-0.4652966358255753,-5.0,0.0,0.0,0.3875523383890645
6.1000000000000005,-0.002687012591905261,-0.45508133539800416,-5.0,0.0,0.0,0.3872570562315645
6.11,-0.002628021185780638,-0.44509035584060513,-5.0,0.0,0.0,0.3869682582642277
6.12,-0.0025703249921271874,-0.4353187377490885,-5.0,0.0,0.0,0.3866858011311494
6.13,-0.0025138953885819704,-0.4257616335454463,-5.0,0.0,0.0,0.38640954470887146
6.140000000000001,-0.002458704397514792,-0.4164143048457391,-5.0,0.0,0.0,0.3861393520302603
6.15,-0.0024047246708821836,-0.4072721198949167,-5.0,0.0,0.0,0.38587508921041935
6.16,-0.002351929475465823,-0.3983305510667483,-5.0,0.0,0.0,0.385616625374361
6.17,-0.002300292678484411,-0.38958517242700236,-5.0,0.0,0.0,0.38536383258660073
6.18,-0.0022497887335683735,-0.38103165735807565,-5.0,0.0,0.0,0.3851165857824917
6.19,-0.0022003926670871306,-0.37266577624333425,-5.0,0.0,0.0,0.3848747627012755
6.2,-0.0021520800648189733,-0.36448339420948006,-5.0,0.0,0.0,0.3846382438208448
6.21,-0.002104827058953959,-0.356480468925318,-5.0,0.0,0.0,0.3844069122940833
6.22,-0.002058610315420506,-0.34865304845534634,-5.0,0.0,0.0,0.38418065388686795
6.23,-0.0020134070215266898,-0.34099726916664563,-5.0,0.0,0.0,0.3839593569175098
6.24,-0.0019691948739075245,-0.33350935368759055,-5.0,0.0,0.0,0.3837429121977986
6.25,-0.0019259520667697988,-0.3261856089169563,-5.0,0.0,0.0,0.3835312129754245
6.26,-0.0018836572804262828,-0.31902242408203413,-5.0,0.0,0.0,0.38332415487785737
6.2700000000000005,-0.0018422896701114114,-0.3120162688444186,-5.0,0.0,0.0,0.38312163585759024
6.28,-0.0018018288550707663,-0.3051636914521659,-5.0,0.0,0.0,0.38292355613872897
6.29,-0.0017622549079169408,-0.298461316937068,-5.0,0.0,0.0,0.3827298181648699
6.3,-0.0017235483442445915,-0.2919058453558237,-5.0,0.0,0.0,0.38254032654828735
6.3100000000000005,-0.0016856901124977033,-0.2854940500739248,-5.0,0.0,0.0,0.38235498802028856
6.32,-0.0016486615840823166,-0.27922277609111523,-5.0,0.0,0.0,0.38217371138285894
6.33,-0.0016124445437181618,-0.27308893840731174,-5.0,0.0,0.0,0.38199640746136476
6.34,-0.0015770211800228543,-0.26708952042791206,-5.0,0.0,0.0,0.38182298905852363
6.3500000000000005,-0.0015423740763224915,-0.2612215724074473,-5.0,0.0,0.0,0.38165337090936924
6.36,-0.0015084862016826793,-0.25548220993056703,-5.0,0.0,0.0,0.3814874696373638
6.37,-0.001475340902154196,-0.24986861242937572,-5.0,0.0,0.0,0.3813252037115367
6.38,-0.0014429218922276767,-0.24437802173617,-5.0,0.0,0.0,0.3811664934046465
6.390000000000001,-0.0014112132464918598,-0.23900774067065178,-5.0,0.0,0.0,0.3810112607523559
6.4,-0.0013801993914901133,-0.23375513166072254,-5.0,0.0,0.0,0.38085942951332713
6.41,-0.0013498650977700982,-0.22861761539598802,-5.0,0.0,0.0,0.3807109251303566
6.42,-0.00132019547212159,-0.22359266951313003,-5.0,0.0,0.0,0.38056567469233793
6.43,-0.0012911759499976154,-0.21867782731232505,-5.0,0.0,0.0,0.3804236068971628
6.44,-0.0012627922881142094,-0.2138706765039148,-5.0,0.0,0.0,0.3802701408657284
6.45,-0.0012350306700049346,-0.20916887708546847,-5.0,0.0,0.0,0.38011989975639593
6.46,-0.0012078774650416844,-0.2045701205287492,-5.0,0.0,0.0,0.3799729512745087
6.47,-0.0011813193420828778,-0.20007214902754822,-5.0,0.0,0.0,0.37982922327423113
6.48,-0.0011553432638630556,-0.19567275454748823,-5.0,0.0,0.0,0.3796886452001212
6.49,-0.0011299364803943343,-0.19136977770847188,-5.0,0.0,0.0,0.37955114805143236
6.5,-0.0011050865225221622,-0.18716110669326322,-5.0,0.0,0.0,0.3794166643472372
6.51,-0.0010807811956314846,-0.18304467618154327,-5.0,0.0,0.0,0.37928512809238196
6.5200000000000005,-0.001057008573499547,-0.17901846630880003,-5.0,0.0,0.0,0.3791564747441881
6.53,-0.0010337569922916575,-0.1750805016494314,-5.0,0.0,0.0,0.37903064117999297
6.54,-0.0010110150446963416,-0.1712288502234552,-5.0,0.0,0.0,0.37890756566538153
6.55,-0.0009887715741964192,-0.16746162252624025,-5.0,0.0,0.0,0.37878718782320225
6.5600000000000005,-0.0009670156694726306,-0.16377697058068563,-5.0,0.0,0.0,0.3786694486032609
6.57,-0.0009457366589365319,-0.16017308701129393,-5.0,0.0,0.0,0.3785542902527673
6.58,-0.0009249241053894661,-0.1566482041395969,-5.0,0.0,0.0,0.37844165628738413
6.59,-0.0009045678008045127,-0.15320059310040915,-5.0,0.0,0.0,0.37833149146302725
6.6000000000000005,-0.0008846577612283949,-0.14982856297839836,-5.0,0.0,0.0,0.3782237417482558
6.61,-0.000865184221800408,-0.14653045996447453,-5.0,0.0,0.0,0.3781183542973205
6.62,-0.0008461376318855155,-0.14330466653151508,-5.0,0.0,0.0,0.37801527742382274
6.63,-0.0008275086503188332,-0.14014960062895473,-5.0,0.0,0.0,0.3779144605749859
6.640000000000001,-0.0008092881407587929,-0.13706371489578226,-5.0,0.0,0.0,0.3778158543064963
6.65,-0.0007914671671463613,-0.13404549589149858,-5.0,0.0,0.0,0.3777194102579357
6.66,-0.0007740369892677447,-0.1310934633446019,-5.0,0.0,0.0,0.3776250811287709
6.67,-0.0007569890584180906,-0.12820616941817767,-5.0,0.0,0.0,0.3775328206548727
6.68,-0.0007403150131637555,-0.12538219799218253,-5.0,0.0,0.0,0.3774425835856125
6.69,-0.0007240066752007799,-0.1226201639620217,-5.0,0.0,0.0,0.3773543256614023
6.7,-0.0007080560453072603,-0.11991871255302955,-5.0,0.0,0.0,0.3772680035918282
6.71,-0.0006924552993873878,-0.11727651865047455,-5.0,0.0,0.0,0.3771835750342367
6.72,-0.0006771967846049592,-0.11469228614471834,-5.0,0.0,0.0,0.37710099857277557
6.73,-0.000662273015604245,-0.11216474729116918,-5.0,0.0,0.0,0.37702023369800314
6.74,-0.0006476766708161338,-0.10969266208467844,-5.0,0.0,0.0,0.376941240786833
6.75,-0.000633400588847542,-0.10727481764803908,-5.0,0.0,0.0,0.37686398108303454
6.76,-0.0006194377649521207,-0.10491002763425279,-5.0,0.0,0.0,0.3767884166781318
6.7700000000000005,-0.0006057813475803424,-0.10259713164224159,-5.0,0.0,0.0,0.3767145104927109
6.78,-0.0005924246350071057,-0.10033499464568739,-5.0,0.0,0.0,0.3766422262581923
6.79,-0.0005793610720350342,-0.09812250643469211,-5.0,0.0,0.0,0.37657152849896497
6.8,-0.0005665842467717002,-0.09595858106995753,-5.0,0.0,0.0,0.3765023825149741
6.8100000000000005,-0.0005540878874790433,-0.09384215634919237,-5.0,0.0,0.0,0.3764347543646406
6.82,-0.0005418658594933008,-0.09177219328546156,-5.0,0.0,0.0,0.3763686108482361
6.83,-0.0005299121622138073,-0.0897476755971994,-5.0,0.0,0.0,0.37630391949153386
6.84,-0.0005182209261590619,-0.08776760920961528,-5.0,0.0,0.0,0.37624064852989914
6.8500000000000005,-0.0005067864100885045,-0.08583102176722839,-5.0,0.0,0.0,0.37617876689272434
6.86,-0.0004956029981884755,-0.08393696215727234,-5.0,0.0,0.0,0.37611824418819584
6.87,-0.00048466519732087894,-0.08208450004371973,-5.0,0.0,0.0,0.3760590506883954
6.88,-0.00047396763433309755,-0.08027272541168054,-5.0,0.0,0.0,0.3760011573147353
6.890000000000001,-0.0004635050534277514,-0.07850074812193568,-5.0,0.0,0.0,0.3759445356237527
6.9,-0.00045327231359092114,-0.0767676974753724,-5.0,0.0,0.0,0.3758891577931599
6.91,-0.00044326438607749307,-0.07507272178709405,-5.0,0.0,0.0,0.37583499660824976
6.92,-0.0004334763519523165,-0.07341498796998223,-5.0,0.0,0.0,0.3757820254485931
6.93,-0.00042390339968589457,-0.07179368112749528,-5.0,0.0,0.0,0.3757302182750171
6.94,-0.000414540822803361,-0.07020800415549093,-5.0,0.0,0.0,0.37567954961688677
6.95,-0.00040538401758552706,-0.06865717735286826,-5.0,0.0,0.0,0.3756299945596688
6.96,-0.0003964284808208107,-0.06714043804082682,-5.0,0.0,0.0,0.3755815287327511
6.97,-0.00038766980760688837,-0.06565704019054723,-5.0,0.0,0.0,0.37553412829755833
6.98,-0.0003791036892009412,-0.06420625405910162,-5.0,0.0,0.0,0.3754877699359184
6.99,-0.0003707259109173891,-0.06278736583340709,-5.0,0.0,0.0,0.37544243083867573
7.0,-0.0003625323500720381,-0.06139967728203962,-5.0,0.0,0.0,0.3753980886945682
7.01,-0.00035451897397158774,-0.06004250541473042,-5.0,0.0,0.0,0.3753547216793532
7.0200000000000005,-0.00034668183794747437,-0.0587151821493711,-5.0,0.0,0.0,0.37531230844516555
7.03,-0.0003390170834330464,-0.05741705398635772,-5.0,0.0,0.0,0.375270828110102
7.04,-0.00033152093608309485,-0.05614748169010835,-5.0,0.0,0.0,0.3752302602480572
7.05,-0.0003241897039347852,-0.054905839977592255,-5.0,0.0,0.0,0.3751905848787603
7.0600000000000005,-0.0003170197756090558,-0.053691517213712944,-5.0,0.0,0.0,0.37515178245804803
7.07,-0.0003100076185515757,-0.05250391511339086,-5.0,0.0,0.0,0.3751138338683428
7.08,-0.0003031497773123714,-0.05134244845019533,-5.0,0.0,0.0,0.375076720409344
7.09,-0.00029644287186325456,-0.05020654477137854,-5.0,0.0,0.0,0.3750404237889184
7.1000000000000005,-0.00028988359595220485,-0.04909564411916838,-5.0,0.0,0.0,0.37500492611419584
7.11,-0.0002834687154938778,-0.04800919875817955,-5.0,0.0,0.0,0.3749702098828698
7.12,-0.0002771950669954328,-0.046946672908806567,-5.0,0.0,0.0,0.374936257974649
7.13,-0.00027105955601688817,-0.045907542486464406,-5.0,0.0,0.0,0.37490305364296783
7.140000000000001,-0.00026505915566523504,-0.04489129484654667,-5.0,0.0,0.0,0.37487058050679634
7.15,-0.00025919090512155574,-0.04389742853497347,-5.0,0.0,0.0,0.37483882254268186
7.16,-0.00025345190820041095,-0.04292545304420446,-5.0,0.0,0.0,0.37480776407698035
7.17,-0.0002478393319407777,-0.0419748885745955,-5.0,0.0,0.0,0.3747773897781827
7.18,-0.00024235040522783564,-0.04104526580097974,-5.0,0.0,0.0,0.37474768464949837
7.19,-0.0002369824174449162,-0.04013612564435733,-5.0,0.0,0.0,0.3747186340215354
7.2,-0.00023173271715494427,-0.03924701904857999,-5.0,0.0,0.0,0.37469022354516524
7.21,-0.00022659871081071796,-0.038377506761919776,-5.0,0.0,0.0,0.37466243918456527
7.22,-0.00022157786149338722,-0.03752715912341358,-5.0,0.0,0.0,0.3746352672103594
7.23,-0.0002166676876785059,-0.036695555853877695,-5.0,0.0,0.0,0.3746086941929612
7.24,-0.0002118657620290471,-0.03588228585148886,-5.0,0.0,0.0,0.3745827069960451
7.25,-0.00020716971021478487,-0.035086946991830834,-5.0,0.0,0.0,0.374557292770141
7.26,-0.00020257720975745935,-0.0343091459323078,-5.0,0.0,0.0,0.3745324389463975
7.2700000000000005,-0.00019808598890115584,-0.03354849792082799,-5.0,0.0,0.0,0.37450813323045573
7.28,-0.00019369382550734056,-0.03280462660866327,-5.0,0.0,0.0,0.37448436359649745
7.29,-0.00018939854597400957,-0.03207716386739269,-5.0,0.0,0.0,0.3744611182813458
7.3,-0.00018519802417841868,-0.031365749609839656,-5.0,0.0,0.0,0.37443838577879773
7.3100000000000005,-0.00018109018044287463,-0.03067003161491497,-5.0,0.0,0.0,0.374416154833997
7.32,-0.00017707298052307974,-0.029989665356279487,-5.0,0.0,0.0,0.3743944144379584
7.33,-0.0001731444346185338,-0.029324313834742533,-5.0,0.0,0.0,0.3743731538222246
7.34,-0.00016930259640450724,-0.028673647414313667,-5.0,0.0,0.0,0.3743523624536197
7.3500000000000005,-0.00016554556208511192,-0.028037343661827623,-5.0,0.0,0.0,0.3743320300291239
7.36,-0.0001618714694670057,-0.027415087190063876,-4.98753702681755,0.0,0.0,0.3742091631383254
7.37,-0.0001582786118957397,-0.026806588954383037,-4.871512536858105,0.0,0.0,0.37323099223083706
7.38,-0.00015476613453129716,-0.026211704176253896,-4.758233481159828,0.0,0.0,0.37227594224377114
7.390000000000001,-0.00015133220418792225,-0.025630122381276623,-4.6476327667762645,0.0,0.0,0.3713434488576099
7.4,-0.00014797503118315432,-0.025061540462913295,-4.5396450380754665,0.0,0.0,0.3704329623439481
7.41,-0.00014469286822800132,-0.024505662494523947,-4.434206627304091,0.0,0.0,0.36954394715099437
7.42,-0.00014148400934880964,-0.023962199546770934,-4.331255506756872,0.0,0.0,0.3686758815025024
7.43,-0.00013834678883978556,-0.023430869510214475,-4.230731242490757,0.0,0.0,0.3678282570096256
7.44,-0.00013527958024516136,-0.022911396922928946,-4.132574949525657,0.0,0.0,0.36700057829525234
7.45,-0.00013228079537003942,-0.022403512802976165,-4.036729248476288,0.0,0.0,0.36619236263025584
7.46,-0.00012934888331898208,-0.021906954485577813,-3.9431382235619576,0.0,0.0,0.3654031395813417
7.47,-0.00012648232956145292,-0.021421465464835428,-3.851747381943477,0.0,0.0,0.36463245067001515
7.48,-0.0001236796550232453,-0.020946795239851806,-3.7625036143384865,0.0,0.0,0.36387984904215115
7.49,-0.00012093941520306971,-0.02048269916511325,-3.6753551568686067,0.0,0.0,0.3631448991480426
7.5,-0.0001182601993134988,-0.02002893830499724,-3.590251554093751,0.0,0.0,0.36242717643219485
7.51,-0.00011564062944550177,-0.019585279292275166,-3.507143623190843,0.0,0.0,0.36172626703290833
7.5200000000000005,-0.00011307935975582484,-0.019151494190484435,-3.425983419235925,0.0,0.0,0.3610417674909232
7.53,-0.00011057507567650414,-0.018727360360048927,-3.3467242015503866,0.0,0.0,0.3603732844671178
7.54,-0.00010812649314582176,-0.01831266032803119,-3.2693204010736294,0.0,0.0,0.35972043446867713
7.55,-0.00010573235786004095,-0.017907181661403853,-3.193727588726039,0.0,0.0,0.35908284358368464
7.5600000000000005,-0.00010339144454528089,-0.017510716843731892,-3.1199024447276105,0.0,0.0,0.3584601472236174
7.57,-0.0001011025562489129,-0.01712306315516119,-3.0478027288389717,0.0,0.0,0.35785198987363454
7.58,-9.886452364988353e-05,-0.016744022555612532,-2.9773872514928885,0.0,0.0,0.35725802485026603
7.59,-9.667620438738962e-05,-0.01637340157108385,-2.9086158457856177,0.0,0.0,0.35667791406638366
7.6000000000000005,-9.453648240735144e-05,-0.016011011182966696,-2.841449340298689,0.0,0.0,0.3561113278030437
7.61,-9.244426732614906e-05,-0.01565666672028656,-2.775849532722862,0.0,0.0,0.35555794448813094
7.62,-9.039849381110549e-05,-0.015310187754779455,-2.711779164257119,0.0,0.0,0.35501745048143035
7.63,-8.839812097721853e-05,-0.01497139799872041,-2.649201894756619,0.0,0.0,0.35448953986603404
7.640000000000001,-8.644213179965986e-05,-0.014640125205422374,-2.588082278604533,0.0,0.0,0.35397391424576874
7.65,-8.452953254157657e-05,-0.014316201072326812,-2.5283857412836923,0.0,0.0,0.3534351688547789
7.66,-8.265937326336459e-05,-0.013999464714522023,-2.470079420906004,0.0,0.0,0.3528587604219924
7.67,-8.083073280157866e-05,-0.013689760120721704,-2.4131315450271824,0.0,0.0,0.35229576933462614
7.68,-7.904267973026024e-05,-0.013386929541546369,-2.3575098328200546,0.0,0.0,0.3517458770792674
7.69,-7.729430402290122e-05,-0.013090818851898205,-2.3031827992854974,0.0,0.0,0.35120877298570746
7.7,-7.558471653702046e-05,-0.012801277463667238,-2.2501197343310304,0.0,0.0,0.3506841540210459
7.71,-7.3913048512215e-05,-0.012518158240719647,-2.1982906824575266,0.0,0.0,0.35017172458977164
7.72,-7.227845108128894e-05,-0.012241317416100912,-2.147666423033837,0.0,0.0,0.3496711963395659
7.73,-7.068009479407609e-05,-0.01197061451138886,-2.0982184511399216,0.0,0.0,0.3491822879727692
7.74,-6.911716915358535e-05,-0.0117059122581337,-2.0499189589597924,0.0,0.0,0.3487047250631746
7.75,-6.758888216411098e-05,-0.011447076521324501,-2.002740817706313,0.0,0.0,0.34823823987814273
7.76,-6.609445989096093e-05,-0.011193976224823314,-1.9566575600605527,0.0,0.0,0.3477825712056799
7.7700000000000005,-6.463314603146894e-05,-0.010946483278710365,-1.911643363109058,0.0,0.0,0.34733746418645894
7.78,-6.320420149696641e-05,-0.010704472508485429,-1.8676730317630212,0.0,0.0,0.3469026701505851
7.79,-6.180690400540109e-05,-0.010467821586072389,-1.824721982643914,0.0,0.0,0.34647794645892244
7.8,-6.044054768430006e-05,-0.010236410962575734,-1.7827662284207362,0.0,0.0,0.34606305634889106
7.8100000000000005,-5.910444268378404e-05,-0.010010123802739372,-1.741782362584561,0.0,0.0,0.34565776878451165
7.82,-5.779791479934958e-05,-0.009788845921059788,-1.7017475446465946,0.0,0.0,0.3452618583106816
7.83,-5.652030510414521e-05,-0.00957246571950711,-1.6626394857464601,0.0,0.0,0.3448751049114352
7.84,-5.527096959047608e-05,-0.009360874126809153,-1.6244364346578914,0.0,0.0,0.34449729387213707
7.8500000000000005,-5.404927882028016e-05,-0.00915396453925491,-1.5871171641794992,0.0,0.0,0.3441282156454358
7.86,-5.285461758432752e-05,-0.008951632762975415,-1.5506609578986956,0.0,0.0,0.3437676657209298
7.87,-5.1686384569901666e-05,-0.008753776957661162,-1.5150475973172937,0.0,0.0,0.3434154444983499
7.88,-5.0543992036729904e-05,-0.00856029758167659,-1.480257349327708,0.0,0.0,0.34307135716421666
7.890000000000001,-4.9426865500936746e-05,-0.008371097338533398,-1.4462709540290621,0.0,0.0,0.3427352135718158
7.9,-4.8334443426801525e-05,-0.008186081124685584,-1.413069612872894,0.0,0.0,0.34240682812445594
7.91,-4.7266176926108236e-05,-0.008005155978610349,-1.380634977128498,0.0,0.0,0.3420860196618032
7.92,-4.6221529464882e-05,-0.007828231031140014,-1.3489491366582982,0.0,0.0,0.3417726113493654
7.930000000000001,-4.5199976577313156e-05,-0.007655217457011251,-1.3179946089939643,0.0,0.0,0.34146643057083814
7.94,-4.4201005586675713e-05,-0.007486028427598924,-1.2877543287043147,0.0,0.0,0.3411673088233589
7.95,-4.3224115333053226e-05,-0.007320579064802825,-1.2582116370463463,0.0,0.0,0.3408750816155762
7.96,-4.226881590769033e-05,-0.007158786396056588,-1.229350271891023,0.0,0.0,0.34058958836836645
7.97,-4.133462839379409e-05,-0.007000569310428941,-1.2011543579157484,0.0,0.0,0.3403106723182114
7.98,-4.042108461361439e-05,-0.006845848515788401,-1.173608397055703,0.0,0.0,0.3400381804231419
7.99,-3.9527726881637674e-05,-0.006694546497003358,-1.146697259206502,0.0,0.0,0.3397719632710845
8.0,-3.8654107763733436e-05,-0.006546587475150322,-1.1204061731708674,0.0,0.0,0.3395118749906814
8.01,-3.779978984209743e-05,-0.006401897367703938,-1.0947207178422633,0.0,0.0,0.3392577731643839
8.02,-3.696434548584033e-05,-0.006260403749683107,-1.0696268136186575,0.0,0.0,0.33900951874389357
8.03,-3.614735662707495e-05,-0.006122035815728388,-1.0451107140398137,0.0,0.0,0.3387669759676916
8.040000000000001,-3.534841454235934e-05,-0.0059867243430864825,-1.0211589976417237,0.0,0.0,0.3385300122807994
8.05,-3.456711963935748e-05,-0.0058544016554783725,-0.9977585600219933,0.0,0.0,0.3382984982565657
8.06,-3.3803081248582936e-05,-0.005725001587828344,-0.9748966061102036,0.0,0.0,0.3380723075204807
8.07,-3.305591742009511e-05,-0.00559845945183179,-0.9525606426374561,0.0,0.0,0.33785131667598184
8.08,-3.232525472502111e-05,-0.005474712002340306,-0.930738470799492,0.0,0.0,0.3376354052320927
8.09,-3.1610728061780295e-05,-0.005353697404543224,-0.9094181791079615,0.0,0.0,0.3374244555330215
8.1,-3.091198046689147e-05,-0.005235355201925305,-0.8885881364245829,0.0,0.0,0.3372183526894359
8.11,-3.0228662930246877e-05,-0.00511962628498093,-0.8682369851731029,0.0,0.0,0.3370169845115924
8.120000000000001,-2.9560434214739636e-05,-0.005006452860665599,-0.8483536347241238,0.0,0.0,0.3368202414441138
8.13,-2.8906960680135053e-05,-0.004895778422566207,-0.8289272549480211,0.0,0.0,0.3366280165024294
8.14,-2.8267916111078936e-05,-0.00478754772177195,-0.8099472699313195,0.0,0.0,0.33644020521084833
8.15,-2.7642981549139196e-05,-0.0046817067384283435,-0.7914033518520418,0.0,0.0,0.3362567055421504
8.16,-2.7031845128779878e-05,-0.0045782026539572425,-0.7732854150096796,0.0,0.0,0.3360774178587447
8.17,-2.6434201917169523e-05,-0.0044769838239262505,-0.7555836100055723,0.0,0.0,0.335902244855295
8.18,-2.5849753757728413e-05,-0.004377999751551369,-0.7382883180696019,0.0,0.0,0.3357310915027816
8.19,-2.52782091173221e-05,-0.004281201061817187,-0.7213901455292465,0.0,0.0,0.33556386499398166
8.2,-2.471928293701078e-05,-0.0041865394761993,-0.7048799184171406,0.0,0.0,0.33540047469025386
8.21,-2.4172696486266936e-05,-0.004093967787974129,-0.6887486772134196,0.0,0.0,0.3352408320697504
8.22,-2.3638177220575742e-05,-0.004003439838101653,-0.6729876717192287,0.0,0.0,0.3350848506768346
8.23,-2.3115458642335165e-05,-0.003914910491666996,-0.6575883560578868,0.0,0.0,0.3349324460727923
8.24,-2.2604280164975023e-05,-0.0038283356148671724,-0.6425423838003016,0.0,0.0,0.334783535787783
8.25,-2.210438698021618e-05,-0.0037436720525296737,-0.6278416032113299,0.0,0.0,0.33463803927392494
8.26,-2.1615529928393422e-05,-0.0036608776061499166,-0.6134780526138764,0.0,0.0,0.33449587785961926
8.27,-2.1137465371767446e-05,-0.0035799110124349453,-0.5994439558676191,0.0,0.0,0.33435697470490927
8.28,-2.0669955070753415e-05,-0.003500731922341091,-0.5857317179593354,0.0,0.0,0.33422125475805614
8.290000000000001,-2.021276606299547e-05,-0.003423300880593628,-0.572333920701898,0.0,0.0,0.33408864471304756
8.3,-1.9765670545218385e-05,-0.0033475793056767836,-0.5592433185390897,0.0,0.0,0.33395907296829674
8.31,-1.9328445757789474e-05,-0.0032735294702827583,-0.5464528344534676,0.0,0.0,0.3338324695862025
8.32,-1.890087387192547e-05,-0.003201114482208711,-0.533955555974593,0.0,0.0,0.3337087662538419
8.33,-1.8482741879480957e-05,-0.0031302982656909633,-0.5217447312850118,0.0,0.0,0.3335878962445334
8.34,-1.807384148525639e-05,-0.00306104554316593,-0.5098137654214516,0.0,0.0,0.33346979438035057
8.35,-1.767396900176557e-05,-0.00299332181744759,-0.4981562165687697,0.0,0.0,0.33335439699559954
8.36,-1.728292524640381e-05,-0.0029270933543115467,-0.4867657924442575,0.0,0.0,0.3332416419011268
8.370000000000001,-1.6900515440959606e-05,-0.002862327165475996,-0.47563634676997407,0.0,0.0,0.3331314683495179
8.38,-1.6526549113414174e-05,-0.002798990991970165,-0.4647618758308474,0.0,0.0,0.3330238170011683
8.39,-1.6160840001974463e-05,-0.002737053287881033,-0.4541365151163433,0.0,0.0,0.33291862989111043
8.4,-1.580320596128685e-05,-0.002676483204469365,-0.44375453604356657,0.0,0.0,0.33276909646798
8.41,-1.5453474456831722e-05,-0.0026172515207185483,-0.4336105448172009,0.0,0.0,0.33259031070580614
8.42,-1.5111474639797571e-05,-0.0025593293011090686,-0.42369919480331125,0.0,0.0,0.3324156234219352
8.43,-1.4777035385772508e-05,-0.002502687563444817,-0.4140151165235738,0.0,0.0,0.3322449400664055
8.44,-1.4449989379560346e-05,-0.0024472979706710507,-0.4045530659707559,0.0,0.0,0.3320781682974596
8.45,-1.4130173029126775e-05,-0.0023931328163000294,-0.3953079216072975,0.0,0.0,0.3319152179288061
8.46,-1.3817426381551497e-05,-0.0023401650101763935,-0.38627468143880594,0.0,0.0,0.33175600087807944
8.47,-1.3511593040936854e-05,-0.0022883680645738955,-0.3774484601604565,0.0,0.0,0.33160043111671056
8.48,-1.3212520088224579e-05,-0.002237716080615301,-0.36882448637435056,0.0,0.0,0.3314484246209436
8.49,-1.2920058002873853e-05,-0.002188183735007526,-0.36039809987594107,0.0,0.0,0.3312998993241006
8.5,-1.2634060586354945e-05,-0.0021397462670842676,-0.3521647490076914,0.0,0.0,0.3311547750700494
8.51,-1.2354384887414033e-05,-0.0020923794661486025,-0.3441199880781865,0.0,0.0,0.33101297356778925
8.52,-1.2080891129065905e-05,-0.0020460596591082366,-0.3362594748449676,0.0,0.0,0.3308744183471856
8.53,-1.1813442637272525e-05,-0.002000763698396265,-0.32857896805941395,0.0,0.0,0.33073903471575566
8.540000000000001,-1.1551905771266422e-05,-0.0019564689501705137,-0.3210743250720405,0.0,0.0,0.33060674971657217
8.55,-1.1296149855479024e-05,-0.0019131532827846975,-0.3137414994966301,0.0,0.0,0.3304774920871568
8.56,-1.1046047113035143e-05,-0.0018707950555248243,-0.30657653893166403,0.0,0.0,0.3303511922193811
8.57,-1.0801472600775733e-05,-0.0018293731076044358,-0.29957558273755774,0.0,0.0,0.3302277821203715
8.58,-1.056230414577213e-05,-0.0017888667474124493,-0.2927348598682519,0.0,0.0,0.33010719537439814
8.59,-1.0328422283295898e-05,-0.0017492557420075263,-0.2860506867557503,0.0,0.0,0.3299893671055766
8.6,-1.0099710196209385e-05,-0.0017105203068530546,-0.2795194652462365,0.0,0.0,0.32987423394165116
8.61,-9.876053655742892e-06,-0.0016726410957869763,-0.2731376805864384,0.0,0.0,0.3297617339784714
8.620000000000001,-9.657340963625394e-06,-0.0016355991912208538,-0.2669018994589486,0.0,0.0,0.32965180674552524
8.63,-9.443462895536466e-06,-0.001599376094562702,-0.2608087680652444,0.0,0.0,0.3295443931721232
8.64,-9.234312645847989e-06,-0.001563953716858261,-0.25485501025518614,0.0,0.0,0.3294394355545482
8.65,-9.02978577362496e-06,-0.0015293143696455127,-0.24903742570180734,0.0,0.0,0.32933687752388857
8.66,-8.829780149855555e-06,-0.0014954407560173928,-0.2433528881202411,0.0,0.0,0.3292366640147845
8.67,-8.63419590588132e-06,-0.001462315961887756,-0.23779834352966203,0.0,0.0,0.3291387412347269
8.68,-8.442935382999145e-06,-0.001429923447455799,-0.2323708085571514,0.0,0.0,0.32904305663433825
8.69,-8.255903083207333e-06,-0.001398247038864254,-0.22706736878242478,0.0,0.0,0.32894955887813937
8.700000000000001,-8.073005621068857e-06,-0.0013672709200467886,-0.2218851771223897,0.0,0.0,0.32885819781620346
8.71,-7.894151676665493e-06,-0.001336979624760163,-0.21682145225452867,0.0,0.0,0.32876892445636413
8.72,-7.719251949617223e-06,-0.001307358028796805,-0.21187347707813198,0.0,0.0,0.32868169093716143
8.73,-7.5482191141419615e-06,-0.0012783913423735753,-0.20703859721242882,0.0,0.0,0.3285964505013959
8.74,-7.380967775131219e-06,-0.0012500651026925976,-0.20231421953069273,0.0,0.0,0.3285131574703813
8.75,-7.217414425217983e-06,-0.001222365166670133,-0.19769781072942172,0.0,0.0,0.3284317672186888
8.76,-7.0574774028136604e-06,-0.0011952777038295769,-0.19318689593171706,0.0,0.0,0.32835223614962694
8.77,-6.901076851091498e-06,-0.0011687891893547566,-0.18877905732400918,0.0,0.0,0.3282745216712417
8.78,-6.7481346778944525e-06,-0.0011428863972997956,-0.18447193282530122,0.0,0.0,0.328198582172883
8.790000000000001,-6.598574516546057e-06,-0.001117556393951911,-0.1802632147881226,0.0,0.0,0.32812437700235875
8.8,-6.4523216875433035e-06,-0.0010927865313435947,-0.17615064873040753,0.0,0.0,0.3280518664435918
8.81,-6.3093031611111305e-06,-0.0010685644409107178,-0.17213203209753275,0.0,0.0,0.32798101169488425
8.82,-6.169447520598556e-06,-0.001044878027293178,-0.16820521305377012,0.0,0.0,0.3279117748475798
8.83,-6.032684926697029e-06,-0.0010217154622748019,-0.1643680893024286,0.0,0.0,0.3278370240157559
8.84,-5.898947415928545e-06,-0.0009990652353362773,-0.1606186182923913,0.0,0.0,0.327738699437764
8.85,-5.76816933316286e-06,-0.0009769162269077016,-0.15695483189523327,0.0,0.0,0.3276426212256305
8.86,-5.640285235970985e-06,-0.0009552573534429591,-0.15337476507121933,0.0,0.0,0.327548737877392
8.870000000000001,-5.5152311316753865e-06,-0.0009340777769306324,-0.14987649815839688,0.0,0.0,0.3274569990800148
8.88,-5.392944445008644e-06,-0.0009133668994165681,-0.14645815581062055,0.0,0.0,0.32736735568158615
8.89,-5.27336398650602e-06,-0.0008931143576507354,-0.14311790596106266,0.0,0.0,0.3272797596641658
8.9,-5.156429921614666e-06,-0.0008733100178554605,-0.1398539588105697,0.0,0.0,0.3271941641173037
8.91,-5.042083740502654e-06,-0.0008539439706121837,-0.1366645658402424,0.0,0.0,0.32711052321213435
8.92,-4.930268228551443e-06,-0.0008350065258639671,-0.13354801884763395,0.0,0.0,0.3270287921761928
8.93,-4.820927437515772e-06,-0.0008164882080310369,-0.1305026490059762,0.0,0.0,0.32694892726871777
8.94,-4.71400665733541e-06,-0.0007983797512367298,-0.12752682594586096,0.0,0.0,0.32687088575662965
8.950000000000001,-4.609452388583534e-06,-0.0007806720946412584,-0.12461895685881741,0.0,0.0,0.32679462589103614
8.96,-4.507212315536925e-06,-0.0007633563778807914,-0.12177748562224265,0.0,0.0,0.32672010688432807
8.97,-4.407235279853506e-06,-0.0007464239366093928,-0.11900089194515588,0.0,0.0,0.32664728888779243
8.98,-4.309471254843115e-06,-0.0007298662981414368,-0.11628769053426145,0.0,0.0,0.3265761329697495
8.99,-4.213871320317758e-06,-0.0007136751771921626,-0.11363643027981932,0.0,0.0,0.32650660109426166
9.0,-4.120387638007917e-06,-0.0006978424717140985,-0.1110456934608345,0.0,0.0,0.32643865610029343
