# results of the FBA model for the bactery Fprau
# the columns are: t and the metabolic fluxes 
# the compounds are: galactose, glucose, thiosulfate, butyrate, Fprau, Styphi,  
# the nominal flux is: -5.0, -5.0, -5.0, -5.0, -5.0, -5.0,  
# the initial concentration are: 37.0, 0.0, 82.0, 80.0, 0.5354347898300031, 0.3283612050046888,  

t,galactose,glucose,thiosulfate,butyrate,Fprau,Styphi
0.0,-5.0,0.0,0.0,6.14542815027095,0.14423761437546928,0.0
0.01,-5.0,0.0,0.0,6.14542815027095,0.14423761437546928,0.0
0.02,-5.0,0.0,0.0,6.14542815027095,0.14423761437546928,0.0
0.03,-5.0,0.0,0.0,6.14542815027095,0.14423761437546928,0.0
0.04,-5.0,0.0,0.0,6.14542815027095,0.14423761437546928,0.0
0.05,-5.0,0.0,0.0,6.14542815027095,0.14423761437546928,0.0
0.06,-5.0,0.0,0.0,6.14542815027095,0.14423761437546928,0.0
0.07,-5.0,0.0,0.0,6.14542815027095,0.14423761437546928,0.0
0.08,-5.0,0.0,0.0,6.14542815027095,0.14423761437546928,0.0
0.09,-5.0,0.0,0.0,6.14542815027095,0.14423761437546928,0.0
0.1,-5.0,0.0,0.0,6.14542815027095,0.14423761437546928,0.0
0.11,-5.0,0.0,0.0,6.14542815027095,0.14423761437546928,0.0
0.12,-5.0,0.0,0.0,6.14542815027095,0.14423761437546928,0.0
0.13,-5.0,0.0,0.0,6.14542815027095,0.14423761437546928,0.0
0.14,-5.0,0.0,0.0,6.14542815027095,0.14423761437546928,0.0
0.15,-5.0,0.0,0.0,6.14542815027095,0.14423761437546928,0.0
0.16,-5.0,0.0,0.0,6.14542815027095,0.14423761437546928,0.0
0.17,-5.0,0.0,0.0,6.14542815027095,0.14423761437546928,0.0
0.18,-5.0,0.0,0.0,6.14542815027095,0.14423761437546928,0.0
0.19,-5.0,0.0,0.0,6.14542815027095,0.14423761437546928,0.0
0.2,-5.0,0.0,0.0,6.14542815027095,0.14423761437546928,0.0
0.21,-5.0,0.0,0.0,6.14542815027095,0.14423761437546928,0.0
0.22,-5.0,0.0,0.0,6.14542815027095,0.14423761437546928,0.0
0.23,-5.0,0.0,0.0,6.14542815027095,0.14423761437546928,0.0
0.24,-5.0,0.0,0.0,6.14542815027095,0.14423761437546928,0.0
0.25,-5.0,0.0,0.0,6.14542815027095,0.14423761437546928,0.0
0.26,-5.0,0.0,0.0,6.14542815027095,0.14423761437546928,0.0
0.27,-5.0,0.0,0.0,6.14542815027095,0.14423761437546928,0.0
0.28,-5.0,0.0,0.0,6.14542815027095,0.14423761437546928,0.0
0.29,-5.0,0.0,0.0,6.14542815027095,0.14423761437546928,0.0
0.3,-5.0,0.0,0.0,6.14542815027095,0.14423761437546928,0.0
0.31,-5.0,0.0,0.0,6.14542815027095,0.14423761437546928,0.0
0.32,-5.0,0.0,0.0,6.14542815027095,0.14423761437546928,0.0
0.33,-5.0,0.0,0.0,6.14542815027095,0.14423761437546928,0.0
0.34,-5.0,0.0,0.0,6.14542815027095,0.14423761437546928,0.0
0.35000000000000003,-5.0,0.0,0.0,6.14542815027095,0.14423761437546928,0.0
0.36,-5.0,0.0,0.0,6.14542815027095,0.14423761437546928,0.0
0.37,-5.0,0.0,0.0,6.14542815027095,0.14423761437546928,0.0
0.38,-5.0,0.0,0.0,6.14542815027095,0.14423761437546928,0.0
0.39,-5.0,0.0,0.0,6.14542815027095,0.14423761437546928,0.0
0.4,-5.0,0.0,0.0,6.14542815027095,0.14423761437546928,0.0
0.41000000000000003,-5.0,0.0,0.0,6.14542815027095,0.14423761437546928,0.0
0.42,-5.0,0.0,0.0,6.14542815027095,0.14423761437546928,0.0
0.43,-5.0,0.0,0.0,6.14542815027095,0.14423761437546928,0.0
0.44,-5.0,0.0,0.0,6.14542815027095,0.14423761437546928,0.0
0.45,-5.0,0.0,0.0,6.14542815027095,0.14423761437546928,0.0
0.46,-5.0,0.0,0.0,6.14542815027095,0.14423761437546928,0.0
0.47000000000000003,-5.0,0.0,0.0,6.14542815027095,0.14423761437546928,0.0
0.48,-5.0,0.0,0.0,6.14542815027095,0.14423761437546928,0.0
0.49,-5.0,0.0,0.0,6.14542815027095,0.14423761437546928,0.0
0.5,-5.0,0.0,0.0,6.14542815027095,0.14423761437546928,0.0
0.51,-5.0,0.0,0.0,6.14542815027095,0.14423761437546928,0.0
0.52,-5.0,0.0,0.0,6.14542815027095,0.14423761437546928,0.0
0.53,-5.0,0.0,0.0,6.14542815027095,0.14423761437546928,0.0
0.54,-5.0,0.0,0.0,6.14542815027095,0.14423761437546928,0.0
0.55,-5.0,0.0,0.0,6.14542815027095,0.14423761437546928,0.0
0.56,-5.0,0.0,0.0,6.14542815027095,0.14423761437546928,0.0
0.5700000000000001,-5.0,0.0,0.0,6.14542815027095,0.14423761437546928,0.0
0.58,-5.0,0.0,0.0,6.14542815027095,0.14423761437546928,0.0
0.59,-5.0,0.0,0.0,6.14542815027095,0.14423761437546928,0.0
0.6,-5.0,0.0,0.0,6.14542815027095,0.14423761437546928,0.0
0.61,-5.0,0.0,0.0,6.14542815027095,0.14423761437546928,0.0
0.62,-5.0,0.0,0.0,6.14542815027095,0.14423761437546928,0.0
0.63,-5.0,0.0,0.0,6.14542815027095,0.14423761437546928,0.0
0.64,-5.0,0.0,0.0,6.14542815027095,0.14423761437546928,0.0
0.65,-5.0,0.0,0.0,6.14542815027095,0.14423761437546928,0.0
0.66,-5.0,0.0,0.0,6.14542815027095,0.14423761437546928,0.0
0.67,-5.0,0.0,0.0,6.14542815027095,0.14423761437546928,0.0
0.68,-5.0,0.0,0.0,6.14542815027095,0.14423761437546928,0.0
0.6900000000000001,-5.0,0.0,0.0,6.14542815027095,0.14423761437546928,0.0
0.7000000000000001,-5.0,0.0,0.0,6.14542815027095,0.14423761437546928,0.0
0.71,-5.0,0.0,0.0,6.14542815027095,0.14423761437546928,0.0
0.72,-5.0,0.0,0.0,6.14542815027095,0.14423761437546928,0.0
0.73,-5.0,0.0,0.0,6.14542815027095,0.14423761437546928,0.0
0.74,-5.0,0.0,0.0,6.14542815027095,0.14423761437546928,0.0
0.75,-5.0,0.0,0.0,6.14542815027095,0.14423761437546928,0.0
0.76,-5.0,0.0,0.0,6.14542815027095,0.14423761437546928,0.0
0.77,-5.0,0.0,0.0,6.14542815027095,0.14423761437546928,0.0
0.78,-5.0,0.0,0.0,6.14542815027095,0.14423761437546928,0.0
0.79,-5.0,0.0,0.0,6.14542815027095,0.14423761437546928,0.0
0.8,-5.0,0.0,0.0,6.14542815027095,0.14423761437546928,0.0
0.81,-5.0,0.0,0.0,6.14542815027095,0.14423761437546928,0.0
0.8200000000000001,-5.0,0.0,0.0,6.14542815027095,0.14423761437546928,0.0
0.8300000000000001,-5.0,0.0,0.0,6.14542815027095,0.14423761437546928,0.0
0.84,-5.0,0.0,0.0,6.14542815027095,0.14423761437546928,0.0
0.85,-5.0,0.0,0.0,6.14542815027095,0.14423761437546928,0.0
0.86,-5.0,0.0,0.0,6.14542815027095,0.14423761437546928,0.0
0.87,-5.0,0.0,0.0,6.14542815027095,0.14423761437546928,0.0
0.88,-5.0,0.0,0.0,6.14542815027095,0.14423761437546928,0.0
0.89,-5.0,0.0,0.0,6.14542815027095,0.14423761437546928,0.0
0.9,-5.0,0.0,0.0,6.14542815027095,0.14423761437546928,0.0
0.91,-5.0,0.0,0.0,6.14542815027095,0.14423761437546928,0.0
0.92,-5.0,0.0,0.0,6.14542815027095,0.14423761437546928,0.0
0.93,-5.0,0.0,0.0,6.14542815027095,0.14423761437546928,0.0
0.9400000000000001,-5.0,0.0,0.0,6.14542815027095,0.14423761437546928,0.0
0.9500000000000001,-5.0,0.0,0.0,6.14542815027095,0.14423761437546928,0.0
0.96,-5.0,0.0,0.0,6.14542815027095,0.14423761437546928,0.0
0.97,-5.0,0.0,0.0,6.14542815027095,0.14423761437546928,0.0
0.98,-5.0,0.0,0.0,6.14542815027095,0.14423761437546928,0.0
0.99,-5.0,0.0,0.0,6.14542815027095,0.14423761437546928,0.0
1.0,-5.0,0.0,0.0,6.14542815027095,0.14423761437546928,0.0
1.01,-5.0,0.0,0.0,6.14542815027095,0.14423761437546928,0.0
1.02,-5.0,0.0,0.0,6.14542815027095,0.14423761437546928,0.0
1.03,-5.0,0.0,0.0,6.14542815027095,0.14423761437546928,0.0
1.04,-5.0,0.0,0.0,6.14542815027095,0.14423761437546928,0.0
1.05,-5.0,0.0,0.0,6.14542815027095,0.14423761437546928,0.0
1.06,-5.0,0.0,0.0,6.14542815027095,0.14423761437546928,0.0
1.07,-5.0,0.0,0.0,6.14542815027095,0.14423761437546928,0.0
1.08,-5.0,0.0,0.0,6.14542815027095,0.14423761437546928,0.0
1.09,-5.0,0.0,0.0,6.14542815027095,0.14423761437546928,0.0
1.1,-5.0,0.0,0.0,6.14542815027095,0.14423761437546928,0.0
1.11,-5.0,0.0,0.0,6.14542815027095,0.14423761437546928,0.0
1.12,-5.0,0.0,0.0,6.14542815027095,0.14423761437546928,0.0
1.1300000000000001,-5.0,0.0,0.0,6.14542815027095,0.14423761437546928,0.0
1.1400000000000001,-5.0,0.0,0.0,6.14542815027095,0.14423761437546928,0.0
1.1500000000000001,-5.0,0.0,0.0,6.14542815027095,0.14423761437546928,0.0
1.16,-5.0,0.0,0.0,6.14542815027095,0.14423761437546928,0.0
1.17,-5.0,0.0,0.0,6.14542815027095,0.14423761437546928,0.0
1.18,-5.0,0.0,0.0,6.14542815027095,0.14423761437546928,0.0
1.19,-5.0,0.0,0.0,6.14542815027095,0.14423761437546928,0.0
1.2,-5.0,0.0,0.0,6.14542815027095,0.14423761437546928,0.0
1.21,-5.0,0.0,0.0,6.14542815027095,0.14423761437546928,0.0
1.22,-5.0,0.0,0.0,6.14542815027095,0.14423761437546928,0.0
1.23,-5.0,0.0,0.0,6.14542815027095,0.14423761437546928,0.0
1.24,-5.0,0.0,0.0,6.14542815027095,0.14423761437546928,0.0
1.25,-5.0,0.0,0.0,6.14542815027095,0.14423761437546928,0.0
1.26,-5.0,0.0,0.0,6.14542815027095,0.14423761437546928,0.0
1.27,-5.0,0.0,0.0,6.14542815027095,0.14423761437546928,0.0
1.28,-5.0,0.0,0.0,6.14542815027095,0.14423761437546928,0.0
1.29,-5.0,0.0,0.0,6.14542815027095,0.14423761437546928,0.0
1.3,-5.0,0.0,0.0,6.14542815027095,0.14423761437546928,0.0
1.31,-5.0,0.0,0.0,6.14542815027095,0.14423761437546928,0.0
1.32,-5.0,0.0,0.0,6.14542815027095,0.14423761437546928,0.0
1.33,-5.0,0.0,0.0,6.14542815027095,0.14423761437546928,0.0
1.34,-5.0,0.0,0.0,6.14542815027095,0.14423761437546928,0.0
1.35,-5.0,0.0,0.0,6.14542815027095,0.14423761437546928,0.0
1.36,-5.0,0.0,0.0,6.14542815027095,0.14423761437546928,0.0
1.37,-5.0,0.0,0.0,6.14542815027095,0.14423761437546928,0.0
1.3800000000000001,-5.0,0.0,0.0,6.14542815027095,0.14423761437546928,0.0
1.3900000000000001,-5.0,0.0,0.0,6.14542815027095,0.14423761437546928,0.0
1.4000000000000001,-5.0,0.0,0.0,6.14542815027095,0.14423761437546928,0.0
1.41,-5.0,0.0,0.0,6.14542815027095,0.14423761437546928,0.0
1.42,-5.0,0.0,0.0,6.14542815027095,0.14423761437546928,0.0
1.43,-5.0,0.0,0.0,6.14542815027095,0.14423761437546928,0.0
1.44,-5.0,0.0,0.0,6.14542815027095,0.14423761437546928,0.0
1.45,-5.0,0.0,0.0,6.14542815027095,0.14423761437546928,0.0
1.46,-5.0,0.0,0.0,6.14542815027095,0.14423761437546928,0.0
1.47,-5.0,0.0,0.0,6.14542815027095,0.14423761437546928,0.0
1.48,-5.0,0.0,0.0,6.14542815027095,0.14423761437546928,0.0
1.49,-5.0,0.0,0.0,6.14542815027095,0.14423761437546928,0.0
1.5,-5.0,0.0,0.0,6.14542815027095,0.14423761437546928,0.0
1.51,-5.0,0.0,0.0,6.14542815027095,0.14423761437546928,0.0
1.52,-5.0,0.0,0.0,6.14542815027095,0.14423761437546928,0.0
1.53,-5.0,0.0,0.0,6.14542815027095,0.14423761437546928,0.0
1.54,-5.0,0.0,0.0,6.14542815027095,0.14423761437546928,0.0
1.55,-5.0,0.0,0.0,6.14542815027095,0.14423761437546928,0.0
1.56,-5.0,0.0,0.0,6.14542815027095,0.14423761437546928,0.0
1.57,-5.0,0.0,0.0,6.14542815027095,0.14423761437546928,0.0
1.58,-5.0,0.0,0.0,6.14542815027095,0.14423761437546928,0.0
1.59,-5.0,0.0,0.0,6.14542815027095,0.14423761437546928,0.0
1.6,-5.0,0.0,0.0,6.14542815027095,0.14423761437546928,0.0
1.61,-5.0,0.0,0.0,6.14542815027095,0.14423761437546928,0.0
1.62,-5.0,0.0,0.0,6.14542815027095,0.14423761437546928,0.0
1.6300000000000001,-5.0,0.0,0.0,6.14542815027095,0.14423761437546928,0.0
1.6400000000000001,-5.0,0.0,0.0,6.14542815027095,0.14423761437546928,0.0
1.6500000000000001,-5.0,0.0,0.0,6.14542815027095,0.14423761437546928,0.0
1.6600000000000001,-5.0,0.0,0.0,6.14542815027095,0.14423761437546928,0.0
1.67,-5.0,0.0,0.0,6.14542815027095,0.14423761437546928,0.0
1.68,-5.0,0.0,0.0,6.14542815027095,0.14423761437546928,0.0
1.69,-5.0,0.0,0.0,6.14542815027095,0.14423761437546928,0.0
1.7,-5.0,0.0,0.0,6.14542815027095,0.14423761437546928,0.0
1.71,-5.0,0.0,0.0,6.14542815027095,0.14423761437546928,0.0
1.72,-5.0,0.0,0.0,6.14542815027095,0.14423761437546928,0.0
1.73,-5.0,0.0,0.0,6.14542815027095,0.14423761437546928,0.0
1.74,-5.0,0.0,0.0,6.14542815027095,0.14423761437546928,0.0
1.75,-5.0,0.0,0.0,6.14542815027095,0.14423761437546928,0.0
1.76,-5.0,0.0,0.0,6.14542815027095,0.14423761437546928,0.0
1.77,-5.0,0.0,0.0,6.14542815027095,0.14423761437546928,0.0
1.78,-5.0,0.0,0.0,6.14542815027095,0.14423761437546928,0.0
1.79,-5.0,0.0,0.0,6.14542815027095,0.14423761437546928,0.0
1.8,-5.0,0.0,0.0,6.14542815027095,0.14423761437546928,0.0
1.81,-5.0,0.0,0.0,6.14542815027095,0.14423761437546928,0.0
1.82,-5.0,0.0,0.0,6.14542815027095,0.14423761437546928,0.0
1.83,-5.0,0.0,0.0,6.14542815027095,0.14423761437546928,0.0
1.84,-5.0,0.0,0.0,6.14542815027095,0.14423761437546928,0.0
1.85,-5.0,0.0,0.0,6.14542815027095,0.14423761437546928,0.0
1.86,-5.0,0.0,0.0,6.14542815027095,0.14423761437546928,0.0
1.87,-5.0,0.0,0.0,6.14542815027095,0.14423761437546928,0.0
1.8800000000000001,-5.0,0.0,0.0,6.14542815027095,0.14423761437546928,0.0
1.8900000000000001,-5.0,0.0,0.0,6.14542815027095,0.14423761437546928,0.0
1.9000000000000001,-5.0,0.0,0.0,6.14542815027095,0.14423761437546928,0.0
1.9100000000000001,-5.0,0.0,0.0,6.14542815027095,0.14423761437546928,0.0
1.92,-5.0,0.0,0.0,6.14542815027095,0.14423761437546928,0.0
1.93,-5.0,0.0,0.0,6.14542815027095,0.14423761437546928,0.0
1.94,-5.0,0.0,0.0,6.14542815027095,0.14423761437546928,0.0
1.95,-5.0,0.0,0.0,6.14542815027095,0.14423761437546928,0.0
1.96,-5.0,0.0,0.0,6.14542815027095,0.14423761437546928,0.0
1.97,-5.0,0.0,0.0,6.14542815027095,0.14423761437546928,0.0
1.98,-5.0,0.0,0.0,6.14542815027095,0.14423761437546928,0.0
1.99,-5.0,0.0,0.0,6.14542815027095,0.14423761437546928,0.0
2.0,-5.0,0.0,0.0,6.14542815027095,0.14423761437546928,0.0
2.0100000000000002,-5.0,0.0,0.0,6.14542815027095,0.14423761437546928,0.0
2.02,-5.0,0.0,0.0,6.14542815027095,0.14423761437546928,0.0
2.0300000000000002,-5.0,0.0,0.0,6.14542815027095,0.14423761437546928,0.0
2.04,-5.0,0.0,0.0,6.14542815027095,0.14423761437546928,0.0
2.05,-5.0,0.0,0.0,6.14542815027095,0.14423761437546928,0.0
2.06,-5.0,0.0,0.0,6.14542815027095,0.14423761437546928,0.0
2.07,-5.0,0.0,0.0,6.14542815027095,0.14423761437546928,0.0
2.08,-5.0,0.0,0.0,6.14542815027095,0.14423761437546928,0.0
2.09,-5.0,0.0,0.0,6.14542815027095,0.14423761437546928,0.0
2.1,-5.0,0.0,0.0,6.14542815027095,0.14423761437546928,0.0
2.11,-5.0,0.0,0.0,6.14542815027095,0.14423761437546928,0.0
2.12,-5.0,0.0,0.0,6.14542815027095,0.14423761437546928,0.0
2.13,-5.0,0.0,0.0,6.14542815027095,0.14423761437546928,0.0
2.14,-5.0,0.0,0.0,6.14542815027095,0.14423761437546928,0.0
2.15,-5.0,0.0,0.0,6.14542815027095,0.14423761437546928,0.0
2.16,-5.0,0.0,0.0,6.14542815027095,0.14423761437546928,0.0
2.17,-5.0,0.0,0.0,6.14542815027095,0.14423761437546928,0.0
2.18,-5.0,0.0,0.0,6.14542815027095,0.14423761437546928,0.0
2.19,-5.0,0.0,0.0,6.14542815027095,0.14423761437546928,0.0
2.2,-5.0,0.0,0.0,6.14542815027095,0.14423761437546928,0.0
2.21,-5.0,0.0,0.0,6.14542815027095,0.14423761437546928,0.0
2.22,-5.0,0.0,0.0,6.14542815027095,0.14423761437546928,0.0
2.23,-5.0,0.0,0.0,6.14542815027095,0.14423761437546928,0.0
2.24,-5.0,0.0,0.0,6.14542815027095,0.14423761437546928,0.0
2.25,-5.0,0.0,0.0,6.14542815027095,0.14423761437546928,0.0
2.2600000000000002,-5.0,0.0,0.0,6.14542815027095,0.14423761437546928,0.0
2.27,-5.0,0.0,0.0,6.14542815027095,0.14423761437546928,0.0
2.2800000000000002,-5.0,0.0,0.0,6.14542815027095,0.14423761437546928,0.0
2.29,-5.0,0.0,0.0,6.14542815027095,0.14423761437546928,0.0
2.3000000000000003,-5.0,0.0,0.0,6.14542815027095,0.14423761437546928,0.0
2.31,-5.0,0.0,0.0,6.14542815027095,0.14423761437546928,0.0
2.32,-5.0,0.0,0.0,6.14542815027095,0.14423761437546928,0.0
2.33,-5.0,0.0,0.0,6.14542815027095,0.14423761437546928,0.0
2.34,-5.0,0.0,0.0,6.14542815027095,0.14423761437546928,0.0
2.35,-5.0,0.0,0.0,6.14542815027095,0.14423761437546928,0.0
2.36,-5.0,0.0,0.0,6.14542815027095,0.14423761437546928,0.0
2.37,-5.0,0.0,0.0,6.14542815027095,0.14423761437546928,0.0
2.38,-5.0,0.0,0.0,6.14542815027095,0.14423761437546928,0.0
2.39,-5.0,0.0,0.0,6.14542815027095,0.14423761437546928,0.0
2.4,-5.0,0.0,0.0,6.14542815027095,0.14423761437546928,0.0
2.41,-5.0,0.0,0.0,6.14542815027095,0.14423761437546928,0.0
2.42,-5.0,0.0,0.0,6.14542815027095,0.14423761437546928,0.0
2.43,-5.0,0.0,0.0,6.14542815027095,0.14423761437546928,0.0
2.44,-5.0,0.0,0.0,6.14542815027095,0.14423761437546928,0.0
2.45,-5.0,0.0,0.0,6.14542815027095,0.14423761437546928,0.0
2.46,-5.0,0.0,0.0,6.14542815027095,0.14423761437546928,0.0
2.47,-5.0,0.0,0.0,6.14542815027095,0.14423761437546928,0.0
2.48,-5.0,0.0,0.0,6.14542815027095,0.14423761437546928,0.0
2.49,-5.0,0.0,0.0,6.14542815027095,0.14423761437546928,0.0
2.5,-5.0,0.0,0.0,6.14542815027095,0.14423761437546928,0.0
2.5100000000000002,-5.0,0.0,0.0,6.14542815027095,0.14423761437546928,0.0
2.52,-5.0,0.0,0.0,6.14542815027095,0.14423761437546928,0.0
2.5300000000000002,-5.0,0.0,0.0,6.14542815027095,0.14423761437546928,0.0
2.54,-5.0,0.0,0.0,6.14542815027095,0.14423761437546928,0.0
2.5500000000000003,-5.0,0.0,0.0,6.14542815027095,0.14423761437546928,0.0
2.56,-5.0,0.0,0.0,6.14542815027095,0.14423761437546928,0.0
2.57,-5.0,0.0,0.0,6.14542815027095,0.14423761437546928,0.0
2.58,-5.0,0.0,0.0,6.14542815027095,0.14423761437546928,0.0
2.59,-5.0,0.0,0.0,6.14542815027095,0.14423761437546928,0.0
2.6,-5.0,0.0,0.0,6.14542815027095,0.14423761437546928,0.0
2.61,-5.0,0.0,0.0,6.14542815027095,0.14423761437546928,0.0
2.62,-5.0,0.0,0.0,6.14542815027095,0.14423761437546928,0.0
2.63,-5.0,0.0,0.0,6.14542815027095,0.14423761437546928,0.0
2.64,-5.0,0.0,0.0,6.14542815027095,0.14423761437546928,0.0
2.65,-5.0,0.0,0.0,6.14542815027095,0.14423761437546928,0.0
2.66,-5.0,0.0,0.0,6.14542815027095,0.14423761437546928,0.0
2.67,-5.0,0.0,0.0,6.14542815027095,0.14423761437546928,0.0
2.68,-5.0,0.0,0.0,6.14542815027095,0.14423761437546928,0.0
2.69,-5.0,0.0,0.0,6.14542815027095,0.14423761437546928,0.0
2.7,-5.0,0.0,0.0,6.14542815027095,0.14423761437546928,0.0
2.71,-5.0,0.0,0.0,6.14542815027095,0.14423761437546928,0.0
2.72,-5.0,0.0,0.0,6.14542815027095,0.14423761437546928,0.0
2.73,-5.0,0.0,0.0,6.14542815027095,0.14423761437546928,0.0
2.74,-5.0,0.0,0.0,6.14542815027095,0.14423761437546928,0.0
2.75,-5.0,0.0,0.0,6.14542815027095,0.14423761437546928,0.0
2.7600000000000002,-5.0,0.0,0.0,6.14542815027095,0.14423761437546928,0.0
2.77,-5.0,0.0,0.0,6.14542815027095,0.14423761437546928,0.0
2.7800000000000002,-5.0,0.0,0.0,6.14542815027095,0.14423761437546928,0.0
2.79,-5.0,0.0,0.0,6.14542815027095,0.14423761437546928,0.0
2.8000000000000003,-5.0,0.0,0.0,6.14542815027095,0.14423761437546928,0.0
2.81,-5.0,0.0,0.0,6.14542815027095,0.14423761437546928,0.0
2.82,-5.0,0.0,0.0,6.14542815027095,0.14423761437546928,0.0
2.83,-5.0,0.0,0.0,6.14542815027095,0.14423761437546928,0.0
2.84,-5.0,0.0,0.0,6.14542815027095,0.14423761437546928,0.0
2.85,-5.0,0.0,0.0,6.14542815027095,0.14423761437546928,0.0
2.86,-5.0,0.0,0.0,6.14542815027095,0.14423761437546928,0.0
2.87,-5.0,0.0,0.0,6.14542815027095,0.14423761437546928,0.0
2.88,-5.0,0.0,0.0,6.14542815027095,0.14423761437546928,0.0
2.89,-5.0,0.0,0.0,6.14542815027095,0.14423761437546928,0.0
2.9,-5.0,0.0,0.0,6.14542815027095,0.14423761437546928,0.0
2.91,-5.0,0.0,0.0,6.14542815027095,0.14423761437546928,0.0
2.92,-5.0,0.0,0.0,6.14542815027095,0.14423761437546928,0.0
2.93,-5.0,0.0,0.0,6.14542815027095,0.14423761437546928,0.0
2.94,-5.0,0.0,0.0,6.14542815027095,0.14423761437546928,0.0
2.95,-5.0,0.0,0.0,6.14542815027095,0.14423761437546928,0.0
2.96,-5.0,0.0,0.0,6.14542815027095,0.14423761437546928,0.0
2.97,-5.0,0.0,0.0,6.14542815027095,0.14423761437546928,0.0
2.98,-5.0,0.0,0.0,6.14542815027095,0.14423761437546928,0.0
2.99,-5.0,0.0,0.0,6.14542815027095,0.14423761437546928,0.0
3.0,-5.0,0.0,0.0,6.14542815027095,0.14423761437546928,0.0
3.0100000000000002,-5.0,0.0,0.0,6.14542815027095,0.14423761437546928,0.0
3.02,-5.0,0.0,0.0,6.14542815027095,0.14423761437546928,0.0
3.0300000000000002,-5.0,0.0,0.0,6.14542815027095,0.14423761437546928,0.0
3.04,-5.0,0.0,0.0,6.14542815027095,0.14423761437546928,0.0
3.0500000000000003,-5.0,0.0,0.0,6.14542815027095,0.14423761437546928,0.0
3.06,-5.0,0.0,0.0,6.14542815027095,0.14423761437546928,0.0
3.0700000000000003,-5.0,0.0,0.0,6.14542815027095,0.14423761437546928,0.0
3.08,-5.0,0.0,0.0,6.14542815027095,0.14423761437546928,0.0
3.09,-5.0,0.0,0.0,6.14542815027095,0.14423761437546928,0.0
3.1,-5.0,0.0,0.0,6.14542815027095,0.14423761437546928,0.0
3.11,-5.0,0.0,0.0,6.14542815027095,0.14423761437546928,0.0
3.12,-5.0,0.0,0.0,6.14542815027095,0.14423761437546928,0.0
3.13,-5.0,0.0,0.0,6.14542815027095,0.14423761437546928,0.0
3.14,-5.0,0.0,0.0,6.14542815027095,0.14423761437546928,0.0
3.15,-5.0,0.0,0.0,6.14542815027095,0.14423761437546928,0.0
3.16,-5.0,0.0,0.0,6.14542815027095,0.14423761437546928,0.0
3.17,-5.0,0.0,0.0,6.14542815027095,0.14423761437546928,0.0
3.18,-5.0,0.0,0.0,6.14542815027095,0.14423761437546928,0.0
3.19,-5.0,0.0,0.0,6.14542815027095,0.14423761437546928,0.0
3.2,-5.0,0.0,0.0,6.14542815027095,0.14423761437546928,0.0
3.21,-5.0,0.0,0.0,6.14542815027095,0.14423761437546928,0.0
3.22,-5.0,0.0,0.0,6.14542815027095,0.14423761437546928,0.0
3.23,-5.0,0.0,0.0,6.14542815027095,0.14423761437546928,0.0
3.24,-5.0,0.0,0.0,6.14542815027095,0.14423761437546928,0.0
3.25,-5.0,0.0,0.0,6.14542815027095,0.14423761437546928,0.0
3.2600000000000002,-5.0,0.0,0.0,6.14542815027095,0.14423761437546928,0.0
3.27,-5.0,0.0,0.0,6.14542815027095,0.14423761437546928,0.0
3.2800000000000002,-5.0,0.0,0.0,6.14542815027095,0.14423761437546928,0.0
3.29,-5.0,0.0,0.0,6.14542815027095,0.14423761437546928,0.0
3.3000000000000003,-5.0,0.0,0.0,6.14542815027095,0.14423761437546928,0.0
3.31,-5.0,0.0,0.0,6.14542815027095,0.14423761437546928,0.0
3.3200000000000003,-5.0,0.0,0.0,6.14542815027095,0.14423761437546928,0.0
3.33,-5.0,0.0,0.0,6.14542815027095,0.14423761437546928,0.0
3.34,-5.0,0.0,0.0,6.14542815027095,0.14423761437546928,0.0
3.35,-5.0,0.0,0.0,6.14542815027095,0.14423761437546928,0.0
3.36,-5.0,0.0,0.0,6.14542815027095,0.14423761437546928,0.0
3.37,-5.0,0.0,0.0,6.14542815027095,0.14423761437546928,0.0
3.38,-5.0,0.0,0.0,6.14542815027095,0.14423761437546928,0.0
3.39,-5.0,0.0,0.0,6.14542815027095,0.14423761437546928,0.0
3.4,-5.0,0.0,0.0,6.14542815027095,0.14423761437546928,0.0
3.41,-5.0,0.0,0.0,6.14542815027095,0.14423761437546928,0.0
3.42,-5.0,0.0,0.0,6.14542815027095,0.14423761437546928,0.0
3.43,-5.0,0.0,0.0,6.14542815027095,0.14423761437546928,0.0
3.44,-5.0,0.0,0.0,6.14542815027095,0.14423761437546928,0.0
3.45,-5.0,0.0,0.0,6.14542815027095,0.14423761437546928,0.0
3.46,-5.0,0.0,0.0,6.14542815027095,0.14423761437546928,0.0
3.47,-5.0,0.0,0.0,6.14542815027095,0.14423761437546928,0.0
3.48,-5.0,0.0,0.0,6.14542815027095,0.14423761437546928,0.0
3.49,-5.0,0.0,0.0,6.14542815027095,0.14423761437546928,0.0
3.5,-5.0,0.0,0.0,6.14542815027095,0.14423761437546928,0.0
3.5100000000000002,-5.0,0.0,0.0,6.14542815027095,0.14423761437546928,0.0
3.52,-5.0,0.0,0.0,6.14542815027095,0.14423761437546928,0.0
3.5300000000000002,-5.0,0.0,0.0,6.14542815027095,0.14423761437546928,0.0
3.54,-5.0,0.0,0.0,6.14542815027095,0.14423761437546928,0.0
3.5500000000000003,-5.0,0.0,0.0,6.14542815027095,0.14423761437546928,0.0
3.56,-5.0,0.0,0.0,6.14542815027095,0.14423761437546928,0.0
3.5700000000000003,-5.0,0.0,0.0,6.14542815027095,0.14423761437546928,0.0
3.58,-5.0,0.0,0.0,6.14542815027095,0.14423761437546928,0.0
3.59,-5.0,0.0,0.0,6.14542815027095,0.14423761437546928,0.0
3.6,-5.0,0.0,0.0,6.14542815027095,0.14423761437546928,0.0
3.61,-5.0,0.0,0.0,6.14542815027095,0.14423761437546928,0.0
3.62,-5.0,0.0,0.0,6.14542815027095,0.14423761437546928,0.0
3.63,-5.0,0.0,0.0,6.14542815027095,0.14423761437546928,0.0
3.64,-4.9280250686945255,0.0,0.0,6.056964796479404,0.14216131589820424,0.0
3.65,-4.812505851467876,0.0,0.0,5.914981786590757,0.13882887263674012,0.0
3.66,-4.699827491094793,0.0,0.0,5.776490433038043,0.13557838105834777,0.0
3.67,-4.589913658755468,0.0,0.0,5.641396921165807,0.13240763926565433,0.0
3.68,-4.482690382751711,0.0,0.0,5.509610333422167,0.12931451335839153,0.0
3.69,-4.37808596160637,0.0,0.0,5.381042542552632,0.12629693492657246,0.0
3.7,-4.276030880999196,0.0,0.0,5.255608109503747,0.1233528986542254,0.0
3.71,-4.176457734341194,0.0,0.0,5.133224185807717,0.1204804600282759,0.0
3.72,-4.079301146801122,0.0,0.0,5.013810420196916,0.11767773314674354,0.0
3.73,-3.9844977026086608,0.0,0.0,4.897288869260213,0.11494288862176172,0.0
3.74,-3.891985875468924,0.0,0.0,4.783583911912696,0.11227415157213118,0.0
3.75,-3.801705961932459,0.0,0.0,4.672622167502773,0.10966979970123242,0.0
3.7600000000000002,-3.713600017573793,0.0,0.0,4.564332417368812,0.10712816145590637,0.0
3.77,-3.6276117958398952,0.0,0.0,4.458645529681943,0.1046476142624528,0.0
3.7800000000000002,-3.543686689437711,0.0,0.0,4.355494387402441,0.10222658283572497,0.0
3.79,-3.4617716741372373,0.0,0.0,4.254813819210822,0.0998635375580281,0.0
3.8000000000000003,-3.3818152548734592,0.0,0.0,4.156540533263079,0.09755699292430474,0.0
3.81,-3.3037674140368893,0.0,0.0,4.0606130536341905,0.09530550605042207,0.0
3.8200000000000003,-3.227579561848482,0.0,0.0,3.966971659324716,0.0931076752416125,0.0
3.83,-3.1532044887203643,0.0,0.0,3.875558325708602,0.09096213861821001,0.0
3.84,-3.080596319509136,0.0,0.0,3.786316668306635,0.08886757279597238,0.0
3.85,-3.009710469573491,0.0,0.0,3.699191888776476,0.08682269161843177,0.0
3.86,-2.9405036025526154,0.0,0.0,3.614130723019987,0.08482624493893223,0.0
3.87,-2.8729335897862347,0.0,0.0,3.531081391306088,0.08287701744998033,0.0
3.88,-2.8069594713013366,0.0,0.0,3.449993550321044,0.08097382755782798,0.0
3.89,-2.74254141829452,0.0,0.0,3.370818247054173,0.07911552630014226,0.0
3.9,-2.6796406970425957,0.0,0.0,3.293507874443381,0.07730099630496734,0.0
3.91,-2.6182196341775383,0.0,0.0,3.218016128693423,0.0755291507889579,0.0
3.92,-2.558241583265177,0.0,0.0,3.144297968198192,0.07379893259325607,0.0
3.93,-2.4996708926300584,0.0,0.0,3.072309573996169,0.07210931325534846,0.0
3.94,-2.4424728743718798,0.0,0.0,3.00200831168735,0.07045929211523325,0.0
3.95,-2.3866137745215816,0.0,0.0,2.933352694754167,0.06884789545453153,0.0
3.96,-2.3320607442878054,0.0,0.0,2.8663023492177486,0.06727417566695346,0.0
3.97,-2.2787818123468786,0.0,0.0,2.8008179795847776,0.06573721045903236,0.0
3.98,-2.2267458581317636,0.0,0.0,2.736861336012519,0.06423610207947825,0.0
3.99,-2.175922586077632,0.0,0.0,2.6743951826583987,0.0627699765763085,0.0
4.0,-2.126282500783745,0.0,0.0,2.613383267149094,0.061337983080273044,0.0
4.01,-2.0777968830533124,0.0,0.0,2.5537902911322945,0.05993929311368082,0.0
4.0200000000000005,-2.0304377667748112,0.0,0.0,2.495581881862241,0.05857309992349079,0.0
4.03,-1.984177916610019,0.0,0.0,2.438724564776276,0.05723861783766444,0.0
4.04,-1.9389908064556418,0.0,0.0,2.383185737021991,0.055935081643829467,0.0
4.05,-1.8948505986470061,0.0,0.0,2.328933641896723,0.054661745989357025,0.0
4.0600000000000005,-1.8517321238737425,0.0,0.0,2.275937344163041,0.053417884801995955,0.0
4.07,-1.809610861778807,0.0,0.0,2.2241667062024155,0.052202790730184606,0.0
4.08,-1.7684629222135055,0.0,0.0,2.173592364976326,0.05101577460231077,0.0
4.09,-1.7282650271224536,0.0,0.0,2.1241857097614836,0.04985616490414089,0.0
4.1,-1.688994493033594,0.0,0.0,2.0759188606283048,0.04872330727369522,0.0
4.11,-1.650629214129528,0.0,0.0,2.028764647634395,0.04761656401290287,0.0
4.12,-1.6131476458774963,0.0,0.0,1.9826965907037328,0.04653531361535398,0.0
4.13,-1.5765287891963593,0.0,0.0,1.9376888801679297,0.04547895030958504,0.0
4.14,-1.5407521751399011,0.0,0.0,1.8937163579393141,0.044446883617201484,0.0
4.15,-1.5057978500766962,0.0,0.0,1.8507544992957563,0.04343853792535451,0.0
4.16,-1.471646361347659,0.0,0.0,1.8087793952539741,0.04245335207302583,0.0
4.17,-1.4382787433832167,0.0,0.0,1.7677677355047772,0.041490778950509954,0.0
4.18,-1.4056765042628472,0.0,0.0,1.7276967918942652,0.04055028511170429,0.0
4.19,-1.373821612700463,0.0,0.0,1.6885444024280383,0.03963135039867549,0.0
4.2,-1.342696485439845,0.0,0.0,1.6502889557784481,0.03873346757803549,0.0
4.21,-1.312283975045001,0.0,0.0,1.6129093762782765,0.037856141988731315,0.0
4.22,-1.2825673580709753,0.0,0.0,1.5763851093816308,0.036998891200801735,0.0
4.23,-1.253530323601249,0.0,0.0,1.540696107575397,0.03616124468470926,0.0
4.24,-1.2251569621384555,0.0,0.0,1.5058228167251493,0.0353427434908681,0.0
4.25,-1.1974317548356914,0.0,0.0,1.4717461628391846,0.034542939938987695,0.0
4.26,-1.1703395630562377,0.0,0.0,1.4384475392363536,0.03376139731689284,0.0
4.2700000000000005,-1.1438656182500102,0.0,0.0,1.4059087941041055,0.03299768958849982,0.0
4.28,-1.117995512135538,0.0,0.0,1.374112218430844,0.03225140111058178,0.0
4.29,-1.0927151871767327,0.0,0.0,1.343040534300887,0.03152212635804305,0.0
4.3,-1.0680109273441454,0.0,0.0,1.3126768835395102,0.03080946965740983,0.0
4.3100000000000005,-1.0438693491508293,0.0,0.0,1.2830048166952877,0.030113044928237544,0.0
4.32,-1.0202773929533226,0.0,0.0,1.254008282348133,0.029432475432163166,0.0
4.33,-0.9972223145086482,0.0,0.0,1.225671616731918,0.028767393529341403,0.0
4.34,-0.9746916767785869,0.0,0.0,1.1979795336620565,0.02811744044203535,0.0
4.3500000000000005,-0.9526733419728338,0.0,0.0,1.1709171147545485,0.027482266025054197,0.0
4.36,-0.9311554638229711,0.0,0.0,1.1444697999312523,0.02686152854290166,0.0
4.37,-0.9101264800795119,0.0,0.0,1.1186233781976458,0.026254894453324774,0.0
4.38,-0.8895751052245698,0.0,0.0,1.0933639786855651,0.025662038197081925,0.0
4.39,-0.8694903233929983,0.0,0.0,1.0686780619536007,0.025082641993754245,0.0
4.4,-0.8498613814951196,0.0,0.0,1.0445524115336804,0.02451639564333989,0.0
4.41,-0.8306777825344266,0.0,0.0,1.0209741257184168,0.023962996333495613,0.0
4.42,-0.8119292791138945,0.0,0.0,0.997930609579066,0.023422148452194896,0.0
4.43,-0.7936058671247781,0.0,0.0,0.9754095672097184,0.02289356340568988,0.0
4.44,-0.7756977796120045,0.0,0.0,0.9533989941860707,0.022376959441517096,0.0
4.45,-0.7581954808104894,0.0,0.0,0.9318871702361701,0.021872061476472755,0.0
4.46,-0.7410896603469187,0.0,0.0,0.910862652114163,0.021378600929353783,0.0
4.47,-0.7243712276017371,0.0,0.0,0.8903142666700274,0.020896315558301314,0.0
4.48,-0.7080313062262817,0.0,0.0,0.8702311041111606,0.02042494930264401,0.0
4.49,-0.6920612288101845,0.0,0.0,0.8506025114482516,0.019964252129067547,0.0
4.5,-0.6764525316943416,0.0,0.0,0.8314180861193753,0.019513979881969384,0.0
4.51,-0.6611969499249233,0.0,0.0,0.81266766978841,0.019073894137902055,0.0
4.5200000000000005,-0.6462864123440579,0.0,0.0,0.7943413423113534,0.01864376206395744,0.0
4.53,-0.6317130368129819,0.0,0.0,0.7764294158647902,0.01822335627995875,0.0
4.54,-0.6174691255635958,0.0,0.0,0.7589224292322897,0.017812454724358943,0.0
4.55,-0.6035471606745137,0.0,0.0,0.7418111422450488,0.017410840523755914,0.0
4.5600000000000005,-0.5899397996678293,0.0,0.0,0.7250865303688265,0.01701830186584701,0.0
4.57,-0.5766398712229531,0.0,0.0,0.7087397794364181,0.016634631875795062,0.0
4.58,-0.5636403710040074,0.0,0.0,0.6927622805194641,0.016259628495865038,0.0
4.59,-0.5509344575973829,0.0,0.0,0.6771456249346222,0.015893094368217505,0.0
4.6000000000000005,-0.5385154485561792,0.0,0.0,0.661881599382626,0.015534836720816621,0.0
4.61,-0.526376816548367,0.0,0.0,0.6469621812132944,0.015184667256298629,0.0
4.62,-0.5145121856056138,0.0,0.0,0.632379533815608,0.014842402043771937,0.0
4.63,-0.5029153274698219,0.0,0.0,0.6181260021271685,0.014507861413421277,0.0
4.64,-0.4915801580345251,0.0,0.0,0.6041941082599933,0.014180869853843023,0.0
4.65,-0.4805007338783891,0.0,0.0,0.5905765472404334,0.013861255912056478,0.0
4.66,-0.46967124888814965,0.0,0.0,0.5772661828580788,0.013548852096075814,0.0
4.67,-0.4590860309684141,0.0,0.0,0.5642560436218783,0.013243494779997114,0.0
4.68,-0.4487395388358348,0.0,0.0,0.551539318820291,0.01294502411152627,0.0
4.69,-0.4386263588952474,0.0,0.0,0.5391093546811742,0.012653283921850472,0.0
4.7,-0.4287412021954437,0.0,0.0,0.5269596506306025,0.012368121637828808,0.0
4.71,-0.4190789014623252,0.0,0.0,0.5150838556462599,0.012089388196404042,0.0
4.72,-0.40963440820725894,0.0,0.0,0.5034757647032974,0.011816937961184508,0.0
4.73,-0.40040278990852274,0.0,0.0,0.4921293153101943,0.011550628641137962,0.0
4.74,-0.39137922726380064,0.0,0.0,0.4810385841316427,0.01129032121132888,0.0
4.75,-0.38255901151174865,0.0,0.0,0.4701977836968621,0.01103587983565921,0.0
4.76,-0.37393754182071876,0.0,0.0,0.45960125918965344,0.010787171791529968,0.0
4.7700000000000005,-0.3655103227427859,0.0,0.0,0.44924348531963076,0.010544067396405524,0.0
4.78,-0.35727296173128387,0.0,0.0,0.43911906327081723,0.010306439936195646,0.0
4.79,-0.34922116672010994,0.0,0.0,0.4292227177264688,0.010074165595425807,0.0
4.8,-0.341350743763114,0.0,0.0,0.41954929396755947,0.009847123389136857,0.0
4.8100000000000005,-0.3336575947319383,0.0,0.0,0.4100937550434799,0.009625195096478589,0.0
4.82,-0.3261377150707269,0.0,0.0,0.40085117901212614,0.009408265195933383,0.0
4.83,-0.31878719160617003,0.0,0.0,0.3918167562485037,0.009196220802146503,0.0
4.84,-0.31160220041139625,0.0,0.0,0.38298578681892304,0.008988951604297538,0.0
4.8500000000000005,-0.30457900472227123,0.0,0.0,0.3743536779203838,0.008786349805999714,0.0
4.86,-0.297713952904705,0.0,0.0,0.36591594138180406,0.008588310066653114,0.0
4.87,-0.291003476471611,0.0,0.0,0.3576681912270645,0.008394729444246525,0.0
4.88,-0.2844440881482023,0.0,0.0,0.34960614129683015,0.00820550733954063,0.0
4.89,-0.27803237998434827,0.0,0.0,0.3417256029285054,0.008020545441614792,0.0
4.9,-0.2717650215127537,0.0,0.0,0.3340224826926989,0.007839747674739649,0.0
4.91,-0.26563875795175895,0.0,0.0,0.32649278018396133,0.0076630201465251145,0.0
4.92,-0.2596504084515946,0.0,0.0,0.319132585865565,0.007490271097335021,0.0
4.93,-0.25379686438295823,0.0,0.0,0.3119380789659,0.007321410850914352,0.0
4.94,-0.248075087666815,0.0,0.0,0.3049055254257404,0.007156351766209865,0.0
4.95,-0.2424821091443541,0.0,0.0,0.2980312758945822,0.006995008190343275,0.0
4.96,-0.23701502698606514,0.0,0.0,0.2913117637754859,0.006837296412721648,0.0
4.97,-0.23167100513892785,0.0,0.0,0.2847435033164835,0.006683134620241552,0.0
4.98,-0.22644727181073748,0.0,0.0,0.2783230877475587,0.0065324428535629715,0.0
4.99,-0.22134111799061604,0.0,0.0,0.2720471874624189,0.0063851429644336336,0.0
5.0,-0.21634989600478693,0.0,0.0,0.26591254824320393,0.006241158574022304,0.0
5.01,-0.21147101810671567,0.0,0.0,0.25991598952791,0.006100415032253202,0.0
5.0200000000000005,-0.20670197240032337,0.0,0.0,0.25405442398109823,0.0059628398771454086,0.0
5.03,-0.20204029239562252,0.0,0.0,0.24832482007540962,0.005828361956573436,0.0
5.04,-0.19748355996417338,0.0,0.0,0.24272420572392198,0.005696911513521697,0.0
5.05,-0.1930294117147663,0.0,0.0,0.23724967611644346,0.005568420370007843,0.0
5.0600000000000005,-0.18867553773645684,0.0,0.0,0.23189839217463304,0.005442821890823213,0.0
5.07,-0.18441968037139506,0.0,0.0,0.2266675790436797,0.005320050948131546,0.0
5.08,-0.18025963301669864,0.0,0.0,0.2215545246196637,0.005200043886905184,0.0
5.09,-0.17619323895464004,0.0,0.0,0.21655657811185874,0.005082738491180987,0.0
5.1000000000000005,-0.1722183902104401,0.0,0.0,0.2116711486387033,0.004968073951107223,0.0
5.11,-0.16833302643697737,0.0,0.0,0.20689570385722408,0.004855990830774549,0.0
5.12,-0.1645351338257433,0.0,0.0,0.20222776862426795,0.004746431036794836,0.0
5.13,-0.16082274404339067,0.0,0.0,0.19766492368962518,0.004639337787627297,0.0
5.14,-0.15719393319324104,0.0,0.0,0.19320480441951218,0.0045346555836180205,0.0
5.15,-0.1536468208011338,0.0,0.0,0.1888450995501985,0.0044323301777464364,0.0
5.16,-0.15017956882501624,0.0,0.0,0.18458354997057064,0.004332308547051573,0.0
5.17,-0.1467903806876899,0.0,0.0,0.1804179475334335,0.00423453886473207,0.0
5.18,-0.14347750033214507,0.0,0.0,0.17634613389432813,0.004138970472892702,0.0
5.19,-0.14023921129892933,0.0,0.0,0.17236599937764244,0.004045553855930885,0.0
5.2,-0.13707383582501106,0.0,0.0,0.16847548186893574,0.003954240614539018,0.0
5.21,-0.1339797339636144,0.0,0.0,0.16467256573317177,0.0038649834403145585,0.0
5.22,-0.1309553027245139,0.0,0.0,0.16095528075810428,0.003777736090960416,0.0
5.23,-0.12799897523429213,0.0,0.0,0.15732170112213217,0.003692453366059845,0.0
5.24,-0.1251092199160763,0.0,0.0,0.1537699443861403,0.0036090910834141884,0.0
5.25,-0.12228453968828201,0.0,0.0,0.15029817050866381,0.003527606055928145,0.0
5.26,-0.11952347118190523,0.0,0.0,0.1469045808838638,0.0034479560690303837,0.0
5.2700000000000005,-0.11682458397591525,0.0,0.0,0.14358741740186837,0.0033700998586187842,0.0
5.28,-0.11418647985031298,0.0,0.0,0.1403449615304995,0.0032939970895085003,0.0
5.29,-0.11160779205643011,0.0,0.0,0.13717553341863384,0.003219608334386571,0.0
5.3,-0.10908718460405606,0.0,0.0,0.13407749101991973,0.0031468950532452106,0.0
5.3100000000000005,-0.10662335156498964,0.0,0.0,0.13104922923674978,0.003075819573290315,0.0
5.32,-0.10421501639262291,0.0,0.0,0.12808917908403292,0.0030063450693144328,0.0
5.33,-0.10186093125717512,0.0,0.0,0.12519580687213316,0.002938435544519754,0.0
5.34,-0.0995598763962038,0.0,0.0,0.12236761340854276,0.0028720558117809503,0.0
5.3500000000000005,-0.09731065948002954,0.0,0.0,0.11960313321800359,0.0028071714753406768,0.0
5.36,-0.0951121149917213,0.0,0.0,0.11690093378038527,0.0027437489129222147,0.0
5.37,-0.09296310362129595,0.0,0.0,0.11425961478617798,0.0026817552582551482,0.0
5.38,-0.09086251167379664,0.0,0.0,0.11167780740889566,0.0026211583839983532,0.0
5.39,-0.08880925049092156,0.0,0.0,0.10915417359428209,0.0025619268850569526,0.0
5.4,-0.08680225588588374,0.0,0.0,0.10668740536562256,0.0025040300622777003,0.0
5.41,-0.0848404875911895,0.0,0.0,0.10427622414511666,0.0024474379065208478,0.0
5.42,-0.08292292871903258,0.0,0.0,0.10191938009056813,0.0023921210830920125,0.0
5.43,-0.08104858523400657,0.0,0.0,0.09961565144733828,0.0023380509165319705,0.0
5.44,-0.07921648543784726,0.0,0.0,0.09736384391505508,0.002285199375752838,0.0
5.45,-0.07742567946592294,0.0,0.0,0.09516279002874647,0.002233539059512872,0.0
5.46,-0.07567523879519723,0.0,0.0,0.09301134855409893,0.002183043182222695,0.0
5.47,-0.0739642557633971,0.0,0.0,0.09090840389644286,0.0021336855600738625,0.0
5.48,-0.07229184309912379,0.0,0.0,0.08885286552327064,0.002085440597484781,0.0
5.49,-0.07065713346265189,0.0,0.0,0.08684366739976514,0.002038283273852382,0.0
5.5,-0.0690592789971676,0.0,0.0,0.08487976743732503,0.0019921891306083467,0.0
5.51,-0.06749745089020327,0.0,0.0,0.08296014695444216,0.001947134258565764,0.0
5.5200000000000005,-0.06597083894503139,0.0,0.0,0.08108381014996313,0.0019030952855560437,0.0
5.53,-0.06447865116178687,0.0,0.0,0.07924978358822765,0.001860049364344812,0.0
5.54,-0.06302011332809207,0.0,0.0,0.07745711569594955,0.0018179741608232464,0.0
5.55,-0.06159446861896437,0.0,0.0,0.07570487627039381,0.0017768478424648444,0.0
5.5600000000000005,-0.06020097720579194,0.0,0.0,0.07399215599886125,0.0017366490670471379,0.0
5.57,-0.0588389158741675,0.0,0.0,0.07231806598890377,0.0016973569716257119,0.0
5.58,-0.05750757765037613,0.0,0.0,0.07068173730929635,0.0016589511617603274,0.0
5.59,-0.056206271436337135,0.0,0.0,0.069082320541327,0.0016214117009834645,0.0
5.6000000000000005,-0.05493432165280535,0.0,0.0,0.06751898534023436,0.0015847191005069947,0.0
5.61,-0.053691067890641535,0.0,0.0,0.06599092000665391,0.0015488543091635486,0.0
5.62,-0.05247586456996649,0.0,0.0,0.06449733106761539,0.0015137987035724308,0.0
5.63,-0.05128808060701739,0.0,0.0,0.06303744286714613,0.0014795340785305926,0.0
5.64,-0.05012709908852974,0.0,0.0,0.06161049716601493,0.001446042637618469,0.0
5.65,-0.048992316953472136,0.0,0.0,0.060215752750572345,0.0014133069840191245,0.0
5.66,-0.04788314468196533,0.0,0.0,0.05885248505040748,0.001381310111544387,0.0
5.67,-0.04679900599122089,0.0,0.0,0.05751998576462956,0.0013500353958633994,0.0
5.68,-0.045739337538339024,0.0,0.0,0.05621756249657127,0.001319466585928886,0.0
5.69,-0.04470358862980843,0.0,0.0,0.054944538396751244,0.0012895877955971795,0.0
5.7,-0.04369122093755516,0.0,0.0,0.05370025181387043,0.0012603834954368737,0.0
5.71,-0.04270170822139082,0.0,0.0,0.05248405595368125,0.0012318385047222153,0.0
5.72,-0.041734536057714135,0.0,0.0,0.05129531854551715,0.001203937983606385,0.0
5.73,-0.04078920157432321,0.0,0.0,0.05013342151638743,0.0011766674254721663,0.0
5.74,-0.03986521319119924,0.0,0.0,0.04899776067235356,0.0011500126494536926,0.0
5.75,-0.038962090367125606,0.0,0.0,0.0478877453871077,0.001123959793127146,0.0
5.76,-0.03807936335200956,0.0,0.0,0.0468027982975701,0.001098495305366168,0.0
5.7700000000000005,-0.037216572944776774,0.0,0.0,0.04574235500629228,0.0010736059393571206,0.0
5.78,-0.03637327025671207,0.0,0.0,0.04470586379060313,0.00104927874577249,0.0
5.79,-0.035549016480122535,0.0,0.0,0.04369278531827975,0.0010255010660974553,0.0
5.8,-0.03474338266220216,0.0,0.0,0.04270259236958797,0.0010022605261060446,0.0
5.8100000000000005,-0.033955949483980015,0.0,0.0,0.041734769565607066,0.00097954502948467,0.0
5.82,-0.03318630704423655,0.0,0.0,0.04078881310263975,0.0009573427515985528,0.0
5.83,-0.03243405464827547,0.0,0.0,0.03986423049258728,0.0009356421333981623,0.0
5.84,-0.03169880060144108,0.0,0.0,0.03896054030918472,0.0009144318754631177,0.0
5.8500000000000005,-0.030980162007273652,0.0,0.0,0.0380772719398911,0.0008937009321789456,0.0
5.86,-0.030277764570197888,0.0,0.0,0.03721396534339547,0.0008734385060455177,0.0
5.87,-0.0295912424026417,0.0,0.0,0.03637017081253891,0.0008536340421126905,0.0
5.88,-0.0289202378364854,0.0,0.0,0.03554544874257662,0.0008342772225412278,0.0
5.89,-0.02826440123874311,0.0,0.0,0.03473936940462482,0.0008153579612854691,0.0
5.9,-0.027623390831380976,0.0,0.0,0.03395151272422162,0.000796866398895933,0.0
5.91,-0.026996872515178582,0.0,0.0,0.03318146806481178,0.0007787928974376245,0.0
5.92,-0.026384519697542415,0.0,0.0,0.03242883401613083,0.0007611280355232132,0.0
5.93,-0.025786013124182088,0.0,0.0,0.03169321818732108,0.0007438626034573156,0.0
5.94,-0.025201040714562188,0.0,0.0,0.03097423700468062,0.0007269875984895382,0.0
5.95,-0.024629297401044647,0.0,0.0,0.030271515513954707,0.0007104942201741194,0.0
5.96,-0.02407048497163836,0.0,0.0,0.029584687187077713,0.0006943738658339749,0.0
5.97,-0.02352431191627484,0.0,0.0,0.028913393733208996,0.0006786181261256439,0.0
5.98,-0.022990493276530397,0.0,0.0,0.028257284914042564,0.0006632187807044344,0.0
5.99,-0.02246875049871727,0.0,0.0,0.027616018363247532,0.000648167793986548,0.0
6.0,-0.021958811290267857,0.0,0.0,0.026989259409940486,0.0006334573110058828,0.0
6.01,-0.021460409479337878,0.0,0.0,0.02637668090613371,0.0006190796533640968,0.0
6.0200000000000005,-0.020973284877556127,0.0,0.0,0.025777963058039033,0.0006050273152712003,0.0
6.03,-0.020497183145849963,0.0,0.0,0.02519279326115427,0.000591292959674919,0.0
6.04,-0.020031855663277406,0.0,0.0,0.024620865939054718,0.0005778694144769901,0.0
6.05,-0.01957705939879824,0.0,0.0,0.024061882385781334,0.0005647496688339264,0.0
6.0600000000000005,-0.019132556785918065,0.0,0.0,0.023515550611766276,0.0005519268695407746,0.0
6.07,-0.01869811560014078,0.0,0.0,0.02298158519322576,0.0005393943174962238,0.0
6.08,-0.01827350883916632,0.0,0.0,0.02245970712488731,0.0005271454642460748,0.0
6.09,-0.0178585146057721,0.0,0.0,0.021949643676067245,0.0005151739086052058,0.0
6.1000000000000005,-0.01745291599331784,0.0,0.0,0.021451128249930392,0.0005034733933543378,0.0
6.11,-0.01705650097381489,0.0,0.0,0.020963900245921336,0.0004920378020111887,0.0
6.12,-0.016669062288502512,0.0,0.0,0.020487704925276434,0.00048086115567393616,0.0
6.13,-0.016290397340874892,0.0,0.0,0.020022293279543312,0.00046993760993527673,0.0
6.140000000000001,-0.01592030809210379,0.0,0.0,0.019567421902039847,0.0004592614518654983,0.0
6.15,-0.015558600958803275,0.0,0.0,0.01912285286221272,0.0004488270970635404,0.0
6.16,-0.015205086713083835,0.0,0.0,0.018688353582779513,0.0004386290867734774,0.0
6.17,-0.01485958038484467,0.0,0.0,0.018263696719647806,0.00042866208506610516,0.0
6.18,-0.014521901166253905,0.0,0.0,0.01784866004450957,0.00041892087608335536,0.0
6.19,-0.014191872318367736,0.0,0.0,0.017443026330070027,0.00040940036134453267,0.0
6.2,-0.013869321079840539,0.0,0.0,0.017046583237839856,0.00040009555711272536,0.0
6.21,-0.013554078577679107,0.0,0.0,0.016659123208451285,0.00039100159182042896,0.0
6.22,-0.013245979739995214,0.0,0.0,0.016280443354417737,0.0003821137035525557,0.0
6.23,-0.012944863210711746,0.0,0.0,0.015910345355303217,0.00037342723758597337,0.0
6.24,-0.012650571266178622,0.0,0.0,0.015548635355236724,0.00036493764398409556,0.0
6.25,-0.012362949733655777,0.0,0.0,0.015195123862718818,0.00035664047524527513,0.0
6.26,-0.012081847911621344,0.0,0.0,0.014849625652674026,0.0003485313840039017,0.0
6.2700000000000005,-0.011807118491864225,0.0,0.0,0.014511959670697183,0.000340606120782992,0.0
6.28,-0.01153861748332106,0.0,0.0,0.014181948939442718,0.0003328605317970778,0.0
6.29,-0.011276204137618562,0.0,0.0,0.013859420467104547,0.00032529055680417866,0.0
6.3,-0.01101974087628307,0.0,0.0,0.013544205157961035,0.00031789222700619803,0.0
6.3100000000000005,-0.010769093219579955,0.0,0.0,0.013236137724899944,0.00031066166299585537,0.0
6.32,-0.010524129716946452,0.0,0.0,0.01293505660392501,0.00030359507275006464,0.0
6.33,-0.010284721878982252,0.0,0.0,0.012640803870561124,0.00029668874966792103,0.0
6.34,-0.010050744110962963,0.0,0.0,0.012353225158136954,0.00028993907065273124,0.0
6.3500000000000005,-0.009822073647842452,0.0,0.0,0.012072169577897817,0.00028334249423700653,0.0
6.36,-0.009598621232877367,0.0,0.0,0.011797527425662637,0.000276896445584792,0.0
6.37,-0.009380314159175855,0.0,0.0,0.01152920933843786,0.0002705988272824121,0.0
6.38,-0.009167030929268245,0.0,0.0,0.011267065985425154,0.00026444613442874325,0.0
6.390000000000001,-0.008958653056058221,0.0,0.0,0.011010951735842123,0.00025843494896466725,0.0
6.4,-0.008755064981788928,0.0,0.0,0.01076072455930748,0.0002525619373350905,0.0
6.41,-0.008556153999475187,0.0,0.0,0.010516245929285904,0.00024682384822269165,0.0
6.42,-0.008361810176714666,0.0,0.0,0.010277380729441317,0.00024121751034997775,0.0
6.43,-0.008171926281794474,0.0,0.0,0.010043997162815557,0.00023573983034764264,0.0
6.44,-0.007986397712013038,0.0,0.0,0.009815966663732993,0.00023038779068689544,0.0
6.45,-0.007805122424140323,0.0,0.0,0.009593163812324756,0.00022515844767329924,0.0
6.46,-0.007628000866942617,0.0,0.0,0.009375466251600146,0.00022004892950036435,0.0
6.47,-0.007454935915700976,0.0,0.0,0.009162754606963459,0.00021505643436055342,0.0
6.48,-0.007285832808655344,0.0,0.0,0.008954912408095981,0.00021017822861180133,0.0
6.49,-0.0071205990853089535,0.0,0.0,0.008751826013130452,0.00020541164499782668,0.0
6.5,-0.006959144526530233,0.0,0.0,0.008553384535028432,0.00020075408092016205,0.0
6.51,-0.006801381096391934,0.0,0.0,0.008359479770098249,0.00019620299676041187,0.0
6.5200000000000005,-0.006647222885689452,0.0,0.0,0.008170006128568219,0.00019175591425077298,0.0
6.53,-0.006496586057082643,0.0,0.0,0.007984860567170734,0.00018741041489170836,0.0
6.54,-0.006349388791807531,0.0,0.0,0.007803942523637576,0.0001831641384145281,0.0
6.55,-0.006205551237906372,0.0,0.0,0.007627153853076099,0.00017901478128807898,0.0
6.5600000000000005,-0.006064995459926481,0.0,0.0,0.007454398766139771,0.00017496009526757423,0.0
6.57,-0.005927645390040143,0.0,0.0,0.00728558376895561,0.00017099788598463398,0.0
6.58,-0.005793426780539676,0.0,0.0,0.007120617604732281,0.00016712601157679665,0.0
6.59,-0.005662267157663459,0.0,0.0,0.006959411197012091,0.0001633423813555924,0.0
6.6000000000000005,-0.0055340957767103785,0.0,0.0,0.006801877594498325,0.0001596449545116133,0.0
6.61,-0.005408843578401732,0.0,0.0,0.006647931917424801,0.0001560317388557556,0.0
6.62,-0.005286443146451095,0.0,0.0,0.006497491305401621,0.00015250078959513352,0.0
6.63,-0.005166828666304154,0.0,0.0,0.0063504748667060195,0.00014905020814288999,0.0
6.640000000000001,-0.005049935885011852,0.0,0.0,0.006206803628963042,0.00014567814096063642,0.0
6.65,-0.0049357056520863115,0.0,0.0,0.006066404891156706,0.00014238288170329342,0.0
6.66,-0.0048240764859721185,0.0,0.0,0.0059292030871903765,0.00013916265678027746,0.0
6.67,-0.004714988280380124,0.0,0.0,0.005795124341288772,0.0001360157322740577,0.0
6.68,-0.004608382360011899,0.0,0.0,0.005664096536485637,0.000132940415547618,0.0
6.69,-0.004504201444555742,0.0,0.0,0.005536049270372846,0.00012993505420585378,0.0
6.7,-0.00440238961367493,0.0,0.0,0.005410913812067903,0.0001269980350855679,0.0
6.71,-0.0043028922729571725,0.0,0.0,0.005288623060363061,0.00012412778327320053,0.0
6.72,-0.00420565612079533,0.0,0.0,0.005169111503019176,0.00012132276114942563,0.0
6.73,-0.0041106291161705335,0.0,0.0,0.005052315177167451,0.00011858146745975407,0.0
6.74,-0.00401776044730989,0.0,0.0,0.004938171630788866,0.00011590243641042322,0.0
6.75,-0.003927000501191938,0.0,0.0,0.004826619885231069,0.00011328423678864888,0.0
6.76,-0.0038383008338739645,0.0,0.0,0.004717600398739764,0.00011072547110667637,0.0
6.7700000000000005,-0.003751614141616223,0.0,0.0,0.0046110550309685265,0.00010822477476879839,0.0
6.78,-0.0036668942327789346,0.0,0.0,0.004506927008437247,0.00010578081526064162,0.0
6.79,-0.0035840960004688343,0.0,0.0,0.00440516089091092,0.00010339229136005663,0.0
6.8,-0.0035031753959128002,0.0,0.0,0.0043057025386761425,0.00010105793236906713,0.0
6.8100000000000005,-0.003424089402536889,0.0,0.0,0.0042084990806787684,9.877649736604606e-05,0.0
6.82,-0.0033467960107298393,0.0,0.0,0.004113498883510788,9.654677447780305e-05,0.0
6.83,-0.003271254193270827,0.0,0.0,0.004020651521203672,9.43675801706266e-05,0.0
6.84,-0.0031974238814019384,0.0,0.0,0.003929907745823302,9.22377585601156e-05,0.0
6.8500000000000005,-0.0031252659415264726,0.0,0.0,0.0038412194588281637,9.015618073894075e-05,0.0
6.86,-0.0030547421525148498,0.0,0.0,0.003754539683176907,8.812174412218762e-05,0.0
6.87,-0.0029858151836004826,0.0,0.0,0.003669822536161174,8.613337180972176e-05,0.0
6.88,-0.002918448572848561,0.0,0.0,0.0035870232029402067,8.419001196503143e-05,0.0
6.890000000000001,-0.00285260670618127,0.0,0.0,0.003506097910763321,8.229063721020425e-05,0.0
6.9,-0.0027882547969435094,0.0,0.0,0.0034270039038531023,8.043424403642156e-05,0.0
6.91,-0.0027253588659936793,0.0,0.0,0.003349699418933639,7.861985222959302e-05,0.0
6.92,-0.0026638857223046214,0.0,0.0,0.0032741436613912,7.684650431081978e-05,0.0
6.93,-0.0026038029440602945,0.0,0.0,0.003200296782037211,7.51132649910142e-05,0.0
6.94,-0.002545078860234188,0.0,0.0,0.003128119854468613,7.341922063952512e-05,0.0
6.95,-0.002487682532635981,0.0,0.0,0.0030575748529998448,7.176347876619091e-05,0.0
6.96,-0.0024315837384133406,0.0,0.0,0.0029886246311575802,7.014516751659116e-05,0.0
6.97,-0.002376752952996189,0.0,0.0,0.0029212329007167006,6.8563435180009e-05,0.0
6.98,-0.0023231613334711737,0.0,0.0,0.002855364211266922,6.701744970984262e-05,0.0
6.99,-0.0022707807023744425,0.0,0.0,0.0027909839302928327,6.550639825606935e-05,0.0
7.0,-0.002219583531891219,0.0,0.0,0.0027280582237526356,6.402948670941793e-05,0.0
7.01,-0.002169542928451015,0.0,0.0,0.0026665540371446548,6.258593925698519e-05,0.0
7.0200000000000005,-0.002120632617707673,0.0,0.0,0.0026064390770488945,6.117499794899623e-05,0.0
7.03,-0.002072826929893763,0.0,0.0,0.0025476817931217766,5.979592227622105e-05,0.0
7.04,-0.0020261007855391705,0.0,0.0,0.0024902513605478383,5.8447988758089684e-05,0.0
7.05,-0.001980429681544045,0.0,0.0,0.0024341176629186596,5.713049054085825e-05,0.0
7.0600000000000005,-0.0019357896775965514,0.0,0.0,0.002379251275541278,5.5842737005839656e-05,0.0
7.07,-0.001892157382926173,0.0,0.0,0.0023256234491555224,5.458405338724087e-05,0.0
7.08,-0.0018495099433835879,0.0,0.0,0.0022732060940551997,5.3353780399473514e-05,0.0
7.09,-0.0018078250288384148,0.0,0.0,0.0022219717645974636,5.2151273873580616e-05,0.0
7.1000000000000005,-0.0017670808208863755,0.0,0.0,0.0021718936440958347,5.097590440265995e-05,0.0
7.11,-0.0017272560008576806,0.0,0.0,0.002122945530079057,4.982705699588532e-05,0.0
7.12,-0.0016883297381186826,0.0,0.0,0.002075101819914805,4.870413074107948e-05,0.0
7.13,-0.0016502816786590822,0.0,0.0,0.0020283374967816027,4.7606538475466505e-05,0.0
7.140000000000001,-0.0016130919339571884,0.0,0.0,0.0019826281159831057,4.653370646445942e-05,0.0
7.15,-0.0015767410701159658,0.0,0.0,0.0019379497915957417,4.548507408826908e-05,0.0
7.16,-0.001541210097262799,0.0,0.0,0.0018942791834401043,4.4460093536113714e-05,0.0
7.17,-0.0015064804592061268,0.0,0.0,0.0018515934843677086,4.345822950783105e-05,0.0
7.18,-0.0014725340233422773,0.0,0.0,0.0018098704078559282,4.247895892272142e-05,0.0
7.19,-0.0014393530708060427,0.0,0.0,0.0017690881759021716,4.152177063541583e-05,0.0
7.2,-0.0014069202868587066,0.0,0.0,0.0017292255072097933,4.0586165158590946e-05,0.0
7.21,-0.0013752187515074237,0.0,0.0,0.001690261605658797,3.9671654392367565e-05,0.0
7.22,-0.0013442319303500168,0.0,0.0,0.0016521761490533077,3.877776136020567e-05,0.0
7.23,-0.0013139436656394328,0.0,0.0,0.0016149492781381194,3.790401995111748e-05,0.0
7.24,-0.0012843381675622552,0.0,0.0,0.0015785615858810041,3.7049974668110466e-05,0.0
7.25,-0.0012554000057258274,0.0,0.0,0.001542994107007591,3.6215180382569346e-05,0.0
7.26,-0.0012271141008487003,0.0,0.0,0.0015082283077900217,3.5399202094583436e-05,0.0
7.2700000000000005,-0.001199465716649257,0.0,0.0,0.0014742460760763085,3.4601614698931434e-05,0.0
7.28,-0.0011724404519275111,0.0,0.0,0.001441029711558435,3.3822002756666134e-05,0.0
7.29,-0.0011460242328352234,0.0,0.0,0.001408561916271665,3.305996027212627e-05,0.0
7.3,-0.0011202033053295984,0.0,0.0,0.0013768257853199214,3.2315090475253515e-05,0.0
7.3100000000000005,-0.0010949642278059663,0.0,0.0,0.0013458047978196542,3.158700560904124e-05,0.0
7.32,-0.0010702938639049757,0.0,0.0,0.0013154828080608168,3.0875326722072105e-05,0.0
7.33,-0.0010461793754899449,0.0,0.0,0.0012858440368737037,3.017968346589646e-05,0.0
7.34,-0.0010226082157901379,0.0,0.0,0.001256873063203015,2.9499713897264942e-05,0.0
7.3500000000000005,-0.0009995681227058441,0.0,0.0,0.0012285548158780843,2.8835064284973277e-05,0.0
7.36,-0.0009770471122712578,0.0,0.0,0.0012008745655784495,2.818538892128751e-05,0.0
7.37,-0.0009550334722712498,0.0,0.0,0.0011738179169893891,2.7550349937825996e-05,0.0
7.38,-0.0009335157560082415,0.0,0.0,0.001147370801138911,2.692961712570845e-05,0.0
7.390000000000001,-0.0009124827762154821,0.0,0.0,0.001121519467918393,2.6322867760005074e-05,0.0
7.4,-0.0008919241647631472,0.0,0.0,0.0010962511740085115,2.5729802745854707e-05,0.0
7.41,-0.0008718292528713848,0.0,0.0,0.0010715528065651924,2.5150114315385172e-05,0.0
7.42,-0.0008521875431276958,0.0,0.0,0.0010474114633695145,2.4583499644247852e-05,0.0
7.43,-0.0008329887778906692,0.0,0.0,0.001023814536901877,2.402966282489867e-05,0.0
7.44,-0.0008142229337088281,0.0,0.0,0.001000749707482097,2.3488314705591667e-05,0.0
7.45,-0.0007958802158742538,0.0,0.0,0.0009782049365755518,2.2959172733268815e-05,0.0
7.46,-0.0007779510531075146,0.0,0.0,0.0009561684602599372,2.24419608002217e-05,0.0
7.47,-0.0007604260923705275,0.0,0.0,0.0009346287828508926,2.193640909447737e-05,0.0
7.48,-0.0007432961938040718,0.0,0.0,0.0009135746706786062,2.1442253953734136e-05,0.0
7.49,-0.0007265524257867707,0.0,0.0,0.0008929951460155824,2.0959237722839806e-05,0.0
7.5,-0.000710186060112445,0.0,0.0,0.0008728794811490278,2.0487108614666955e-05,0.0
7.51,-0.000694188567282827,0.0,0.0,0.0008532171925952584,2.0025620574320588e-05,0.0
7.5200000000000005,-0.0006785516119127143,0.0,0.0,0.0008339980354519526,1.9574533146582342e-05,0.0
7.53,-0.0006632670482447143,0.0,0.0,0.0008152119978860031,1.913361134653466e-05,0.0
7.54,-0.0006483269157708174,0.0,0.0,0.0007968492957513289,1.8702625533239012e-05,0.0
7.55,-0.0006337234349581115,0.0,0.0,0.0007789003673355699,1.8281351286436622e-05,0.0
7.5600000000000005,-0.0006194490030760176,0.0,0.0,0.0007613558682321253,1.7869569286189456e-05,0.0
7.57,-0.00060549619012251,0.0,0.0,0.000744206666332135,1.746706519534125e-05,0.0
7.58,-0.0005918577348468431,0.0,0.0,0.0007274438369366543,1.707362954479506e-05,0.0
7.59,-0.0005785265408663795,0.0,0.0,0.0007110586579838698,1.6689057621492727e-05,0.0
7.6000000000000005,-0.0005654956728751789,0.0,0.0,0.0006950426053887261,1.63131493590337e-05,0.0
7.61,-0.0005527583529420699,0.0,0.0,0.0006793873484935526,1.5945709230896225e-05,0.0
7.62,-0.0005403079568959876,0.0,0.0,0.0006640847456247695,1.5586546146151655e-05,0.0
7.63,-0.0005281380107964203,0.0,0.0,0.0006491268397552521,1.5235473347655625e-05,0.0
7.640000000000001,-0.0005162421874868665,0.0,0.0,0.0006345058542678618,1.4892308312616147e-05,0.0
7.65,-0.000504614303229258,0.0,0.0,0.0006202141888189224,1.455687265550626e-05,0.0
7.66,-0.0004932483144173606,0.0,0.0,0.0006062444152988394,1.4228992033256514e-05,0.0
7.67,-0.0004821383143672169,0.0,0.0,0.0005925892738872844,1.3908496052667241e-05,0.0
7.68,-0.0004712785301827441,0.0,0.0,0.0005792416692006944,1.3595218179987819e-05,0.0
7.69,-0.00046066331969465323,0.0,0.0,0.0005661946665297239,1.328899565260748e-05,0.0
7.7,-0.000450287168470901,0.0,0.0,0.0005534414881653998,1.2989669392826073e-05,0.0
7.71,-0.00044014468689693436,0.0,0.0,0.0005409755098097216,1.2697083923610315e-05,0.0
7.72,-0.00043023060732403295,0.0,0.0,0.0005287902570714483,1.2411087286345403e-05,0.0
7.73,-0.0004205397812840973,0.0,0.0,0.0005168794020424007,1.213153096047965e-05,0.0
7.74,-0.0004110671767692757,0.0,0.0,0.000505236759954073,1.1858269785052143e-05,0.0
7.75,-0.00040180787557486165,0.0,0.0,0.0004938562859116742,1.1591161882038888e-05,0.0
7.76,-0.00039275707070393753,0.0,0.0,0.00048273207170438184,1.1330068581486588e-05,0.0
7.7700000000000005,-0.000383910063832276,0.0,0.0,0.00047185834268945295,1.1074854348380645e-05,0.0
7.78,-0.00037526226283205,0.0,0.0,0.00046122945474848774,1.082538671120697e-05,0.0
7.79,-0.0003668091793529413,0.0,0.0,0.0004508398913146738,1.0581536192178452e-05,0.0
7.8,-0.0003585464264592703,0.0,0.0,0.00044068426046838037,1.0343176239067149e-05,0.0
7.8100000000000005,-0.0003504697163218068,0.0,0.0,0.0004307572921003127,1.0110183158621213e-05,0.0
7.82,-0.0003425748579629549,0.0,0.0,0.0004210538351401378,9.88243605151867e-06,0.0
7.83,-0.0003348578027687697,0.0,0.0,0.00041156891349462056,9.65981812527586e-06,0.0
7.84,-0.0003273145922780629,0.0,0.0,0.00040229766187602504,9.442215188093681e-06,0.0
7.8500000000000005,-0.000319941304641635,0.0,0.0,0.00039323525999581424,9.229514104336743e-06,0.0
7.86,-0.00031273410686879154,0.0,0.0,0.00038437699678027417,9.02160430171974e-06,0.0
7.87,-0.00030568925279362554,0.0,0.0,0.0003757182678706502,8.818377712634506e-06,0.0
7.88,-0.00029880308108883535,0.0,0.0,0.00036725457318222707,8.61972871685917e-06,0.0
7.890000000000001,-0.00029207201332591935,0.0,0.0,0.0003589815145198951,8.425554085594421e-06,0.0
7.9,-0.0002854925520806233,0.0,0.0,0.0003508947932498086,8.23575292681505e-06,0.0
7.91,-0.00027906127908254087,0.0,0.0,0.0003429902080249173,8.050226631887055e-06,0.0
7.92,-0.00027277485340780166,0.0,0.0,0.000335263652563678,7.868878823432155e-06,0.0
7.930000000000001,-0.00026663000971380226,0.0,0.0,0.00032771111348046207,7.69161530440579e-06,0.0
7.94,-0.00026062355651496923,0.0,0.0,0.0003203286681661672,7.518344008353935e-06,0.0
7.95,-0.0002547523744985641,0.0,0.0,0.00031311248271836885,7.348974950831806e-06,0.0
7.96,-0.0002490134148795679,0.0,0.0,0.0003060588099192303,7.183420181944212e-06,0.0
7.97,-0.00024340369779370742,0.0,0.0,0.0002991639872603257,7.021593739986964e-06,0.0
7.98,-0.00023792031072770862,0.0,0.0,0.000292424435013457,6.863411606167067e-06,0.0
7.99,-0.00023256040698588654,0.0,0.0,0.00028583665434589114,6.70879166036617e-06,0.0
8.0,-0.00022732120419220286,0.0,0.0,0.0002793972254792241,6.557653637927897e-06,0.0
8.01,-0.00022219998282694515,0.0,0.0,0.00027310280589088,6.4099190874456364e-06,0.0
8.02,-0.0002171940847972024,0.0,0.0,0.0002669501285570028,6.2655113295221665e-06,0.0
8.03,-0.0002123009120403328,0.0,0.0,0.00026093600023616945,6.124355416486742e-06,0.0
8.040000000000001,-0.00020751792515963976,0.0,0.0,0.000255057299792402,5.986378093035297e-06,0.0
8.05,-0.0002028426420914915,0.0,0.0,0.00024931097655687945,5.851507757778817e-06,0.0
8.06,-0.00019827263680313915,0.0,0.0,0.00024369404872769462,5.71967442568379e-06,0.0
8.07,-0.00019380553802050653,0.0,0.0,0.00023820360180592292,5.59080969136638e-06,0.0
8.08,-0.00018943902798524331,0.0,0.0,0.00023283678706810206,5.464846693239972e-06,0.0
8.09,-0.00018517084124034997,0.0,0.0,0.0002275908200735565,5.341720078481293e-06,0.0
8.1,-0.00018099876344370135,0.0,0.0,0.00022246297920622764,5.221365968805805e-06,0.0
8.11,-0.00017692063020881122,0.0,0.0,0.0002174506042497841,5.103721927024765e-06,0.0
8.120000000000001,-0.0001729343259721967,0.0,0.0,0.00021255109499554206,4.988726924372044e-06,0.0
8.13,-0.00016903778288671794,0.0,0.0,0.00020776190988230344,4.876321308580121e-06,0.0
8.14,-0.00016522897974028265,0.0,0.0,0.00020308056466730547,4.766446772686412e-06,0.0
8.15,-0.00016150594089932107,0.0,0.0,0.00019850463112775326,4.6590463245570585e-06,0.0
8.16,-0.00015786673527645072,0.0,0.0,0.00019403173579184726,4.554064257103651e-06,0.0
8.17,-0.00015430947532176487,0.0,0.0,0.00018965955869918808,4.451446119188449e-06,0.0
8.18,-0.00015083231603719302,0.0,0.0,0.00018538583218911635,4.351138687186522e-06,0.0
8.19,-0.0001474334540133934,0.0,0.0,0.00018120833971712523,4.253089937205634e-06,0.0
8.2,-0.00014411112648865306,0.0,0.0,0.00017712491469812418,4.157249017936942e-06,0.0
8.21,-0.00014086361042928136,0.0,0.0,0.0001731334393761738,4.0635662241268515e-06,0.0
8.22,-0.00013768922163099714,0.0,0.0,0.00016923184371999713,3.971992970653892e-06,0.0
8.23,-0.0001345863138408207,0.0,0.0,0.00016541810434371875,3.882481767197691e-06,0.0
8.24,-0.00013155327789899396,0.0,0.0,0.0001616902434521779,3.794986193484786e-06,0.0
8.25,-0.0001285885409004638,0.0,0.0,0.0001580463278103934,3.7094608751010263e-06,0.0
8.26,-0.0001256905653754742,0.0,0.0,0.00015448446773638004,3.62586145985243e-06,0.0
8.27,-0.00012285784848882454,0.0,0.0,0.00015100281611699513,3.544144594666304e-06,0.0
8.28,-0.00012008892125736145,0.0,0.0,0.0001475995674461372,3.4642679030171814e-06,0.0
8.290000000000001,-0.00011738234778528172,0.0,0.0,0.00014427295688492295,3.3861899628683393e-06,0.0
8.3,-0.00011473672451683493,0.0,0.0,0.0001410212593431303,3.3098702851127815e-06,0.0
8.31,-0.00011215067950602321,0.0,0.0,0.00013784278858167598,3.23526929250753e-06,0.0
8.32,-0.0001096228717029055,0.0,0.0,0.0001347358963353104,3.162348299082944e-06,0.0
8.33,-0.00010715199025612332,0.0,0.0,0.00013169897145550428,3.0910694900252793e-06,0.0
8.34,-0.00010473675383127387,0.0,0.0,0.00012873043907254015,3.0213959020107105e-06,0.0
8.35,-0.00010237590994476507,0.0,0.0,0.00012582875977683682,2.9532914039902463e-06,0.0
8.36,-0.00010006823431279606,0.0,0.0,0.00012299242881875477,2.8867206784086676e-06,0.0
8.370000000000001,-9.781253021511509e-05,0.0,0.0,0.00012021997532664388,2.8216492028514356e-06,0.0
8.38,-9.560762787321498e-05,0.0,0.0,0.00011750996154253657,2.758043232106021e-06,0.0
8.39,-9.345238384263384e-05,0.0,0.0,0.00011486098207529237,2.695869780632487e-06,0.0
8.4,-9.134568041903757e-05,0.0,0.0,0.00011227166317056386,2.635096605429248e-06,0.0
8.41,-8.928642505776755e-05,0.0,0.0,0.00010974066199740746,2.575692189289199e-06,0.0
8.42,-8.727354980654423e-05,0.0,0.0,0.00010726666595104607,2.5176257244350073e-06,0.0
8.43,-8.530601075102564e-05,0.0,0.0,0.00010484839197133428,2.4608670965232225e-06,0.0
8.44,-8.338278747292536e-05,0.0,0.0,0.00010248458587683257,2.40538686901425e-06,0.0
8.45,-8.150288296257895e-05,0.0,0.0,0.00010017402225729123,2.351156280649032e-06,0.0
8.46,-7.966532256409489e-05,0.0,0.0,9.791550317717259e-05,2.298147215019701e-06,0.0
8.47,-7.786915314585466e-05,0.0,0.0,9.570785715606594e-05,2.246332176639372e-06,0.0
8.48,-7.611344302911762e-05,0.0,0.0,9.354993908103976e-05,2.1956842888846854e-06,0.0
8.49,-7.439728150452348e-05,0.0,0.0,9.144062961230273e-05,2.146177280046466e-06,0.0
8.5,-7.271977835953788e-05,0.0,0.0,8.937883460243391e-05,2.097785469698529e-06,0.0
8.51,-7.108006341659071e-05,0.0,0.0,8.736348452866922e-05,2.0504837553731614e-06,0.0
8.52,-6.947728608166308e-05,0.0,0.0,8.53935339381338e-05,2.004247599540168e-06,0.0
8.53,-6.791061490308412e-05,0.0,0.0,8.346796090552539e-05,1.9590530168784242e-06,0.0
8.540000000000001,-6.637923714030455e-05,0.0,0.0,8.158576650310885e-05,1.914876561836239e-06,0.0
8.55,-6.488235834241974e-05,0.0,0.0,7.974597428269277e-05,1.87169531647295e-06,0.0
8.56,-6.341920193621918e-05,0.0,0.0,7.794762976931328e-05,1.829486878575308e-06,0.0
8.57,-6.198900882354612e-05,0.0,0.0,7.618979996632507e-05,1.7882293500416861e-06,0.0
8.58,-6.0591036987754334e-05,0.0,0.0,7.447157287173396e-05,1.747901325529968e-06,0.0
8.59,-5.922456110905553e-05,0.0,0.0,7.279205700540891e-05,1.7084818813609252e-06,0.0
8.6,-5.788887218855446e-05,0.0,0.0,7.115038094699123e-05,1.6699505646726123e-06,0.0
8.61,-5.658327718077434e-05,0.0,0.0,6.95456928842624e-05,1.632287382820153e-06,0.0
8.620000000000001,-5.530709863447924e-05,0.0,0.0,6.797716017162685e-05,1.5954727930131844e-06,0.0
8.63,-5.4059674341604846e-05,0.0,0.0,6.644396889867941e-05,1.5594876921896457e-06,0.0
8.64,-5.284035699411326e-05,0.0,0.0,6.494532346839784e-05,1.5243134071158036e-06,0.0
8.65,-5.164851384859165e-05,0.0,0.0,6.348044618495934e-05,1.4899316847118601e-06,0.0
8.66,-5.0483526398419094e-05,0.0,0.0,6.204857685076294e-05,1.4563246825938956e-06,0.0
8.67,-4.934479005332939e-05,0.0,0.0,6.0648972372588724e-05,1.4234749598301362e-06,0.0
8.68,-4.82317138262023e-05,0.0,0.0,5.9280906376675735e-05,1.391365467906444e-06,0.0
8.69,-4.714372002691883e-05,0.0,0.0,5.794366883238641e-05,1.359979541893614e-06,0.0
8.700000000000001,-4.608024396312068e-05,0.0,0.0,5.6636565684461504e-05,1.3293008918159988e-06,0.0
8.71,-4.504073364771682e-05,0.0,0.0,5.535891849350728e-05,1.299313594213526e-06,0.0
8.72,-4.402464951298464e-05,0.0,0.0,5.41100640845832e-05,1.2700020838938463e-06,0.0
8.73,-4.303146413111589e-05,0.0,0.0,5.288935420375116e-05,1.241351145871235e-06,0.0
8.74,-4.2060661941061535e-05,0.0,0.0,5.1696155182324694e-05,1.2133459074863374e-06,0.0
8.75,-4.187843089884199e-05,0.0,0.0,5.147217762698618e-05,1.2080889933274247e-06,0.0
8.76,-4.169996426669537e-05,0.0,0.0,5.1252826853969425e-05,1.2029406730741107e-06,0.0
8.77,-4.152514555517656e-05,0.0,0.0,5.1037959687779995e-05,1.197897586294638e-06,0.0
8.78,-4.135386274323993e-05,0.0,0.0,5.0827438444945666e-05,1.1929565014590246e-06,0.0
8.790000000000001,-4.118600806846329e-05,0.0,0.0,5.062113067624502e-05,1.1881143098888118e-06,0.0
8.8,-4.102147782899989e-05,0.0,0.0,5.0418908923209664e-05,1.1833680200422168e-06,0.0
8.81,-4.086017219649984e-05,0.0,0.0,5.0220650488254546e-05,1.1787147521187373e-06,0.0
8.82,-4.07019950392983e-05,0.0,0.0,5.0026237217337846e-05,1.1741517329581011e-06,0.0
8.83,-4.0546853755218385e-05,0.0,0.0,4.9835555294449975e-05,1.1696762912167952e-06,0.0
8.84,-4.0394659113383826e-05,0.0,0.0,4.9648495047199485e-05,1.1652858528049968e-06,0.0
8.85,-4.024532510447943e-05,0.0,0.0,4.946495076277693e-05,1.1609779365671032e-06,0.0
8.86,-4.009876879893702e-05,0.0,0.0,4.92848205136358e-05,1.1567501501903735e-06,0.0
8.870000000000001,-3.9954910212561265e-05,0.0,0.0,4.910800599236512e-05,1.1526001863291968e-06,0.0
8.88,-3.981367217914311e-05,0.0,0.0,4.8934412355073945e-05,1.148525818929336e-06,0.0
8.89,-3.967498022964036e-05,0.0,0.0,4.876394807293526e-05,1.1445248997434506e-06,0.0
8.9,-3.9538762477532765e-05,0.0,0.0,4.859652479126016e-05,1.1405953550235047e-06,0.0
8.91,-3.940494950998623e-05,0.0,0.0,4.8432057195734754e-05,1.1367351823812417e-06,0.0
8.92,-3.927347428448489e-05,0.0,0.0,4.827046288536566e-05,1.1329424478061406e-06,0.0
8.93,-3.9144272030612646e-05,0.0,0.0,4.811166225175908e-05,1.1292152828320139e-06,0.0
8.94,-3.901728015668677e-05,0.0,0.0,4.795557836438219e-05,1.1255518818439664e-06,0.0
8.950000000000001,-3.889243816096559e-05,0.0,0.0,4.7802136861414977e-05,1.1219504995166479e-06,0.0
8.96,-3.8769687547170294e-05,0.0,0.0,4.7651265845920156e-05,1.118409448377283e-06,0.0
8.97,-3.8648971744077796e-05,0.0,0.0,4.7502895787016545e-05,1.1149270964861416e-06,0.0
8.98,-3.8530236028956896e-05,0.0,0.0,4.735695942578931e-05,1.1115018652281449e-06,0.0
8.99,-3.841342745463467e-05,0.0,0.0,4.7213391685623304e-05,1.1081322272083885e-06,0.0
9.0,-3.829849477999315e-05,0.0,0.0,4.707212958679872e-05,1.1048167042475918e-06,0.0
