# uptake constraint 
# the columns are: t and the constraint for each substrate metabolites
# the compounds are: galactose, glucose, thiosulfate, butyrate, Fprau, Styphi,  
# the nominal flux is: -5.0, -5.0, -5.0, -5.0, -5.0, -5.0,  
# the initial concentration are: 0.0, 77.0, 0.0, 0.0, 0.7968170883251617, 0.8294286148827363,  

t,galactose,glucose,thiosulfate
0.0,-0.0,-5.0,-0.0
0.01,-0.0,-5.0,-0.0
0.02,-0.0,-5.0,-0.0
0.03,-0.0,-5.0,-0.0
0.04,-0.0,-5.0,-0.0
0.05,-0.0,-5.0,-0.0
0.06,-0.0,-5.0,-0.0
0.07,-0.0,-5.0,-0.0
0.08,-0.0,-5.0,-0.0
0.09,-0.0,-5.0,-0.0
0.1,-0.0,-5.0,-0.0
0.11,-0.0,-5.0,-0.0
0.12,-0.0,-5.0,-0.0
0.13,-0.0,-5.0,-0.0
0.14,-0.0,-5.0,-0.0
0.15,-0.0,-5.0,-0.0
0.16,-0.0,-5.0,-0.0
0.17,-0.0,-5.0,-0.0
0.18,-0.0,-5.0,-0.0
0.19,-0.0,-5.0,-0.0
0.2,-0.0,-5.0,-0.0
0.21,-0.0,-5.0,-0.0
0.22,-0.0,-5.0,-0.0
0.23,-0.0,-5.0,-0.0
0.24,-0.0,-5.0,-0.0
0.25,-0.0,-5.0,-0.0
0.26,-0.0,-5.0,-0.0
0.27,-0.0,-5.0,-0.0
0.28,-0.0,-5.0,-0.0
0.29,-0.0,-5.0,-0.0
0.3,-0.0,-5.0,-0.0
0.31,-0.0,-5.0,-0.0
0.32,-0.0,-5.0,-0.0
0.33,-0.0,-5.0,-0.0
0.34,-0.0,-5.0,-0.0
0.35000000000000003,-0.0,-5.0,-0.0
0.36,-0.0,-5.0,-0.0
0.37,-0.0,-5.0,-0.0
0.38,-0.0,-5.0,-0.0
0.39,-0.0,-5.0,-0.0
0.4,-0.0,-5.0,-0.0
0.41000000000000003,-0.0,-5.0,-0.0
0.42,-0.0,-5.0,-0.0
0.43,-0.0,-5.0,-0.0
0.44,-0.0,-5.0,-0.0
0.45,-0.0,-5.0,-0.0
0.46,-0.0,-5.0,-0.0
0.47000000000000003,-0.0,-5.0,-0.0
0.48,-0.0,-5.0,-0.0
0.49,-0.0,-5.0,-0.0
0.5,-0.0,-5.0,-0.0
0.51,-0.0,-5.0,-0.0
0.52,-0.0,-5.0,-0.0
0.53,-0.0,-5.0,-0.0
0.54,-0.0,-5.0,-0.0
0.55,-0.0,-5.0,-0.0
0.56,-0.0,-5.0,-0.0
0.5700000000000001,-0.0,-5.0,-0.0
0.58,-0.0,-5.0,-0.0
0.59,-0.0,-5.0,-0.0
0.6,-0.0,-5.0,-0.0
0.61,-0.0,-5.0,-0.0
0.62,-0.0,-5.0,-0.0
0.63,-0.0,-5.0,-0.0
0.64,-0.0,-5.0,-0.0
0.65,-0.0,-5.0,-0.0
0.66,-0.0,-5.0,-0.0
0.67,-0.0,-5.0,-0.0
0.68,-0.0,-5.0,-0.0
0.6900000000000001,-0.0,-5.0,-0.0
0.7000000000000001,-0.0,-5.0,-0.0
0.71,-0.0,-5.0,-0.0
0.72,-0.0,-5.0,-0.0
0.73,-0.0,-5.0,-0.0
0.74,-0.0,-5.0,-0.0
0.75,-0.0,-5.0,-0.0
0.76,-0.0,-5.0,-0.0
0.77,-0.0,-5.0,-0.0
0.78,-0.0,-5.0,-0.0
0.79,-0.0,-5.0,-0.0
0.8,-0.0,-5.0,-0.0
0.81,-0.0,-5.0,-0.0
0.8200000000000001,-0.0,-5.0,-0.0
0.8300000000000001,-0.0,-5.0,-0.0
0.84,-0.0,-5.0,-0.0
0.85,-0.0,-5.0,-0.0
0.86,-0.0,-5.0,-0.0
0.87,-0.0,-5.0,-0.0
0.88,-0.0,-5.0,-0.0
0.89,-0.0,-5.0,-0.0
0.9,-0.0,-5.0,-0.0
0.91,-0.0,-5.0,-0.0
0.92,-0.0,-5.0,-0.0
0.93,-0.0,-5.0,-0.0
0.9400000000000001,-0.0,-5.0,-0.0
0.9500000000000001,-0.0,-5.0,-0.0
0.96,-0.0,-5.0,-0.0
0.97,-0.0,-5.0,-0.0
0.98,-0.0,-5.0,-0.0
0.99,-0.0,-5.0,-0.0
1.0,-0.0,-5.0,-0.0
1.01,-0.0,-5.0,-0.0
1.02,-0.0,-5.0,-0.0
1.03,-0.0,-5.0,-0.0
1.04,-0.0,-5.0,-0.0
1.05,-0.0,-5.0,-0.0
1.06,-0.0,-5.0,-0.0
1.07,-0.0,-5.0,-0.0
1.08,-0.0,-5.0,-0.0
1.09,-0.0,-5.0,-0.0
1.1,-0.0,-5.0,-0.0
1.11,-0.0,-5.0,-0.0
1.12,-0.0,-5.0,-0.0
1.1300000000000001,-0.0,-5.0,-0.0
1.1400000000000001,-0.0,-5.0,-0.0
1.1500000000000001,-0.0,-5.0,-0.0
1.16,-0.0,-5.0,-0.0
1.17,-0.0,-5.0,-0.0
1.18,-0.0,-5.0,-0.0
1.19,-0.0,-5.0,-0.0
1.2,-0.0,-5.0,-0.0
1.21,-0.0,-5.0,-0.0
1.22,-0.0,-5.0,-0.0
1.23,-0.0,-5.0,-0.0
1.24,-0.0,-5.0,-0.0
1.25,-0.0,-5.0,-0.0
1.26,-0.0,-5.0,-0.0
1.27,-0.0,-5.0,-0.0
1.28,-0.0,-5.0,-0.0
1.29,-0.0,-5.0,-0.0
1.3,-0.0,-5.0,-0.0
1.31,-0.0,-5.0,-0.0
1.32,-0.0,-5.0,-0.0
1.33,-0.0,-5.0,-0.0
1.34,-0.0,-5.0,-0.0
1.35,-0.0,-5.0,-0.0
1.36,-0.0,-5.0,-0.0
1.37,-0.0,-5.0,-0.0
1.3800000000000001,-0.0,-5.0,-0.0
1.3900000000000001,-0.0,-5.0,-0.0
1.4000000000000001,-0.0,-5.0,-0.0
1.41,-0.0,-5.0,-0.0
1.42,-0.0,-5.0,-0.0
1.43,-0.0,-5.0,-0.0
1.44,-0.0,-5.0,-0.0
1.45,-0.0,-5.0,-0.0
1.46,-0.0,-5.0,-0.0
1.47,-0.0,-5.0,-0.0
1.48,-0.0,-5.0,-0.0
1.49,-0.0,-5.0,-0.0
1.5,-0.0,-5.0,-0.0
1.51,-0.0,-5.0,-0.0
1.52,-0.0,-5.0,-0.0
1.53,-0.0,-5.0,-0.0
1.54,-0.0,-5.0,-0.0
1.55,-0.0,-5.0,-0.0
1.56,-0.0,-5.0,-0.0
1.57,-0.0,-5.0,-0.0
1.58,-0.0,-5.0,-0.0
1.59,-0.0,-5.0,-0.0
1.6,-0.0,-5.0,-0.0
1.61,-0.0,-5.0,-0.0
1.62,-0.0,-5.0,-0.0
1.6300000000000001,-0.0,-5.0,-0.0
1.6400000000000001,-0.0,-5.0,-0.0
1.6500000000000001,-0.0,-5.0,-0.0
1.6600000000000001,-0.0,-5.0,-0.0
1.67,-0.0,-5.0,-0.0
1.68,-0.0,-5.0,-0.0
1.69,-0.0,-5.0,-0.0
1.7,-0.0,-5.0,-0.0
1.71,-0.0,-5.0,-0.0
1.72,-0.0,-5.0,-0.0
1.73,-0.0,-5.0,-0.0
1.74,-0.0,-5.0,-0.0
1.75,-0.0,-5.0,-0.0
1.76,-0.0,-5.0,-0.0
1.77,-0.0,-5.0,-0.0
1.78,-0.0,-5.0,-0.0
1.79,-0.0,-5.0,-0.0
1.8,-0.0,-5.0,-0.0
1.81,-0.0,-5.0,-0.0
1.82,-0.0,-5.0,-0.0
1.83,-0.0,-5.0,-0.0
1.84,-0.0,-5.0,-0.0
1.85,-0.0,-5.0,-0.0
1.86,-0.0,-5.0,-0.0
1.87,-0.0,-5.0,-0.0
1.8800000000000001,-0.0,-5.0,-0.0
1.8900000000000001,-0.0,-5.0,-0.0
1.9000000000000001,-0.0,-5.0,-0.0
1.9100000000000001,-0.0,-5.0,-0.0
1.92,-0.0,-5.0,-0.0
1.93,-0.0,-5.0,-0.0
1.94,-0.0,-5.0,-0.0
1.95,-0.0,-5.0,-0.0
1.96,-0.0,-5.0,-0.0
1.97,-0.0,-5.0,-0.0
1.98,-0.0,-5.0,-0.0
1.99,-0.0,-5.0,-0.0
2.0,-0.0,-5.0,-0.0
2.0100000000000002,-0.0,-5.0,-0.0
2.02,-0.0,-5.0,-0.0
2.0300000000000002,-0.0,-5.0,-0.0
2.04,-0.0,-5.0,-0.0
2.05,-0.0,-5.0,-0.0
2.06,-0.0,-5.0,-0.0
2.07,-0.0,-5.0,-0.0
2.08,-0.0,-5.0,-0.0
2.09,-0.0,-5.0,-0.0
2.1,-0.0,-5.0,-0.0
2.11,-0.0,-5.0,-0.0
2.12,-0.0,-5.0,-0.0
2.13,-0.0,-5.0,-0.0
2.14,-0.0,-5.0,-0.0
2.15,-0.0,-5.0,-0.0
2.16,-0.0,-5.0,-0.0
2.17,-0.0,-5.0,-0.0
2.18,-0.0,-5.0,-0.0
2.19,-0.0,-5.0,-0.0
2.2,-0.0,-5.0,-0.0
2.21,-0.0,-5.0,-0.0
2.22,-0.0,-5.0,-0.0
2.23,-0.0,-5.0,-0.0
2.24,-0.0,-5.0,-0.0
2.25,-0.0,-5.0,-0.0
2.2600000000000002,-0.0,-5.0,-0.0
2.27,-0.0,-5.0,-0.0
2.2800000000000002,-0.0,-5.0,-0.0
2.29,-0.0,-5.0,-0.0
2.3000000000000003,-0.0,-5.0,-0.0
2.31,-0.0,-5.0,-0.0
2.32,-0.0,-5.0,-0.0
2.33,-0.0,-5.0,-0.0
2.34,-0.0,-5.0,-0.0
2.35,-0.0,-5.0,-0.0
2.36,-0.0,-5.0,-0.0
2.37,-0.0,-5.0,-0.0
2.38,-0.0,-5.0,-0.0
2.39,-0.0,-5.0,-0.0
2.4,-0.0,-5.0,-0.0
2.41,-0.0,-5.0,-0.0
2.42,-0.0,-5.0,-0.0
2.43,-0.0,-5.0,-0.0
2.44,-0.0,-5.0,-0.0
2.45,-0.0,-5.0,-0.0
2.46,-0.0,-5.0,-0.0
2.47,-0.0,-5.0,-0.0
2.48,-0.0,-5.0,-0.0
2.49,-0.0,-5.0,-0.0
2.5,-0.0,-5.0,-0.0
2.5100000000000002,-0.0,-5.0,-0.0
2.52,-0.0,-5.0,-0.0
2.5300000000000002,-0.0,-5.0,-0.0
2.54,-0.0,-5.0,-0.0
2.5500000000000003,-0.0,-5.0,-0.0
2.56,-0.0,-5.0,-0.0
2.57,-0.0,-5.0,-0.0
2.58,-0.0,-5.0,-0.0
2.59,-0.0,-5.0,-0.0
2.6,-0.0,-5.0,-0.0
2.61,-0.0,-5.0,-0.0
2.62,-0.0,-5.0,-0.0
2.63,-0.0,-5.0,-0.0
2.64,-0.0,-5.0,-0.0
2.65,-0.0,-5.0,-0.0
2.66,-0.0,-5.0,-0.0
2.67,-0.0,-5.0,-0.0
2.68,-0.0,-5.0,-0.0
2.69,-0.0,-5.0,-0.0
2.7,-0.0,-5.0,-0.0
2.71,-0.0,-5.0,-0.0
2.72,-0.0,-5.0,-0.0
2.73,-0.0,-5.0,-0.0
2.74,-0.0,-5.0,-0.0
2.75,-0.0,-5.0,-0.0
2.7600000000000002,-0.0,-5.0,-0.0
2.77,-0.0,-5.0,-0.0
2.7800000000000002,-0.0,-5.0,-0.0
2.79,-0.0,-5.0,-0.0
2.8000000000000003,-0.0,-5.0,-0.0
2.81,-0.0,-5.0,-0.0
2.82,-0.0,-5.0,-0.0
2.83,-0.0,-5.0,-0.0
2.84,-0.0,-5.0,-0.0
2.85,-0.0,-5.0,-0.0
2.86,-0.0,-5.0,-0.0
2.87,-0.0,-5.0,-0.0
2.88,-0.0,-5.0,-0.0
2.89,-0.0,-5.0,-0.0
2.9,-0.0,-5.0,-0.0
2.91,-0.0,-5.0,-0.0
2.92,-0.0,-5.0,-0.0
2.93,-0.0,-5.0,-0.0
2.94,-0.0,-5.0,-0.0
2.95,-0.0,-5.0,-0.0
2.96,-0.0,-5.0,-0.0
2.97,-0.0,-5.0,-0.0
2.98,-0.0,-5.0,-0.0
2.99,-0.0,-5.0,-0.0
3.0,-0.0,-5.0,-0.0
3.0100000000000002,-0.0,-5.0,-0.0
3.02,-0.0,-5.0,-0.0
3.0300000000000002,-0.0,-5.0,-0.0
3.04,-0.0,-5.0,-0.0
3.0500000000000003,-0.0,-5.0,-0.0
3.06,-0.0,-5.0,-0.0
3.0700000000000003,-0.0,-5.0,-0.0
3.08,-0.0,-5.0,-0.0
3.09,-0.0,-5.0,-0.0
3.1,-0.0,-5.0,-0.0
3.11,-0.0,-5.0,-0.0
3.12,-0.0,-5.0,-0.0
3.13,-0.0,-5.0,-0.0
3.14,-0.0,-5.0,-0.0
3.15,-0.0,-5.0,-0.0
3.16,-0.0,-5.0,-0.0
3.17,-0.0,-5.0,-0.0
3.18,-0.0,-5.0,-0.0
3.19,-0.0,-5.0,-0.0
3.2,-0.0,-5.0,-0.0
3.21,-0.0,-5.0,-0.0
3.22,-0.0,-5.0,-0.0
3.23,-0.0,-5.0,-0.0
3.24,-0.0,-5.0,-0.0
3.25,-0.0,-5.0,-0.0
3.2600000000000002,-0.0,-5.0,-0.0
3.27,-0.0,-5.0,-0.0
3.2800000000000002,-0.0,-5.0,-0.0
3.29,-0.0,-5.0,-0.0
3.3000000000000003,-0.0,-5.0,-0.0
3.31,-0.0,-5.0,-0.0
3.3200000000000003,-0.0,-5.0,-0.0
3.33,-0.0,-5.0,-0.0
3.34,-0.0,-5.0,-0.0
3.35,-0.0,-5.0,-0.0
3.36,-0.0,-5.0,-0.0
3.37,-0.0,-5.0,-0.0
3.38,-0.0,-5.0,-0.0
3.39,-0.0,-5.0,-0.0
3.4,-0.0,-5.0,-0.0
3.41,-0.0,-5.0,-0.0
3.42,-0.0,-5.0,-0.0
3.43,-0.0,-5.0,-0.0
3.44,-0.0,-5.0,-0.0
3.45,-0.0,-5.0,-0.0
3.46,-0.0,-5.0,-0.0
3.47,-0.0,-5.0,-0.0
3.48,-0.0,-5.0,-0.0
3.49,-0.0,-5.0,-0.0
3.5,-0.0,-5.0,-0.0
3.5100000000000002,-0.0,-5.0,-0.0
3.52,-0.0,-5.0,-0.0
3.5300000000000002,-0.0,-5.0,-0.0
3.54,-0.0,-5.0,-0.0
3.5500000000000003,-0.0,-5.0,-0.0
3.56,-0.0,-5.0,-0.0
3.5700000000000003,-0.0,-5.0,-0.0
3.58,-0.0,-5.0,-0.0
3.59,-0.0,-5.0,-0.0
3.6,-0.0,-5.0,-0.0
3.61,-0.0,-5.0,-0.0
3.62,-0.0,-5.0,-0.0
3.63,-0.0,-5.0,-0.0
3.64,-0.0,-5.0,-0.0
3.65,-0.0,-5.0,-0.0
3.66,-0.0,-5.0,-0.0
3.67,-0.0,-5.0,-0.0
3.68,-0.0,-5.0,-0.0
3.69,-0.0,-5.0,-0.0
3.7,-0.0,-5.0,-0.0
3.71,-0.0,-5.0,-0.0
3.72,-0.0,-5.0,-0.0
3.73,-0.0,-5.0,-0.0
3.74,-0.0,-5.0,-0.0
3.75,-0.0,-5.0,-0.0
3.7600000000000002,-0.0,-5.0,-0.0
3.77,-0.0,-5.0,-0.0
3.7800000000000002,-0.0,-5.0,-0.0
3.79,-0.0,-5.0,-0.0
3.8000000000000003,-0.0,-5.0,-0.0
3.81,-0.0,-5.0,-0.0
3.8200000000000003,-0.0,-5.0,-0.0
3.83,-0.0,-5.0,-0.0
3.84,-0.0,-5.0,-0.0
3.85,-0.0,-5.0,-0.0
3.86,-0.0,-5.0,-0.0
3.87,-0.0,-5.0,-0.0
3.88,-0.0,-5.0,-0.0
3.89,-0.0,-5.0,-0.0
3.9,-0.0,-5.0,-0.0
3.91,-0.0,-5.0,-0.0
3.92,-0.0,-5.0,-0.0
3.93,-0.0,-5.0,-0.0
3.94,-0.0,-5.0,-0.0
3.95,-0.0,-5.0,-0.0
3.96,-0.0,-5.0,-0.0
3.97,-0.0,-5.0,-0.0
3.98,-0.0,-5.0,-0.0
3.99,-0.0,-5.0,-0.0
4.0,-0.0,-5.0,-0.0
4.01,-0.0,-5.0,-0.0
4.0200000000000005,-0.0,-5.0,-0.0
4.03,-0.0,-5.0,-0.0
4.04,-0.0,-5.0,-0.0
4.05,-0.0,-5.0,-0.0
4.0600000000000005,-0.0,-5.0,-0.0
4.07,-0.0,-5.0,-0.0
4.08,-0.0,-5.0,-0.0
4.09,-0.0,-5.0,-0.0
4.1,-0.0,-5.0,-0.0
4.11,-0.0,-5.0,-0.0
4.12,-0.0,-5.0,-0.0
4.13,-0.0,-5.0,-0.0
4.14,-0.0,-5.0,-0.0
4.15,-0.0,-5.0,-0.0
4.16,-0.0,-5.0,-0.0
4.17,-0.0,-5.0,-0.0
4.18,-0.0,-5.0,-0.0
4.19,-0.0,-5.0,-0.0
4.2,-0.0,-5.0,-0.0
4.21,-0.0,-5.0,-0.0
4.22,-0.0,-5.0,-0.0
4.23,-0.0,-5.0,-0.0
4.24,-0.0,-5.0,-0.0
4.25,-0.0,-5.0,-0.0
4.26,-0.0,-5.0,-0.0
4.2700000000000005,-0.0,-5.0,-0.0
4.28,-0.0,-5.0,-0.0
4.29,-0.0,-5.0,-0.0
4.3,-0.0,-5.0,-0.0
4.3100000000000005,-0.0,-5.0,-0.0
4.32,-0.0,-5.0,-0.0
4.33,-0.0,-5.0,-0.0
4.34,-0.0,-5.0,-0.0
4.3500000000000005,-0.0,-5.0,-0.0
4.36,-0.0,-5.0,-0.0
4.37,-0.0,-5.0,-0.0
4.38,-0.0,-5.0,-0.0
4.39,-0.0,-5.0,-0.0
4.4,-0.0,-5.0,-0.0
4.41,-0.0,-5.0,-0.0
4.42,-0.0,-5.0,-0.0
4.43,-0.0,-5.0,-0.0
4.44,-0.0,-5.0,-0.0
4.45,-0.0,-5.0,-0.0
4.46,-0.0,-5.0,-0.0
4.47,-0.0,-5.0,-0.0
4.48,-0.0,-5.0,-0.0
4.49,-0.0,-5.0,-0.0
4.5,-0.0,-5.0,-0.0
4.51,-0.0,-5.0,-0.0
4.5200000000000005,-0.0,-5.0,-0.0
4.53,-0.0,-5.0,-0.0
4.54,-0.0,-5.0,-0.0
4.55,-0.0,-5.0,-0.0
4.5600000000000005,-0.0,-5.0,-0.0
4.57,-0.0,-5.0,-0.0
4.58,-0.0,-5.0,-0.0
4.59,-0.0,-5.0,-0.0
4.6000000000000005,-0.0,-5.0,-0.0
4.61,-0.0,-5.0,-0.0
4.62,-0.0,-5.0,-0.0
4.63,-0.0,-5.0,-0.0
4.64,-0.0,-5.0,-0.0
4.65,-0.0,-5.0,-0.0
4.66,-0.0,-5.0,-0.0
4.67,-0.0,-5.0,-0.0
4.68,-0.0,-5.0,-0.0
4.69,-0.0,-5.0,-0.0
4.7,-0.0,-5.0,-0.0
4.71,-0.0,-5.0,-0.0
4.72,-0.0,-5.0,-0.0
4.73,-0.0,-5.0,-0.0
4.74,-0.0,-5.0,-0.0
4.75,-0.0,-5.0,-0.0
4.76,-0.0,-5.0,-0.0
4.7700000000000005,-0.0,-5.0,-0.0
4.78,-0.0,-5.0,-0.0
4.79,-0.0,-5.0,-0.0
4.8,-0.0,-5.0,-0.0
4.8100000000000005,-0.0,-5.0,-0.0
4.82,-0.0,-5.0,-0.0
4.83,-0.0,-5.0,-0.0
4.84,-0.0,-5.0,-0.0
4.8500000000000005,-0.0,-5.0,-0.0
4.86,-0.0,-5.0,-0.0
4.87,-0.0,-5.0,-0.0
4.88,-0.0,-5.0,-0.0
4.89,-0.0,-5.0,-0.0
4.9,-0.0,-5.0,-0.0
4.91,-0.0,-5.0,-0.0
4.92,-0.0,-5.0,-0.0
4.93,-0.0,-5.0,-0.0
4.94,-0.0,-5.0,-0.0
4.95,-0.0,-5.0,-0.0
4.96,-0.0,-5.0,-0.0
4.97,-0.0,-5.0,-0.0
4.98,-0.0,-5.0,-0.0
4.99,-0.0,-5.0,-0.0
5.0,-0.0,-5.0,-0.0
5.01,-0.0,-5.0,-0.0
5.0200000000000005,-0.0,-5.0,-0.0
5.03,-0.0,-5.0,-0.0
5.04,-0.0,-5.0,-0.0
5.05,-0.0,-5.0,-0.0
5.0600000000000005,-0.0,-5.0,-0.0
5.07,-0.0,-5.0,-0.0
5.08,-0.0,-5.0,-0.0
5.09,-0.0,-5.0,-0.0
5.1000000000000005,-0.0,-5.0,-0.0
5.11,-0.0,-5.0,-0.0
5.12,-0.0,-5.0,-0.0
5.13,-0.0,-5.0,-0.0
5.14,-0.0,-5.0,-0.0
5.15,-0.0,-5.0,-0.0
5.16,-0.0,-5.0,-0.0
5.17,-0.0,-5.0,-0.0
5.18,-0.0,-5.0,-0.0
5.19,-0.0,-5.0,-0.0
5.2,-0.0,-5.0,-0.0
5.21,-0.0,-5.0,-0.0
5.22,-0.0,-5.0,-0.0
5.23,-0.0,-5.0,-0.0
5.24,-0.0,-5.0,-0.0
5.25,-0.0,-5.0,-0.0
5.26,-0.0,-5.0,-0.0
5.2700000000000005,-0.0,-5.0,-0.0
5.28,-0.0,-5.0,-0.0
5.29,-0.0,-5.0,-0.0
5.3,-0.0,-5.0,-0.0
5.3100000000000005,-0.0,-5.0,-0.0
5.32,-0.0,-5.0,-0.0
5.33,-0.0,-5.0,-0.0
5.34,-0.0,-5.0,-0.0
5.3500000000000005,-0.0,-5.0,-0.0
5.36,-0.0,-5.0,-0.0
5.37,-0.0,-5.0,-0.0
5.38,-0.0,-5.0,-0.0
5.39,-0.0,-5.0,-0.0
5.4,-0.0,-5.0,-0.0
5.41,-0.0,-5.0,-0.0
5.42,-0.0,-5.0,-0.0
5.43,-0.0,-5.0,-0.0
5.44,-0.0,-5.0,-0.0
5.45,-0.0,-5.0,-0.0
5.46,-0.0,-5.0,-0.0
5.47,-0.0,-5.0,-0.0
5.48,-0.0,-5.0,-0.0
5.49,-0.0,-5.0,-0.0
5.5,-0.0,-5.0,-0.0
5.51,-0.0,-5.0,-0.0
5.5200000000000005,-0.0,-5.0,-0.0
5.53,-0.0,-5.0,-0.0
5.54,-0.0,-5.0,-0.0
5.55,-0.0,-5.0,-0.0
5.5600000000000005,-0.0,-5.0,-0.0
5.57,-0.0,-5.0,-0.0
5.58,-0.0,-5.0,-0.0
5.59,-0.0,-5.0,-0.0
5.6000000000000005,-0.0,-5.0,-0.0
5.61,-0.0,-5.0,-0.0
5.62,-0.0,-5.0,-0.0
5.63,-0.0,-5.0,-0.0
5.64,-0.0,-5.0,-0.0
5.65,-0.0,-5.0,-0.0
5.66,-0.0,-5.0,-0.0
5.67,-0.0,-5.0,-0.0
5.68,-0.0,-5.0,-0.0
5.69,-0.0,-5.0,-0.0
5.7,-0.0,-5.0,-0.0
5.71,-0.0,-5.0,-0.0
5.72,-0.0,-5.0,-0.0
5.73,-0.0,-5.0,-0.0
5.74,-0.0,-5.0,-0.0
5.75,-0.0,-5.0,-0.0
5.76,-0.0,-5.0,-0.0
5.7700000000000005,-0.0,-5.0,-0.0
5.78,-0.0,-5.0,-0.0
5.79,-0.0,-5.0,-0.0
5.8,-0.0,-5.0,-0.0
5.8100000000000005,-0.0,-5.0,-0.0
5.82,-0.0,-5.0,-0.0
5.83,-0.0,-5.0,-0.0
5.84,-0.0,-5.0,-0.0
5.8500000000000005,-0.0,-5.0,-0.0
5.86,-0.0,-5.0,-0.0
5.87,-0.0,-5.0,-0.0
5.88,-0.0,-5.0,-0.0
5.89,-0.0,-5.0,-0.0
5.9,-0.0,-5.0,-0.0
5.91,-0.0,-5.0,-0.0
5.92,-0.0,-5.0,-0.0
5.93,-0.0,-5.0,-0.0
5.94,-0.0,-5.0,-0.0
5.95,-0.0,-5.0,-0.0
5.96,-0.0,-5.0,-0.0
5.97,-0.0,-5.0,-0.0
5.98,-0.0,-5.0,-0.0
5.99,-0.0,-5.0,-0.0
6.0,-0.0,-5.0,-0.0
6.01,-0.0,-5.0,-0.0
6.0200000000000005,-0.0,-5.0,-0.0
6.03,-0.0,-5.0,-0.0
6.04,-0.0,-5.0,-0.0
6.05,-0.0,-5.0,-0.0
6.0600000000000005,-0.0,-5.0,-0.0
6.07,-0.0,-5.0,-0.0
6.08,-0.0,-5.0,-0.0
6.09,-0.0,-5.0,-0.0
6.1000000000000005,-0.0,-5.0,-0.0
6.11,-0.0,-5.0,-0.0
6.12,-0.0,-5.0,-0.0
6.13,-0.0,-5.0,-0.0
6.140000000000001,-0.0,-4.979835385290591,-0.0
6.15,-0.0,-4.878550970641546,-0.0
6.16,-0.0,-4.779071551750751,-0.0
6.17,-0.0,-4.681360811736777,-0.0
6.18,-0.0,-4.585383289031574,-0.0
6.19,-0.0,-4.491104353667299,-0.0
6.2,-0.0,-4.398490184328115,-0.0
6.21,-0.0,-4.307507746139589,-0.0
6.22,-0.0,-4.218124769169393,-0.0
6.23,-0.0,-4.1303097276140335,-0.0
6.24,-0.0,-4.044324458598205,-0.0
6.25,-0.0,-3.978588395541187,-0.0
6.26,-0.0,-3.913974056323355,-0.0
6.2700000000000005,-0.0,-3.8504606417120626,-0.0
6.28,-0.0,-3.788027788964914,-0.0
6.29,-0.0,-3.7266555611640237,-0.0
6.3,-0.0,-3.666324436853286,-0.0
6.3100000000000005,-0.0,-3.6070152999689142,-0.0
6.32,-0.0,-3.548709430053834,-0.0
6.33,-0.0,-3.4913884927468684,-0.0
6.34,-0.0,-3.435034530537948,-0.0
6.3500000000000005,-0.0,-3.379629953780903,-0.0
6.36,-0.0,-3.3251575319556834,-0.0
6.37,-0.0,-3.2716003851721336,-0.0
6.38,-0.0,-3.2189419759077302,-0.0
6.390000000000001,-0.0,-3.1671661009719436,-0.0
6.4,-0.0,-3.1162568836901485,-0.0
6.41,-0.0,-3.066198766300247,-0.0
6.42,-0.0,-3.016976502555404,-0.0
6.43,-0.0,-2.9685751505265197,-0.0
6.44,-0.0,-2.920980065598283,-0.0
6.45,-0.0,-2.8741768936528618,-0.0
6.46,-0.0,-2.828151564435489,-0.0
6.47,-0.0,-2.782890285096389,-0.0
6.48,-0.0,-2.73837953390369,-0.0
6.49,-0.0,-2.6946060541221395,-0.0
6.5,-0.0,-2.6515568480526177,-0.0
6.51,-0.0,-2.609219171227613,-0.0
6.5200000000000005,-0.0,-2.567580526757979,-0.0
6.53,-0.0,-2.5266286598264625,-0.0
6.54,-0.0,-2.48635155232362,-0.0
6.55,-0.0,-2.4467374176219163,-0.0
6.5600000000000005,-0.0,-2.407774695483898,-0.0
6.57,-0.0,-2.3694520471005127,-0.0
6.58,-0.0,-2.331758350255747,-0.0
6.59,-0.0,-2.294682694613878,-0.0
6.6000000000000005,-0.0,-2.2582143771257828,-0.0
6.61,-0.0,-2.2223428975508344,-0.0
6.62,-0.0,-2.1870579540910438,-0.0
6.63,-0.0,-2.1523494391342157,-0.0
6.640000000000001,-0.0,-2.1182074351029763,-0.0
6.65,-0.0,-2.0846222104066507,-0.0
6.66,-0.0,-2.051584215493053,-0.0
6.67,-0.0,-2.019084078997344,-0.0
6.68,-0.0,-1.987112603985221,-0.0
6.69,-0.0,-1.9556607642877566,-0.0
6.7,-0.0,-1.9247197009253323,-0.0
6.71,-0.0,-1.8942807186181525,-0.0
6.72,-0.0,-1.864335282380933,-0.0
6.73,-0.0,-1.8348750141994141,-0.0
6.74,-0.0,-1.8058916897864414,-0.0
6.75,-0.0,-1.7773772354154043,-0.0
6.76,-0.0,-1.7493237248289133,-0.0
6.7700000000000005,-0.0,-1.7217233762206483,-0.0
6.78,-0.0,-1.6945685492883833,-0.0
6.79,-0.0,-1.6678517423562433,-0.0
6.8,-0.0,-1.6415655895643255,-0.0
6.8100000000000005,-0.0,-1.6157028581238553,-0.0
6.82,-0.0,-1.5902564456361186,-0.0
6.83,-0.0,-1.5652193774734575,-0.0
6.84,-0.0,-1.5405848042206722,-0.0
6.8500000000000005,-0.0,-1.516345999175216,-0.0
6.86,-0.0,-1.4924963559046303,-0.0
6.87,-0.0,-1.4690293858597014,-0.0
6.88,-0.0,-1.4459387160418713,-0.0
6.890000000000001,-0.0,-1.4232180867234812,-0.0
6.9,-0.0,-1.4008613492194648,-0.0
6.91,-0.0,-1.3788624637091513,-0.0
6.92,-0.0,-1.357215497106875,-0.0
6.93,-0.0,-1.335914620980132,-0.0
6.94,-0.0,-1.314954109514058,-0.0
6.95,-0.0,-1.294328337521037,-0.0
6.96,-0.0,-1.2740317784942836,-0.0
6.97,-0.0,-1.254059002704285,-0.0
6.98,-0.0,-1.2344046753370064,-0.0
6.99,-0.0,-1.2150635546728064,-0.0
7.0,-0.0,-1.1960304903050352,-0.0
7.01,-0.0,-1.177300421397321,-0.0
7.0200000000000005,-0.0,-1.1588683749785689,-0.0
7.03,-0.0,-1.1407294642747414,-0.0
7.04,-0.0,-1.1228788870764963,-0.0
7.05,-0.0,-1.1053119241418012,-0.0
7.0600000000000005,-0.0,-1.0880239376326593,-0.0
7.07,-0.0,-1.0710103695851048,-0.0
7.08,-0.0,-1.0542667404116577,-0.0
7.09,-0.0,-1.0377886474354412,-0.0
7.1000000000000005,-0.0,-1.0215717634551942,-0.0
7.11,-0.0,-1.0056118353404278,-0.0
7.12,-0.0,-0.9899046826560013,-0.0
7.13,-0.0,-0.9744461963154046,-0.0
7.140000000000001,-0.0,-0.959232337262063,-0.0
7.15,-0.0,-0.9442591351779913,-0.0
7.16,-0.0,-0.9295226872191491,-0.0
7.17,-0.0,-0.9150191567768609,-0.0
7.18,-0.0,-0.9007447722646862,-0.0
7.19,-0.0,-0.88669582593014,-0.0
7.2,-0.0,-0.8728686726906789,-0.0
7.21,-0.0,-0.8592597289933863,-0.0
7.22,-0.0,-0.8458654716978036,-0.0
7.23,-0.0,-0.8326824369813701,-0.0
7.24,-0.0,-0.8197072192669469,-0.0
7.25,-0.0,-0.8069364701719162,-0.0
7.26,-0.0,-0.7943668974783596,-0.0
7.2700000000000005,-0.0,-0.7819952641238328,-0.0
7.28,-0.0,-0.769818387212265,-0.0
7.29,-0.0,-0.7578331370445264,-0.0
7.3,-0.0,-0.7460364361682171,-0.0
7.3100000000000005,-0.0,-0.734425258446243,-0.0
7.32,-0.0,-0.7229966281437546,-0.0
7.33,-0.0,-0.7117476190330385,-0.0
7.34,-0.0,-0.7006753535159574,-0.0
7.3500000000000005,-0.0,-0.6897770017635491,-0.0
7.36,-0.0,-0.6790497808724022,-0.0
7.37,-0.0,-0.6684909540374371,-0.0
7.38,-0.0,-0.6580978297407302,-0.0
7.390000000000001,-0.0,-0.6478677609560276,-0.0
7.4,-0.0,-0.6377981443686059,-0.0
7.41,-0.0,-0.6278864196101418,-0.0
7.42,-0.0,-0.6181300685082658,-0.0
7.43,-0.0,-0.6085266143504812,-0.0
7.44,-0.0,-0.5990736211621346,-0.0
7.45,-0.0,-0.5897686929981384,-0.0
7.46,-0.0,-0.5806094732481468,-0.0
7.47,-0.0,-0.5715936439548975,-0.0
7.48,-0.0,-0.5627189251454391,-0.0
7.49,-0.0,-0.5539830741749675,-0.0
7.5,-0.0,-0.5453838850830048,-0.0
7.51,-0.0,-0.5369191879616602,-0.0
7.5200000000000005,-0.0,-0.5285868483357148,-0.0
7.53,-0.0,-0.5203847665542859,-0.0
7.54,-0.0,-0.5123108771938244,-0.0
7.55,-0.0,-0.50436314847221,-0.0
7.5600000000000005,-0.0,-0.49653958167371226,-0.0
7.57,-0.0,-0.48883821058459226,-0.0
7.58,-0.0,-0.4812571009391244,-0.0
7.59,-0.0,-0.47379434987582175,-0.0
7.6000000000000005,-0.0,-0.46644808540365695,-0.0
7.61,-0.0,-0.4592164658780718,-0.0
7.62,-0.0,-0.45209767948657614,-0.0
7.63,-0.0,-0.4450899437437394,-0.0
7.640000000000001,-0.0,-0.4381915049953845,-0.0
7.65,-0.0,-0.43140063793179684,-0.0
7.66,-0.0,-0.4247156451097662,-0.0
7.67,-0.0,-0.4181348564832834,-0.0
7.68,-0.0,-0.4116566289427173,-0.0
7.69,-0.0,-0.4052793458623026,-0.0
7.7,-0.0,-0.39900141665577127,-0.0
7.71,-0.0,-0.39282127633996666,-0.0
7.72,-0.0,-0.38673738510627936,-0.0
7.73,-0.0,-0.38074822789975216,-0.0
7.74,-0.0,-0.3748523140057,-0.0
7.75,-0.0,-0.3690481766436988,-0.0
7.76,-0.0,-0.36333437256879625,-0.0
7.7700000000000005,-0.0,-0.35770948167980465,-0.0
7.78,-0.0,-0.35217210663453563,-0.0
7.79,-0.0,-0.34672087247184247,-0.0
7.8,-0.0,-0.3413544262403369,-0.0
7.8100000000000005,-0.0,-0.3360714366336511,-0.0
7.82,-0.0,-0.33087059363211746,-0.0
7.83,-0.0,-0.3257506081507434,-0.0
7.84,-0.0,-0.3207102116933591,-0.0
7.8500000000000005,-0.0,-0.31574815601281914,-0.0
7.86,-0.0,-0.31086321277714357,-0.0
7.87,-0.0,-0.3060541732414828,-0.0
7.88,-0.0,-0.30131984792579747,-0.0
7.890000000000001,-0.0,-0.29665906629814265,-0.0
7.9,-0.0,-0.2920706764634507,-0.0
7.91,-0.0,-0.2875535448577096,-0.0
7.92,-0.0,-0.28310655594743317,-0.0
7.930000000000001,-0.0,-0.278728611934325,-0.0
7.94,-0.0,-0.2744186324650374,-0.0
7.95,-0.0,-0.2701755543459303,-0.0
7.96,-0.0,-0.26599833126273703,-0.0
7.97,-0.0,-0.26188593350504413,-0.0
7.98,-0.0,-0.2578373476954967,-0.0
7.99,-0.0,-0.25385157652364104,-0.0
8.0,-0.0,-0.24992763848431862,-0.0
8.01,-0.0,-0.24606456762052703,-0.0
8.02,-0.0,-0.24226141327066622,-0.0
8.03,-0.0,-0.23851723982008788,-0.0
8.040000000000001,-0.0,-0.23483112645687038,-0.0
8.05,-0.0,-0.23120216693174087,-0.0
8.06,-0.0,-0.22762946932206884,-0.0
8.07,-0.0,-0.22411215579985705,-0.0
8.08,-0.0,-0.22064936240365662,-0.0
8.09,-0.0,-0.2172402388143353,-0.0
8.1,-0.0,-0.21388394813462866,-0.0
8.11,-0.0,-0.21057966667240602,-0.0
8.120000000000001,-0.0,-0.2073265837275836,-0.0
8.13,-0.0,-0.20412390138261957,-0.0
8.14,-0.0,-0.20097083429652626,-0.0
8.15,-0.0,-0.19786660950233592,-0.0
8.16,-0.0,-0.1948104662079594,-0.0
8.17,-0.0,-0.19180165560037535,-0.0
8.18,-0.0,-0.18883944065309177,-0.0
8.19,-0.0,-0.18592309593682088,-0.0
8.2,-0.0,-0.1830519074333104,-0.0
8.21,-0.0,-0.180225172352275,-0.0
8.22,-0.0,-0.17744219895137323,-0.0
8.23,-0.0,-0.17470230635917564,-0.0
8.24,-0.0,-0.1720048244010715,-0.0
8.25,-0.0,-0.1693490934280624,-0.0
8.26,-0.0,-0.16673446414839155,-0.0
8.27,-0.0,-0.16416029746195918,-0.0
8.28,-0.0,-0.16162596429747528,-0.0
8.290000000000001,-0.0,-0.15913084545230144,-0.0
8.3,-0.0,-0.15667433143493475,-0.0
8.31,-0.0,-0.15425582231008828,-0.0
8.32,-0.0,-0.15187472754632175,-0.0
8.33,-0.0,-0.1495304658661793,-0.0
8.34,-0.0,-0.14722246509878967,-0.0
8.35,-0.0,-0.14495016203488695,-0.0
8.36,-0.0,-0.14271300228420933,-0.0
8.370000000000001,-0.0,-0.14051044013523528,-0.0
8.38,-0.0,-0.13834193841721626,-0.0
8.39,-0.0,-0.13620696836446697,-0.0
8.4,-0.0,-0.13410500948287363,-0.0
8.41,-0.0,-0.1320355494185829,-0.0
8.42,-0.0,-0.12999808382883335,-0.0
8.43,-0.0,-0.12799211625489304,-0.0
8.44,-0.0,-0.12601715799706725,-0.0
8.45,-0.0,-0.12407272799174107,-0.0
8.46,-0.0,-0.12215835269042156,-0.0
8.47,-0.0,-0.1202735659407463,-0.0
8.48,-0.0,-0.11841790886942388,-0.0
8.49,-0.0,-0.11659092976707451,-0.0
8.5,-0.0,-0.11479218397493747,-0.0
8.51,-0.0,-0.11302123377341473,-0.0
8.52,-0.0,-0.11127764827241893,-0.0
8.53,-0.0,-0.1095610033034956,-0.0
8.540000000000001,-0.0,-0.10787088131368956,-0.0
8.55,-0.0,-0.10620687126112603,-0.0
8.56,-0.0,-0.10456856851227772,-0.0
8.57,-0.0,-0.10295557474088934,-0.0
8.58,-0.0,-0.10136749782853187,-0.0
8.59,-0.0,-0.09980395176675919,-0.0
8.6,-0.0,-0.0982645565608401,-0.0
8.61,-0.0,-0.09674893813503954,-0.0
8.620000000000001,-0.0,-0.09525672823942292,-0.0
8.63,-0.0,-0.09378756435815833,-0.0
8.64,-0.0,-0.09234108961929137,-0.0
8.65,-0.0,-0.09091695270596829,-0.0
8.66,-0.0,-0.08951480776908338,-0.0
8.67,-0.0,-0.08813431434132649,-0.0
8.68,-0.0,-0.08677513725260798,-0.0
8.69,-0.0,-0.08543694654683794,-0.0
8.700000000000001,-0.0,-0.08411941740003721,-0.0
8.71,-0.0,-0.08282223003975826,-0.0
8.72,-0.0,-0.08154506966579426,-0.0
8.73,-0.0,-0.08028762637215495,-0.0
8.74,-0.0,-0.07904959507028844,-0.0
8.75,-0.0,-0.07783067541352852,-0.0
8.76,-0.0,-0.07663057172274705,-0.0
8.77,-0.0,-0.07544899291319185,-0.0
8.78,-0.0,-0.07428565242249027,-0.0
8.790000000000001,-0.0,-0.07314026813979964,-0.0
8.8,-0.0,-0.07201256233608558,-0.0
8.81,-0.0,-0.07090226159550966,-0.0
8.82,-0.0,-0.06980909674790826,-0.0
8.83,-0.0,-0.06873280280234488,-0.0
8.84,-0.0,-0.0676731188817181,-0.0
8.85,-0.0,-0.06662978815840821,-0.0
8.86,-0.0,-0.06560255779094532,-0.0
8.870000000000001,-0.0,-0.06459117886168239,-0.0
8.88,-0.0,-0.06359540631545688,-0.0
8.89,-0.0,-0.06261499889922466,-0.0
8.9,-0.0,-0.06164971910265068,-0.0
8.91,-0.0,-0.06069933309964059,-0.0
8.92,-0.0,-0.05976361069079806,-0.0
8.93,-0.0,-0.058842325246792955,-0.0
8.94,-0.0,-0.05793525365262529,-0.0
8.950000000000001,-0.0,-0.05704217625277075,-0.0
8.96,-0.0,-0.05616287679719319,-0.0
8.97,-0.0,-0.05529714238821029,-0.0
8.98,-0.0,-0.054444763428198574,-0.0
8.99,-0.0,-0.05360553356812402,-0.0
9.0,-0.0,-0.052779249656885095,-0.0
