# results of the dFBA model 
# the columns are: t and the concentrations in each compounds
# the compounds are: galactose, glucose, thiosulfate, butyrate, Fprau, Styphi,  
# the nominal flux is: -5.0, -5.0, -5.0, -5.0, -5.0, -5.0,  
# the initial concentration are: 83.0, 12.0, 0.0, 17.0, 0.7257156282714269, 0.0950957482299346,  
t,galactose,glucose,thiosulfate,butyrate,Fprau,Styphi
0.0,83.0,12.0,0.0,17.0,0.7257156282714269,0.0950957482299346
0.01,82.96373007500293,11.959859673081137,0.0,17.102532799388555,0.7281829791292244,0.0950957482299346
0.02,82.92733689741881,11.919597257226643,0.0,17.20541419867033,0.7306587187002014,0.0950957482299346
0.03,82.89082004867224,11.879212348340705,0.0,17.308645383045437,0.7331428755050317,0.0950957482299346
0.04,82.85417910876855,11.838704541136602,0.0,17.41222754174354,0.735635478161356,0.0950957482299346
0.05,82.81741365628899,11.798073429136444,0.0,17.516161868037546,0.7381365553841119,0.0950957482299346
0.06,82.78052326838589,11.75731860467098,0.0,17.620449559257352,0.7406461359858646,0.0950957482299346
0.07,82.74350752077791,11.716439658879523,0.0,17.725091816803644,0.7431642488771384,0.0950957482299346
0.08,82.70636598774513,11.675436181709967,0.0,17.83008984616173,0.7456909230667503,0.0950957482299346
0.09,82.66909824212419,11.634307761918908,0.0,17.93544485691544,0.7482261876621442,0.0950957482299346
0.1,82.6317038553035,11.593053987071864,0.0,18.04115806276104,0.7507700718697257,0.0950957482299346
0.11,82.59418239721825,11.551674443543627,0.0,18.147230681521233,0.753322604995199,0.0950957482299346
0.12,82.55653343634557,11.510168716518704,0.0,18.25366393515918,0.7558838164439043,0.0950957482299346
0.13,82.51875653969964,11.468536389991897,0.0,18.360459049792585,0.7584537357211568,0.0950957482299346
0.14,82.48085127282663,11.426777046768988,0.0,18.467617255707797,0.7610323924325862,0.0950957482299346
0.15,82.44281719979983,11.384890268467563,0.0,18.575139787374013,0.7636198162844782,0.0950957482299346
0.16,82.40465388321473,11.342875635517963,0.0,18.68302788345748,0.7662160370841162,0.0950957482299346
0.17,82.3663608841839,11.300732727164359,0.0,18.791282786835772,0.7688210847401254,0.0950957482299346
0.18,82.3279377623321,11.258461121465988,0.0,18.899905744612102,0.7714349892628166,0.0950957482299346
0.19,82.2893840757912,11.216060395298515,0.0,19.008898008129698,0.7740577807645324,0.0950957482299346
0.2,82.25069938119518,11.173530124355546,0.0,19.11826083298621,0.7766894894599938,0.0950957482299346
0.21,82.21188323367502,11.130869883150309,0.0,19.22799547904817,0.7793301456666487,0.0950957482299346
0.22,82.17293518685375,11.088079245017479,0.0,19.338103210465533,0.7819797798050208,0.0950957482299346
0.23,82.13385479284118,11.04515778211517,0.0,19.4485852956862,0.7846384223990598,0.0950957482299346
0.24,82.09464160222893,11.002105065427116,0.0,19.559443007470666,0.7873061040764938,0.0950957482299346
0.25,82.05529516408532,10.958920664765,0.0,19.670677622906656,0.7899828555691816,0.0950957482299346
0.26,82.01581502595013,10.915604148770983,0.0,19.782290423423856,0.7926687077134665,0.0950957482299346
0.27,81.97620073382953,10.87215508492043,0.0,19.894282694808663,0.7953636914505324,0.0950957482299346
0.28,81.93645183219085,10.828573039524802,0.0,20.006655727219005,0.7980678378267594,0.0950957482299346
0.29,81.89656786395747,10.78485757773479,0.0,20.119410815199203,0.8007811779940818,0.0950957482299346
0.3,81.8565483705035,10.74100826354362,0.0,20.232549257694874,0.8035037432103469,0.0950957482299346
0.31,81.81639289164869,10.697024659790605,0.0,20.34607235806791,0.8062355648396753,0.0950957482299346
0.32,81.77610096565303,10.652906328164907,0.0,20.459981424111486,0.808976674352822,0.0950957482299346
0.33,81.73567212921164,10.60865282920953,0.0,20.57427776806512,0.8117271033275388,0.0950957482299346
0.34,81.69510591744942,10.564263722325563,0.0,20.6889627066298,0.8144868834489387,0.0950957482299346
0.35000000000000003,81.65440186391577,10.519738565776667,0.0,20.80403756098314,0.8172560465098601,0.0950957482299346
0.36,81.61355950057924,10.47507691669382,0.0,20.91950365679462,0.8200346244112334,0.0950957482299346
0.37,81.5725783578223,10.430278331080329,0.0,21.035362324240843,0.8228226491624491,0.0950957482299346
0.38,81.53145796443587,10.385342363817129,0.0,21.151614898020856,0.8256201528817253,0.0950957482299346
0.39,81.49019784761407,10.340268568668353,0.0,21.268262717371535,0.8284271677964788,0.0950957482299346
0.4,81.44879753294872,10.295056498287215,0.0,21.38530712608301,0.831243726243696,0.0950957482299346
0.41000000000000003,81.40725654442407,10.249705704222189,0.0,21.502749472514143,0.8340698606703052,0.0950957482299346
0.42,81.36557440441128,10.20421573692352,0.0,21.620591109608064,0.8369056036335506,0.0950957482299346
0.43,81.32375063366301,10.15858614575006,0.0,21.738833394907758,0.8397509878013675,0.0950957482299346
0.44,81.28178475130802,10.112816478976448,0.0,21.8574776905717,0.8426060459527582,0.0950957482299346
0.45,81.23967627484562,10.06690628380065,0.0,21.97652536338955,0.8454708109781702,0.0950957482299346
0.46,81.19742472014025,10.020855106351869,0.0,22.0959777847979,0.8483453158798747,0.0950957482299346
0.47000000000000003,81.15502960141589,9.974662491698828,0.0,22.215836330896067,0.8512295937723467,0.0950957482299346
0.48,81.11249043125062,9.928327983858475,0.0,22.336102382461952,0.8541236778826469,0.0950957482299346
0.49,81.06980672057101,9.881851125805078,0.0,22.45677732496795,0.857027601550804,0.0950957482299346
0.5,81.02697797864658,9.835231459479761,0.0,22.57786254859689,0.8599413982301993,0.0950957482299346
0.51,80.98400371308428,9.788468525800488,0.0,22.69935944825808,0.8628651014879516,0.0950957482299346
0.52,80.94088342982276,9.741561864672496,0.0,22.82126942360335,0.8657987450053041,0.0950957482299346
0.53,80.89761663312686,9.694511014999227,0.0,22.943593879043203,0.8687423625780124,0.0950957482299346
0.54,80.85420282558195,9.64731551469374,0.0,23.06633422376296,0.871695988116734,0.0950957482299346
0.55,80.81064150808822,9.599974900690667,0.0,23.189491871739026,0.8746596556474187,0.0950957482299346
0.56,80.7669321798551,9.55248870895867,0.0,23.313068241755158,0.8776333993117006,0.0950957482299346
0.5700000000000001,80.72307433839548,9.5048564745135,0.0,23.43706475741882,0.8806172533672916,0.0950957482299346
0.58,80.67906747952003,9.457077731431612,0.0,23.56148284717758,0.8836112521883759,0.0950957482299346
0.59,80.63491109733148,9.409152012864384,0.0,23.686323944335562,0.8866154302660059,0.0950957482299346
0.6,80.5906046842189,9.361078851052982,0.0,23.81158948706997,0.8896298222084998,0.0950957482299346
0.61,80.54614773085184,9.312857777343869,0.0,23.937280918447637,0.8926544627418403,0.0950957482299346
0.62,80.50153972617464,9.26448832220499,0.0,24.06339968644167,0.8956893867100743,0.0950957482299346
0.63,80.45678015740057,9.215970015242684,0.0,24.18994724394811,0.8987346290757143,0.0950957482299346
0.64,80.41186851000602,9.167302385219314,0.0,24.31692504880269,0.9017902249201418,0.0950957482299346
0.65,80.36680426772462,9.11848496007167,0.0,24.44433456379761,0.9048562094440109,0.0950957482299346
0.66,80.32158691254145,9.069517266930186,0.0,24.572177256698406,0.9079326179676538,0.0950957482299346
0.67,80.2762159246871,9.020398832138968,0.0,24.70045460026084,0.911019485931488,0.0950957482299346
0.68,80.23069078263175,8.971129181276705,0.0,24.82916807224789,0.9141168488964241,0.0950957482299346
0.6900000000000001,80.18501096307935,8.921707839178483,0.0,24.95831915544675,0.9172247425442762,0.0950957482299346
0.7000000000000001,80.13917594096156,8.872134329958529,0.0,25.08790933768592,0.9203432026781722,0.0950957482299346
0.71,80.09318518943185,8.822408177033951,0.0,25.217940111852364,0.9234722652229667,0.0950957482299346
0.72,80.04703817985948,8.772528903149505,0.0,25.34841297590868,0.9266119662256546,0.0950957482299346
0.73,80.00073438182359,8.722496030403413,0.0,25.47932943291037,0.9297623418557867,0.0950957482299346
0.74,79.95427326310705,8.67230908027431,0.0,25.61069099102315,0.932923428405886,0.0950957482299346
0.75,79.90765428969053,8.621967573649359,0.0,25.742499163540344,0.9360952622918661,0.0950957482299346
0.76,79.86087692574635,8.57147103085356,0.0,25.874755468900286,0.9392778800534505,0.0950957482299346
0.77,79.81394063363251,8.520818971680354,0.0,26.007461430703838,0.9424713183545936,0.0950957482299346
0.78,79.7668448738865,8.470010915423533,0.0,26.140618577731924,0.9456756139839032,0.0950957482299346
0.79,79.7195891052192,8.419046380910538,0.0,26.274228443963157,0.948890803855064,0.0950957482299346
0.8,79.67217278450875,8.367924886537216,0.0,26.4082925685915,0.9521169250072632,0.0950957482299346
0.81,79.6245953667944,8.316645950304066,0.0,26.542812496043997,0.955354014605617,0.0950957482299346
0.8200000000000001,79.5768563052703,8.265209089854093,0.0,26.67778977599858,0.9586021099415987,0.0950957482299346
0.8300000000000001,79.52895505127935,8.213613822512295,0.0,26.8132259634019,0.9618612484334685,0.0950957482299346
0.84,79.48089105430692,8.1618596653269,0.0,26.949122618487255,0.9651314676267044,0.0950957482299346
0.85,79.43266376197467,8.109946135112395,0.0,27.08548130679256,0.9684128051944348,0.0950957482299346
0.86,79.3842726200342,8.057872748494468,0.0,27.222303599178375,0.9717052989378725,0.0950957482299346
0.87,79.3357170723609,8.005639021956936,0.0,27.359591071846015,0.9750089867867499,0.0950957482299346
0.88,79.2869965609475,7.953244471890741,0.0,27.497345306355697,0.9783239067997564,0.0950957482299346
0.89,79.2381105258979,7.9006886146451505,0.0,27.63556788964477,0.9816500971649768,0.0950957482299346
0.9,79.18905840542067,7.847970966581225,0.0,27.774260414045976,0.9849875962003305,0.0950957482299346
0.91,79.13983963582281,7.7950910441277,0.0,27.91342447730582,0.9883364423540141,0.0950957482299346
0.92,79.09045365150328,7.742048363839378,0.0,28.053061682602962,0.9916966742049432,0.0950957482299346
0.93,79.04089988494665,7.688842442458163,0.0,28.193173638566687,0.9950683304631978,0.0950957482299346
0.9400000000000001,78.99117776671669,7.635472796976876,0.0,28.333761959295433,0.9984514499704674,0.0950957482299346
0.9500000000000001,78.94128672544981,7.581938944705981,0.0,28.474828264375397,1.001846071700499,0.0950957482299346
0.96,78.89122618784873,7.528240403343371,0.0,28.61637417889918,1.0052522347595463,0.0950957482299346
0.97,78.8409955786759,7.474376691047375,0.0,28.75840133348451,1.008669978386819,0.0950957482299346
0.98,78.79059432074702,7.420347326513153,0.0,28.90091136429304,1.0120993419549362,0.0950957482299346
0.99,78.7400218349245,7.366151829052648,0.0,29.043905913049183,1.0155403649703794,0.0950957482299346
1.0,78.68927754011095,7.3117897186782885,0.0,29.187386627059027,1.0189930870739476,0.0950957482299346
1.01,78.63836085324252,7.2572605161906365,0.0,29.331355159229318,1.0224575480412141,0.0950957482299346
1.02,78.58727118928233,7.202563743270191,0.0,29.475813168086493,1.0259337877829846,0.0950957482299346
1.03,78.53600796121393,7.147698922573576,0.0,29.62076231779579,1.029421846345757,0.0950957482299346
1.04,78.48457058003454,7.0926655778343415,0.0,29.766204278180428,1.0329217639121824,0.0950957482299346
1.05,78.43295845474852,7.037463233968637,0.0,29.912140724740826,1.036433580801529,0.0950957482299346
1.06,78.38117099236057,6.982091417186028,0.0,30.058573338673924,1.0399573374701456,0.0950957482299346
1.07,78.32920759786907,6.926549655105737,0.0,30.20550380689253,1.0434930745119282,0.0950957482299346
1.08,78.27706767425938,6.870837476878608,0.0,30.352933822044776,1.047040832658787,0.0950957482299346
1.09,78.22475062249708,6.8149544133151405,0.0,30.500865082533597,1.0506006527811165,0.0950957482299346
1.1,78.17225584152116,6.7588999970199195,0.0,30.64929929253631,1.0541725758882659,0.0950957482299346
1.11,78.11958272823729,6.702673762532818,0.0,30.798238162024237,1.057756643129011,0.0950957482299346
1.12,78.06673067751093,6.646275246477369,0.0,30.947683406782414,1.0613528957920297,0.0950957482299346
1.1300000000000001,78.01369908216058,6.5897039877167325,0.0,31.09763674842935,1.064961375306376,0.0950957482299346
1.1400000000000001,77.96048733295085,6.532959527517693,0.0,31.248099914436857,1.0685821232419581,0.0950957482299346
1.1500000000000001,77.90709481858565,6.4760414097231935,0.0,31.399074638149965,1.0722151813100174,0.0950957482299346
1.16,77.85352092570122,6.418949180933902,0.0,31.550562658806875,1.0758605913636083,0.0950957482299346
1.17,77.79976503885922,6.3616823906993805,0.0,31.702565721558997,1.0795183953980816,0.0950957482299346
1.18,77.74582654053984,6.304240591719431,0.0,31.855085577491064,1.083188635551567,0.0950957482299346
1.19,77.69170481113476,6.246623340056275,0.0,32.00812398364129,1.086871354105459,0.0950957482299346
1.2,77.63739922894015,6.18883019535824,0.0,32.16168270302163,1.0905665934849047,0.0950957482299346
1.21,77.58290917014978,6.130860721095678,0.0,32.315763504638085,1.094274396259291,0.0950957482299346
1.22,77.5282340088478,6.072714484809926,0.0,32.470368163511054,1.0979948051427364,0.0950957482299346
1.23,77.47337311700186,6.014391058376133,0.0,32.62549846069582,1.1017278629945826,0.0950957482299346
1.24,77.41832586445584,5.955890018280886,0.0,32.781156183303054,1.105473612819888,0.0950957482299346
1.25,77.36309161892292,5.897210945915606,0.0,32.93734312451939,1.1092320977699235,0.0950957482299346
1.26,77.30766974597837,5.83835342788678,0.0,33.09406108362809,1.113003361142669,0.0950957482299346
1.27,77.25205960905238,5.779317056344182,0.0,33.2513118660298,1.1167874463833134,0.0950957482299346
1.28,77.19626056942292,5.72010142932829,0.0,33.4090972832633,1.1205843970847538,0.0950957482299346
1.29,77.14027198620852,5.6607061511382835,0.0,33.5674191530264,1.124394256988098,0.0950957482299346
1.3,77.0840932163611,5.601130832722013,0.0,33.72627929919688,1.128217069983169,0.0950957482299346
1.31,77.02772361465865,5.54137509208955,0.0,33.88567955185351,1.1320528801090104,0.0950957482299346
1.32,76.97116253369803,5.48143855475199,0.0,34.04562174729709,1.135901731554393,0.0950957482299346
1.33,76.91440932388765,5.421320854187359,0.0,34.206107728071665,1.1397636686583243,0.0950957482299346
1.34,76.85746333344014,5.361021632335609,0.0,34.36713934298571,1.1436387359105604,0.0950957482299346
1.35,76.80032390836503,5.30054054012489,0.0,34.52871844713343,1.1475269779521167,0.0950957482299346
1.36,76.74299039246142,5.239877238031454,0.0,34.69084690191615,1.151428439575783,0.0950957482299346
1.37,76.68546212731053,5.179031396675754,0.0,34.85352657506375,1.15534316572664,0.0950957482299346
1.3800000000000001,76.62773845226836,5.118002697457556,0.0,35.01675934065618,1.1592712015025761,0.0950957482299346
1.3900000000000001,76.5698187044582,5.056790833233119,0.0,35.18054707914503,1.1632125921548075,0.0950957482299346
1.4000000000000001,76.51170221876323,4.995395509037781,0.0,35.34489167737524,1.1671673830883997,0.0950957482299346
1.41,76.45338832781901,4.933816442857614,0.0,35.50979502860679,1.17113561986279,0.0950957482299346
1.42,76.39487636200599,4.872053366454148,0.0,35.67525903253654,1.1751173481923127,0.0950957482299346
1.43,76.33616564944192,4.810106026246559,0.0,35.841285595320095,1.1791126139467256,0.0950957482299346
1.44,76.27725551597442,4.7479741842561225,0.0,36.00787662959378,1.1831214631517384,0.0950957482299346
1.45,76.2181452851733,4.6856576191182455,0.0,36.17503405449666,1.1871439419895433,0.0950957482299346
1.46,76.15883427832301,4.623156127167883,0.0,36.34275979569267,1.1911800967993464,0.0950957482299346
1.47,76.09932181441502,4.560469523604769,0.0,36.51105578539277,1.195229974077902,0.0950957482299346
1.48,76.03960721014015,4.497597643745533,0.0,36.67992396237722,1.1992936204800482,0.0950957482299346
1.49,75.97968977988091,4.434540344370524,0.0,36.8493662720179,1.2033710828192439,0.0950957482299346
1.5,75.91956883570381,4.3712975051739935,0.0,37.01938466630077,1.207462408068109,0.0950957482299346
1.51,75.85924368735164,4.307869030327226,0.0,37.1899811038483,1.2115676433589642,0.0950957482299346
1.52,75.79871364223567,4.2442548501652455,0.0,37.361157549942035,1.2156868359843755,0.0950957482299346
1.53,75.737978005428,4.180454923008914,0.0,37.53291597654529,1.219820033397698,0.0950957482299346
1.54,75.67703607965366,4.116469237135591,0.0,37.70525836232581,1.2239672832136228,0.0950957482299346
1.55,75.61588716528281,4.052297812913,0.0,37.87818669267859,1.2281286332087256,0.0950957482299346
1.56,75.55453056032297,3.9879407051126954,0.0,38.051702959748745,1.2323041313220167,0.0950957482299346
1.57,75.49296556041105,3.923398005421431,0.0,38.22580916245445,1.236493825655494,0.0950957482299346
1.58,75.43119145880551,3.8586698451709864,0.0,38.40050730651,1.2406977644746968,0.0950957482299346
1.59,75.36920754637845,3.793756398309477,0.0,38.57579940444886,1.2449159962092615,0.0950957482299346
1.6,75.30701311160766,3.728657884640099,0.0,38.75168747564689,1.2491485694534799,0.0950957482299346
1.61,75.24460744056866,3.6633745733565237,0.0,38.928173546345604,1.2533955329668587,0.0950957482299346
1.62,75.18198981692665,3.597906786907958,0.0,39.10525964967551,1.2576569356746816,0.0950957482299346
1.6300000000000001,75.11915952192857,3.5322549052312326,0.0,39.28294782567952,1.2619328266685728,0.0950957482299346
1.6400000000000001,75.05611583439502,3.4664193703922925,0.0,39.46124012133647,1.2662232552070622,0.0950957482299346
1.6500000000000001,74.9928580307122,3.4004006916852743,0.0,39.64013859058469,1.2705282707161534,0.0950957482299346
1.6600000000000001,74.92938538482383,3.3344438326653445,0.0,39.81923949258145,1.2748379722306973,0.0950957482299346
1.67,74.86569766490555,3.2696778730244325,0.0,39.99666907687143,1.2791064137022212,0.0950957482299346
1.68,74.80179693252936,3.206081824108547,0.0,40.172458921423164,1.2833343721082928,0.0950957482299346
1.69,74.73768521044806,3.1436350476203616,0.0,40.346640083234654,1.2875226116017593,0.0950957482299346
1.7,74.67336448323672,3.082317250633883,0.0,40.51924310561292,1.2916718836900767,0.0950957482299346
1.71,74.60883669792503,3.0221084806368106,0.0,40.690298025421484,1.295782927413838,0.0950957482299346
1.72,74.54410376462073,2.96298912060316,0.0,40.85983438029142,1.299856469524399,0.0950957482299346
1.73,74.47916755712428,2.904939884098512,0.0,41.02788121579197,1.3038932246605,0.0950957482299346
1.74,74.41398425323702,2.847980278527953,0.0,41.19446709255715,1.3078938955237955,0.0950957482299346
1.75,74.34409609588135,2.7958533152243836,0.0,41.35962123848069,1.3118592011322991,0.0950957482299346
1.76,74.27401010806425,2.7446701442990604,0.0,41.52348441267764,1.3157925952856073,0.0950957482299346
1.77,74.20372788439003,2.694414005834176,0.0,41.686081896637425,1.319694699963718,0.0950957482299346
1.78,74.13325098839708,2.645068425551271,0.0,41.84743854614244,1.3235661266678425,0.0950957482299346
1.79,74.06258095308164,2.596617210438345,0.0,42.00757879771095,1.3274074765790662,0.0950957482299346
1.8,73.99171928141385,2.549044444420739,0.0,42.166526674979586,1.3312193407155193,0.0950957482299346
1.81,73.9206674468458,2.502334484076632,0.0,42.32430579502399,1.3350023000880176,0.0950957482299346
1.82,73.84942689381181,2.456471954397914,0.0,42.48093937461614,1.3387569258541445,0.0950957482299346
1.83,73.77799903822104,2.411441744597101,0.0,42.63645023641721,1.342483779470739,0.0950957482299346
1.84,73.70638526794242,2.367229003960858,0.0,42.79086081510481,1.3461834128447663,0.0950957482299346
1.85,73.63458694328207,2.3238191377506436,0.0,42.94419316343379,1.3498563684825504,0.0950957482299346
1.86,73.56260539745318,2.2811978031508846,0.0,43.09646895822961,1.353503179637341,0.0950957482299346
1.87,73.4904419370386,2.2393509052650438,0.0,43.247709506313704,1.3571243704552058,0.0950957482299346
1.8800000000000001,73.41809784244606,2.1982645931598626,0.0,43.39793575036022,1.36072045611923,0.0950957482299346
1.8900000000000001,73.34557436835621,2.1579252559580064,0.0,43.547168274683486,1.3642919429920073,0.0950957482299346
1.9000000000000001,73.27287274416352,2.1183195189792827,0.0,43.69542731095604,1.3678393287564192,0.0950957482299346
1.9100000000000001,73.19999417441015,2.0794342399305497,0.0,43.84273274385667,1.371363102554689,0.0950957482299346
1.92,73.12693983921277,2.0412565051443745,0.0,43.989104116648356,1.3748637451257093,0.0950957482299346
1.93,73.0537108946827,2.003773625866471,0.0,44.13456063668591,1.3783417289406343,0.0950957482299346
1.94,72.98030847333906,1.966973134591885,0.0,44.2791211808532,1.3817975183367392,0.0950957482299346
1.95,72.9067336845154,1.930842781449871,0.0,44.42280430092999,1.3852315696495427,0.0950957482299346
1.96,72.83298761475953,1.8953705306373514,0.0,44.565628228888365,1.3886443313431969,0.0950957482299346
1.97,72.75907132822705,1.8605445569008314,0.0,44.70761088211884,1.3920362441391425,0.0950957482299346
1.98,72.68498586706825,1.8263532420665962,0.0,44.84876986858641,1.3954077411430383,0.0950957482299346
1.99,72.61073225180878,1.792785171618992,0.0,44.98912249191653,1.398759247969966,0.0950957482299346
2.0,72.53631148172401,1.7598291313265697,0.0,45.12868575641148,1.4020911828679166,0.0950957482299346
2.0100000000000002,72.46172453520722,1.7274741039158377,0.0,45.26747637199721,1.405403956839568,0.0950957482299346
2.02,72.38697237013173,1.6957092657923447,0.0,45.40551075910121,1.40869797376236,0.0950957482299346
2.0300000000000002,72.31205592420693,1.6645239838088048,0.0,45.54280505346152,1.4119736305068753,0.0950957482299346
2.04,72.23697611532853,1.633907812079939,0.0,45.67937511086747,1.4152313170535382,0.0950957482299346
2.05,72.16173384192285,1.6038504888437008,0.0,45.815236511832445,1.4184714166076384,0.0950957482299346
2.06,72.08632998328548,1.5743419333685336,0.0,45.95040456619929,1.421694305712696,0.0950957482299346
2.07,72.0107653999141,1.5453722429062908,0.0,46.084894317678604,1.4249003543621745,0.0950957482299346
2.08,71.93504093383591,1.5169316896904363,0.0,46.218720548320704,1.4280899261095588,0.0950957482299346
2.09,71.85915740892939,1.489010717979128,0.0,46.351897782921554,1.4312633781768074,0.0950957482299346
2.1,71.78311563124078,1.4615999411427785,0.0,46.48444029336335,1.4344210615611952,0.0950957482299346
2.11,71.70691638929507,1.4346901387956739,0.0,46.61636210289028,1.4375633211405603,0.0950957482299346
2.12,71.63056045440187,1.4082722539712234,0.0,46.74767699032006,1.4406904957769686,0.0950957482299346
2.13,71.55404858095598,1.3823373903404017,0.0,46.878398494191835,1.4438029184188115,0.0950957482299346
2.14,71.47738150673297,1.3568768094729415,0.0,47.00853991685108,1.4469009162013529,0.0950957482299346
2.15,71.40055995317958,1.331881928140825,0.0,47.138114328472085,1.4499848105457378,0.0950957482299346
2.16,71.32358462569937,1.3073443156636135,0.0,47.26713457101878,1.4530549172564842,0.0950957482299346
2.17,71.24645621393329,1.2832556912951585,0.0,47.395613262144366,1.4561115466174661,0.0950957482299346
2.18,71.16917539203563,1.259607921651223,0.0,47.523562799030586,1.459155003486413,0.0950957482299346
2.19,71.09174281894511,1.2363930181775438,0.0,47.65099536216717,1.462185587387934,0.0950957482299346
2.2,71.01415913865141,1.2136031346578589,0.0,47.77792291907229,1.4652035926050901,0.0950957482299346
2.21,70.93642498045706,1.1912305647614267,0.0,47.904357227954435,1.4682093082695253,0.0950957482299346
2.22,70.85854095923487,1.1692677396295557,0.0,48.03030984131673,1.4712030184501779,0.0950957482299346
2.23,70.78050767568094,1.1477072255006633,0.0,48.155792109504056,1.474185002240587,0.0950957482299346
2.24,70.70232571656321,1.126541721373387,0.0,48.28081518419395,1.4771555338448112,0.0950957482299346
2.25,70.62399565496582,1.1057640567072606,0.0,48.4053900218317,1.4801148826619774,0.0950957482299346
2.2600000000000002,70.54551805052925,1.0853671891604766,0.0,48.52952738701061,1.4830633133694753,0.0950957482299346
2.27,70.46689344968617,1.0653442023642528,0.0,48.65323785579788,1.4860010860048163,0.0950957482299346
2.2800000000000002,70.38812238589334,1.0456883037333211,0.0,48.776531819006976,1.4889284560461733,0.0950957482299346
2.29,70.30920537985946,1.0263928223120589,0.0,48.89941948541708,1.4918456744916189,0.0950957482299346
2.3000000000000003,70.23014293976895,1.0074512066557826,0.0,49.02191088494031,1.4947529879370767,0.0950957482299346
2.31,70.15093556150198,0.9888570227467298,0.0,49.14401587173757,1.4976506386530075,0.0950957482299346
2.32,70.07158372885061,0.9706039519442495,0.0,49.26574412728343,1.5005388646598425,0.0950957482299346
2.33,69.99208791373111,0.952685788968733,0.0,49.38710516338099,1.5034178998021843,0.0950957482299346
2.34,69.91244857639265,0.9350964399188088,0.0,49.50810832512726,1.5062879738217898,0.0950957482299346
2.35,69.83266616562233,0.9178299203213379,0.0,49.62876279382983,1.5091493124293522,0.0950957482299346
2.36,69.75274111894653,0.9008803532137427,0.0,49.74907758987539,1.5120021373751016,0.0950957482299346
2.37,69.6726738628289,0.8842419672582061,0.0,49.86906157555097,1.5148466665182378,0.0950957482299346
2.38,69.59246481286473,0.8679090948872833,0.0,49.988723457818324,1.5176831138952123,0.0950957482299346
2.39,69.512114373972,0.8518761704804702,0.0,50.10807179104231,1.5205116897868767,0.0950957482299346
2.4,69.43162294057895,0.836137728571276,0.0,50.2271149796739,1.5233326007845136,0.0950957482299346
2.41,69.35099089680857,0.8206884020843523,0.0,50.3458612808884,1.5261460498547672,0.0950957482299346
2.42,69.27021861665966,0.8055229206022331,0.0,50.46431880717961,1.5289522364034867,0.0950957482299346
2.43,69.18930646418474,0.7906361086612446,0.0,50.5824955289105,1.531751356338501,0.0950957482299346
2.44,69.10825479366486,0.7760228840761513,0.0,50.70039927682116,1.534543602131341,0.0950957482299346
2.45,69.02706394978131,0.761678256293102,0.0,50.818037744494504,1.537329162877923,0.0950957482299346
2.46,68.94573426778427,0.747597324770449,0.0,50.9354184907805,1.5401082243582096,0.0950957482299346
2.47,68.86426607365857,0.7337752773870171,0.0,51.05254894217944,1.5428809690948633,0.0950957482299346
2.48,68.78265968428637,0.7202073888774014,0.0,51.16943639518496,1.5456475764109092,0.0950957482299346
2.49,68.70091540760714,0.7068890192938806,0.0,51.28608801858735,1.5484082224864215,0.0950957482299346
2.5,68.61903354277462,0.693815612494532,0.0,51.40251085573782,1.5511630804142458,0.0950957482299346
2.5100000000000002,68.53701438031116,0.6809826946571452,0.0,51.51871182677426,1.553912320254777,0.0950957482299346
2.52,68.45485820225922,0.668385872818531,0.0,51.634697730809116,1.5566561090898037,0.0950957482299346
2.5300000000000002,68.37256528233021,0.6560208334388288,0.0,51.75047524808,1.5593946110754329,0.0950957482299346
2.54,68.29013588605075,0.6438833409904199,0.0,51.866050942063566,1.5621279874941147,0.0950957482299346
2.5500000000000003,68.20757027090619,0.6319692365710594,0.0,51.98143126155324,1.5648563968057745,0.0950957482299346
2.56,68.12486868648169,0.6202744365408435,0.0,52.09662254270138,1.56757999469807,0.0950957482299346
2.57,68.04203137460078,0.6087949311826323,0.0,52.21163101102644,1.5702989341357874,0.0950957482299346
2.58,67.95905856946142,0.597526783385558,0.0,52.326462783385594,1.5730133654093876,0.0950957482299346
2.59,67.87595049776962,0.5864661273512446,0.0,52.44112386991356,1.5757234361827206,0.0950957482299346
2.6,67.79270737887077,0.5756091673223791,0.0,52.55562017592795,1.578429291539914,0.0950957482299346
2.61,67.70932942487846,0.5649521763332715,0.0,52.669957503801825,1.5811310740314577,0.0950957482299346
2.62,67.62581684080119,0.5544914949820509,0.0,52.7841415548039,1.5838289237194894,0.0950957482299346
2.63,67.54216982466671,0.5442235302241455,0.0,52.898177930907025,1.5865229782223007,0.0950957482299346
2.64,67.45838856764412,0.5341447541867026,0.0,53.01207213656526,1.5892133727580704,0.0950957482299346
2.65,67.37447325416386,0.5242517030036061,0.0,53.12582958046027,1.5919002401878422,0.0950957482299346
2.66,67.29042406203548,0.5145409756707571,0.0,53.239455577217406,1.5945837110577554,0.0950957482299346
2.67,67.20624116256337,0.5050092329212829,0.0,53.352955349091985,1.5972639136405447,0.0950957482299346
2.68,67.1219247206604,0.495653196120351,0.0,53.466334027626296,1.5999409739763166,0.0950957482299346
2.69,67.03747489495944,0.48646964617926297,0.0,53.57959665527776,1.6026150159126178,0.0950957482299346
2.7,66.95289183792303,0.47745542248851025,0.0,53.692748187018736,1.6052861611438047,0.0950957482299346
2.71,66.86817569595094,0.46860742186947973,0.0,53.80579349190846,1.6079545292497281,0.0950957482299346
2.72,66.78332660948587,0.45992259754449955,0.0,53.918737354637585,1.6106202377337426,0.0950957482299346
2.73,66.69834471311731,0.45139795812491956,0.0,54.03158447704566,1.61328340206005,0.0950957482299346
2.74,66.61323013568338,0.4430305666169275,0.0,54.1443394796122,1.6159441356903927,0.0950957482299346
2.75,66.52798300037097,0.43481753944480495,0.0,54.257006902921546,1.6186025501201036,0.0950957482299346
2.7600000000000002,66.44260342481404,0.42675604549133017,0.0,54.369591209102204,1.6212587549135256,0.0950957482299346
2.77,66.35709152119011,0.4188433051550435,0.0,54.48209678324084,1.6239128577388091,0.0950957482299346
2.7800000000000002,66.27144739631512,0.4110765894240888,0.0,54.59452793477157,1.6265649644020999,0.0950957482299346
2.79,66.18567115173644,0.4034532189663559,0.0,54.70688889884078,1.6292151788811267,0.0950957482299346
2.8000000000000003,66.09976288382434,0.39597056323564644,0.0,54.81918383764805,1.6318636033581988,0.0950957482299346
2.81,66.01372268386172,0.3886260395935952,0.0,54.93141684176338,1.6345103382526218,0.0950957482299346
2.82,65.92755063813223,0.3814171124470787,0.0,55.043591931421425,1.637155482252547,0.0950957482299346
2.83,65.84124682800689,0.3743412924008507,0.0,55.155713057792724,1.6397991323462535,0.0950957482299346
2.84,65.754811330029,0.36739613542514465,0.0,55.26778410423268,1.6424413838528857,0.0950957482299346
2.85,65.66824421599767,0.3605792420379906,0.0,55.37980888750846,1.6450823304526436,0.0950957482299346
2.86,65.58154555304974,0.35388825650199457,0.0,55.49179115900422,1.6477220642164432,0.0950957482299346
2.87,65.49471540374022,0.34732086603533563,0.0,55.60373460590513,1.650360675635052,0.0950957482299346
2.88,65.40775382612135,0.34087480003673687,0.0,55.71564285236035,1.652998253647709,0.0950957482299346
2.89,65.32066087382017,0.33454782932417226,0.0,55.82751946062553,1.65563488567024,0.0950957482299346
2.9,65.23343659611473,0.3283377653870738,0.0,55.93936793218512,1.6582706576226747,0.0950957482299346
2.91,65.14608103800884,0.3222424596518084,0.0,56.05119170885469,1.6609056539563734,0.0950957482299346
2.92,65.05859424030557,0.3162598027601961,0.0,56.162994173863815,1.6635399576806753,0.0950957482299346
2.93,64.97097623967935,0.31038772386084595,0.0,56.27477865291974,1.6661736503890732,0.0950957482299346
2.94,64.88322706874679,0.30462418991308904,0.0,56.38654841525218,1.6688068122849236,0.0950957482299346
2.95,64.79534675613625,0.29896720500329166,0.0,56.49830667463956,1.6714395222067013,0.0950957482299346
2.96,64.70733532655606,0.2934148096733354,0.0,56.61005659041703,1.6740718576528049,0.0950957482299346
2.97,64.61919280086157,0.28796508026105366,0.0,56.7218012684666,1.6767038948059205,0.0950957482299346
2.98,64.53091919612099,0.28261612825241833,0.0,56.833543762189635,1.6793357085569551,0.0950957482299346
2.99,64.44251452567998,0.27736609964527315,0.0,56.94528707346208,1.6819673725285413,0.0950957482299346
3.0,64.35397879922517,0.2722131743244137,0.0,57.057034153572666,1.684598959098125,0.0950957482299346
3.0100000000000002,64.2653120228464,0.26715556544781777,0.0,57.16878790414438,1.6872305394206413,0.0950957482299346
3.02,64.17651419909791,0.26219151884383113,0.0,57.2805511780396,1.6898621834507874,0.0950957482299346
3.0300000000000002,64.0875853270584,0.2573193124191207,0.0,57.39232678024902,1.6924939599648974,0.0950957482299346
3.04,63.99852540239001,0.2525372555772053,0.0,57.50411746876479,1.6951259365824283,0.0950957482299346
3.0500000000000003,63.90933441739619,0.24784368864738154,0.0,57.615925955437966,1.69775817978706,0.0950957482299346
3.06,63.820012361078575,0.24323698232386284,0.0,57.7277549068208,1.7003907549474224,0.0950957482299346
3.0700000000000003,63.730559219192784,0.2387155371149541,0.0,57.839606944993875,1.7030237263374488,0.0950957482299346
3.08,63.64097497430321,0.23427778280208592,0.0,57.951484648378525,1.705657157156368,0.0950957482299346
3.09,63.55125960583681,0.22992217790853672,0.0,58.063390552534685,1.7082911095483375,0.0950957482299346
3.1,63.46141309013596,0.22564720917767322,0.0,58.175327150944526,1.7109256446217271,0.0950957482299346
3.11,63.371435400510286,0.22145139106054246,0.0,58.28729689578205,1.7135608224680563,0.0950957482299346
3.12,63.28132650728758,0.2173332652126515,0.0,58.39930219866887,1.7161967021805926,0.0950957482299346
3.13,63.19108637786378,0.21329139999977406,0.0,58.51134543141654,1.718833341872618,0.0950957482299346
3.14,63.100714976752094,0.20932439001262504,0.0,58.6234289267555,1.721470798695367,0.0950957482299346
3.15,63.01021226563109,0.20543085559024796,0.0,58.73555497905107,1.724109128855645,0.0950957482299346
3.16,62.91957820339209,0.20160944235196143,0.0,58.847725845006465,1.7267483876331278,0.0950957482299346
3.17,62.828812746185584,0.1978588207377146,0.0,58.959943744353346,1.7293886293973544,0.0950957482299346
3.18,62.73791584746677,0.19417768555670342,0.0,59.07221086052989,1.7320299076244123,0.0950957482299346
3.19,62.646887458040425,0.1905647555441019,0.0,59.184529341346746,1.7346722749133248,0.0950957482299346
3.2,62.55572752610473,0.18701877292576605,0.0,59.29690129964096,1.7373157830021428,0.0950957482299346
3.21,62.46443599729451,0.18353850299076893,0.0,59.409328813918265,1.7399604827837494,0.0950957482299346
3.22,62.37301281472353,0.18012273367162943,0.0,59.521813928983754,1.7426064243213788,0.0950957482299346
3.23,62.28145791902614,0.17677027513209806,0.0,59.634358656561254,1.745253656863858,0.0950957482299346
3.24,62.18977124839801,0.17347995936236701,0.0,59.74696497590154,1.7479022288605723,0.0950957482299346
3.25,62.097952738636295,0.17025063978157254,0.0,59.859634834379634,1.750552187976164,0.0950957482299346
3.2600000000000002,62.00600232317894,0.16708119084746093,0.0,59.97237014808136,1.7532035811049658,0.0950957482299346
3.27,61.91391993314329,0.16397050767309101,0.0,60.08517280237933,1.7558564543851727,0.0950957482299346
3.2800000000000002,61.821705497364064,0.16091750565044874,0.0,60.19804465249857,1.758510853212762,0.0950957482299346
3.29,61.72935894243054,0.1579211200808511,0.0,60.31098752407195,1.7611668222551604,0.0950957482299346
3.3000000000000003,61.6368801927231,0.15498030581201888,0.0,60.42400321368566,1.7638244054646661,0.0950957482299346
3.31,61.54426917044914,0.1520940368817003,0.0,60.53709348941481,1.766483646091628,0.0950957482299346
3.3200000000000003,61.451525795678286,0.1492613061677287,0.0,60.65026009134937,1.7691445866973878,0.0950957482299346
3.33,61.358649986376946,0.14648112504440003,0.0,60.763504732110654,1.7718072691669897,0.0950957482299346
3.34,61.26564165844229,0.14375252304505817,0.0,60.87682909735853,1.7744717347216599,0.0950957482299346
3.35,61.17250072573557,0.14107454753077722,0.0,60.99023484628939,1.7771380239310608,0.0950957482299346
3.36,61.07922710011477,0.13844626336503238,0.0,61.10372361212521,1.7798061767253253,0.0950957482299346
3.37,60.98582069146685,0.1358667525942529,0.0,61.217297002593774,1.7824762324068733,0.0950957482299346
3.38,60.89228140773914,0.13333511413415217,0.0,61.330956600400214,1.785148229662014,0.0950957482299346
3.39,60.79860915497038,0.13085046346173196,0.0,61.44470396369002,1.7878222065723401,0.0950957482299346
3.4,60.704803837321066,0.12841193231285986,0.0,61.558540626503735,1.7904982006259165,0.0950957482299346
3.41,60.6108653571033,0.12601866838532017,0.0,61.6724680992234,1.7931762487282639,0.0950957482299346
3.42,60.51679361481004,0.12366983504724081,0.0,61.78648786901095,1.7958563872131479,0.0950957482299346
3.43,60.422588509143885,0.12136461105080001,0.0,61.90060140023869,1.7985386518531712,0.0950957482299346
3.44,60.32824993704525,0.11910219025111866,0.0,62.014810134911976,1.8012230778701737,0.0950957482299346
3.45,60.233777793720094,0.11688178133024557,0.0,62.129115493084235,1.8039096999454454,0.0950957482299346
3.46,60.139171972667114,0.11470260752614451,0.0,62.24351887326454,1.8065985522297545,0.0950957482299346
3.47,60.044432365704445,0.1125639063665937,0.0,62.35802165281779,1.8092896683531947,0.0950957482299346
3.48,59.94955886299582,0.11046492940790965,0.0,62.4726251883576,1.811983081434853,0.0950957482299346
3.49,59.85455135307635,0.10840494197840911,0.0,62.587330816132116,1.814678824092303,0.0950957482299346
3.5,59.75940972287777,0.10638322292652427,0.0,62.702139852402894,1.8173769284509274,0.0950957482299346
3.5100000000000002,59.66413385775319,0.10439906437348784,0.0,62.81705359381684,1.82007742615307,0.0950957482299346
3.52,59.56872364150148,0.102451771470506,0.0,62.932073317771454,1.822780348367024,0.0950957482299346
3.5300000000000002,59.47317895639112,0.10054066216033886,0.0,63.04720028277347,1.8254857257958543,0.0950957482299346
3.54,59.37749968318371,0.09866506694320928,0.0,63.16243572879098,1.828193588686065,0.0950957482299346
3.5500000000000003,59.2816857011569,0.0968243286469626,0.0,63.27778087759918,1.8309039668361038,0.0950957482299346
3.56,59.18573688812708,0.0950178022014005,0.0,63.39323693311986,1.833616889604718,0.0950957482299346
3.5700000000000003,59.08965312047151,0.09324485441671472,0.0,63.50880508175473,1.8363323859191545,0.0950957482299346
3.58,58.99343427315013,0.09150486376594628,0.0,63.62448649271271,1.8390504842832138,0.0950957482299346
3.59,58.8970802197269,0.08979722017139845,0.0,63.7402823183313,1.8417712127851573,0.0950957482299346
3.6,58.80059083239086,0.08812132479493194,0.0,63.85619369439208,1.8444945991054706,0.0950957482299346
3.61,58.70396598197664,0.08647658983207294,0.0,63.972221740430534,1.8472206705244867,0.0950957482299346
3.62,58.60720553798473,0.08486243830986505,0.0,64.08836756004024,1.849949453929871,0.0950957482299346
3.63,58.510309368601376,0.08327830388839787,0.0,64.2046322411715,1.8526809758239697,0.0950957482299346
3.64,58.41327734071797,0.08172363066594619,0.0,64.32101685642463,1.8554152623310256,0.0950957482299346
3.65,58.31610931995029,0.08019787298765464,0.0,64.43752246333788,1.8581523392042618,0.0950957482299346
3.66,58.2188051706572,0.07870049525770396,0.0,64.55415010467007,1.860892231832838,0.0950957482299346
3.67,58.121364755959135,0.0772309717548962,0.0,64.67090080867824,1.8636349652486814,0.0950957482299346
3.68,58.023787937756175,0.07578878645159719,0.0,64.78777558939012,1.8663805641331903,0.0950957482299346
3.69,57.92607457674583,0.07437343283597592,0.0,64.90477544687171,1.8691290528238182,0.0950957482299346
3.7,57.82822453244047,0.07298441373748113,0.0,65.02190136749002,1.8718804553205395,0.0950957482299346
3.71,57.730237663184454,0.07162124115549688,0.0,65.13915432417099,1.8746347952921942,0.0950957482299346
3.72,57.63211382617093,0.07028343609111978,0.0,65.25653527665276,1.8773920960827206,0.0950957482299346
3.73,57.53385287745835,0.0689705283820014,0.0,65.37404517173431,1.8801523807172735,0.0950957482299346
3.74,57.435454671986676,0.06768205654020071,0.0,65.49168494351963,1.8829156719082305,0.0950957482299346
3.75,57.33691906359325,0.06641756759299197,0.0,65.60945551365735,1.8856819920610892,0.0950957482299346
3.7600000000000002,57.23824590502843,0.06517661692657495,0.0,65.72735779157617,1.8884513632802598,0.0950957482299346
3.77,57.13943504797092,0.06395876813263487,0.0,65.84539267471582,1.8912238073747483,0.0950957482299346
3.7800000000000002,57.0404863430428,0.06276359285770058,0.0,65.96356104875404,1.8939993458637399,0.0950957482299346
3.79,56.941399639824304,0.061590670655250465,0.0,66.0818637878292,1.8967779999820775,0.0950957482299346
3.8000000000000003,56.842174786868334,0.06043958884051638,0.0,66.20030175475907,1.8995597906856447,0.0950957482299346
3.81,56.74281163171466,0.05930994234793677,0.0,66.31887580125547,1.9023447386566468,0.0950957482299346
3.8200000000000003,56.64331002090393,0.058201333591211116,0.0,66.43758676813513,1.9051328643087977,0.0950957482299346
3.83,56.54366979999139,0.05711337232590864,0.0,66.55643548552659,1.907924187792413,0.0950957482299346
3.84,56.44389081356033,0.056045675514584954,0.0,66.67542277307342,1.9107187289994083,0.0950957482299346
3.85,56.34397290523533,0.054997867194361394,0.0,66.79454944013376,1.9135165075682092,0.0950957482299346
3.86,56.243915917695226,0.053969578346922335,0.0,66.91381628597618,1.9163175428885706,0.0950957482299346
3.87,56.14371969268588,0.05296044677088675,0.0,67.03322409997195,1.9191218541063064,0.0950957482299346
3.88,56.04338407103266,0.05197011695651099,0.0,67.15277366178383,1.9219294601279366,0.0950957482299346
3.89,55.94290889265276,0.05099823996268059,0.0,67.27246574155151,1.9247403796252476,0.0950957482299346
3.9,55.84229399656726,0.050044473296149486,0.0,67.3923011000736,1.9275546310397702,0.0950957482299346
3.91,55.74153922091295,0.049108480792986124,0.0,67.51228048898622,1.930372232587175,0.0950957482299346
3.92,55.640644402953974,0.048189932502186256,0.0,67.63240465093853,1.9331932022615903,0.0950957482299346
3.93,55.53960937909324,0.04728850457141319,0.0,67.75267431976489,1.9360175578398378,0.0950957482299346
3.94,55.438433984883645,0.046403879134826964,0.0,67.87309022065402,1.9388453168855937,0.0950957482299346
3.95,55.337118055039056,0.04553574420296449,0.0,67.99365307031492,1.9416764967534732,0.0950957482299346
3.96,55.235661423445144,0.044683793554633436,0.0,68.11436357713995,1.944511114593041,0.0950957482299346
3.97,55.13406392316999,0.04384772663078336,0.0,68.23522244136484,1.9473491873527475,0.0950957482299346
3.98,55.0323253864745,0.04302724843031818,0.0,68.35623035522573,1.9501907317837957,0.0950957482299346
3.99,54.930445644822626,0.04222206940781469,0.0,68.4773880031135,1.9530357644439342,0.0950957482299346
4.0,54.82842452889146,0.04143190537311259,0.0,68.59869606172515,1.9558843017011842,0.0950957482299346
4.01,54.72626186858104,0.0406564773927419,0.0,68.72015520021247,1.9587363597374972,0.0950957482299346
4.0200000000000005,54.62395749302408,0.039895511693154605,0.0,68.84176608032804,1.961591954552345,0.0950957482299346
4.03,54.521511230595465,0.03914873956572748,0.0,68.96352935656853,1.9644511019662478,0.0950957482299346
4.04,54.41892290892161,0.038415897273504127,0.0,69.08544567631532,1.9673138176242326,0.0950957482299346
4.05,54.31619235488963,0.037696725959644475,0.0,69.20751567997273,1.9701801169992346,0.0950957482299346
4.0600000000000005,54.213319394656345,0.03699097155755075,0.0,69.3297400011036,1.9730500153954311,0.0950957482299346
4.07,54.11030385365715,0.03629838470263944,0.0,69.45211926656239,1.9759235279515186,0.0950957482299346
4.08,54.00714555661469,0.0356187206457293,0.0,69.57465409662592,1.9788006696439275,0.0950957482299346
4.09,53.9038443275474,0.03495173916801601,0.0,69.6973451051217,1.9816814552899802,0.0950957482299346
4.1,53.8003999897779,0.034297204497604615,0.0,69.82019289955389,1.98456589955099,0.0950957482299346
4.11,53.69681236594123,0.03365488522757135,0.0,69.94319808122705,1.9874540169353052,0.0950957482299346
4.12,53.59308127799292,0.0330245542355272,0.0,70.06636124536753,1.990345821801295,0.0950957482299346
4.13,53.48920654721698,0.03240598860465555,0.0,70.18968298124271,1.9932413283602848,0.0950957482299346
4.14,53.385187994233654,0.03179896954619742,0.0,70.31316387227803,1.9961405506794336,0.0950957482299346
4.15,53.281025439007145,0.03120328232335764,0.0,70.43680449617192,1.9990435026845623,0.0950957482299346
4.16,53.1767187008531,0.030618716176606338,0.0,70.56060542500862,2.0019501981629295,0.0950957482299346
4.17,53.072267598446054,0.030045064250350088,0.0,70.68456722536895,2.0048606507659557,0.0950957482299346
4.18,52.967671949826666,0.029482123520947964,0.0,70.80869045843903,2.0077748740118984,0.0950957482299346
4.19,52.862931572408876,0.028929694726047867,0.0,70.93297568011704,2.010692881288479,0.0950957482299346
4.2,52.758046282986946,0.028387582295219125,0.0,71.05742344111806,2.013614685855461,0.0950957482299346
4.21,52.65301589774233,0.027855594281857698,0.0,71.18203428707695,2.0165403008471823,0.0950957482299346
4.22,52.54784023225048,0.027333542296340854,0.0,71.30680875864934,2.0194697392750385,0.0950957482299346
4.23,52.44251910148748,0.02682124144040846,0.0,71.43174739161088,2.022403014029925,0.0950957482299346
4.24,52.3370523198366,0.026318510242748564,0.0,71.55685071695459,2.025340137884631,0.0950957482299346
4.25,52.23143970109477,0.02582517059576529,0.0,71.6821192609864,2.028281123496192,0.0950957482299346
4.26,52.12568105847885,0.02534104769350748,0.0,71.8075535454191,2.0312259834081985,0.0950957482299346
4.2700000000000005,52.01977620463185,0.02486596997073693,0.0,71.9331540874644,2.0341747300530617,0.0950957482299346
4.28,51.91372495162909,0.024399769043115374,0.0,72.05892139992345,2.037127375754241,0.0950957482299346
4.29,51.807527110984175,0.023942279648489856,0.0,72.1848559912756,2.040083932728426,0.0950957482299346
4.3,51.701182493654876,0.023493339589256413,0.0,72.31095836576561,2.0430444130876846,0.0950957482299346
4.3100000000000005,51.59469091004897,0.023052789675782368,0.0,72.4372290234893,2.046008828841565,0.0950957482299346
4.32,51.488052170029945,0.022620473670867967,0.0,72.56366846047752,2.0489771918991675,0.0950957482299346
4.33,51.381266082922615,0.022196238235228316,0.0,72.69027716877869,2.05194951407117,0.0950957482299346
4.34,51.27433245751864,0.021779932873976997,0.0,72.81705563653982,2.0549258070718226,0.0950957482299346
4.3500000000000005,51.167251102081934,0.021371409884093123,0.0,72.94400434808601,2.057906082520905,0.0950957482299346
4.36,51.06002182435403,0.020970524302853788,0.0,73.07112378399856,2.0608903519456443,0.0950957482299346
4.37,50.95264443155932,0.02057713385721433,0.0,73.19841442119156,2.063878626782603,0.0950957482299346
4.38,50.84511873041024,0.02019109891411908,0.0,73.32587673298721,2.066870918379529,0.0950957482299346
4.39,50.73744452711234,0.01981228243172553,0.0,73.45351118918971,2.069867237997174,0.0950957482299346
4.4,50.62962162736929,0.019440549911525353,0.0,73.58131825615773,2.0728675968110752,0.0950957482299346
4.41,50.52164983638779,0.01907576935134574,0.0,73.70929839687567,2.0758720059133116,0.0950957482299346
4.42,50.41352895888243,0.01871781119921505,0.0,73.83745207102358,2.0788804763142186,0.0950957482299346
4.43,50.30525879908046,0.018366548308076956,0.0,73.96577973504579,2.08189301894408,0.0950957482299346
4.44,50.19683916072649,0.01802185589133751,0.0,74.09428184221831,2.0849096446547852,0.0950957482299346
4.45,50.08826984708707,0.01768361147923,0.0,74.22295884271496,2.087930364221455,0.0950957482299346
4.46,49.979550660955276,0.01735169487598253,0.0,74.3518111836724,2.0909551883440405,0.0950957482299346
4.47,49.870681404655194,0.017025988117773713,0.0,74.48083930925382,2.0939841276488926,0.0950957482299346
4.48,49.761661880046304,0.01670637543146202,0.0,74.61004366071161,2.0970171926903,0.0950957482299346
4.49,49.65249188852783,0.016392743194074647,0.0,74.7394246764488,2.100054393952002,0.0950957482299346
4.5,49.54317123104305,0.016084979893041976,0.0,74.86898279207942,2.103095741848674,0.0950957482299346
4.51,49.433699708083466,0.015782976087164016,0.0,74.99871844048775,2.1061412467273835,0.0950957482299346
4.5200000000000005,49.32407711969301,0.015486624368295392,0.0,75.1286320518865,2.1091909188690208,0.0950957482299346
4.53,49.21430326547208,0.015195819323735742,0.0,75.25872405387392,2.112244768489705,0.0950957482299346
4.54,49.10437794458165,0.014910457499312607,0.0,75.38899487148987,2.115302805742163,0.0950957482299346
4.55,48.994300955747164,0.014630437363144129,0.0,75.51944492727087,2.1183650407170806,0.0950957482299346
4.5600000000000005,48.88407209726254,0.0143556592700691,0.0,75.65007464130417,2.1214314834444368,0.0950957482299346
4.57,48.77369116699397,0.014086025426732153,0.0,75.78088443128077,2.124502143894804,0.0950957482299346
4.58,48.66315796238377,0.013821439857312065,0.0,75.91187471254754,2.1275770319806333,0.0950957482299346
4.59,48.55247228045417,0.013561808369881433,0.0,76.04304589815843,2.1306561575575094,0.0950957482299346
4.6000000000000005,48.44163391781096,0.013307038523386105,0.0,76.17439839892458,2.1337395304253883,0.0950957482299346
4.61,48.3306426706472,0.013057039595233043,0.0,76.30593262346375,2.136827160329809,0.0950957482299346
4.62,48.21949833474684,0.012811722549475447,0.0,76.4376489782486,2.1399190569630817,0.0950957482299346
4.63,48.10820070548828,0.012571000005584206,0.0,76.56954786765434,2.1430152299654615,0.0950957482299346
4.64,47.99674957784789,0.012334786207794912,0.0,76.70162969400532,2.146115688926292,0.0950957482299346
4.65,47.88514474640349,0.0121029969950199,0.0,76.83389485762086,2.1492204433851336,0.0950957482299346
4.66,47.77338600533783,0.011875549771314931,0.0,76.96634375686028,2.15232950283287,0.0950957482299346
4.67,47.661473148441914,0.011652363476890382,0.0,77.098976788167,2.155442876712793,0.0950957482299346
4.68,47.54940596911844,0.011433358559656909,0.0,77.2317943461119,2.1585605744216703,0.0950957482299346
4.69,47.43718426038509,0.01121845694729582,0.0,77.36479682343598,2.161682605310792,0.0950957482299346
4.7,47.32480781487777,0.011007582019844506,0.0,77.4979846110921,2.164808978686998,0.0950957482299346
4.71,47.21227642485395,0.010800658582787502,0.0,77.63135809828599,2.1679397038136883,0.0950957482299346
4.72,47.09958988219578,0.010597612840643866,0.0,77.76491767251665,2.1710747899118132,0.0950957482299346
4.73,46.98674797841334,0.010398372371041818,0.0,77.8986637196158,2.1742142461608465,0.0950957482299346
4.74,46.87375050464775,0.010202866099271636,0.0,78.03259662378682,2.1773580816997398,0.0950957482299346
4.75,46.7605972516743,0.010011024273308076,0.0,78.16671676764282,2.180506305627862,0.0950957482299346
4.76,46.64728800990553,0.009822778439293692,0.0,78.30102453224417,2.18365892700592,0.0950957482299346
4.7700000000000005,46.533822569394296,0.009638061417474558,0.0,78.43552029713518,2.186815954856861,0.0950957482299346
4.78,46.42020071983679,0.00945680727858013,0.0,78.57020444038028,2.189977398166761,0.0950957482299346
4.79,46.30642225057554,0.009278951320639068,0.0,78.70507733859942,2.1931432658856997,0.0950957482299346
4.8,46.192486950602394,0.009104430046223,0.0,78.84013936700292,2.1963135669286107,0.0950957482299346
4.8100000000000005,46.078394608561474,0.008933181140110408,0.0,78.97539089942559,2.199488310176126,0.0950957482299346
4.82,45.96414501275209,0.008765143447362872,0.0,79.11083230836036,2.2026675044753987,0.0950957482299346
4.83,45.84973795113166,0.008600256951806133,0.0,79.24646396499114,2.2058511586409146,0.0950957482299346
4.84,45.735173211318596,0.0084384627549085,0.0,79.38228623922527,2.2090392814552877,0.0950957482299346
4.8500000000000005,45.62045058059516,0.008279703055049346,0.0,79.5182994997252,2.2122318816700397,0.0950957482299346
4.86,45.50556984591032,0.008123921127170483,0.0,79.65450411393975,2.215428968006368,0.0950957482299346
4.87,45.39053079388258,0.007971061302803393,0.0,79.7909004481347,2.2186305491558995,0.0950957482299346
4.88,45.275333210802785,0.007821068950465413,0.0,79.92748886742287,2.221836633781427,0.0950957482299346
4.89,45.15997688263691,0.007673890456418092,0.0,80.06426973579364,2.2250472305176383,0.0950957482299346
4.9,45.04446159502887,0.007529473205781035,0.0,80.20124341614199,2.2282623479718273,0.0950957482299346
4.91,44.92878713330325,0.00738776556399474,0.0,80.33841027029692,2.2314819947245947,0.0950957482299346
4.92,44.81295328246811,0.0072487168586259755,0.0,80.47577065904945,2.2347061793305354,0.0950957482299346
4.93,44.69695982721767,0.00711227736150941,0.0,80.61332494218004,2.2379349103189123,0.0950957482299346
4.94,44.580806551935105,0.006978398271219317,0.0,80.7510734784856,2.2411681961943204,0.0950957482299346
4.95,44.46449324069522,0.006847031695865269,0.0,80.88901662580587,2.2444060454373362,0.0950957482299346
4.96,44.34801967726719,0.0067181306362058745,0.0,81.02715474104951,2.2476484665051575,0.0950957482299346
4.97,44.23138564511727,0.006591648969074696,0.0,81.16548818021958,2.2508954678322306,0.0950957482299346
4.98,44.1145909274115,0.0064675414311126025,0.0,81.30401729843862,2.254147057830866,0.0950957482299346
4.99,43.997635307018385,0.006345763602800941,0.0,81.44274244997327,2.2574032448918446,0.0950957482299346
5.0,43.88051856651162,0.00622627189278995,0.0,81.58166398825838,2.260664037385011,0.0950957482299346
5.01,43.763240488172755,0.0061090235225170165,0.0,81.72078226592086,2.263929443659855,0.0950957482299346
5.0200000000000005,43.6458008539939,0.005993976511109432,0.0,81.8600976348029,2.2671994720460895,0.0950957482299346
5.03,43.5281994456804,0.005881089660566392,0.0,81.99961044598489,2.270474130854208,0.0950957482299346
5.04,43.41043604465355,0.005770322541215125,0.0,82.13932104980789,2.2737534283760388,0.0950957482299346
5.05,43.292510432053255,0.005661635477436079,0.0,82.27922979589573,2.277037372885289,0.0950957482299346
5.0600000000000005,43.17442238874075,0.005554989533652232,0.0,82.41933703317667,2.280325972638075,0.0950957482299346
5.07,43.05617169530127,0.005450346500577645,0.0,82.5596431099047,2.2836192358734473,0.0950957482299346
5.08,42.937758132046774,0.005347668881720488,0.0,82.70014837368043,2.2869171708139038,0.0950957482299346
5.09,42.81918147901864,0.005246919880135861,0.0,82.84085317147165,2.2902197856658937,0.0950957482299346
5.1000000000000005,42.700441515990384,0.005148063385423791,0.0,82.98175784963347,2.2935270886203134,0.0950957482299346
5.11,42.58153802247039,0.005051063960967899,0.0,83.12286275392812,2.296839087852994,0.0950957482299346
5.12,42.46247077770461,0.004955886831410307,0.0,83.26416822954447,2.300155791525179,0.0950957482299346
5.13,42.343239560679336,0.004862497870358415,0.0,83.40567462111704,2.303477207783992,0.0950957482299346
5.14,42.22384415012396,0.004770863588319289,0.0,83.54738227274484,2.3068033447628995,0.0950957482299346
5.15,42.1042843245137,0.00468095112085746,0.0,83.6892915280097,2.310134210582163,0.0950957482299346
5.16,41.984559862072395,0.004592728216972019,0.0,83.8314027299945,2.313469813349284,0.0950957482299346
5.17,41.86467054077533,0.004506163227688956,0.0,83.97371622130082,2.31681016115944,0.0950957482299346
5.18,41.744616138351994,0.004421225094864785,0.0,84.11623234406647,2.3201552620959127,0.0950957482299346
5.19,41.62439643228893,0.0043378833401975575,0.0,84.2589514399826,2.323505124230511,0.0950957482299346
5.2,41.5040111998326,0.004256108054441431,0.0,84.40187385031057,2.3268597556239845,0.0950957482299346
5.21,41.3834602179922,0.004175869886821056,0.0,84.54499991589847,2.3302191643264276,0.0950957482299346
5.22,41.2627432635426,0.004097140034642076,0.0,84.6883299771974,2.3335833583776813,0.0950957482299346
5.23,41.1418601130272,0.004019890233094134,0.0,84.83186437427737,2.336952345807724,0.0950957482299346
5.24,41.02081054276089,0.0039440927452428455,0.0,84.97560344684305,2.3403261346370563,0.0950957482299346
5.25,40.899594328833004,0.003869720352207219,0.0,85.1195475342491,2.3437047328770797,0.0950957482299346
5.26,40.77821124711027,0.003796746343519141,0.0,85.26369697551533,2.3470881485304678,0.0950957482299346
5.2700000000000005,40.65666107323986,0.0037251445076615397,0.0,85.40805210934157,2.350476389591531,0.0950957482299346
5.28,40.5349435826524,0.0036548891227819384,0.0,85.55261327412222,2.3538694640465754,0.0950957482299346
5.29,40.41305855056504,0.0035859549475781628,0.0,85.69738080796063,2.357267379874254,0.0950957482299346
5.3,40.291005751984535,0.0035183172123530266,0.0,85.84235504868313,2.3606701450459133,0.0950957482299346
5.3100000000000005,40.1687849617104,0.003451951610234867,0.0,85.98753633385296,2.3640777675259335,0.0950957482299346
5.32,40.04639595433806,0.0033868342885608796,0.0,86.13292500078376,2.3674902552720605,0.0950957482299346
5.33,39.92383850426204,0.0033229418404202406,0.0,86.27852138655294,2.3709076162357343,0.0950957482299346
5.34,39.8011123856792,0.0032602512963540676,0.0,86.42432582801487,2.3743298583624135,0.0950957482299346
5.3500000000000005,39.67821737259202,0.003198740116209322,0.0,86.57033866181366,2.377756989591887,0.0950957482299346
5.36,39.55515323881192,0.0031383861811438126,0.0,86.7165602243959,2.3811890178585884,0.0950957482299346
5.37,39.43191975796256,0.003079167785779505,0.0,86.86299085202307,2.3846259510919006,0.0950957482299346
5.38,39.308516703483306,0.0030210636305014046,0.0,87.00963088078373,2.3880677972164546,0.0950957482299346
5.39,39.184943848632635,0.0029640528138993164,0.0,87.15648064660557,2.391514564152425,0.0950957482299346
5.4,39.061200966491604,0.0029081148253498478,0.0,87.30354048526718,2.3949662598158206,0.0950957482299346
5.41,38.93728782996741,0.002853229537736061,0.0,87.45081073240964,2.3984228921187656,0.0950957482299346
5.42,38.81320421179697,0.002799377200302231,0.0,87.59829172354793,2.4018844689697825,0.0950957482299346
5.43,38.688949884550546,0.002746538431641214,0.0,87.74598379408205,2.4053509982740646,0.0950957482299346
5.44,38.56452462063544,0.0026946942128119747,0.0,87.8938872793081,2.4088224879337465,0.0950957482299346
5.45,38.439928192299725,0.002643825880584869,0.0,88.04200251442903,2.4122989458481694,0.0950957482299346
5.46,38.31516037163604,0.002593915120812317,0.0,88.19032983456526,2.415780379914141,0.0950957482299346
5.47,38.19022093058546,0.0025449439619225495,0.0,88.33886957476513,2.4192667980261917,0.0950957482299346
5.48,38.06510964094141,0.0024968947685341542,0.0,88.4876220700151,2.4227582080768255,0.0950957482299346
5.49,37.93982627435361,0.00244975023518919,0.0,88.63658765524993,2.426254617956768,0.0950957482299346
5.5,37.81437060233215,0.002403493380202671,0.0,88.7857666653624,2.429756035555209,0.0950957482299346
5.51,37.6887423962516,0.0023581075396262746,0.0,88.93515943521322,2.43326246876004,0.0950957482299346
5.5200000000000005,37.56294142735515,0.002313576361324155,0.0,89.08476629964045,2.4367739254580902,0.0950957482299346
5.53,37.43696746675889,0.002269883799158797,0.0,89.23458759346897,2.440290413535356,0.0950957482299346
5.54,37.31082028545609,0.0022270141072848666,0.0,89.38462365151972,2.443811940877227,0.0950957482299346
5.55,37.18449965432165,0.0021849518345490636,0.0,89.53487480861872,2.447338515368711,0.0950957482299346
5.5600000000000005,37.05800534411649,0.002143681818994019,0.0,89.68534139960602,2.450870144894649,0.0950957482299346
5.57,36.931337125492156,0.0021031891824643046,0.0,89.83602375934446,2.454406837339933,0.0950957482299346
5.58,36.80449476899543,0.002063459325312673,0.0,89.98692222272831,2.4579486005897166,0.0950957482299346
5.59,36.67747804507304,0.0020244779212046688,0.0,90.13803712469169,2.4614954425296216,0.0950957482299346
5.6000000000000005,36.55028672407644,0.001986230912019789,0.0,90.28936880021692,2.465047371045943,0.0950957482299346
5.61,36.42292057626674,0.0019487045028474133,0.0,90.44091758434273,2.4686043940258506,0.0950957482299346
5.62,36.295379371819664,0.0019118851570757418,0.0,90.59268381217223,2.4721665193575832,0.0950957482299346
5.63,36.1676628808306,0.0018757595915720208,0.0,90.74466781888093,2.475733754930646,0.0950957482299346
5.64,36.03977087331979,0.0018403147719523714,0.0,90.89686993972437,2.4793061086359978,0.0950957482299346
5.65,35.91170311923761,0.0018055379079395554,0.0,91.04929051004589,2.4828835883662412,0.0950957482299346
5.66,35.78345938846993,0.0017714164488070536,0.0,91.20192986528413,2.486466202015806,0.0950957482299346
5.67,35.65503945084359,0.001737938078907859,0.0,91.35478834098028,2.490053957481127,0.0950957482299346
5.68,35.52644307613198,0.0017050907132864137,0.0,91.50786627278552,2.4936468626608272,0.0950957482299346
5.69,35.39767003406075,0.0016728624933721517,0.0,91.66116399646808,2.497244925455889,0.0950957482299346
5.7,35.268720094313636,0.0016412417827531341,0.0,91.81468184792023,2.500848153769828,0.0950957482299346
5.71,35.13959302653835,0.0016102171630282957,0.0,91.96842016316525,2.504456555508861,0.0950957482299346
5.72,35.01028860035267,0.001579777429736844,0.0,92.12237927836416,2.508070138582073,0.0950957482299346
5.73,34.88080658535062,0.001549911588363384,0.0,92.27655952982246,2.5116889109015803,0.0950957482299346
5.74,34.75114675110875,0.0015206088504173616,0.0,92.43096125399664,2.515312880382692,0.0950957482299346
5.75,34.621308867192596,0.0014918586295854552,0.0,92.58558478750065,2.5189420549440666,0.0950957482299346
5.76,34.49129270316326,0.0014636505379555548,0.0,92.74043046711226,2.5225764425078703,0.0950957482299346
5.7700000000000005,34.361098028584124,0.001435974382311012,0.0,92.89549862977931,2.5262160509999263,0.0950957482299346
5.78,34.2307246130277,0.0014088201604938481,0.0,93.05078961262583,2.529860888349868,0.0950957482299346
5.79,34.10017222608264,0.0013821780578356507,0.0,93.20630375295808,2.533510962491285,0.0950957482299346
5.8,33.96944063736095,0.0013560384436548997,0.0,93.36204138827053,2.53716628136187,0.0950957482299346
5.8100000000000005,33.83852961650523,0.001330391867819491,0.0,93.51800285625167,2.540826852903561,0.0950957482299346
5.82,33.707438933196215,0.001305229057373252,0.0,93.67418849478977,2.544492685062683,0.0950957482299346
5.83,33.576168357160405,0.001280540913225259,0.0,93.83059864197854,2.5481637857900843,0.0950957482299346
5.84,33.444717658177886,0.0012563185069007937,0.0,93.98723363612268,2.551840163041275,0.0950957482299346
5.8500000000000005,33.31308660609033,0.0012325530773527964,0.0,94.14409381574337,2.55552182477656,0.0950957482299346
5.86,33.18127497080918,0.001209236027832692,0.0,94.30117951958366,2.55920877896117,0.0950957482299346
5.87,33.049282522324,0.001186358922819489,0.0,94.4584910866137,2.5629010335653923,0.0950957482299346
5.88,32.91710903071106,0.0011639134850060697,0.0,94.61602885603612,2.566598596564698,0.0950957482299346
5.89,32.784754266142045,0.0011418915923416125,0.0,94.77379316729098,2.5703014759398672,0.0950957482299346
5.9,32.65221799889308,0.0011202852751291009,0.0,94.93178436006087,2.574009679677112,0.0950957482299346
5.91,32.519499999353826,0.0010990867131769023,0.0,95.09000277427599,2.5777232157682,0.0950957482299346
5.92,32.386600038036946,0.0010782882330034095,0.0,95.24844875011887,2.5814420922105707,0.0950957482299346
5.93,32.253517885587634,0.0010578823050937608,0.0,95.4071226280293,2.585166317007456,0.0950957482299346
5.94,32.1202533127935,0.001037861541207675,0.0,95.56602474870901,2.5888958981679937,0.0950957482299346
5.95,31.986806090594637,0.0010182186917374481,0.0,95.72515545312635,2.5926308437073433,0.0950957482299346
5.96,31.853175990093927,0.0009989466431151843,0.0,95.88451508252089,2.5963711616467973,0.0950957482299346
5.97,31.719362782567604,0.0009800384152683459,0.0,96.04410397840795,2.6001168600138915,0.0950957482299346
5.98,31.585366239476084,0.0009614871591227253,0.0,96.20392248258298,2.603867946842514,0.0950957482299346
5.99,31.45118613247505,0.0009432861541519586,0.0,96.36397093712601,2.6076244301730114,0.0950957482299346
6.0,31.31682223342682,0.0009254288059727161,0.0,96.5242496844059,2.6113863180522947,0.0950957482299346
6.01,31.182274314411966,0.0009079086439847232,0.0,96.68475906708464,2.615153618533943,0.0950957482299346
6.0200000000000005,31.04754214774128,0.0008907193190547776,0.0,96.84549942812147,2.6189263396783042,0.0950957482299346
6.03,30.912625505967974,0.0008738546012439459,0.0,97.00647111077706,2.622704489552598,0.0950957482299346
6.04,30.777524161900246,0.0008573083775771384,0.0,97.16767445861748,2.6264880762310123,0.0950957482299346
6.05,30.642237888614126,0.0008410746498542748,0.0,97.32910981551831,2.630277107794802,0.0950957482299346
6.0600000000000005,30.50676645946665,0.0008251475325022674,0.0,97.49077752566842,2.6340715923323845,0.0950957482299346
6.07,30.371109648109407,0.0008095212504670635,0.0,97.65267793357394,2.6378715379394335,0.0950957482299346
6.08,30.235267228502387,0.0007941901371450053,0.0,97.81481138406204,2.641676952718973,0.0950957482299346
6.09,30.099238974928213,0.0007791486323527718,0.0,97.97717822228472,2.6454878447814685,0.0950957482299346
6.1000000000000005,29.96302466200676,0.0007643912803351917,0.0,98.13977879372246,2.649304222244917,0.0950957482299346
6.11,29.826624064710103,0.0007499127278102181,0.0,98.30261344418787,2.6531260932349365,0.0950957482299346
6.12,29.690036958377927,0.0007357077220503783,0.0,98.46568251982931,2.656953465884853,0.0950957482299346
6.13,29.553263118733287,0.000721771109000019,0.0,98.62898636713444,2.6607863483357868,0.0950957482299346
6.140000000000001,29.416302321898804,0.0007080978314276815,0.0,98.79252533293361,2.6646247487367365,0.0950957482299346
6.15,29.279154344413318,0.0006946829271129535,0.0,98.95629976440341,2.668468675244666,0.0950957482299346
6.16,29.141818963248955,0.0006815215270671598,0.0,99.12031000906997,2.6723181360245816,0.0950957482299346
6.17,29.00429595582867,0.0006686088537872568,0.0,99.28455641481237,2.6761731392496193,0.0950957482299346
6.18,28.866585100044272,0.0006559402195423194,0.0,99.44903932986585,2.68003369310112,0.0950957482299346
6.19,28.72868617427492,0.0006435110246920105,0.0,99.61375910282511,2.683899805768711,0.0950957482299346
6.2,28.590598957406147,0.0006313167560364403,0.0,99.77871608264749,2.687771485450384,0.0950957482299346
6.21,28.452323228849412,0.0006193529851968297,0.0,99.94391061865609,2.6916487403525693,0.0950957482299346
6.22,28.313858768562174,0.0006076153670264076,0.0,100.1093430605429,2.695531578690214,0.0950957482299346
6.23,28.17520535706852,0.0005960996380509765,0.0,100.27501375837184,2.6994200086868547,0.0950957482299346
6.24,28.036362775480423,0.0005848016149385977,0.0,100.44092306258186,2.7033140385746934,0.0950957482299346
6.25,27.897330805519534,0.0005737171929978518,0.0,100.60707132398977,2.7072136765946664,0.0950957482299346
6.26,27.758109229539645,0.0005628423447041446,0.0,100.7734588937933,2.7111189309965185,0.0950957482299346
6.2700000000000005,27.61869783054973,0.0005521731182535354,0.0,100.94008612357395,2.7150298100388723,0.0950957482299346
6.28,27.479096392237736,0.0005417056361435764,0.0,101.1069533652998,2.7189463219892978,0.0950957482299346
6.29,27.339304698994965,0.0005314360937806598,0.0,101.27406097132842,2.7228684751243803,0.0950957482299346
6.3,27.199322535941228,0.000521360758113381,0.0,101.44140929440958,2.7267962777297896,0.0950957482299346
6.3100000000000005,27.059149688950704,0.0005114759662914303,0.0,101.60899868768799,2.7307297381003446,0.0950957482299346
6.32,26.918785944678557,0.0005017781243495421,0.0,101.77682950470601,2.7346688645400796,0.0950957482299346
6.33,26.77823109058835,0.000492263705916032,0.0,101.9449020994064,2.738613665362311,0.0950957482299346
6.34,26.637484914980252,0.0004829292509454649,0.0,102.11321682613483,2.7425641488896977,0.0950957482299346
6.3500000000000005,26.49654720702011,0.0004737713644750066,0.0,102.28177403964253,2.746520323454308,0.0950957482299346
6.36,26.355417756769373,0.00046478671540401453,0.0,102.45057409508885,2.7504821973976785,0.0950957482299346
6.37,26.21409635521592,0.00045597203529643853,0.0,102.6196173480438,2.7544497790708777,0.0950957482299346
6.38,26.072582794305827,0.0004473241172056041,0.0,102.78890415449057,2.758423076834567,0.0950957482299346
6.390000000000001,25.93087686697611,0.000438839814520963,0.0,102.9584348708279,2.762402099059057,0.0950957482299346
6.4,25.78897836718846,0.0004305160398364014,0.0,103.12820985387263,2.7663868541243715,0.0950957482299346
6.41,25.646887089964007,0.00042234976383970376,0.0,103.29822946086207,2.7703773504203024,0.0950957482299346
6.42,25.50460283141919,0.0004143380142227793,0.0,103.46849404945634,2.774373596346469,0.0950957482299346
6.43,25.362125388802745,0.00040647787461226345,0.0,103.63900397774073,2.778375600312373,0.0950957482299346
6.44,25.219454560533823,0.000398766483520115,0.0,103.80975960422802,2.7823833707374575,0.0950957482299346
6.45,25.07659014624134,0.00039120103331383627,0.0,103.98076128786073,2.7863969160511584,0.0950957482299346
6.46,24.93353194680457,0.0003837787692059513,0.0,104.15200938801348,2.7904162446929632,0.0950957482299346
6.47,24.790279764395038,0.00037649698826238207,0.0,104.32350426449514,2.7944413651124633,0.0950957482299346
6.48,24.64683340251975,0.00036935303842937155,0.0,104.495246277551,2.7984722857694067,0.0950957482299346
6.49,24.503192666065836,0.0003623443175786076,0.0,104.66723578786505,2.8025090151337513,0.0950957482299346
6.5,24.359357361346625,0.0003554682725702083,0.0,104.83947315656205,2.8065515616857177,0.0950957482299346
6.51,24.215327296149272,0.00034872239833323644,0.0,105.01195874520967,2.81059993391584,0.0950957482299346
6.5200000000000005,24.071102279783904,0.000342104236963415,0.0,105.18469291582065,2.814654140325017,0.0950957482299346
6.53,23.926682123134427,0.0003356113768377249,0.0,105.35767603085482,2.8187141894245618,0.0950957482299346
6.54,23.78206663871102,0.0003292414517455687,0.0,105.53090845322116,2.822780089736252,0.0950957482299346
6.55,23.637255640704392,0.0003229921400361921,0.0,105.70439054627983,2.826851849792379,0.0950957482299346
6.5600000000000005,23.4922489450419,0.0003168611637820598,0.0,105.87812267384422,2.8309294781357974,0.0950957482299346
6.57,23.347046369445525,0.0003108462879578889,0.0,106.05210520018287,2.83501298331997,0.0950957482299346
6.58,23.201647733491882,0.0003049453196350464,0.0,106.22633849002148,2.839102373909019,0.0950957482299346
6.59,23.056052858674263,0.0002991561071910259,0.0,106.40082290854482,2.843197658477769,0.0950957482299346
6.6000000000000005,22.910261568466876,0.0002934765395337212,0.0,106.5755588213987,2.8472988456117982,0.0950957482299346
6.61,22.764273688391288,0.00028790454534022113,0.0,106.75054659469181,2.851405943907479,0.0950957482299346
6.62,22.618089046085238,0.00028243809230985473,0.0,106.9257865949976,2.8555189619720274,0.0950957482299346
6.63,22.47170747137385,0.00027707518643122083,0.0,107.10127918935622,2.859637908423546,0.0950957482299346
6.640000000000001,22.32512879634343,0.00027181387126294117,0.0,107.27702474527625,2.8637627918910686,0.0950957482299346
6.65,22.178352855417888,0.00026665222722788124,0.0,107.45302363073662,2.867893621014605,0.0950957482299346
6.66,22.031379485437913,0.0002615883709205869,0.0,107.62927621418834,2.8720304044451836,0.0950957482299346
6.67,21.88420852574307,0.000256620454427691,0.0,107.80578286455629,2.8761731508448944,0.0950957482299346
6.68,21.73683981825685,0.00025174666466104746,0.0,107.98254395124103,2.8803218688869316,0.0950957482299346
6.69,21.589273207574937,0.0002469652227033549,0.0,108.1595598441205,2.884476567255636,0.0950957482299346
6.7,21.44150854105667,0.00024227438316603786,0.0,108.33683091355178,2.8886372546465378,0.0950957482299346
6.71,21.293545668920014,0.00023767243355915537,0.0,108.51435753037279,2.8928039397663947,0.0950957482299346
6.72,21.145384444340056,0.00023315769367311366,0.0,108.69214006590398,2.896976631333236,0.0950957482299346
6.73,20.99702472355128,0.0002287285149719616,0.0,108.87017889195005,2.9011553380764012,0.0950957482299346
6.74,20.848466365953737,0.00022438327999805337,0.0,109.04847438080154,2.905340068736582,0.0950957482299346
6.75,20.699709234223324,0.00022012040178786556,0.0,109.22702690523653,2.909530832065859,0.0950957482299346
6.76,20.550753194426353,0.00021593832329876094,0.0,109.40583683852229,2.913727636827744,0.0950957482299346
6.7700000000000005,20.401598116138597,0.00021183551684649397,0.0,109.58490455441685,2.917930491797217,0.0950957482299346
6.78,20.252243872569036,0.00020781048355325777,0.0,109.7642304271706,2.9221394057607646,0.0950957482299346
6.79,20.102690340688522,0.00020386175280607562,0.0,109.94381483152794,2.92635438751642,0.0950957482299346
6.8,19.952937401363624,0.00019998788172534367,0.0,110.1236581427288,2.9305754458738,0.0950957482299346
6.8100000000000005,19.80298493949584,0.0001961874546433352,0.0,110.30376073651021,2.9348025896541414,0.0950957482299346
6.82,19.65283284416651,0.00019245908259248073,0.0,110.48412298910789,2.9390358276903408,0.0950957482299346
6.83,19.502481008787672,0.00018880140280324076,0.0,110.66474527725768,2.9432751688269874,0.0950957482299346
6.84,19.351929331259125,0.00018521307821139246,0.0,110.8456279781972,2.947520621920404,0.0950957482299346
6.8500000000000005,19.201177714132093,0.00018169279697455396,0.0,111.02677146966724,2.9517721958386804,0.0950957482299346
6.86,19.050226064779743,0.00017823927199777403,0.0,111.2081761299133,2.956029899461709,0.0950957482299346
6.87,18.899074295574927,0.00017485124046801733,0.0,111.3898423376871,2.9602937416812236,0.0950957482299346
6.88,18.747722324075525,0.00017152746339737956,0.0,111.57177047224799,2.96456373140083,0.0950957482299346
6.890000000000001,18.59617007321779,0.00016826672517486856,0.0,111.75396091336447,2.9688398775360456,0.0950957482299346
6.9,18.444417471518094,0.00016506783312659207,0.0,111.9364140413156,2.973122189014331,0.0950957482299346
6.91,18.292464453283493,0.00016192961708419443,0.0,112.11913023689246,2.977410674775126,0.0950957482299346
6.92,18.140310958831655,0.00015885092896138819,0.0,112.30210988139955,2.9817053437698826,0.0950957482299346
6.93,17.98795693472054,0.00015583064233842947,0.0,112.4853533566562,2.986006204962101,0.0950957482299346
6.94,17.83540233398846,0.00015286765205438843,0.0,112.66886104499804,2.99031326732736,0.0950957482299346
6.95,17.682647116405008,0.00014996087380706884,0.0,112.8526333292783,2.994626539853354,0.0950957482299346
6.96,17.529691248733506,0.0001471092437604342,0.0,113.03667059286923,2.998946031539922,0.0950957482299346
6.97,17.37653470500556,0.00014431171815939962,0.0,113.2209732196635,3.003271751399086,0.0950957482299346
6.98,17.223177466808437,0.00014156727295185206,0.0,113.40554159407557,3.007603708455078,0.0950957482299346
6.99,17.06961952358595,0.0001388749034177634,0.0,113.59037610104298,3.011941911744377,0.0950957482299346
7.0,16.915860872953665,0.00013623362380526404,0.0,113.77547712602774,3.016286370315737,0.0950957482299346
7.01,16.761901521029202,0.00013364246697354645,0.0,113.96084505501766,3.020637093230222,0.0950957482299346
7.0200000000000005,16.607741482778525,0.00013110048404247113,0.0,114.14648027452769,3.0249940895612366,0.0950957482299346
7.03,16.453380782379178,0.0001286067440487497,0.0,114.33238317160118,3.029357368394558,0.0950957482299346
7.04,16.298819453601414,0.00012616033360858176,0.0,114.51855413381128,3.0337269388283667,0.0950957482299346
7.05,16.144057540208347,0.000123760356586625,0.0,114.7049935492622,3.038102809973279,0.0950957482299346
7.0600000000000005,15.989095096376218,0.00012140593377117999,0.0,114.89170180659045,3.0424849909523752,0.0950957482299346
7.07,15.833932187136027,0.00011909620255547344,0.0,115.07867929496616,3.0468734909012327,0.0950957482299346
7.08,15.678568888837836,0.00011683031662492552,0.0,115.26592640409446,3.0512683189679564,0.0950957482299346
7.09,15.52300528963915,0.00011460744565028964,0.0,115.45344352421652,3.0556694843132064,0.0950957482299346
7.1000000000000005,15.367241490018891,0.00011242677498655458,0.0,115.64123104611107,3.0600769961102317,0.0950957482299346
7.11,15.21127760331857,0.0001102875053775009,0.0,115.82928936109548,3.064490863544898,0.0950957482299346
7.12,15.055113756312396,0.00010818885266580624,0.0,116.01761886102706,3.068911095815719,0.0950957482299346
7.13,14.898750089808251,0.0001061300475085954,0.0,116.2062199383043,3.073337702133883,0.0950957482299346
7.140000000000001,14.742186759281447,0.0001041103350983331,0.0,116.39509298586812,3.0777706917232854,0.0950957482299346
7.15,14.585423935543526,0.00010212897488895966,0.0,116.58423839720304,3.0822100738205567,0.0950957482299346
7.16,14.428461805448393,0.00010018524032717133,0.0,116.77365656633847,3.0866558576750918,0.0950957482299346
7.17,14.271300572638312,9.827841858874892e-05,0.0,116.96334788784992,3.091108052549079,0.0950957482299346
7.18,14.113940458332513,9.640781031984019e-05,0.0,117.15331275686012,3.095566667717528,0.0950957482299346
7.19,13.95638170216132,9.457272938310329e-05,0.0,117.3435515690403,3.1000317124683,0.0950957482299346
7.2,13.798624563048994,9.277250260862011e-05,0.0,117.5340647206114,3.1045031961021343,0.0950957482299346
7.21,13.640669320148762,9.10064695494903e-05,0.0,117.72485260834517,3.1089811279326787,0.0950957482299346
7.22,13.482516273833712,8.927398224201819e-05,0.0,117.91591562956548,3.1134655172865164,0.0950957482299346
7.23,13.324165746747651,8.757440497040665e-05,0.0,118.10725418214935,3.117956373503194,0.0950957482299346
7.24,13.165618084920286,8.590711403587345e-05,0.0,118.29886866452823,3.1224537059352495,0.0950957482299346
7.25,13.00687365895152,8.427149753010714e-05,0.0,118.49075947568916,3.1269575239482412,0.0950957482299346
7.26,12.847932865270012,8.266695511298143e-05,0.0,118.68292701517586,3.131467836920773,0.0950957482299346
7.2700000000000005,12.688796127471711,8.109289779444788e-05,0.0,118.87537168309002,3.1359846542445253,0.0950957482299346
7.28,12.52946389774446,7.954874772052893e-05,0.0,119.06809388009225,3.140507985324278,0.0950957482299346
7.29,12.3699366583854,7.803393796333439e-05,0.0,119.26109400740341,3.1450378395779426,0.0950957482299346
7.3,12.210214923418519,7.654791231502569e-05,0.0,119.4543724668057,3.1495742264365854,0.0950957482299346
7.3100000000000005,12.050299240320335,7.509012508565433e-05,0.0,119.64792966064373,3.1541171553444567,0.0950957482299346
7.32,11.890190191862487,7.366004090480164e-05,0.0,119.84176599182575,3.1586666357590176,0.0950957482299346
7.33,11.729888398080849,7.225713452694859e-05,0.0,120.03588186382473,3.1632226771509653,0.0950957482299346
7.34,11.56939451838169,7.088089064050588e-05,0.0,120.23027768067946,3.167785289004262,0.0950957482299346
7.3500000000000005,11.408709253796465,6.953080368043559e-05,0.0,120.42495384699572,3.17235448081616,0.0950957482299346
7.36,11.247833349397956,6.820637764439701e-05,0.0,120.61991076794737,3.1769302620972284,0.0950957482299346
7.37,11.086767596891784,6.690712591235076e-05,0.0,120.81514884927749,3.1815126423713798,0.0950957482299346
7.38,10.925512837398733,6.563257106955608e-05,0.0,121.01066849729942,3.1861016311758967,0.0950957482299346
7.390000000000001,10.764069964444962,6.438224473289787e-05,0.0,121.20647011889794,3.190697238061458,0.0950957482299346
7.4,10.602439927178944,6.3155687380481e-05,0.0,121.40255412153032,3.1952994725921635,0.0950957482299346
7.41,10.440623733836022,6.19524481844306e-05,0.0,121.59892091322745,3.1999083443455616,0.0950957482299346
7.42,10.278622455473744,6.077208484683806e-05,0.0,121.79557090259489,3.204523862912674,0.0950957482299346
7.43,10.116437230003687,5.961416343879407e-05,0.0,121.99250449881404,3.2091460378980248,0.0950957482299346
7.44,9.954069266548355,5.847825824245037e-05,0.0,122.18972211164315,3.213774878919661,0.0950957482299346
7.45,9.791519850155039,5.7363951596053786e-05,0.0,122.38722415141844,3.2184103956091827,0.0950957482299346
7.46,9.62879034690217,5.627083374189653e-05,0.0,122.58501102905514,3.223052597611766,0.0950957482299346
7.47,9.465882209437922,5.519850267712812e-05,0.0,122.78308315604862,3.227701494586189,0.0950957482299346
7.48,9.302796982995574,5.414656400737533e-05,0.0,122.98144094447547,3.2323570962048604,0.0950957482299346
7.49,9.139536311935549,5.3114630803117274e-05,0.0,123.18008480699446,3.237019412153839,0.0950957482299346
7.5,8.976101946870251,5.2102323458764185e-05,0.0,123.3790151568478,3.241688452132865,0.0950957482299346
7.51,8.812495752434916,5.110926955438887e-05,0.0,123.57823240786202,3.2463642258553804,0.0950957482299346
7.5200000000000005,8.64871971577576,5.013510372006126e-05,0.0,123.7777369744491,3.251046743048557,0.0950957482299346
7.53,8.484775955836097,4.9179467502737184e-05,0.0,123.97752927160758,3.2557360134533213,0.0950957482299346
7.54,8.320666733531786,4.824200923565328e-05,0.0,124.17760971492356,3.260432046824379,0.0950957482299346
7.55,8.157667308369918,4.7322383910181144e-05,0.0,124.3763508875281,3.265096646519053,0.0950957482299346
7.5600000000000005,7.997768977905031,4.6420253343145025e-05,0.0,124.57120666871862,3.2696700532555627,0.0950957482299346
7.57,7.840949978338266,4.553528618414111e-05,0.0,124.7622506475881,3.2741539942233624,0.0950957482299346
7.58,7.691462498420638,4.4667157296978154e-05,0.0,124.94955591652055,3.2785501849537795,0.0950957482299346
7.59,7.544819548821663,4.381554764568294e-05,0.0,125.1332971699421,3.282862725651064,0.0950957482299346
7.6000000000000005,7.4009672213719835,4.298014416564899e-05,0.0,125.31354194602206,3.287093201485113,0.0950957482299346
7.61,7.259852620459419,4.216063967256252e-05,0.0,125.49035651458185,3.2912431678567775,0.0950957482299346
7.62,7.121423844403008,4.135673275423463e-05,0.0,125.6638059004166,3.2953141509452366,0.0950957482299346
7.63,6.985629967151634,4.0568127664318484e-05,0.0,125.83395390621082,3.2993076482458448,0.0950957482299346
7.640000000000001,6.852421020302491,3.979453421788391e-05,0.0,126.00086313505385,3.3032251290985877,0.0950957482299346
7.65,6.721747975434651,3.9035667688821924e-05,0.0,126.16459501256134,3.3070680352072874,0.0950957482299346
7.66,6.5935627267530075,3.8291248709051695e-05,0.0,126.32520980860849,3.3108377811496985,0.0950957482299346
7.67,6.467818074037909,3.7561003169502816e-05,0.0,126.4827666586807,3.314535754878622,0.0950957482299346
7.68,6.344467705895825,3.6844662122845696e-05,0.0,126.63732358484772,3.3181633182141854,0.0950957482299346
7.69,6.223466183306407,3.614196168794333e-05,0.0,126.78893751636699,3.321721807327417,0.0950957482299346
7.7,6.1047689234613545,3.5452642955997625e-05,0.0,126.93766430992186,3.325212533215253,0.0950957482299346
7.71,5.988332183890526,3.477645189836386e-05,0.0,127.08355876950037,3.328636782167105,0.0950957482299346
7.72,5.8741130468707645,3.411313927600701e-05,0.0,127.22667466592033,3.3319958162231282,0.0950957482299346
7.73,5.762069404112969,3.346246055057391e-05,0.0,127.36706475600617,3.3352908736243183,0.0950957482299346
7.74,5.652159941722962,3.2824175797055464e-05,0.0,127.50478080142322,3.3385231692545627,0.0950957482299346
7.75,5.544344125431764,3.219804961801346e-05,0.0,127.63987358717478,3.3416938950747817,0.0950957482299346
7.76,5.438582186090915,3.158385105934647e-05,0.0,127.77239293976754,3.344804220549284,0.0950957482299346
7.7700000000000005,5.3348351054285414,3.0981353527570154e-05,0.0,127.90238774505069,3.347855293064464,0.0950957482299346
7.78,5.233064602061903,3.0390334708586936e-05,0.0,128.02990596573395,3.3508482383399607,0.0950957482299346
7.79,5.13323311776222,2.981057648792079e-05,0.0,128.1549946585899,3.353784160832412,0.0950957482299346
7.8,5.0353038039676035,2.9241864872392863e-05,0.0,128.27769999134588,3.356664144131916,0.0950957482299346
7.8100000000000005,4.9392405085399735,2.8683989913214022e-05,0.0,128.39806725927022,3.3594892513513255,0.0950957482299346
7.82,4.845007762761912,2.8136745630470767e-05,0.0,128.51614090145836,3.362260525508494,0.0950957482299346
7.83,4.752570768569422,2.759992993898119e-05,0.0,128.63196451682367,3.364978989901591,0.0950957482299346
7.84,4.661895386016637,2.70733445754979e-05,0.0,128.74558087979784,3.367645648477602,0.0950957482299346
7.8500000000000005,4.572948120968566,2.6556795027235263e-05,0.0,128.8570319557458,3.3702614861941274,0.0950957482299346
7.86,4.485696113018005,2.605009046169845e-05,0.0,128.96635891610012,3.3728274693745988,0.0950957482299346
7.87,4.400107123622806,2.5553043657792206e-05,0.0,129.0736021532194,3.3753445460570157,0.0950957482299346
7.88,4.316149524459758,2.5065470938187503e-05,0.0,129.17880129497567,3.3778136463363224,0.0950957482299346
7.890000000000001,4.23379228599134,2.4587192102924517e-05,0.0,129.28199521907504,3.3802356827005244,0.0950957482299346
7.9,4.1530049662417285,2.4118030364230717e-05,0.0,129.38322206711663,3.382611550360661,0.0950957482299346
7.91,4.0737576997784135,2.3657812282533086e-05,0.0,129.4825192583939,3.3849421275747327,0.0950957482299346
7.92,3.9960211868959066,2.3206367703643895e-05,0.0,129.579923503443,3.3872282759656924,0.0950957482299346
7.930000000000001,3.9197666829980045,2.2763529697099624e-05,0.0,129.67547081734264,3.3894708408335994,0.0950957482299346
7.94,3.8449659881751845,2.2329134495633034e-05,0.0,129.76919653276934,3.3916706514620403,0.0950957482299346
7.95,3.7715914369737082,2.1903021435758594e-05,0.0,129.86113531281302,3.3938285214189157,0.0950957482299346
7.96,3.6996158883530956,2.148503289945183e-05,0.0,129.9513211635564,3.395945248851692,0.0950957482299346
7.97,3.629012715828665,2.107501425690342e-05,0.0,130.03978744642296,3.3980216167772133,0.0950957482299346
7.98,3.559755797795888,2.0672813810329158e-05,0.0,130.12656689029697,3.400058393366169,0.0950957482299346
7.99,3.4918195080333607,2.0278282738817207e-05,0.0,130.21169160342,3.4020563322223145,0.0950957482299346
8.0,3.4251787063812325,1.98912750441943e-05,0.0,130.29519308506778,3.404016172656533,0.0950957482299346
8.01,3.359808729592,1.9511647497892922e-05,0.0,130.37710223701097,3.405938639955832,0.0950957482299346
8.02,3.295685382350602,1.913925958880172e-05,0.0,130.4574493747643,3.407824445647364,0.0950957482299346
8.03,3.2327849284608146,1.8773973472081605e-05,0.0,130.53626423862713,3.40967428775756,0.0950957482299346
8.040000000000001,3.1710840821949846,1.8415653918930512e-05,0.0,130.61357600451956,3.4114888510664603,0.0950957482299346
8.05,3.11055999980419,1.8064168267279737e-05,0.0,130.68941329461776,3.4132688073573316,0.0950957482299346
8.06,3.051190271185962,1.771938637340535e-05,0.0,130.7638041877918,3.415014815661653,0.0950957482299346
8.07,2.9929529117067526,1.7381180564438244e-05,0.0,130.83677622984982,3.4167275224995515,0.0950957482299346
8.08,2.935826354176366,1.70494255917567e-05,0.0,130.90835644359177,3.4184075621157737,0.0950957482299346
8.09,2.8797894409716362,1.6723998585245684e-05,0.0,130.9785713386764,3.4200555567112683,0.0950957482299346
8.1,2.82482141630666,1.640477900840723e-05,0.0,131.04744692130458,3.421672116670461,0.0950957482299346
8.11,2.770901918646945,1.6091648614306618e-05,0.0,131.11500870372234,3.4232578407843,0.0950957482299346
8.120000000000001,2.7180109732648825,1.5784491402339247e-05,0.0,131.18128171354707,3.424813316469147,0.0950957482299346
8.13,2.6661289849339886,1.548319357580341e-05,0.0,131.2462905029198,3.426339119981589,0.0950957482299346
8.14,2.6152367307594018,1.5187643500264351e-05,0.0,131.3100591574869,3.4278358166292424,0.0950957482299346
8.15,2.565315353142172,1.489773166269529e-05,0.0,131.37261130521415,3.4293039609776286,0.0950957482299346
8.16,2.5163463528749133,1.4613350631381343e-05,0.0,131.43397012503627,3.4307440970531844,0.0950957482299346
8.17,2.4683115823664323,1.4334395016572438e-05,0.0,131.49415835534504,3.432156758542483,0.0950957482299346
8.18,2.4211932389929887,1.4060761431871633e-05,0.0,131.55319830231863,3.433542468987731,0.0950957482299346
8.19,2.374973858573882,1.3792348456345453e-05,0.0,131.6111118480954,3.434901741978611,0.0950957482299346
8.2,2.329636308969098,1.352905659734305e-05,0.0,131.6679204587946,3.436235081340537,0.0950957482299346
8.21,2.2851637837967878,1.3270788254011297e-05,0.0,131.7236451923872,3.4375429813193845,0.0950957482299346
8.22,2.241539796268386,1.3017447681493045e-05,0.0,131.77830670641922,3.438825926762765,0.0950957482299346
8.23,2.1987481731392227,1.2768940955796103e-05,0.0,131.83192526559043,3.440084393297905,0.0950957482299346
8.24,2.156773048772512,1.2525175939320617e-05,0.0,131.88452074919113,3.4413188475061878,0.0950957482299346
8.25,2.1155988593146353,1.2286062247032809e-05,0.0,131.93611265839934,3.442529747094429,0.0950957482299346
8.26,2.0752103369796817,1.2051511213273192e-05,0.0,131.98672012344136,3.443717541062936,0.0950957482299346
8.27,2.035592504441242,1.1821435859187646e-05,0.0,132.03636191061779,3.444882669870418,0.0950957482299346
8.28,1.9967306693294729,1.1595750860769848e-05,0.0,132.0850564291978,3.446025565595795,0.0950957482299346
8.290000000000001,1.9586104188315094,1.1374372517503872e-05,0.0,132.13282173818394,3.4471466520969765,0.0950957482299346
8.3,1.9212176143933128,1.1157218721595872e-05,0.0,132.17967555294976,3.448246345166649,0.0950957482299346
8.31,1.8845383865210847,1.0944208927783974e-05,0.0,132.22563525175298,3.449325052685146,0.0950957482299346
8.32,1.8485591296804167,1.0735264123715762e-05,0.0,132.27071788212595,3.4503831747704354,0.0950957482299346
8.33,1.8132664972913657,1.0530306800882833e-05,0.0,132.3149401671461,3.4514211039252927,0.0950957482299346
8.34,1.778647396817684,1.0329260926102145e-05,0.0,132.35831851158835,3.4524392251817035,0.0950957482299346
8.35,1.744688984948465,1.0132051913534063e-05,0.0,132.40086900796194,3.4534379162425495,0.0950957482299346
8.36,1.7113786628704921,9.938606597227139e-06,0.0,132.44260744243343,3.454417547620628,0.0950957482299346
8.370000000000001,1.6787040716296109,9.7488532041799e-06,0.0,132.48354930063826,3.4553784827750524,0.0950957482299346
8.38,1.646653087579479,9.562721327910055e-06,0.0,132.52370977338293,3.456321078245087,0.0950957482299346
8.39,1.6152138179160689,9.38014190252171e-06,0.0,132.56310376223962,3.4572456837814554,0.0950957482299346
8.4,1.584374596296333,9.201047177261337e-06,0.0,132.60174588503548,3.4581526424751807,0.0950957482299346
8.41,1.5541239785394707,9.025370691553451e-06,0.0,132.63965048123842,3.459042290883991,0.0950957482299346
8.42,1.5244507384092612,8.853047250507065e-06,0.0,132.67683161724128,3.4599149591563454,0.0950957482299346
8.43,1.4953438634759535,8.684012900884156e-06,0.0,132.7133030915465,3.46077097115312,0.0950957482299346
8.44,1.4667925510562363,8.518204907521574e-06,0.0,132.74907843985275,3.4616106445669956,0.0950957482299346
8.45,1.4387862042298314,8.355561730197934e-06,0.0,132.78417094004584,3.4624342910395978,0.0950957482299346
8.46,1.411314427931287,8.196023000937219e-06,0.0,132.81859361709513,3.46324221627642,0.0950957482299346
8.47,1.3843670251155662,8.039529501740936e-06,0.0,132.85235924785778,3.4640347201595807,0.0950957482299346
8.48,1.3579339929960565,7.886023142740856e-06,0.0,132.885480365792,3.4648120968584495,0.0950957482299346
8.49,1.3320055193536486,7.73544694076447e-06,0.0,132.91796926558152,3.465574634938185,0.0950957482299346
8.5,1.3065719789155588,7.587744998305478e-06,0.0,132.94983800767247,3.4663226174662194,0.0950957482299346
8.51,1.2816239298025909,7.442862482891733e-06,0.0,132.98109842272473,3.4670563221167345,0.0950957482299346
8.52,1.2571521100435612,7.3007456068432136e-06,0.0,133.01176211597897,3.4677760212731594,0.0950957482299346
8.53,1.233147434155628,7.1613416074127475e-06,0.0,133.04184047154118,3.4684819821287314,0.0950957482299346
8.540000000000001,1.2096009897892976,7.0245987273023135e-06,0.0,133.07134465658618,3.469174466785157,0.0950957482299346
8.55,1.1865040344368898,6.8904661955479005e-06,0.0,133.1002856254817,3.4698537323494034,0.0950957482299346
8.56,1.1638479922032834,6.758894208766027e-06,0.0,133.12867412383426,3.470520031028663,0.0950957482299346
8.57,1.1416244506377684,6.6298339127551415e-06,0.0,133.1565206924587,3.4711736102235164,0.0950957482299346
8.58,1.1198251576258633,6.503237384445262e-06,0.0,133.18383567127245,3.4718147126193375,0.0950957482299346
8.59,1.0984420183399728,6.37905761418932e-06,0.0,133.21062920311607,3.4724435762759627,0.0950957482299346
8.6,1.0774670922477831,6.257248488389811e-06,0.0,133.2369112375016,3.4730604347156677,0.0950957482299346
8.61,1.0568925901773116,6.137764772454454e-06,0.0,133.2626915342898,3.4736655170094735,0.0950957482299346
8.620000000000001,1.0367108714375468,6.020562094074686e-06,0.0,133.2879796672977,3.4742590478618225,0.0950957482299346
8.63,1.0169144409936361,5.905596926820939e-06,0.0,133.31278502783806,3.4748412476936466,0.0950957482299346
8.64,0.9974959466955968,5.792826574048745e-06,0.0,133.3371168281915,3.4754123327238644,0.0950957482299346
8.65,0.9784481765595449,5.682209153109825e-06,0.0,133.360984105013,3.475972515049332,0.0950957482299346
8.66,0.9597640561004533,5.5737035798624355e-06,0.0,133.38439572267367,3.4765220027232804,0.0950957482299346
8.67,0.9414366457154739,5.467269553475354e-06,0.0,133.40736037653946,3.477060999832264,0.0950957482299346
8.68,0.9234591381168684,5.362867541519966e-06,0.0,133.4298865961874,3.477589706571653,0.0950957482299346
8.69,0.905824855813619,5.260458765345045e-06,0.0,133.45198274856108,3.478108319319691,0.0950957482299346
8.700000000000001,0.888527248640799,5.1600051857289e-06,0.0,133.4736570410662,3.478617030710152,0.0950957482299346
8.71,0.871559891335807,5.061469488803675e-06,0.0,133.49491752460733,3.479116029703616,0.0950957482299346
8.72,0.8549164811605812,4.964815072246669e-06,0.0,133.51577209656733,3.479605501657394,0.0950957482299346
8.73,0.8385908355689273,4.87000603173365e-06,0.0,133.5362285037299,3.480085628394128,0.0950957482299346
8.74,0.8225768899181124,4.77700714764924e-06,0.0,133.55629434514682,3.480556588269085,0.0950957482299346
8.75,0.8068686952238862,4.6857838720494905e-06,0.0,133.57597707495106,3.4810185562361786,0.0950957482299346
8.76,0.7914604159581152,4.596302315871939e-06,0.0,133.5952840051159,3.481471703912735,0.0950957482299346
8.77,0.7763463278882248,4.508529236388446e-06,0.0,133.61422230816225,3.48191619964303,0.0950957482299346
8.78,0.7615208159576591,4.422432024896251e-06,0.0,133.63279901981429,3.4823522085606204,0.0950957482299346
8.790000000000001,0.7469783722065876,4.337978694642746e-06,0.0,133.65102104160462,3.4827798926494915,0.0950957482299346
8.8,0.7327135937320968,4.255137868979555e-06,0.0,133.66889514343023,3.4831994108040427,0.0950957482299346
8.81,0.7187211806871225,4.173878769741602e-06,0.0,133.68642796605963,3.483610918887935,0.0950957482299346
8.82,0.704995934317391,4.094171205846899e-06,0.0,133.70362602359253,3.4840145697918223,0.0950957482299346
8.83,0.6915327550356518,4.015985562112909e-06,0.0,133.72049570587285,3.484410513489981,0.0950957482299346
8.84,0.6783266405324963,3.939292788285372e-06,0.0,133.73704328085557,3.48479889709587,0.0950957482299346
8.85,0.665372683923073,3.864064388275602e-06,0.0,133.75327489692907,3.48517986491663,0.0950957482299346
8.86,0.6526660719290197,3.7902724096022876e-06,0.0,133.769196585193,3.4855535585065502,0.0950957482299346
8.870000000000001,0.6402020830949459,3.7178894330339594e-06,0.0,133.7848142616929,3.485920116719519,0.0950957482299346
8.88,0.627976086038815,3.6468885624283077e-06,0.0,133.80013372961258,3.4862796757604753,0.0950957482299346
8.89,0.6159835377355832,3.5772434147646407e-06,0.0,133.81516068142454,3.4866323692358843,0.0950957482299346
8.9,0.6042199818334661,3.5089281103658277e-06,0.0,133.82990070099973,3.4869783282032527,0.0950957482299346
8.91,0.5926810470022166,3.441917263306138e-06,0.0,133.844359265677,3.4873176812197033,0.0950957482299346
8.92,0.5813624453128078,3.3761859720014636e-06,0.0,133.85854174829345,3.4876505543896257,0.0950957482299346
8.93,0.5702599706479269,3.31170980997847e-06,0.0,133.8724534191759,3.4879770714114193,0.0950957482299346
8.94,0.5593694971426971,3.2484648168192936e-06,0.0,133.8860994480948,3.4882973536233512,0.0950957482299346
8.950000000000001,0.5486869776550538,3.1864274892784546e-06,0.0,133.8994849061806,3.488611520048538,0.0950957482299346
8.96,0.5382084422652157,3.125574772568731e-06,0.0,133.91261476780406,3.488919687439075,0.0950957482299346
8.97,0.527929996803698,3.0658840518127895e-06,0.0,133.92549391242056,3.489221970319324,0.0950957482299346
8.98,0.5178478214073283,3.0073331436574374e-06,0.0,133.93812712637933,3.4895184810283792,0.0950957482299346
8.99,0.5079581691027338,2.9499002880474085e-06,0.0,133.9505191046984,3.4898093297617243,0.0950957482299346
9.0,0.49825736441677937,2.8935641401556695e-06,0.0,133.96267445280563,3.4900946246120963,0.0950957482299346
