# results of the FBA model for the bactery Styphi
# the columns are: t and the metabolic fluxes 
# the compounds are: galactose, glucose, thiosulfate, butyrate, Fprau, Styphi,  
# the nominal flux is: -5.0, -5.0, -5.0, -5.0, -5.0, -5.0,  
# the initial concentration are: 19.0, 77.0, 46.0, 4.0, 0.24783956295135812, 0.45389688207629975,  

t,galactose,glucose,thiosulfate,butyrate,Fprau,Styphi
0.0,-5.0,-5.0,-5.0,0.0,0.0,0.6485490667406617
0.01,-5.0,-5.0,-5.0,0.0,0.0,0.6485490667406617
0.02,-5.0,-5.0,-5.0,0.0,0.0,0.6485490667406617
0.03,-5.0,-5.0,-5.0,0.0,0.0,0.6485490667406604
0.04,-5.0,-5.0,-5.0,0.0,0.0,0.6485490667406599
0.05,-5.0,-5.0,-5.0,0.0,0.0,0.6485490667406599
0.06,-5.0,-5.0,-5.0,0.0,0.0,0.6485490667406596
0.07,-5.0,-5.0,-5.0,0.0,0.0,0.6485490667406593
0.08,-5.0,-5.0,-5.0,0.0,0.0,0.6485490667406593
0.09,-5.0,-5.0,-5.0,0.0,0.0,0.6485490667406588
0.1,-5.0,-5.0,-5.0,0.0,0.0,0.6485490667406619
0.11,-5.0,-5.0,-5.0,0.0,0.0,0.648549066740662
0.12,-5.0,-5.0,-5.0,0.0,0.0,0.6485490667406617
0.13,-5.0,-5.0,-5.0,0.0,0.0,0.6485490667406618
0.14,-5.0,-5.0,-5.0,0.0,0.0,0.6485490667406617
0.15,-5.0,-5.0,-5.0,0.0,0.0,0.6485490667406606
0.16,-5.0,-5.0,-5.0,0.0,0.0,0.6485490667406607
0.17,-5.0,-5.0,-5.0,0.0,0.0,0.6485490667406641
0.18,-5.0,-5.0,-5.0,0.0,0.0,0.6485490667406641
0.19,-5.0,-5.0,-5.0,0.0,0.0,0.6485490667406641
0.2,-5.0,-5.0,-5.0,0.0,0.0,0.6485490667406641
0.21,-5.0,-5.0,-5.0,0.0,0.0,0.6485490667406641
0.22,-5.0,-5.0,-5.0,0.0,0.0,0.6485490667406641
0.23,-5.0,-5.0,-5.0,0.0,0.0,0.6485490667406598
0.24,-5.0,-5.0,-5.0,0.0,0.0,0.6485490667406604
0.25,-5.0,-5.0,-5.0,0.0,0.0,0.6485490667406605
0.26,-5.0,-5.0,-5.0,0.0,0.0,0.6485490667406595
0.27,-5.0,-5.0,-5.0,0.0,0.0,0.6485490667406599
0.28,-5.0,-5.0,-5.0,0.0,0.0,0.6485490667406578
0.29,-5.0,-5.0,-5.0,0.0,0.0,0.648549066740659
0.3,-5.0,-5.0,-5.0,0.0,0.0,0.6485490667406604
0.31,-5.0,-5.0,-5.0,0.0,0.0,0.64854906674066
0.32,-5.0,-5.0,-5.0,0.0,0.0,0.6485490667406599
0.33,-5.0,-5.0,-5.0,0.0,0.0,0.6485490667406609
0.34,-5.0,-5.0,-5.0,0.0,0.0,0.6485490667406597
0.35000000000000003,-5.0,-5.0,-5.0,0.0,0.0,0.6485490667406609
0.36,-5.0,-5.0,-5.0,0.0,0.0,0.6485490667406651
0.37,-5.0,-5.0,-5.0,0.0,0.0,0.6485490667406654
0.38,-5.0,-5.0,-5.0,0.0,0.0,0.6485490667406654
0.39,-5.0,-5.0,-5.0,0.0,0.0,0.6485490667406658
0.4,-5.0,-5.0,-5.0,0.0,0.0,0.6485490667406659
0.41000000000000003,-5.0,-5.0,-5.0,0.0,0.0,0.6485490667406661
0.42,-5.0,-5.0,-5.0,0.0,0.0,0.6485490667406656
0.43,-5.0,-5.0,-5.0,0.0,0.0,0.6485490667406568
0.44,-5.0,-5.0,-5.0,0.0,0.0,0.6485490667406577
0.45,-5.0,-5.0,-5.0,0.0,0.0,0.6485490667406559
0.46,-5.0,-5.0,-5.0,0.0,0.0,0.6485490667406582
0.47000000000000003,-5.0,-5.0,-5.0,0.0,0.0,0.6485490667406568
0.48,-5.0,-5.0,-5.0,0.0,0.0,0.6485490667406588
0.49,-5.0,-5.0,-5.0,0.0,0.0,0.6485490667406684
0.5,-5.0,-5.0,-5.0,0.0,0.0,0.6485490667406688
0.51,-5.0,-5.0,-5.0,0.0,0.0,0.6485490667406688
0.52,-5.0,-5.0,-5.0,0.0,0.0,0.6485490667406691
0.53,-5.0,-5.0,-5.0,0.0,0.0,0.6485490667406687
0.54,-5.0,-5.0,-5.0,0.0,0.0,0.6485490667406686
0.55,-5.0,-5.0,-5.0,0.0,0.0,0.6485490667406686
0.56,-5.0,-5.0,-5.0,0.0,0.0,0.6485490667406625
0.5700000000000001,-5.0,-5.0,-5.0,0.0,0.0,0.6485490667406617
0.58,-5.0,-5.0,-5.0,0.0,0.0,0.6485490667406613
0.59,-5.0,-5.0,-5.0,0.0,0.0,0.6485490667406604
0.6,-5.0,-5.0,-5.0,0.0,0.0,0.648549066740661
0.61,-5.0,-5.0,-5.0,0.0,0.0,0.64854906674066
0.62,-5.0,-5.0,-5.0,0.0,0.0,0.648549066740667
0.63,-5.0,-5.0,-5.0,0.0,0.0,0.648549066740667
0.64,-5.0,-5.0,-5.0,0.0,0.0,0.6485490667406684
0.65,-5.0,-5.0,-5.0,0.0,0.0,0.6485490667406681
0.66,-5.0,-5.0,-5.0,0.0,0.0,0.6485490667406681
0.67,-5.0,-5.0,-5.0,0.0,0.0,0.6485490667406686
0.68,-5.0,-5.0,-5.0,0.0,0.0,0.6485490667406684
0.6900000000000001,-5.0,-5.0,-5.0,0.0,0.0,0.6485490667406622
0.7000000000000001,-5.0,-5.0,-5.0,0.0,0.0,0.6485490667406618
0.71,-5.0,-5.0,-5.0,0.0,0.0,0.6485490667406624
0.72,-5.0,-5.0,-5.0,0.0,0.0,0.6485490667406631
0.73,-5.0,-5.0,-5.0,0.0,0.0,0.6485490667406636
0.74,-5.0,-5.0,-5.0,0.0,0.0,0.6485490667406628
0.75,-5.0,-5.0,-5.0,0.0,0.0,0.6485490667406649
0.76,-5.0,-5.0,-5.0,0.0,0.0,0.6485490667406665
0.77,-5.0,-5.0,-5.0,0.0,0.0,0.6485490667406649
0.78,-5.0,-5.0,-5.0,0.0,0.0,0.6485490667406657
0.79,-5.0,-5.0,-5.0,0.0,0.0,0.6485490667406657
0.8,-5.0,-5.0,-5.0,0.0,0.0,0.6485490667406665
0.81,-5.0,-5.0,-5.0,0.0,0.0,0.6485490667406657
0.8200000000000001,-5.0,-5.0,-5.0,0.0,0.0,0.6485490667406637
0.8300000000000001,-5.0,-5.0,-5.0,0.0,0.0,0.6485490667406635
0.84,-5.0,-5.0,-5.0,0.0,0.0,0.6485490667406635
0.85,-5.0,-5.0,-5.0,0.0,0.0,0.6485490667406635
0.86,-5.0,-5.0,-5.0,0.0,0.0,0.6485490667406634
0.87,-5.0,-5.0,-5.0,0.0,0.0,0.6485490667406641
0.88,-5.0,-5.0,-5.0,0.0,0.0,0.6485490667406669
0.89,-5.0,-5.0,-5.0,0.0,0.0,0.6485490667406674
0.9,-5.0,-5.0,-5.0,0.0,0.0,0.6485490667406668
0.91,-5.0,-5.0,-5.0,0.0,0.0,0.6485490667406675
0.92,-5.0,-5.0,-5.0,0.0,0.0,0.6485490667406668
0.93,-5.0,-5.0,-5.0,0.0,0.0,0.6485490667406669
0.9400000000000001,-5.0,-5.0,-5.0,0.0,0.0,0.648549066740667
0.9500000000000001,-5.0,-5.0,-5.0,0.0,0.0,0.6485490667406568
0.96,-5.0,-5.0,-5.0,0.0,0.0,0.6485490667406577
0.97,-5.0,-5.0,-5.0,0.0,0.0,0.6485490667406559
0.98,-5.0,-5.0,-5.0,0.0,0.0,0.6485490667406582
0.99,-5.0,-5.0,-5.0,0.0,0.0,0.6485490667406568
1.0,-5.0,-5.0,-5.0,0.0,0.0,0.6485490667406588
1.01,-5.0,-5.0,-5.0,0.0,0.0,0.6485490667406684
1.02,-5.0,-5.0,-5.0,0.0,0.0,0.6485490667406688
1.03,-5.0,-5.0,-5.0,0.0,0.0,0.6485490667406688
1.04,-5.0,-5.0,-5.0,0.0,0.0,0.6485490667406691
1.05,-5.0,-5.0,-5.0,0.0,0.0,0.6485490667406687
1.06,-5.0,-5.0,-5.0,0.0,0.0,0.6485490667406686
1.07,-5.0,-5.0,-5.0,0.0,0.0,0.6485490667406686
1.08,-5.0,-5.0,-5.0,0.0,0.0,0.6485490667406625
1.09,-5.0,-5.0,-5.0,0.0,0.0,0.6485490667406617
1.1,-5.0,-5.0,-5.0,0.0,0.0,0.6485490667406613
1.11,-5.0,-5.0,-5.0,0.0,0.0,0.6485490667406604
1.12,-5.0,-5.0,-5.0,0.0,0.0,0.648549066740661
1.1300000000000001,-5.0,-5.0,-5.0,0.0,0.0,0.64854906674066
1.1400000000000001,-5.0,-5.0,-5.0,0.0,0.0,0.648549066740667
1.1500000000000001,-5.0,-5.0,-5.0,0.0,0.0,0.648549066740667
1.16,-5.0,-5.0,-5.0,0.0,0.0,0.6485490667406684
1.17,-5.0,-5.0,-5.0,0.0,0.0,0.6485490667406681
1.18,-5.0,-5.0,-5.0,0.0,0.0,0.6485490667406681
1.19,-5.0,-5.0,-5.0,0.0,0.0,0.6485490667406686
1.2,-5.0,-5.0,-5.0,0.0,0.0,0.6485490667406684
1.21,-5.0,-5.0,-5.0,0.0,0.0,0.6485490667406628
1.22,-5.0,-5.0,-5.0,0.0,0.0,0.6485490667406634
1.23,-5.0,-5.0,-5.0,0.0,0.0,0.6485490667406634
1.24,-5.0,-5.0,-5.0,0.0,0.0,0.6485490667406634
1.25,-5.0,-5.0,-5.0,0.0,0.0,0.6485490667406624
1.26,-5.0,-5.0,-5.0,0.0,0.0,0.6485490667406628
1.27,-5.0,-5.0,-5.0,0.0,0.0,0.6485490667406517
1.28,-5.0,-5.0,-5.0,0.0,0.0,0.6485490667406519
1.29,-5.0,-5.0,-5.0,0.0,0.0,0.6485490667406519
1.3,-5.0,-5.0,-5.0,0.0,0.0,0.6485490667406513
1.31,-5.0,-5.0,-5.0,0.0,0.0,0.6485490667406513
1.32,-5.0,-5.0,-5.0,0.0,0.0,0.6485490667406513
1.33,-5.0,-5.0,-5.0,0.0,0.0,0.6485490667406513
1.34,-5.0,-5.0,-5.0,0.0,0.0,0.6485490667406596
1.35,-5.0,-5.0,-5.0,0.0,0.0,0.648549066740659
1.36,-5.0,-5.0,-5.0,0.0,0.0,0.6485490667406594
1.37,-5.0,-5.0,-5.0,0.0,0.0,0.6485490667406598
1.3800000000000001,-5.0,-5.0,-5.0,0.0,0.0,0.6485490667406602
1.3900000000000001,-5.0,-5.0,-5.0,0.0,0.0,0.6485490667406599
1.4000000000000001,-5.0,-5.0,-5.0,0.0,0.0,0.6485490667406557
1.41,-5.0,-5.0,-5.0,0.0,0.0,0.6485490667406549
1.42,-5.0,-5.0,-5.0,0.0,0.0,0.648549066740659
1.43,-5.0,-5.0,-5.0,0.0,0.0,0.6485490667406557
1.44,-5.0,-5.0,-5.0,0.0,0.0,0.648549066740658
1.45,-5.0,-5.0,-5.0,0.0,0.0,0.6485490667406532
1.46,-5.0,-5.0,-5.0,0.0,0.0,0.648549066740655
1.47,-5.0,-5.0,-5.0,0.0,0.0,0.6485490667406604
1.48,-5.0,-5.0,-5.0,0.0,0.0,0.64854906674066
1.49,-5.0,-5.0,-5.0,0.0,0.0,0.6485490667406599
1.5,-5.0,-5.0,-5.0,0.0,0.0,0.6485490667406609
1.51,-5.0,-5.0,-5.0,0.0,0.0,0.6485490667406597
1.52,-5.0,-5.0,-5.0,0.0,0.0,0.6485490667406609
1.53,-5.0,-5.0,-5.0,0.0,0.0,0.6485490667406644
1.54,-5.0,-5.0,-5.0,0.0,0.0,0.6485490667406644
1.55,-5.0,-5.0,-5.0,0.0,0.0,0.6485490667406644
1.56,-5.0,-5.0,-5.0,0.0,0.0,0.6485490667406649
1.57,-5.0,-5.0,-5.0,0.0,0.0,0.6485490667406648
1.58,-5.0,-5.0,-5.0,0.0,0.0,0.6485490667406647
1.59,-5.0,-5.0,-5.0,0.0,0.0,0.6485490667406646
1.6,-5.0,-5.0,-5.0,0.0,0.0,0.6485490667406568
1.61,-5.0,-5.0,-5.0,0.0,0.0,0.6485490667406577
1.62,-5.0,-5.0,-5.0,0.0,0.0,0.6485490667406559
1.6300000000000001,-5.0,-5.0,-5.0,0.0,0.0,0.6485490667406582
1.6400000000000001,-5.0,-5.0,-5.0,0.0,0.0,0.6485490667406568
1.6500000000000001,-5.0,-5.0,-5.0,0.0,0.0,0.6485490667406588
1.6600000000000001,-5.0,-5.0,-5.0,0.0,0.0,0.6485490667406684
1.67,-5.0,-5.0,-5.0,0.0,0.0,0.6485490667406688
1.68,-5.0,-5.0,-5.0,0.0,0.0,0.6485490667406688
1.69,-5.0,-5.0,-5.0,0.0,0.0,0.6485490667406691
1.7,-5.0,-5.0,-5.0,0.0,0.0,0.6485490667406687
1.71,-5.0,-5.0,-5.0,0.0,0.0,0.6485490667406686
1.72,-5.0,-5.0,-5.0,0.0,0.0,0.6485490667406686
1.73,-5.0,-5.0,-5.0,0.0,0.0,0.6485490667406628
1.74,-5.0,-5.0,-5.0,0.0,0.0,0.6485490667406634
1.75,-5.0,-5.0,-5.0,0.0,0.0,0.6485490667406634
1.76,-5.0,-5.0,-5.0,0.0,0.0,0.6485490667406634
1.77,-5.0,-5.0,-5.0,0.0,0.0,0.6485490667406624
1.78,-5.0,-5.0,-5.0,0.0,0.0,0.6485490667406628
1.79,-5.0,-5.0,-5.0,0.0,0.0,0.6485490667406517
1.8,-5.0,-5.0,-5.0,0.0,0.0,0.6485490667406519
1.81,-5.0,-5.0,-5.0,0.0,0.0,0.6485490667406519
1.82,-5.0,-5.0,-5.0,0.0,0.0,0.6485490667406513
1.83,-5.0,-5.0,-5.0,0.0,0.0,0.6485490667406513
1.84,-5.0,-5.0,-5.0,0.0,0.0,0.6485490667406513
1.85,-5.0,-5.0,-5.0,0.0,0.0,0.6485490667406513
1.86,-5.0,-5.0,-5.0,0.0,0.0,0.6485490667406596
1.87,-5.0,-5.0,-5.0,0.0,0.0,0.648549066740659
1.8800000000000001,-5.0,-5.0,-5.0,0.0,0.0,0.6485490667406594
1.8900000000000001,-5.0,-5.0,-5.0,0.0,0.0,0.6485490667406598
1.9000000000000001,-5.0,-5.0,-5.0,0.0,0.0,0.6485490667406602
1.9100000000000001,-5.0,-5.0,-5.0,0.0,0.0,0.6485490667406599
1.92,-5.0,-5.0,-5.0,0.0,0.0,0.6485490667406557
1.93,-5.0,-5.0,-5.0,0.0,0.0,0.6485490667406549
1.94,-5.0,-5.0,-5.0,0.0,0.0,0.648549066740659
1.95,-5.0,-5.0,-5.0,0.0,0.0,0.6485490667406559
1.96,-5.0,-5.0,-5.0,0.0,0.0,0.6485490667406579
1.97,-5.0,-5.0,-5.0,0.0,0.0,0.6485490667406557
1.98,-5.0,-5.0,-5.0,0.0,0.0,0.6485490667406565
1.99,-5.0,-5.0,-5.0,0.0,0.0,0.6485490667406599
2.0,-5.0,-5.0,-5.0,0.0,0.0,0.6485490667406596
2.0100000000000002,-5.0,-5.0,-5.0,0.0,0.0,0.6485490667406596
2.02,-5.0,-5.0,-5.0,0.0,0.0,0.6485490667406604
2.0300000000000002,-5.0,-5.0,-5.0,0.0,0.0,0.64854906674066
2.04,-5.0,-5.0,-5.0,0.0,0.0,0.64854906674066
2.05,-5.0,-5.0,-5.0,0.0,0.0,0.6485490667406644
2.06,-5.0,-5.0,-5.0,0.0,0.0,0.6485490667406643
2.07,-4.970924299653337,-5.0,-5.0,0.0,0.0,0.6477890929165906
2.08,-4.845421755969067,-5.0,-5.0,0.0,0.0,0.6445087369176794
2.09,-4.723237698635301,-5.0,-5.0,0.0,0.0,0.6413151187352918
2.1,-4.604276719800219,-5.0,-5.0,0.0,0.0,0.6382057446214118
2.11,-4.488446540774388,-5.0,-5.0,0.0,0.0,0.6351782026173369
2.12,-4.375657890336859,-5.0,-5.0,0.0,0.0,0.6322301593728641
2.13,-4.265824388692562,-5.0,-5.0,0.0,0.0,0.6293593571132207
2.14,-4.158862436774243,-5.0,-5.0,0.0,0.0,0.626563610745613
2.15,-4.054691110601069,-5.0,-5.0,0.0,0.0,0.6238408050980531
2.16,-3.9532320604237134,-5.0,-5.0,0.0,0.0,0.6211888922832004
2.17,-3.854409414402162,-5.0,-5.0,0.0,0.0,0.6186058891807232
2.18,-3.7581496865777813,-5.0,-5.0,0.0,0.0,0.6160898750319063
2.19,-3.664381688915529,-5.0,-5.0,0.0,0.0,0.6136389891406205
2.2,-3.573036447205462,-5.0,-5.0,0.0,0.0,0.6112514286751582
2.21,-3.484047120625196,-5.0,-5.0,0.0,0.0,0.6089254465658159
2.22,-3.3973489247765616,-5.0,-5.0,0.0,0.0,0.606659349493213
2.23,-3.3128790580205933,-5.0,-5.0,0.0,0.0,0.6044514959628728
2.24,-3.230576630945139,-5.0,-5.0,0.0,0.0,0.602300294461642
2.25,-3.1503825988088816,-5.0,-5.0,0.0,0.0,0.6002042016919419
2.2600000000000002,-3.0722396968144614,-5.0,-5.0,0.0,0.0,0.5981617208799649
2.27,-2.99609237807172,-5.0,-5.0,0.0,0.0,0.5961714001541373
2.2800000000000002,-2.9218867541198916,-5.0,-5.0,0.0,0.0,0.5942318309905377
2.29,-2.8495705378848744,-5.0,-5.0,0.0,0.0,0.5923416467219086
2.3000000000000003,-2.779092988954588,-5.0,-5.0,0.0,0.0,0.5904995211072779
2.31,-2.710404861061828,-5.0,-5.0,0.0,0.0,0.5887041669592866
2.32,-2.6434583516701053,-5.0,-5.0,0.0,0.0,0.5869543348264713
2.33,-2.578207053563598,-5.0,-5.0,0.0,0.0,0.5852488117279201
2.34,-2.514605908347674,-5.0,-5.0,0.0,0.0,0.5835864199379055
2.35,-2.4526111617714625,-5.0,-5.0,0.0,0.0,0.5819660158180979
2.36,-2.3921803207886336,-5.0,-5.0,0.0,0.0,0.5803864886952376
2.37,-2.33327211227699,-5.0,-5.0,0.0,0.0,0.5788467597821536
2.38,-2.2758464433416297,-5.0,-5.0,0.0,0.0,0.5773457811401754
2.39,-2.2198643631303567,-5.0,-5.0,0.0,0.0,0.5758825346810883
2.4,-2.1652880260937026,-5.0,-5.0,0.0,0.0,0.5744560312068033
2.41,-2.1120806566254173,-5.0,-5.0,0.0,0.0,0.5730653094851755
2.42,-2.060206515022533,-5.0,-5.0,0.0,0.0,0.5717094353602409
2.43,-2.009630864707224,-5.0,-5.0,0.0,0.0,0.5703875008954795
2.44,-1.9603199406555745,-5.0,-5.0,0.0,0.0,0.5690986235486489
2.45,-1.9122409189811223,-5.0,-5.0,0.0,0.0,0.5678419453767009
2.46,-1.8653618876236517,-5.0,-5.0,0.0,0.0,0.5666166322697127
2.47,-1.8196518180961325,-5.0,-5.0,0.0,0.0,0.5654218732123799
2.48,-1.7750805382450379,-5.0,-5.0,0.0,0.0,0.5642568795720388
2.49,-1.7316187059814419,-5.0,-5.0,0.0,0.0,0.5631208844120662
2.5,-1.689237783942377,-5.0,-5.0,0.0,0.0,0.562013141829574
2.5100000000000002,-1.6479100150438724,-5.0,-5.0,0.0,0.0,0.5609329263164267
2.52,-1.6076083988889442,-5.0,-5.0,0.0,0.0,0.5598795321425811
2.5300000000000002,-1.5683066689955605,-5.0,-5.0,0.0,0.0,0.5588522727609093
2.54,-1.5299792708112507,-5.0,-5.0,0.0,0.0,0.5578504802325225
2.5500000000000003,-1.4926013404825988,-5.0,-5.0,0.0,0.0,0.5568735046718593
2.56,-1.4561486843493412,-5.0,-5.0,0.0,0.0,0.5559207137107156
2.57,-1.4205977591341912,-5.0,-5.0,0.0,0.0,0.5549914919804422
2.58,-1.385925652800852,-5.0,-5.0,0.0,0.0,0.5540852406116111
2.59,-1.3521100660539287,-5.0,-5.0,0.0,0.0,0.5532013767504844
2.6,-1.319129294455663,-5.0,-5.0,0.0,0.0,0.5523393330915671
2.61,-1.2869622111355283,-5.0,-5.0,0.0,0.0,0.5514985574256782
2.62,-1.255588250069823,-5.0,-5.0,0.0,0.0,0.5506785122029266
2.63,-1.2249873899094024,-5.0,-5.0,0.0,0.0,0.5498786741099928
2.64,-1.195140138334672,-5.0,-5.0,0.0,0.0,0.5490985336611951
2.65,-1.166027516917881,-5.0,-5.0,0.0,0.0,0.5483375948028657
2.66,-1.1376310464736332,-5.0,-5.0,0.0,0.0,0.5475953745303893
2.67,-1.1099327328793636,-5.0,-5.0,0.0,0.0,0.5468714025176206
2.68,-1.0829150533483172,-5.0,-5.0,0.0,0.0,0.546165220758076
2.69,-1.056560943138327,-5.0,-5.0,0.0,0.0,0.5454763832175329
2.7,-1.0308537826803903,-5.0,-5.0,0.0,0.0,0.5448044554976039
2.71,-1.0057773851117386,-5.0,-5.0,0.0,0.0,0.5441490145098684
2.72,-0.981315984198727,-5.0,-5.0,0.0,0.0,0.5435096481602236
2.73,-0.9574542226355015,-5.0,-5.0,0.0,0.0,0.5428859550430093
2.74,-0.9341771407049787,-5.0,-5.0,0.0,0.0,0.5422775441446624
2.75,-0.9114701652892363,-5.0,-5.0,0.0,0.0,0.5416840345564473
2.7600000000000002,-0.8893190992169434,-5.0,-5.0,0.0,0.0,0.5411050551960366
2.77,-0.8677101109359694,-5.0,-5.0,0.0,0.0,0.5405402445375673
2.7800000000000002,-0.8466297244997925,-5.0,-5.0,0.0,0.0,0.5399892503499178
2.79,-0.8260648098567899,-5.0,-5.0,0.0,0.0,0.5394517294428828
2.8000000000000003,-0.8060025734319327,-5.0,-5.0,0.0,0.0,0.5389273474210059
2.81,-0.7864305489908296,-5.0,-5.0,0.0,0.0,0.5384157784447815
2.82,-0.7673365887764607,-5.0,-5.0,0.0,0.0,0.5379167049989914
2.83,-0.748708854909327,-5.0,-5.0,0.0,0.0,0.5374298176679211
2.84,-0.7305358110421083,-5.0,-5.0,0.0,0.0,0.5369548149172303
2.85,-0.712806214260265,-5.0,-5.0,0.0,0.0,0.5364914028822728
2.86,-0.6955091072203605,-5.0,-5.0,0.0,0.0,0.5360392951625681
2.87,-0.678633810518191,-5.0,-5.0,0.0,0.0,0.5355982126223634
2.88,-0.6621699152791175,-5.0,-5.0,0.0,0.0,0.5351678831969419
2.89,-0.6461072759632879,-5.0,-5.0,0.0,0.0,0.5347480417045534
2.9,-0.630436003378709,-5.0,-5.0,0.0,0.0,0.5343384296638474
2.91,-0.6151464578953998,-5.0,-5.0,0.0,0.0,0.5339387951164131
2.92,-0.600229242854108,-5.0,-5.0,0.0,0.0,0.5335488924545924
2.93,-0.5856751981633169,-5.0,-5.0,0.0,0.0,0.5331684822540605
2.94,-0.5714753940785028,-5.0,-5.0,0.0,0.0,0.5327973311112734
2.95,-0.557621125157825,-5.0,-5.0,0.0,0.0,0.5324352114854075
2.96,-0.5441039043886455,-5.0,-5.0,0.0,0.0,0.5320819015449159
2.97,-0.5309154574794775,-5.0,-5.0,0.0,0.0,0.5317371850183605
2.98,-0.5180477173121617,-5.0,-5.0,0.0,0.0,0.5314008510492585
2.99,-0.5054928185492541,-5.0,-5.0,0.0,0.0,0.5310726940552719
3.0,-0.49324309239178954,-5.0,-5.0,0.0,0.0,0.5307525135911425
3.0100000000000002,-0.481291061482759,-5.0,-5.0,0.0,0.0,0.5304401142154557
3.02,-0.46962943495180315,-5.0,-5.0,0.0,0.0,0.5301353053611912
3.0300000000000002,-0.4582511035967831,-5.0,-5.0,0.0,0.0,0.5298379012096703
3.04,-0.4471491351980447,-5.0,-5.0,0.0,0.0,0.5295477205681676
3.0500000000000003,-0.43631676996133223,-5.0,-5.0,0.0,0.0,0.529264586750768
3.06,-0.42574741608545635,-5.0,-5.0,0.0,0.0,0.528988327462522
3.0700000000000003,-0.4154346454509482,-5.0,-5.0,0.0,0.0,0.5287187746867489
3.08,-0.4053721894260653,-5.0,-5.0,0.0,0.0,0.5284557645754328
3.09,-0.395553934786638,-5.0,-5.0,0.0,0.0,0.5281991373425514
3.1,-0.3859739197463644,-5.0,-5.0,0.0,0.0,0.5279487371603383
3.11,-0.37662633009427615,-5.0,-5.0,0.0,0.0,0.5277044120583062
3.12,-0.36750549543620836,-5.0,-5.0,0.0,0.0,0.5274660138250341
3.13,-0.3586058855372129,-5.0,-5.0,0.0,0.0,0.5272333979125273
3.14,-0.34992210676195495,-5.0,-5.0,0.0,0.0,0.5270064233432294
3.15,-0.3414488986102329,-5.0,-5.0,0.0,0.0,0.5267849526194105
3.16,-0.333181130344854,-5.0,-5.0,0.0,0.0,0.5265688516350754
3.17,-0.3251137977091898,-5.0,-5.0,0.0,0.0,0.5263579895901334
3.18,-0.3172420197318225,-5.0,-5.0,0.0,0.0,0.5261522389069047
3.19,-0.3095610356157775,-5.0,-5.0,0.0,0.0,0.5259514751487943
3.2,-0.30206620170991877,-5.0,-5.0,0.0,0.0,0.5257555769411503
3.21,-0.29475298856015947,-5.0,-5.0,0.0,0.0,0.5255644258941446
3.22,-0.28761697803821895,-5.0,-5.0,0.0,0.0,0.5253779065277814
3.23,-0.28065386054572644,-5.0,-5.0,0.0,0.0,0.5251959061988116
3.24,-0.273859432291542,-5.0,-5.0,0.0,0.0,0.5250183150295089
3.25,-0.2672295926402343,-5.0,-5.0,0.0,0.0,0.5248450258384493
3.2600000000000002,-0.2607603415297163,-5.0,-5.0,0.0,0.0,0.5246759340729293
3.27,-0.2544477769561061,-5.0,-5.0,0.0,0.0,0.5245109377432959
3.2800000000000002,-0.24828809252393702,-5.0,-5.0,0.0,0.0,0.5243499373588789
3.29,-0.2422775750599004,-5.0,-5.0,0.0,0.0,0.5241928358656271
3.3000000000000003,-0.23641260228836183,-5.0,-5.0,0.0,0.0,0.524039538585351
3.31,-0.2306896405669426,-5.0,-5.0,0.0,0.0,0.5238899531565352
3.3200000000000003,-0.2251052426805135,-5.0,-5.0,0.0,0.0,0.5237439894766779
3.33,-0.2196560456919961,-5.0,-5.0,0.0,0.0,0.5236015596461282
3.34,-0.21433876884841604,-5.0,-5.0,0.0,0.0,0.5234625779133315
3.35,-0.20915021154070018,-5.0,-5.0,0.0,0.0,0.5233269606215178
3.36,-0.20408725131575398,-5.0,-5.0,0.0,0.0,0.523194626156745
3.37,-0.19914684193939983,-5.0,-5.0,0.0,0.0,0.5230654948972582
3.38,-0.19432601150879905,-5.0,-5.0,0.0,0.0,0.5229394891641577
3.39,-0.189621860613021,-5.0,-5.0,0.0,0.0,0.5228165331733241
3.4,-0.18503156054046277,-5.0,-5.0,0.0,0.0,0.5226965529885589
3.41,-0.1805523515318606,-5.0,-5.0,0.0,0.0,0.5225794764759212
3.42,-0.1761815410776708,-5.0,-5.0,0.0,0.0,0.5224652332592284
3.43,-0.171916502258635,-5.0,-5.0,0.0,0.0,0.5223537546766835
3.44,-0.16775467212837677,-5.0,-5.0,0.0,0.0,0.5222449737385924
3.45,-0.16369355013691278,-5.0,-5.0,0.0,0.0,0.522138825086177
3.46,-0.15973069659399128,-5.0,-5.0,0.0,0.0,0.5220352449513774
3.47,-0.15586373117120383,-5.0,-5.0,0.0,0.0,0.5219341711177347
3.48,-0.15209033144184606,-5.0,-5.0,0.0,0.0,0.5218355428822006
3.49,-0.14840823145753107,-5.0,-5.0,0.0,0.0,0.5217393010179545
3.5,-0.14481522036059025,-5.0,-5.0,0.0,0.0,0.5216453877381162
3.5100000000000002,-0.14130914103132028,-5.0,-5.0,0.0,0.0,0.5215537466603961
3.52,-0.13788788876916483,-5.0,-5.0,0.0,0.0,0.5214643227726196
3.5300000000000002,-0.13454941000694287,-5.0,-5.0,0.0,0.0,0.5213770623991353
3.54,-0.13129170105726196,-5.0,-5.0,0.0,0.0,0.5212919131680338
3.5500000000000003,-0.12811280689027743,-5.0,-5.0,0.0,0.0,0.5212088239792075
3.56,-0.12501081994198418,-5.0,-5.0,0.0,0.0,0.5211277449731937
3.5700000000000003,-0.1219838789522473,-5.0,-5.0,0.0,0.0,0.521048627500809
3.58,-0.11903016783180287,-5.0,-5.0,0.0,0.0,0.5209714240935425
3.59,-0.11614791455747908,-5.0,-5.0,0.0,0.0,0.5208960884346701
3.6,-0.11333539009490999,-5.0,-5.0,0.0,0.0,0.5208225753310939
3.61,-0.11059090734803366,-5.0,-5.0,0.0,0.0,0.5207508406858967
3.62,-0.10791282013468571,-5.0,-5.0,0.0,0.0,0.5206808414715547
3.63,-0.10529952218761858,-5.0,-5.0,0.0,0.0,0.5206125357038273
3.64,-0.10274944618029459,-5.0,-5.0,0.0,0.0,0.5205458824163149
3.65,-0.1002610627768189,-5.0,-5.0,0.0,0.0,0.5204808416355811
3.66,-0.0978328797053955,-5.0,-5.0,0.0,0.0,0.5204173743569878
3.67,-0.09546344085470626,-5.0,-5.0,0.0,0.0,0.5203554425210236
3.68,-0.09315132539262883,-5.0,-5.0,0.0,0.0,0.5202950089903231
3.69,-0.09089514690672508,-5.0,-5.0,0.0,0.0,0.5202360375271697
3.7,-0.08869355256594756,-5.0,-5.0,0.0,0.0,0.5201784927715739
3.71,-0.08654522230302503,-5.0,-5.0,0.0,0.0,0.5201223402199302
3.72,-0.0844488680170038,-5.0,-5.0,0.0,0.0,0.5200675462041588
3.73,-0.08240323279543446,-5.0,-5.0,0.0,0.0,0.5200140778713771
3.74,-0.08040709015570824,-5.0,-5.0,0.0,0.0,0.5199619031640713
3.75,-0.07845924330505898,-5.0,-5.0,0.0,0.0,0.5199109908007519
3.7600000000000002,-0.07655852441876106,-5.0,-5.0,0.0,0.0,0.5198613102570938
3.77,-0.0747037939360647,-5.0,-5.0,0.0,0.0,0.5198128317475201
3.7800000000000002,-0.07289393987342287,-5.0,-5.0,0.0,0.0,0.519765526207272
3.79,-0.07112787715457562,-5.0,-5.0,0.0,0.0,0.5197193652748774
3.8000000000000003,-0.06940454695706877,-5.0,-5.0,0.0,0.0,0.519674321275087
3.81,-0.06772291607479529,-5.0,-4.901321803096259,0.0,0.0,0.5189855603208536
3.8200000000000003,-0.06608233990168302,-5.0,-4.780407827665907,0.0,0.0,0.5181525740563064
3.83,-0.06448188865528734,-5.0,-4.662515397302037,0.0,0.0,0.5173403806764176
3.84,-0.0629205612823041,-5.0,-4.5475671256871575,0.0,0.0,0.5165484483395438
3.85,-0.061397382681227845,-5.0,-4.435487699940214,0.0,0.0,0.5157762594311179
3.86,-0.05991140298222622,-5.0,-4.326203820641094,0.0,0.0,0.5150233101529057
3.87,-0.05846169684923138,-5.0,-4.219644143800098,0.0,0.0,0.514289110125588
3.88,-0.05704736280346151,-5.0,-4.115739224699632,0.0,0.0,0.5135731820040865
3.89,-0.055667522567617624,-5.0,-4.0144214635385245,0.0,0.0,0.5128750611052669
3.9,-0.05432132043003173,-5.0,-3.915625052812367,0.0,0.0,0.5121942950474826
3.91,-0.05300792262807156,-5.0,-3.8192859263661183,0.0,0.0,0.5115304434014928
3.92,-0.05172651675013534,-5.0,-3.725341710057926,0.0,0.0,0.5108830773525166
3.93,-0.050476311155596545,-5.0,-3.633731673975697,0.0,0.0,0.5102517793727964
3.94,-0.04925653441208423,-5.0,-3.544396686150394,0.0,0.0,0.5096361429044349
3.95,-0.04806643474950881,-5.0,-3.4572791677123833,0.0,0.0,0.5090357720520985
3.96,-0.04690527953026616,-5.0,-3.372323049439375,0.0,0.0,0.508450281285235
3.97,-0.04577235473507566,-5.0,-3.2894737296466268,0.0,0.0,0.5078792951494973
3.98,-0.04466696446392824,-5.0,-3.2086780333720877,0.0,0.0,0.5073224479869043
3.99,-0.043588430451641465,-5.0,-3.129884172811112,0.0,0.0,0.5067793836647936
4.0,-0.0425360915975374,-5.0,-3.053041708957173,0.0,0.0,0.5062497553127299
4.01,-0.04150930350877802,-5.0,-2.978101514406795,0.0,0.0,0.5057332250675896
4.0200000000000005,-0.04050743805691027,-5.0,-2.9050157372885743,0.0,0.0,0.5052294638262614
4.03,-0.03952988294719009,-5.0,-2.8337377662777556,0.0,0.0,0.5047381510057615
4.04,-0.03857604130027048,-5.0,-2.764222196659357,0.0,0.0,0.5042589743105577
4.05,-0.03764533124585472,-5.0,-2.696424797404296,0.0,0.0,0.5037916295067983
4.0600000000000005,-0.03673718552793022,-5.0,-2.6303024792243455,0.0,0.0,0.5033358202032552
4.07,-0.035851051121212944,-5.0,-2.565813263573092,0.0,0.0,0.502891257638739
4.08,-0.034986388858445835,-5.0,-2.502916252561313,0.0,0.0,0.5024576604757686
4.09,-0.034142673068207695,-5.0,-2.441571599756428,0.0,0.0,0.502034754600283
4.1,-0.03331939122290151,-5.0,-2.381740481836822,0.0,0.0,0.5016222729272739
4.11,-0.032516043596603095,-5.0,-2.3233850710729467,0.0,0.0,0.5012199552119103
4.12,-0.03173214293246245,-5.0,-2.266468508608171,0.0,0.0,0.5008275478663722
4.13,-0.030967214119361156,-5.0,-2.210954878513363,0.0,0.0,0.5004448037817771
4.14,-0.030220793877539728,-5.0,-2.1568091825901634,0.0,0.0,0.5000714821553633
4.15,-0.029492430452918893,-5.0,-2.10399731589882,0.0,0.0,0.49970734832256447
4.16,-0.028781683319848556,-5.0,-2.052486042987368,0.0,0.0,0.4993521735939114
4.17,-0.02808812289202739,-5.0,-2.0022429747997723,0.0,0.0,0.49900573509659446
4.18,-0.027411330241345015,-5.0,-1.9532365462414802,0.0,0.0,0.4986678156205106
4.19,-0.026750896824407292,-5.0,-1.905435994381594,0.0,0.0,0.4983382034686968
4.2,-0.026106424216513498,-5.0,-1.8588113372716484,0.0,0.0,0.49801669231192264
4.21,-0.025477523852861967,-5.0,-1.8133333533616742,0.0,0.0,0.4977030810474891
4.22,-0.02486381677676857,-5.0,-1.7689735614949302,0.0,0.0,0.4973971736618602
4.23,-0.024264933394689506,-5.0,-1.7257042014633437,0.0,0.0,0.4970987790972398
4.24,-0.023680513237847055,-5.0,-1.6834982151063316,0.0,0.0,0.496807711121808
4.25,-0.023110204730263574,-5.0,-1.6423292279362833,0.0,0.0,0.4965237882036221
4.26,-0.02255366496301561,-5.0,-1.6021715312745752,0.0,0.0,0.49624683338796716
4.2700000000000005,-0.02201055947452612,-5.0,-1.5630000648825362,0.0,0.0,0.4959766741780957
4.28,-0.02148056203671898,-5.0,-1.5247904000723342,0.0,0.0,0.4957131424193143
4.29,-0.020963354446865517,-5.0,-1.4875187232832607,0.0,0.0,0.4954560741861984
4.3,-0.02045862632495848,-5.0,-1.4511618201093899,0.0,0.0,0.49520530967294046
4.3100000000000005,-0.019966074916454298,-5.0,-1.4156970597650713,0.0,0.0,0.49496069308667
4.32,-0.019485404900229392,-5.0,-1.3811023799751632,0.0,0.0,0.4947220725437161
4.33,-0.01901632820160154,-5.0,-1.3473562722773624,0.0,0.0,0.49448929996866553
4.34,-0.018558563810271808,-5.0,-1.3144377677244072,0.0,0.0,0.4942622309961796
4.3500000000000005,-0.01811183760304742,-5.0,-1.2823264229743372,0.0,0.0,0.49404072487548006
4.36,-0.017675882171210147,-4.94601956768067,-1.2510023067573859,0.0,0.0,0.4922726237349116
4.37,-0.017250715050420338,-4.827050405146538,-1.2204648354946914,0.0,0.0,0.4886414186851676
4.38,-0.016836388663638933,-4.711114668724567,-1.1907158217618101,0.0,0.0,0.485102864794286
4.39,-0.01643259698807931,-4.5981267279112155,-1.1617328533547766,0.0,0.0,0.4816543456033049
4.4,-0.016039044056138867,-4.488003765818497,-1.1334942534697996,0.0,0.0,0.47829333061729634
4.41,-0.01565544355838499,-4.380665668082534,-1.105979051907486,0.0,0.0,0.4750173719127742
4.42,-0.015281518465304738,-4.276034917022537,-1.0791669576239376,0.0,0.0,0.4718241009053366
4.43,-0.014917000666784423,-4.174036490760911,-1.0530383325551718,0.0,0.0,0.4687112252688019
4.44,-0.014561630628350048,-4.074597767033353,-1.027574166645882,0.0,0.0,0.4656765259973745
4.45,-0.014215157063259671,-3.977648431434576,-1.0027560540178155,0.0,0.0,0.46271785460330883
4.46,-0.013877336619594725,-3.883120389861022,-0.9785661702169998,0.0,0.0,0.45983313044262425
4.47,-0.013547933581549505,-3.7909476849264556,-0.9549872504827378,0.0,0.0,0.45702033816214543
4.48,-0.013226719584166612,-3.701066416139974,-0.93200256898474,0.0,0.0,0.4542775252613357
4.49,-0.012913473340811428,-3.6134146636486233,-0.9095959189779574,0.0,0.0,0.4516027997630222
4.5,-0.012607980382720966,-3.5279324153586287,-0.8877515938276838,0.0,0.0,0.4489943279871867
4.51,-0.012310032810001873,-3.4445614972603047,-0.8664543688602826,0.0,0.0,0.44645033242259025
4.5200000000000005,-0.012019429053489222,-3.3632455067919955,-0.8456894839975112,0.0,0.0,0.44396908969121096
4.53,-0.011735973646912047,-3.2839297490880273,-0.8254426271348481,0.0,0.0,0.44154892860067807
4.54,-0.011459477008843871,-3.2065611759646706,-0.8056999182265187,0.0,0.0,0.4391882282803682
4.55,-0.011189755233946429,-3.1310883275064945,-0.7864478940420425,0.0,0.0,0.4368854163968139
4.5600000000000005,-0.010926629893043008,-3.0574612761234143,-0.7676734935611291,0.0,0.0,0.4346389674446237
4.57,-0.01066992784158417,-2.9856315729560583,-0.7493640439756171,0.0,0.0,0.4324474011090758
4.58,-0.010419481036093229,-2.9155521965140223,-0.7315072472689053,0.0,0.0,0.43030928069688484
4.59,-0.01017512635820209,-2.847177503438031,-0.7140911673449691,0.0,0.0,0.4282232116318389
4.6000000000000005,-0.0099367054459096,-2.780463181283088,-0.6971042176805969,0.0,0.0,0.42618784001216503
4.61,-0.00970406453171501,-2.715366203225399,-0.6805351494759221,0.0,0.0,0.42420185122658494
4.62,-0.009477054287298139,-2.6518447846011792,-0.664373040279693,0.0,0.0,0.4221664451789358
4.63,-0.009255537633198611,-2.58986056819087,-0.6486079129520088,0.0,0.0,0.420059758564194
4.64,-0.00903938254861991,-2.529376612277131,-0.6332301656323527,0.0,0.0,0.418004109951012
4.65,-0.008828450559222323,-2.4703541693288793,-0.6182296624767665,0.0,0.0,0.4159981800889364
4.66,-0.008622607173960547,-2.4127556064101565,-0.6035965615211167,0.0,0.0,0.41404068769566915
4.67,-0.008421721751838043,-2.3565443678956792,-0.5893213048413221,0.0,0.0,0.4121303881869032
4.68,-0.008225667373950609,-2.301684939666399,-0.5753946091024505,0.0,0.0,0.4102660724565622
4.69,-0.008034320720572839,-2.2481428147161586,-0.5618074564786845,0.0,0.0,0.4084465657051278
4.7,-0.007847561953054279,-2.195884460104176,-0.5485510859271028,0.0,0.0,0.4066707263137812
4.71,-0.007665274600304413,-2.144877285191569,-0.5356169847991307,0.0,0.0,0.4049374447622834
4.72,-0.0074873454496571686,-2.0950896111033446,-0.5229968807743458,0.0,0.0,0.4032456425885944
4.73,-0.007313664441916628,-2.04649064136036,-0.5106827341021297,0.0,0.0,0.4015942713883245
4.74,-0.007144124570395858,-1.9990504336286292,-0.4986667301373995,0.0,0.0,0.39998231185232125
4.75,-0.006978621783770462,-1.9527398725360599,-0.4869412721573594,0.0,0.0,0.3984087728404676
4.76,-0.006817054892577643,-1.9075306435092574,-0.47549897444687966,0.0,0.0,0.3968726904903495
4.7700000000000005,-0.006659325479200077,-1.8633952075854485,-0.46433265564073306,0.0,0.0,0.39537312735911306
4.78,-0.00650533781118209,-1.8203067771568398,-0.45343533231151334,0.0,0.0,0.39390917159706906
4.79,-0.006354998757733274,-1.778239292606872,-0.44280021279261866,0.0,0.0,0.392479936151645
4.8,-0.006208217709281868,-1.737167399799859,-0.43242069122620674,0.0,0.0,0.3910845580004458
4.8100000000000005,-0.00606490649994709,-1.697066428387394,-0.4222903418265291,0.0,0.0,0.3897221974122242
4.82,-0.005924979332806037,-1.6579123708967296,-0.41240291334951895,0.0,0.0,0.38839203723426113
4.83,-0.0057883527078368725,-1.6196818625680247,-0.4027523237599551,0.0,0.0,0.38709328220545436
4.84,-0.005654945352425725,-1.5823521619089658,-0.39333265508793924,0.0,0.0,0.38582515829381714
4.8500000000000005,-0.005524678154330242,-1.5459011319368032,-0.38413814846682587,0.0,0.0,0.38458691205733336
4.86,-0.005397474096997815,-1.5103072220792628,-0.37516319934511594,0.0,0.0,0.38337781002727245
4.87,-0.005273258197141409,-1.4755494507071774,-0.36640235286518325,0.0,0.0,0.3821971381130868
4.88,-0.005151957444480498,-1.44160738827295,-0.3578502994020379,0.0,0.0,0.38104420102783515
4.89,-0.005033500743559018,-1.4084611410302064,-0.34950187025565005,0.0,0.0,0.3799183217335516
4.9,-0.004917818857556325,-1.3760913353111204,-0.34135203349065896,0.0,0.0,0.378818840905492
4.91,-0.004804844354011092,-1.3444791023390177,-0.3333958899175788,0.0,0.0,0.3777451164146729
4.92,-0.004694511552381807,-1.3136060635548883,-0.3256286692098829,0.0,0.0,0.37669652282791455
4.93,-0.004586756473370984,-1.2834543164374193,-0.3180457261516066,0.0,0.0,0.3756724509246916
4.94,-0.0044815167899435885,-1.2540064207970976,-0.31064253701035016,0.0,0.0,0.37467230723014194
4.95,-0.00437873177997335,-1.2252453855258238,-0.3034146960307984,0.0,0.0,0.3736955135635893
4.96,-0.004278342280453555,-1.1971546557842951,-0.2963579120440891,0.0,0.0,0.3727084758333708
4.97,-0.004180291875921617,-1.1697184455438887,-0.28946810044704424,0.0,0.0,0.37169252349762427
4.98,-0.004084526172588171,-1.1429215344753476,-0.28274132696706483,0.0,0.0,0.3707002683757163
4.99,-0.003990990147611521,-1.1167485262296208,-0.27617360309163175,0.0,0.0,0.3697311391620586
5.0,-0.003899630186226945,-1.0911844184621085,-0.26976104382321753,0.0,0.0,0.36878457918523094
5.01,-0.003810394041938845,-1.0662145916937338,-0.26349986472411324,0.0,0.0,0.36786004599398636
5.0200000000000005,-0.0037232307980051556,-1.041824798533609,-0.25738637905753164,0.0,0.0,0.366957010956692
5.03,-0.0036380908301649932,-1.0180011532495834,-0.2514169950213381,0.0,0.0,0.3660749588737014
5.04,-0.0035549257705626367,-0.9947301216735441,-0.24558821307092166,0.0,0.0,0.3652133876021605
5.05,-0.0034736884728230224,-0.9719985114289321,-0.2398966233278694,0.0,0.0,0.36429871943658293
5.0600000000000005,-0.003394335199899085,-0.9497940841285193,-0.2343390737237841,0.0,0.0,0.36339837090377275
5.07,-0.003316821152234636,-0.928104304076526,-0.22891232626084868,0.0,0.0,0.3625189250360623
5.08,-0.0032411024417124483,-0.9069168906136622,-0.2236132090735697,0.0,0.0,0.36165988216652817
5.09,-0.003167136285897881,-0.8862198724698759,-0.2184386314495304,0.0,0.0,0.36082075523811574
5.1000000000000005,-0.0030948809775290997,-0.8660015792271842,-0.21338558156199017,0.0,0.0,0.3600010694551846
5.11,-0.0030242958549664633,-0.8462506330508985,-0.20845112427429197,0.0,0.0,0.35920036194605387
5.12,-0.00295534127356595,-0.8269559406794106,-0.20363239901344152,0.0,0.0,0.3584181814360724
5.13,-0.0028879785779429732,-0.8081066856631248,-0.19892661771033338,0.0,0.0,0.3576540879308988
5.14,-0.0028221700750943658,-0.7896923208435216,-0.1943310628042057,0.0,0.0,0.3569076524095446
5.15,-0.0027578790083476502,-0.7717025610637104,-0.18984308530900657,0.0,0.0,0.3561784565269126
5.16,-0.0026950695321080204,-0.7541273761021943,-0.18546010293945214,0.0,0.0,0.3554660923254429
5.17,-0.0026337066873746563,-0.7369569838219094,-0.1811795982946473,0.0,0.0,0.3547701619555493
5.18,-0.0025737563779991922,-0.7201818435269312,-0.17699911709722924,0.0,0.0,0.3540780396917138
5.19,-0.0025151856244912886,-0.7037927269816913,-0.17291628757241007,0.0,0.0,0.3533813348219092
5.2,-0.0024579624171811817,-0.687780677323303,-0.16892880924879164,0.0,0.0,0.3527006959943275
5.21,-0.0024020550485226613,-0.6721368222283102,-0.16503440217059234,0.0,0.0,0.35203574423206824
5.22,-0.002347432589838555,-0.6568525073143734,-0.16123084330143286,0.0,0.0,0.35138610989126595
5.23,-0.002294064870695724,-0.6419192903690345,-0.1575159649952366,0.0,0.0,0.350751432413372
5.24,-0.0022419224588923893,-0.6273289357498228,-0.1538876535129925,0.0,0.0,0.3501313600847855
5.25,-0.0021909766410367904,-0.613073408949825,-0.15034384758380054,0.0,0.0,0.34952554980363565
5.26,-0.0021411994036970067,-0.5991448713230776,-0.14688253700868092,0.0,0.0,0.3489336668534267
5.2700000000000005,-0.002092563415102581,-0.5855356749643618,-0.14350176130568945,0.0,0.0,0.3483553846832915
5.28,-0.002045042007379326,-0.5722383577381935,-0.14019960839493903,0.0,0.0,0.34779038469472146
5.29,-0.001998609159299445,-0.5592456384520075,-0.13697421332218074,0.0,0.0,0.3472383560343943
5.3,-0.0019532394795297773,-0.5465504121687232,-0.13382375701965202,0.0,0.0,0.34669899539310184
5.3100000000000005,-0.0019089081903616476,-0.534145745654075,-0.13074646510294863,0.0,0.0,0.346172006810411
5.32,-0.0018655911119064344,-0.5220248729542557,-0.12774060670272483,0.0,0.0,0.34565710148491924
5.33,-0.0018232646467415796,-0.5101811910996038,-0.12480449333007237,0.0,0.0,0.3451539975899591
5.34,-0.0017819057649923384,-0.49860825593021685,-0.12193647777447275,0.0,0.0,0.3446624200945249
5.3500000000000005,-0.0017414919898351316,-0.487299778039537,-0.1191349530332586,0.0,0.0,0.3441821005892713
5.36,-0.0017020013834088874,-0.4762496188320993,-0.1163983512715605,0.0,0.0,0.3437127771174193
5.37,-0.0016634125331212658,-0.46545178669177517,-0.1137251428117536,0.0,0.0,0.3432541940104183
5.38,-0.0016257045383371606,-0.45490043325698265,-0.11111383515145563,0.0,0.0,0.34280610172819403
5.39,-0.0015888569974373177,-0.4445898497994636,-0.1085629720091622,0.0,0.0,0.3423682567038453
5.4,-0.00155284999523538,-0.4345144637033527,-0.10607113239663994,0.0,0.0,0.34194042119265877
5.41,-0.0015176640907420724,-0.4246688350413843,-0.10363692971722939,0.0,0.0,0.34152236312529993
5.42,-0.0014832803052656723,-0.41504765324519644,-0.101259010889241,0.0,0.0,0.34111385596504146
5.43,-0.0014496801108382865,-0.40564573386680153,-0.09893605549365704,0.0,0.0,0.3407146785688954
5.44,-0.001416845418957843,-0.39645801542840003,-0.09666677494538062,0.0,0.0,0.3403246150525733
5.45,-0.0013847585696360634,-0.3874795563578123,-0.09444991168729996,0.0,0.0,0.33994345465908576
5.46,-0.0013534023207430292,-0.3787055320069023,-0.09228423840646305,0.0,0.0,0.3395709916309475
5.47,-0.00132275983763928,-0.37013123175045903,-0.09016855727168133,0.0,0.0,0.33920702508581035
5.48,-0.0012928146830867152,-0.3617520561630905,-0.0881016991919067,0.0,0.0,0.33885135889544166
5.49,-0.001263550807429864,-0.35356351427177224,-0.08608252309474813,0.0,0.0,0.3385038015679901
5.5,-0.0012349525390393846,-0.34556122088177216,-0.08410991522451658,0.0,0.0,0.33816416613336286
5.51,-0.0012070045750099399,-0.3377408939737542,-0.08218278845920823,0.0,0.0,0.3378322700316779
5.5200000000000005,-0.001179691972104861,-0.33009835216993755,-0.08030008164585639,0.0,0.0,0.33750793500469284
5.53,-0.0011530001379402802,-0.32262951226726316,-0.07846075895370203,0.0,0.0,0.337190986990089
5.54,-0.001126914822401646,-0.31533038683558595,-0.07666380924465162,0.0,0.0,0.3368812560185504
5.55,-0.0011014221092857986,-0.3081970818789815,-0.07490824546050924,0.0,0.0,0.33657857611358594
5.5600000000000005,-0.0010765084081619898,-0.3012257945583175,-0.0731931040264869,0.0,0.0,0.33628278519393123
5.57,-0.0010521604464454675,-0.2944128109733056,-0.07151744427051437,0.0,0.0,0.3359937249785321
5.58,-0.0010283652616774577,-0.287754504002305,-0.06988034785788508,0.0,0.0,0.33571124089405197
5.59,-0.0010051101940055736,-0.28124733119821055,-0.06828091824079086,0.0,0.0,0.33543518198467576
5.6000000000000005,-0.0009823828788588843,-0.2748878327388092,-0.06671828012231237,0.0,0.0,0.33516540082435836
5.61,-0.0009601712398120691,-0.26867262943004633,-0.06519157893444727,0.0,0.0,0.33490175343128553
5.62,-0.0009384634816332544,-0.2625984207606893,-0.06369998032977087,0.0,0.0,0.33464409918459476
5.63,-0.0009172480835103159,-0.25666198300692905,-0.06224266968633821,0.0,0.0,0.3343923007431671
5.64,-0.0008965137924505969,-0.2508601673855062,-0.06081885162544861,0.0,0.0,0.33414622396654475
5.65,-0.0008762496168491476,-0.24518989825399254,-0.05942774954190626,0.0,0.0,0.3339057378378946
5.66,-0.0008564448202207588,-0.23964817135690483,-0.058068605146422154,0.0,0.0,0.33367071438888596
5.67,-0.0008370889150912054,-0.2342320521163687,-0.05674067801981411,0.0,0.0,0.3334410286265141
5.68,-0.0008181716570432665,-0.22893867396609077,-0.05544324517867242,0.0,0.0,0.3332165584617909
5.69,-0.0007996830389132227,-0.22376523672743828,-0.054175600652169476,0.0,0.0,0.3329971846401965
5.7,-0.0007816132851336738,-0.2187090050264605,-0.05293705506970164,0.0,0.0,0.3327827906739509
5.71,-0.0007639528462186432,-0.21376730675072514,-0.05172693525906149,0.0,0.0,0.3325732627759377
5.72,-0.0007466923933870662,-0.2089375315448767,-0.05054458385484828,0.0,0.0,0.3323684897953207
5.73,-0.000729822813320877,-0.204217129343858,-0.04938935891683312,0.0,0.0,0.3321683631547738
5.74,-0.0007133352030540259,-0.19960360894276818,-0.04826063355800452,0.0,0.0,0.33197277678926557
5.75,-0.0006972208649888747,-0.1950945366023633,-0.04715779558202836,0.0,0.0,0.3317816270863988
5.76,-0.0006814713020365213,-0.19068753468923477,-0.04608024712986431,0.0,0.0,0.3315948128282173
5.7700000000000005,-0.000666078212877714,-0.18638028034973028,-0.04502740433528899,0.0,0.0,0.3314122351344592
5.78,-0.0006510334873411123,-0.18217050421671127,-0.04399869698908333,0.0,0.0,0.3312337974072415
5.79,-0.0006363292018957571,-0.178055989148267,-0.04299356821164946,0.0,0.0,0.3310594052770895
5.8,-0.0006219576152546952,-0.17403456899753267,-0.042011474133828976,0.0,0.0,0.3308889665503136
5.8100000000000005,-0.0006079111640868055,-0.17010412741278336,-0.041051883585701845,0.0,0.0,0.3307223911576743
5.82,-0.0005941824588339565,-0.16626259666700205,-0.04011427779315141,0.0,0.0,0.33055933351312694
5.83,-0.0005807642810015181,-0.16250795689971764,-0.03919815018262587,0.0,0.0,0.330399112557708
5.84,-0.000567649580780832,-0.15883823545173067,-0.038303006209973706,0.0,0.0,0.33024252248619745
5.8500000000000005,-0.0005548314653330826,-0.1552515035867367,-0.03742836250406453,0.0,0.0,0.33008948064641414
5.86,-0.0005423031998916525,-0.15174587679978419,-0.036573746951834275,0.0,0.0,0.3299399062863158
5.87,-0.0005300582040640801,-0.14831951378249808,-0.03573869843055135,0.0,0.0,0.32979372050948036
5.88,-0.0005180900482239,-0.1449706154134539,-0.03492276654669625,0.0,0.0,0.3296508462315617
5.89,-0.0005063924499900351,-0.14169742377305036,-0.034125511381280414,0.0,0.0,0.32951120813790324
5.9,-0.0004949592707914677,-0.13849822118224456,-0.03334650324143507,0.0,0.0,0.3293747326421096
5.91,-0.0004837845125149896,-0.13537132926453393,-0.03258532241810584,0.0,0.0,0.32924134784567755
5.92,-0.0004728623142338882,-0.1323151080305859,-0.031841558949693705,0.0,0.0,0.32911098349857515
5.93,-0.00046218694901549115,-0.12932795498493316,-0.031114812391487095,0.0,0.0,0.3289835709607612
5.94,-0.00045175282080554694,-0.1264083042541691,-0.030404691590734893,0.0,0.0,0.32885904316468373
5.95,-0.00044155446138747947,-0.1235546257360944,-0.029710814467213836,0.0,0.0,0.32873733457859405
5.96,-0.0004315865274146062,-0.12076542426927989,-0.029032807799148377,0.0,0.0,0.3286183811708714
5.97,-0.0004218437975134661,-0.1180392388225273,-0.02837030701434486,0.0,0.0,0.32850212037507504
5.98,-0.00041232116945645337,-0.11537464170372304,-0.027722955986405833,0.0,0.0,0.3283884910559128
5.99,-0.0004030136574020028,-0.11277023778759394,-0.027090406835894063,0.0,0.0,0.3282774334759943
6.0,-0.0003939163892006236,-0.11022466376188861,-0.026472319736319486,0.0,0.0,0.3281688892634167
6.01,-0.000385024603765122,-0.10773658739151992,-0.02586836272482578,0.0,0.0,0.3280628013800533
6.0200000000000005,-0.00037633364850340133,-0.10530470680021789,-0.02527821151745684,0.0,0.0,0.32795911409066997
6.03,-0.0003678389768122708,-0.10292774976925358,-0.02470154932888651,0.0,0.0,0.3278577729327599
6.04,-0.00035953614563073786,-0.10060447305280783,-0.02413806669649838,0.0,0.0,0.32775872468705497
6.05,-0.00035142081305129997,-0.09833366170956903,-0.023587461308705378,0.0,0.0,0.32766191734879585
6.0600000000000005,-0.00034348873598779195,-0.09611412845015627,-0.023049437837402063,0.0,0.0,0.32756730009964524
6.07,-0.0003357357678983838,-0.09394471299997445,-0.022523707774445293,0.0,0.0,0.327474823280293
6.08,-0.0003281578565623626,-0.09182428147711914,-0.0220099892720619,0.0,0.0,0.3273844383636755
6.09,-0.00032075104190936734,-0.08975172578495871,-0.021508006987084764,0.0,0.0,0.32729609792887027
6.1000000000000005,-0.0003135114538997819,-0.0877259630190314,-0.021017491928921148,0.0,0.0,0.3272097556355651
6.11,-0.00030643531045502684,-0.08574593488790487,-0.020538181311160104,0.0,0.0,0.3271253661991823
6.12,-0.0002995189154365209,-0.08381060714765455,-0.020069818406727856,0.0,0.0,0.3270428853665232
6.13,0.0,0.0,-0.01961215240650284,0.0,0.0,0.3215581381925653
6.140000000000001,0.0,0.0,-0.01916597066011101,0.0,0.0,0.3142426039925718
6.15,0.0,0.0,-0.01873130557144481,0.0,0.0,0.30711589531971484
6.16,0.0,0.0,-0.018307798909509655,0.0,0.0,0.30017213866815734
6.17,0.0,0.0,-0.017895106336895183,0.0,0.0,0.2934056883293471
6.18,0.0,0.0,-0.017492896744813982,0.0,0.0,0.2868111154893996
6.19,0.0,0.0,-0.017100851626118414,0.0,0.0,0.28038319794917893
6.2,0.0,0.0,-0.01671866448378598,0.0,0.0,0.27411691042589964
6.21,0.0,0.0,-0.01634604027255142,0.0,0.0,0.26800741539819817
6.22,0.0,0.0,-0.015982694871535797,0.0,0.0,0.262050054459441
6.23,0.0,0.0,-0.015628354585880702,0.0,0.0,0.25624034014659036
6.24,0.0,0.0,-0.015282755675540577,0.0,0.0,0.250573948214336
6.25,0.0,0.0,-0.014945643909519446,0.0,0.0,0.24504671032643052
6.26,0.0,0.0,-0.014616774143960702,0.0,0.0,0.23965460713811285
6.2700000000000005,0.0,0.0,-0.014295909922611382,0.0,0.0,0.23439376174536025
6.28,0.0,0.0,-0.013982823098286221,0.0,0.0,0.22926043347848263
6.29,0.0,0.0,-0.013677293474052304,0.0,0.0,0.22425101201902536
6.3,0.0,0.0,-0.013379108462943611,0.0,0.0,0.21936201182049123
6.3100000000000005,0.0,0.0,-0.013088062765096048,0.0,0.0,0.21459006681471093
6.32,0.0,0.0,-0.012803958061268893,0.0,0.0,0.20993192538684044
6.33,0.0,0.0,-0.012526602721788132,0.0,0.0,0.20538444560325528
6.34,0.0,0.0,-0.012255811530011505,0.0,0.0,0.2009445906775018
6.3500000000000005,0.0,0.0,-0.011991405419474636,0.0,0.0,0.19660942466059977
6.36,0.0,0.0,-0.011733211223932763,0.0,0.0,0.1923761083427504
6.37,0.0,0.0,-0.011481061439563737,0.0,0.0,0.1882418953544578
6.38,0.0,0.0,-0.011234793998645366,0.0,0.0,0.18420412845576048
6.390000000000001,0.0,0.0,-0.010994252054064135,0.0,0.0,0.1802602360030842
6.4,0.0,0.0,-0.010759283774053253,0.0,0.0,0.17640772858377693
6.41,0.0,0.0,-0.010529742146595866,0.0,0.0,0.17264419580914822
6.42,0.0,0.0,-0.010305484792964625,0.0,0.0,0.16896730325727569
6.43,0.0,0.0,-0.010086373789901563,0.0,0.0,0.16537478955750212
6.44,0.0,0.0,-0.009872275499972837,0.0,0.0,0.16186446360893939
6.45,0.0,0.0,-0.009663060409661299,0.0,0.0,0.15843420192588029
6.46,0.0,0.0,-0.009458602974786401,0.0,0.0,0.15508194610330064
6.47,0.0,0.0,-0.009258781472865643,0.0,0.0,0.15180570039621588
6.48,0.0,0.0,-0.009063477862054824,0.0,0.0,0.14860352940687738
6.49,0.0,0.0,-0.008872577646325866,0.0,0.0,0.14547355587424213
6.5,0.0,0.0,-0.00868596974656111,0.0,0.0,0.14241395856046046
6.51,0.0,0.0,-0.008503546377261716,0.0,0.0,0.13942297022940642
6.5200000000000005,0.0,0.0,-0.008325202928585336,0.0,0.0,0.13649887571257016
6.53,0.0,0.0,-0.008150837853444712,0.0,0.0,0.13364001005795376
6.54,0.0,0.0,-0.007980352559414108,0.0,0.0,0.1308447567577846
6.55,0.0,0.0,-0.007813651305204927,0.0,0.0,0.1281115460511363
6.5600000000000005,0.0,0.0,-0.007650641101485326,0.0,0.0,0.12543885329778753
6.57,0.0,0.0,-0.0074912316158311865,0.0,0.0,0.1228251974198025
6.58,0.0,0.0,-0.007335335081607735,0.0,0.0,0.12026913940757852
6.59,0.0,0.0,-0.007182866210592089,0.0,0.0,0.11776928088721482
6.6000000000000005,0.0,0.0,-0.0070337421091574955,0.0,0.0,0.1153242627462661
6.61,0.0,0.0,-0.0068878821978497285,0.0,0.0,0.11293276381514976
6.62,0.0,0.0,-0.00674520813419537,0.0,0.0,0.11059349960150419
6.63,0.0,0.0,-0.006605643738590217,0.0,0.0,0.1083052210750815
6.640000000000001,0.0,0.0,-0.006469114923124258,0.0,0.0,0.10606671350074923
6.65,0.0,0.0,-0.006335549623207219,0.0,0.0,0.10387679531745944
6.66,0.0,0.0,-0.0062048777318658484,0.0,0.0,0.10173431706097469
6.67,0.0,0.0,-0.006077031036590918,0.0,0.0,0.09963816032842361
6.68,0.0,0.0,-0.005951943158618173,0.0,0.0,0.09758723678277526
6.69,0.0,0.0,-0.00582954949453353,0.0,0.0,0.09558048719538056
6.7,0.0,0.0,-0.005709787160098413,0.0,0.0,0.09361688052496868
6.71,0.0,0.0,-0.005592594936196426,0.0,0.0,0.09169541303137191
6.72,0.0,0.0,-0.005477913216807628,0.0,0.0,0.08981510742252967
6.73,0.0,0.0,-0.005365683958921311,0.0,0.0,0.08797501203327142
6.74,0.0,0.0,-0.005255850634302718,0.0,0.0,0.08617420003447586
6.75,0.0,0.0,-0.005148358183033329,0.0,0.0,0.0844117686713344
6.76,0.0,0.0,-0.005043152968748289,0.0,0.0,0.0826868385294256
6.7700000000000005,0.0,0.0,-0.00494018273549833,0.0,0.0,0.08099855282743947
6.78,0.0,0.0,-0.004839396566167128,0.0,0.0,0.07934607673537179
6.79,0.0,0.0,-0.004740744842378291,0.0,0.0,0.07772859671719062
6.8,0.0,0.0,-0.004644179205829465,0.0,0.0,0.07614531989686205
6.8100000000000005,0.0,0.0,-0.004549652520993953,0.0,0.0,0.07459547344680309
6.82,0.0,0.0,-0.00445711883913315,0.0,0.0,0.07307830399785467
6.83,0.0,0.0,-0.0043665333635657284,0.0,0.0,0.07159307706982536
6.84,0.0,0.0,-0.004277852416142119,0.0,0.0,0.07013907652181857
6.8500000000000005,0.0,0.0,-0.004191033404875177,0.0,0.0,0.06871560402149757
6.86,0.0,0.0,-0.004106034792680267,0.0,0.0,0.06732197853257306
6.87,0.0,0.0,-0.004022816067180129,0.0,0.0,0.0659575358197125
6.88,0.0,0.0,-0.003941337711531972,0.0,0.0,0.06462162797022439
6.890000000000001,0.0,0.0,-0.0038615611762361558,0.0,0.0,0.06331362293184611
6.9,0.0,0.0,-0.0037834488518877,0.0,0.0,0.06203290406597209
6.91,0.0,0.0,-0.003706964042833608,0.0,0.0,0.0607788697157542
6.92,0.0,0.0,-0.003632070941700642,0.0,0.0,0.05955093278845676
6.93,0.0,0.0,-0.003558734604759794,0.0,0.0,0.05834852035152539
6.94,0.0,0.0,-0.003486920928095172,0.0,0.0,0.05717107324187465
6.95,0.0,0.0,-0.0034165966245464714,0.0,0.0,0.05601804568783007
6.96,0.0,0.0,-0.003347729201395547,0.0,0.0,0.05488890494327899
6.97,0.0,0.0,-0.0032802869387688876,0.0,0.0,0.053783130933563426
6.98,0.0,0.0,-0.0032142388687290352,0.0,0.0,0.05270021591265999
6.99,0.0,0.0,-0.003149554755029141,0.0,0.0,0.05163966413125187
7.0,0.0,0.0,-0.0030862050735059737,0.0,0.0,0.050600991515239564
7.01,0.0,0.0,-0.003024160993087749,0.0,0.0,0.04958372535436045
7.0200000000000005,0.0,0.0,-0.0029633943573941428,0.0,0.0,0.04858740400049566
7.03,0.0,0.0,-0.0029038776669068314,0.0,0.0,0.047611576575343234
7.04,0.0,0.0,-0.0028455840616897973,0.0,0.0,0.046655802687115326
7.05,0.0,0.0,-0.0027884873046395034,0.0,0.0,0.045719652155884506
7.0600000000000005,0.0,0.0,-0.00273256176524589,0.0,0.0,0.044802704747355045
7.07,0.0,0.0,-0.0026777824038459164,0.0,0.0,0.04390454991467408
7.08,0.0,0.0,-0.0026241247563521283,0.0,0.0,0.0430247865480508
7.09,0.0,0.0,-0.002571564919439455,0.0,0.0,0.04216302273186956
7.1000000000000005,0.0,0.0,-0.0025200795361741204,0.0,0.0,0.041318875509075426
7.11,0.0,0.0,-0.002469645782069204,0.0,0.0,0.040491970652541814
7.12,0.0,0.0,-0.0024202413515520167,0.0,0.0,0.03968194244318239
7.13,0.0,0.0,-0.0023718444448290483,0.0,0.0,0.038888433454592364
7.140000000000001,0.0,0.0,-0.002324433755134809,0.0,0.0,0.038111094343997634
7.15,0.0,0.0,-0.00227798845635144,0.0,0.0,0.03734958364925262
7.16,0.0,0.0,-0.002232488190986472,0.0,0.0,0.036603567591717616
7.17,0.0,0.0,-0.0021879130584966204,0.0,0.0,0.035872719884844126
7.18,0.0,0.0,-0.002144243603945975,0.0,0.0,0.035156721548195546
7.19,0.0,0.0,-0.002101460806987383,0.0,0.0,0.03445526072678588
7.2,0.0,0.0,-0.0020595460711562803,0.0,0.0,0.03376803251555578
7.21,0.0,0.0,-0.0020184812134666145,0.0,0.0,0.033094738788781344
7.22,0.0,0.0,-0.001978248454298922,0.0,0.0,0.032435088034282765
7.23,0.0,0.0,-0.0019388304075709805,0.0,0.0,0.03178879519225663
7.24,0.0,0.0,-0.0019002100711818383,0.0,0.0,0.031155581498612347
7.25,0.0,0.0,-0.0018623708177203514,0.0,0.0,0.03053517433261241
7.26,0.0,0.0,-0.0018252963854297117,0.0,0.0,0.029927307068742765
7.2700000000000005,0.0,0.0,-0.001788970869419746,0.0,0.0,0.02933171893262641
7.28,0.0,0.0,-0.0017533787131190886,0.0,0.0,0.028748154860866845
7.29,0.0,0.0,-0.0017185046999596122,0.0,0.0,0.028176365364719933
7.3,0.0,0.0,-0.0016843339452857831,0.0,0.0,0.02761610639743349
7.3100000000000005,0.0,0.0,-0.0016508518884818786,0.0,0.0,0.027067139225164655
7.32,0.0,0.0,-0.0016180442853102551,0.0,0.0,0.026529230301360274
7.33,0.0,0.0,-0.0015858972004541088,0.0,0.0,0.026002151144497557
7.34,0.0,0.0,-0.0015543970002584,0.0,0.0,0.025485678219053263
7.3500000000000005,0.0,0.0,-0.0015235303456628485,0.0,0.0,0.024979592819642144
7.36,0.0,0.0,-0.0014932841853211103,0.0,0.0,0.02448368095819128
7.37,0.0,0.0,-0.0014636457489004715,0.0,0.0,0.02399773325409421
7.38,0.0,0.0,-0.0014346025405565818,0.0,0.0,0.023521544827213563
7.390000000000001,0.0,0.0,-0.0014061423325779493,0.0,0.0,0.02305491519368395
7.4,0.0,0.0,-0.0013782531591951003,0.0,0.0,0.022597648164403565
7.41,0.0,0.0,-0.001350923310549488,0.0,0.0,0.022149551746150485
7.42,0.0,0.0,-0.001324141326817397,0.0,0.0,0.021710438045242534
7.43,0.0,0.0,-0.0012978959924842648,0.0,0.0,0.021280123173653104
7.44,0.0,0.0,-0.0012721763307649886,0.0,0.0,0.020858427157532333
7.45,0.0,0.0,-0.0012469715981659416,0.0,0.0,0.02044517384804256
7.46,0.0,0.0,-0.0012222712791845679,0.0,0.0,0.020040190834460073
7.47,0.0,0.0,-0.001198065081142563,0.0,0.0,0.01964330935945638
7.48,0.0,0.0,-0.0011743429291487834,0.0,0.0,0.01925436423650777
7.49,0.0,0.0,-0.0011510949611881543,0.0,0.0,0.018873193769378963
7.5,0.0,0.0,-0.0011283115233329717,0.0,0.0,0.01849963967360731
7.51,0.0,0.0,-0.0011059831650731124,0.0,0.0,0.01813354699993547
7.5200000000000005,0.0,0.0,-0.0010841006347617828,0.0,0.0,0.017774764059645003
7.53,0.0,0.0,-0.0010626548751735449,0.0,0.0,0.017423142351716582
7.54,0.0,0.0,-0.0010416370191714643,0.0,0.0,0.01707853649180175
7.55,0.0,0.0,-0.001021038385480333,0.0,0.0,0.016740804142911743
7.5600000000000005,0.0,0.0,-0.0010008504745630084,0.0,0.0,0.01640980594781214
7.57,0.0,0.0,-0.0009810649645970177,0.0,0.0,0.016085405463054165
7.58,0.0,0.0,-0.0009616737075486521,0.0,0.0,0.015767469094598825
7.59,0.0,0.0,-0.0009426687253418831,0.0,0.0,0.015455866035019227
7.6000000000000005,0.0,0.0,-0.0009240422061194986,0.0,0.0,0.015150468202186811
7.61,0.0,0.0,-0.0009057865005939523,0.0,0.0,0.014851150179434962
7.62,0.0,0.0,-0.0008878941184854923,0.0,0.0,0.014557789157177993
7.63,0.0,0.0,-0.0008703577250452122,0.0,0.0,0.014270264875887438
7.640000000000001,0.0,0.0,-0.0008531701376607414,0.0,0.0,0.01398845957044169
7.65,0.0,0.0,-0.0008363243225423629,0.0,0.0,0.013712257915797037
7.66,0.0,0.0,-0.0008198133914874122,0.0,0.0,0.013441546973937393
7.67,0.0,0.0,-0.0008036305987208822,0.0,0.0,0.0131762161420691
7.68,0.0,0.0,-0.000787769337810214,0.0,0.0,0.012916157102034774
7.69,0.0,0.0,-0.0007722231386523255,0.0,0.0,0.012661263770922264
7.7,0.0,0.0,-0.0007569856645309776,0.0,0.0,0.012411432252808257
7.71,0.0,0.0,-0.0007420507092426445,0.0,0.0,0.012166560791636171
7.72,0.0,0.0,-0.0007274121942891019,0.0,0.0,0.011926549725191454
7.73,0.0,0.0,-0.0007130641661350083,0.0,0.0,0.01169130144013018
7.74,0.0,0.0,-0.0006990007935287952,0.0,0.0,0.011460720328061773
7.75,0.0,0.0,-0.0006852163648852443,0.0,0.0,0.01123471274262137
7.76,0.0,0.0,-0.0006717052857281657,0.0,0.0,0.011013186957554372
7.7700000000000005,0.0,0.0,-0.0006584620761916472,0.0,0.0,0.010796053125733793
7.78,0.0,0.0,-0.0006454813685783818,0.0,0.0,0.01058322323914112
7.79,0.0,0.0,-0.0006327579049736295,0.0,0.0,0.010374611089729866
7.8,0.0,0.0,-0.0006202865349134093,0.0,0.0,0.01017013223120601
7.8100000000000005,0.0,0.0,-0.0006080622131055549,0.0,0.0,0.00996970394165654
7.82,0.0,0.0,-0.0005960799972023127,0.0,0.0,0.009773245187032419
7.83,0.0,0.0,-0.0005843350456231918,0.0,0.0,0.009580676585451173
7.84,0.0,0.0,-0.0005728226154268193,0.0,0.0,0.009391920372298152
7.8500000000000005,0.0,0.0,-0.000561538060230581,0.0,0.0,0.009206900366130227
7.86,0.0,0.0,-0.0005504768281768725,0.0,0.0,0.00902554193531623
7.87,0.0,0.0,-0.0005396344599448071,0.0,0.0,0.008847771965451766
7.88,0.0,0.0,-0.0005290065868062692,0.0,0.0,0.008673518827469624
7.890000000000001,0.0,0.0,-0.000518588928725227,0.0,0.0,0.008502712346497647
7.9,0.0,0.0,-0.0005083772924992496,0.0,0.0,0.008335283771362592
7.91,0.0,0.0,-0.0004983675699422027,0.0,0.0,0.0081711657448181
7.92,0.0,0.0,-0.0004885557361071279,0.0,0.0,0.00801029227438686
7.930000000000001,0.0,0.0,-0.000478937847548332,0.0,0.0,0.007852598703879733
7.94,0.0,0.0,-0.00046951004062174536,0.0,0.0,0.007698021685522349
7.95,0.0,0.0,-0.0004602685298226306,0.0,0.0,0.007546499152704214
7.96,0.0,0.0,-0.0004512096061597477,0.0,0.0,0.007397970293318322
7.97,0.0,0.0,-0.00044232963556510715,0.0,0.0,0.007252375523685739
7.98,0.0,0.0,-0.0004336250573384644,0.0,0.0,0.007109656463060251
7.99,0.0,0.0,-0.0004250923826257333,0.0,0.0,0.0069697559086711195
8.0,0.0,0.0,-0.0004167281929305161,0.0,0.0,0.006832617811325604
8.01,0.0,0.0,-0.0004085291386579704,0.0,0.0,0.0066981872515286325
8.02,0.0,0.0,-0.0004004919376902533,0.0,0.0,0.006566410416132944
8.03,0.0,0.0,-0.00039261337399280254,0.0,0.0,0.006437234575474735
8.040000000000001,0.0,0.0,-0.00038489029625073535,0.0,0.0,0.006310608061039048
8.05,0.0,0.0,-0.00037731961653466244,0.0,0.0,0.00618648024355546
8.06,0.0,0.0,-0.00036989830899523436,0.0,0.0,0.006064801511619354
8.07,0.0,0.0,-0.00036262340858575455,0.0,0.0,0.0059455232507377494
8.08,0.0,0.0,-0.0003554920098122104,0.0,0.0,0.005828597822830488
8.09,0.0,0.0,-0.00034850126551009105,0.0,0.0,0.00571397854618041
8.1,0.0,0.0,-0.0003416483856473751,0.0,0.0,0.005601619675810931
8.11,0.0,0.0,-0.00033493063615308994,0.0,0.0,0.005491476384272188
8.120000000000001,0.0,0.0,-0.0003283453377708566,0.0,0.0,0.005383504742844353
8.13,0.0,0.0,-0.0003218898649368511,0.0,0.0,0.005277661703150529
8.14,0.0,0.0,-0.000315561644681626,0.0,0.0,0.0051739050791374105
8.15,0.0,0.0,-0.00030935815555525154,0.0,0.0,0.005072193529459793
8.16,0.0,0.0,-0.0003032769265752476,0.0,0.0,0.00497248654023131
8.17,0.0,0.0,-0.0002973155361967919,0.0,0.0,0.0048747444081394635
8.18,0.0,0.0,-0.000291471611304703,0.0,0.0,0.004778928223914445
8.19,0.0,0.0,-0.00028574282622670713,0.0,0.0,0.004684999856154658
8.2,0.0,0.0,-0.0002801269017675131,0.0,0.0,0.004592921935491779
8.21,0.0,0.0,-0.00027462160426322866,0.0,0.0,0.004502657839076945
8.22,0.0,0.0,-0.000269224744655664,0.0,0.0,0.004414171675421837
8.23,0.0,0.0,-0.0002639341775860795,0.0,0.0,0.004327428269517914
8.24,0.0,0.0,-0.0002587478005079453,0.0,0.0,0.0042423931482994835
8.25,0.0,0.0,-0.0002536635528182913,0.0,0.0,0.004159032526411662
8.26,0.0,0.0,-0.00024867941500723487,0.0,0.0,0.004077313292243891
8.27,0.0,0.0,-0.00024379340782528576,0.0,0.0,0.003997202994298562
8.28,0.0,0.0,-0.00023900359146803612,0.0,0.0,0.0039186698278109375
8.290000000000001,0.0,0.0,-0.00023430806477785175,0.0,0.0,0.003841682621663421
8.3,0.0,0.0,-0.00022970496446219306,0.0,0.0,0.0037662108255692274
8.31,0.0,0.0,-0.00022519246432819973,0.0,0.0,0.0036922244975215158
8.32,0.0,0.0,-0.00022076877453318432,0.0,0.0,0.0036196942915047593
8.33,0.0,0.0,-0.0002164321408506863,0.0,0.0,0.003548591445471808
8.34,0.0,0.0,-0.00021218084395174838,0.0,0.0,0.0034788877695352606
8.35,0.0,0.0,-0.0002080131987010835,0.0,0.0,0.0034105556344567714
8.36,0.0,0.0,-0.000203927553467809,0.0,0.0,0.003343567960319113
8.370000000000001,0.0,0.0,-0.00019992228945043245,0.0,0.0,0.003277898205481239
8.38,0.0,0.0,-0.00019599582001578037,0.0,0.0,0.0032135203557214585
8.39,0.0,0.0,-0.00019214659005156918,0.0,0.0,0.003150408913635997
8.4,0.0,0.0,-0.00018837307533232342,0.0,0.0,0.0030885388882346885
8.41,0.0,0.0,-0.00018467378189835463,0.0,0.0,0.003027885784760177
8.42,0.0,0.0,-0.00018104724544751948,0.0,0.0,0.0029684255947195664
8.43,0.0,0.0,-0.00017749203073948337,0.0,0.0,0.002910134786108022
8.44,0.0,0.0,-0.0001740067310122214,0.0,0.0,0.0028529902938492636
8.45,0.0,0.0,-0.00017058996741049475,0.0,0.0,0.0027969695104264405
8.46,0.0,0.0,-0.00016724038842604695,0.0,0.0,0.002742050276698203
8.47,0.0,0.0,-0.00016395666934926987,0.0,0.0,0.002688210872903999
8.48,0.0,0.0,-0.00016073751173209538,0.0,0.0,0.002635430009872103
8.49,0.0,0.0,-0.00015758164286187374,0.0,0.0,0.0025836868203826806
8.5,0.0,0.0,-0.00015448781524600558,0.0,0.0,0.0025329608507152633
8.51,0.0,0.0,-0.00015145480610709945,0.0,0.0,0.0024832320523864686
8.52,0.0,0.0,-0.00014848141688843206,0.0,0.0,0.0024344807740243344
8.53,0.0,0.0,-0.00014556647276949336,0.0,0.0,0.0023866877534323935
8.540000000000001,0.0,0.0,-0.00014270882219140333,0.0,0.0,0.002339834109809702
8.55,0.0,0.0,-0.00013990733639199286,0.0,0.0,0.002293901336131965
8.56,0.0,0.0,-0.00013716090895034446,0.0,0.0,0.0022488712916712244
8.57,0.0,0.0,-0.0001344684553405943,0.0,0.0,0.00220472619469418
8.58,0.0,0.0,-0.000131828912494801,0.0,0.0,0.0021614486152851404
8.59,0.0,0.0,-0.00012924123837469083,0.0,0.0,0.00211902146832559
8.6,0.0,0.0,-0.0001267044115520932,0.0,0.0,0.0020774280066257777
8.61,0.0,0.0,-0.00012421743079788508,0.0,0.0,0.0020366518141675728
8.620000000000001,0.0,0.0,-0.00012177931467926562,0.0,0.0,0.00199667679951508
8.63,0.0,0.0,-0.00011938910116518806,0.0,0.0,0.001957487189343184
8.64,0.0,0.0,-0.00011704584723977782,0.0,0.0,0.0019190675220898945
8.65,0.0,0.0,-0.00011474862852357114,0.0,0.0,0.0018814026417595696
8.66,0.0,0.0,-0.00011249653890241102,0.0,0.0,0.0018444776918302278
8.67,0.0,0.0,-0.00011028869016384178,0.0,0.0,0.001808278109292673
8.68,0.0,0.0,-0.0001081242116408459,0.0,0.0,0.0017727896188107406
8.69,0.0,0.0,-0.00010600224986277158,0.0,0.0,0.0017379982269979922
8.700000000000001,0.0,0.0,-0.00010392196821330124,0.0,0.0,0.0017038902168066495
8.71,0.0,0.0,-0.00010188254659531596,0.0,0.0,0.0016704521420422295
8.72,0.0,0.0,-9.988318110251269e-05,0.0,0.0,0.0016376708219659464
8.73,0.0,0.0,-9.79230836976349e-05,0.0,0.0,0.0016055333360290123
8.74,0.0,0.0,-9.600148189718046e-05,0.0,0.0,0.0015740270186937332
8.75,0.0,0.0,-9.411761846245259e-05,0.0,0.0,0.0015431394543852105
8.76,0.0,0.0,-9.227075109682377e-05,0.0,0.0,0.0015128584725101716
8.77,0.0,0.0,-9.046015214908455e-05,0.0,0.0,0.001483172142597018
8.78,0.0,0.0,-8.86851083227518e-05,0.0,0.0,0.001454068769536589
8.790000000000001,0.0,0.0,-8.694492039121473e-05,0.0,0.0,0.0014255368889064812
8.8,0.0,0.0,-8.523890291859787e-05,0.0,0.0,0.0013975652623928042
8.81,0.0,0.0,-8.356638398622466e-05,0.0,0.0,0.0013701428733136223
8.82,0.0,0.0,-8.192670492456628e-05,0.0,0.0,0.0013432589222112433
8.83,0.0,0.0,-8.031922005056364e-05,0.0,0.0,0.0013169028225584081
8.84,0.0,0.0,-7.874329641021254e-05,0.0,0.0,0.0012910641965257837
8.85,0.0,0.0,-7.719831352630446e-05,0.0,0.0,0.0012657328708558645
8.86,0.0,0.0,-7.568366315121768e-05,0.0,0.0,0.001240898872805023
8.870000000000001,0.0,0.0,-7.419874902465549e-05,0.0,0.0,0.0012165524261716115
8.88,0.0,0.0,-7.274298663623071e-05,0.0,0.0,0.0011926839474047527
8.89,0.0,0.0,-7.13158029927978e-05,0.0,0.0,0.001169284041790853
8.9,0.0,0.0,-6.991663639043578e-05,0.0,0.0,0.0011463434997046572
8.91,0.0,0.0,-6.854493619098721e-05,0.0,0.0,0.0011238532929613912
8.92,0.0,0.0,-6.72001626030609e-05,0.0,0.0,0.0011018045712163265
8.93,0.0,0.0,-6.588178646740716e-05,0.0,0.0,0.0010801886584479927
8.94,0.0,0.0,-6.458928904657726e-05,0.0,0.0,0.0010589970495096762
8.950000000000001,0.0,0.0,-6.33221618187798e-05,0.0,0.0,0.001038221406746846
8.96,0.0,0.0,-6.207990627584906e-05,0.0,0.0,0.0010178535566878661
8.97,0.0,0.0,-6.086203372524177e-05,0.0,0.0,0.0009978854867973461
8.98,0.0,0.0,-5.966806509598107e-05,0.0,0.0,0.0009783093422956553
8.99,0.0,0.0,-5.849753074846723e-05,0.0,0.0,0.0009591174230373762
9.0,0.0,0.0,-5.73499702880774e-05,0.0,0.0,0.0009403021804547595
