# results of the FBA model for the bactery Fprau
# the columns are: t and the metabolic fluxes 
# the compounds are: galactose, glucose, thiosulfate, butyrate, Fprau, Styphi,  
# the nominal flux is: -5.0, -5.0, -5.0, -5.0, -5.0, -5.0,  
# the initial concentration are: 8.0, 36.0, 11.0, 96.0, 0.10167190290371597, 0.5237529487176372,  

t,galactose,glucose,thiosulfate,butyrate,Fprau,Styphi
0.0,-5.0,-5.0,0.0,14.128509211352727,0.3399886624564588,0.0
0.01,-5.0,-5.0,0.0,14.128509211352727,0.3399886624564588,0.0
0.02,-5.0,-5.0,0.0,14.128509211352727,0.3399886624564588,0.0
0.03,-5.0,-5.0,0.0,14.128509211352727,0.3399886624564588,0.0
0.04,-5.0,-5.0,0.0,14.128509211352727,0.3399886624564588,0.0
0.05,-5.0,-5.0,0.0,14.128509211352727,0.3399886624564588,0.0
0.06,-5.0,-5.0,0.0,14.128509211352727,0.3399886624564588,0.0
0.07,-5.0,-5.0,0.0,14.128509211352727,0.3399886624564588,0.0
0.08,-5.0,-5.0,0.0,14.128509211352727,0.3399886624564588,0.0
0.09,-5.0,-5.0,0.0,14.128509211352727,0.3399886624564588,0.0
0.1,-5.0,-5.0,0.0,14.128509211352727,0.3399886624564588,0.0
0.11,-5.0,-5.0,0.0,14.128509211352727,0.3399886624564588,0.0
0.12,-5.0,-5.0,0.0,14.128509211352727,0.3399886624564588,0.0
0.13,-5.0,-5.0,0.0,14.128509211352727,0.3399886624564588,0.0
0.14,-5.0,-5.0,0.0,14.128509211352727,0.3399886624564588,0.0
0.15,-5.0,-5.0,0.0,14.128509211352727,0.3399886624564588,0.0
0.16,-5.0,-5.0,0.0,14.128509211352727,0.3399886624564588,0.0
0.17,-5.0,-5.0,0.0,14.128509211352727,0.3399886624564588,0.0
0.18,-5.0,-5.0,0.0,14.128509211352727,0.3399886624564588,0.0
0.19,-5.0,-5.0,0.0,14.128509211352727,0.3399886624564588,0.0
0.2,-5.0,-5.0,0.0,14.128509211352727,0.3399886624564588,0.0
0.21,-5.0,-5.0,0.0,14.128509211352727,0.3399886624564588,0.0
0.22,-5.0,-5.0,0.0,14.128509211352727,0.3399886624564588,0.0
0.23,-5.0,-5.0,0.0,14.128509211352727,0.3399886624564588,0.0
0.24,-5.0,-5.0,0.0,14.128509211352727,0.3399886624564588,0.0
0.25,-5.0,-5.0,0.0,14.128509211352727,0.3399886624564588,0.0
0.26,-5.0,-5.0,0.0,14.128509211352727,0.3399886624564588,0.0
0.27,-5.0,-5.0,0.0,14.128509211352727,0.3399886624564588,0.0
0.28,-5.0,-5.0,0.0,14.128509211352727,0.3399886624564588,0.0
0.29,-5.0,-5.0,0.0,14.128509211352727,0.3399886624564588,0.0
0.3,-5.0,-5.0,0.0,14.128509211352727,0.3399886624564588,0.0
0.31,-5.0,-5.0,0.0,14.128509211352727,0.3399886624564588,0.0
0.32,-5.0,-5.0,0.0,14.128509211352727,0.3399886624564588,0.0
0.33,-5.0,-5.0,0.0,14.128509211352727,0.3399886624564588,0.0
0.34,-5.0,-5.0,0.0,14.128509211352727,0.3399886624564588,0.0
0.35000000000000003,-5.0,-5.0,0.0,14.128509211352727,0.3399886624564588,0.0
0.36,-5.0,-5.0,0.0,14.128509211352727,0.3399886624564588,0.0
0.37,-5.0,-5.0,0.0,14.128509211352727,0.3399886624564588,0.0
0.38,-5.0,-5.0,0.0,14.128509211352727,0.3399886624564588,0.0
0.39,-5.0,-5.0,0.0,14.128509211352727,0.3399886624564588,0.0
0.4,-5.0,-5.0,0.0,14.128509211352727,0.3399886624564588,0.0
0.41000000000000003,-5.0,-5.0,0.0,14.128509211352727,0.3399886624564588,0.0
0.42,-5.0,-5.0,0.0,14.128509211352727,0.3399886624564588,0.0
0.43,-5.0,-5.0,0.0,14.128509211352727,0.3399886624564588,0.0
0.44,-5.0,-5.0,0.0,14.128509211352727,0.3399886624564588,0.0
0.45,-5.0,-5.0,0.0,14.128509211352727,0.3399886624564588,0.0
0.46,-5.0,-5.0,0.0,14.128509211352727,0.3399886624564588,0.0
0.47000000000000003,-5.0,-5.0,0.0,14.128509211352727,0.3399886624564588,0.0
0.48,-5.0,-5.0,0.0,14.128509211352727,0.3399886624564588,0.0
0.49,-5.0,-5.0,0.0,14.128509211352727,0.3399886624564588,0.0
0.5,-5.0,-5.0,0.0,14.128509211352727,0.3399886624564588,0.0
0.51,-5.0,-5.0,0.0,14.128509211352727,0.3399886624564588,0.0
0.52,-5.0,-5.0,0.0,14.128509211352727,0.3399886624564588,0.0
0.53,-5.0,-5.0,0.0,14.128509211352727,0.3399886624564588,0.0
0.54,-5.0,-5.0,0.0,14.128509211352727,0.3399886624564588,0.0
0.55,-5.0,-5.0,0.0,14.128509211352727,0.3399886624564588,0.0
0.56,-5.0,-5.0,0.0,14.128509211352727,0.3399886624564588,0.0
0.5700000000000001,-5.0,-5.0,0.0,14.128509211352727,0.3399886624564588,0.0
0.58,-5.0,-5.0,0.0,14.128509211352727,0.3399886624564588,0.0
0.59,-5.0,-5.0,0.0,14.128509211352727,0.3399886624564588,0.0
0.6,-5.0,-5.0,0.0,14.128509211352727,0.3399886624564588,0.0
0.61,-5.0,-5.0,0.0,14.128509211352727,0.3399886624564588,0.0
0.62,-5.0,-5.0,0.0,14.128509211352727,0.3399886624564588,0.0
0.63,-5.0,-5.0,0.0,14.128509211352727,0.3399886624564588,0.0
0.64,-5.0,-5.0,0.0,14.128509211352727,0.3399886624564588,0.0
0.65,-5.0,-5.0,0.0,14.128509211352727,0.3399886624564588,0.0
0.66,-5.0,-5.0,0.0,14.128509211352727,0.3399886624564588,0.0
0.67,-5.0,-5.0,0.0,14.128509211352727,0.3399886624564588,0.0
0.68,-5.0,-5.0,0.0,14.128509211352727,0.3399886624564588,0.0
0.6900000000000001,-5.0,-5.0,0.0,14.128509211352727,0.3399886624564588,0.0
0.7000000000000001,-5.0,-5.0,0.0,14.128509211352727,0.3399886624564588,0.0
0.71,-5.0,-5.0,0.0,14.128509211352727,0.3399886624564588,0.0
0.72,-5.0,-5.0,0.0,14.128509211352727,0.3399886624564588,0.0
0.73,-5.0,-5.0,0.0,14.128509211352727,0.3399886624564588,0.0
0.74,-5.0,-5.0,0.0,14.128509211352727,0.3399886624564588,0.0
0.75,-5.0,-5.0,0.0,14.128509211352727,0.3399886624564588,0.0
0.76,-5.0,-5.0,0.0,14.128509211352727,0.3399886624564588,0.0
0.77,-5.0,-5.0,0.0,14.128509211352727,0.3399886624564588,0.0
0.78,-5.0,-5.0,0.0,14.128509211352727,0.3399886624564588,0.0
0.79,-5.0,-5.0,0.0,14.128509211352727,0.3399886624564588,0.0
0.8,-5.0,-5.0,0.0,14.128509211352727,0.3399886624564588,0.0
0.81,-5.0,-5.0,0.0,14.128509211352727,0.3399886624564588,0.0
0.8200000000000001,-5.0,-5.0,0.0,14.128509211352727,0.3399886624564588,0.0
0.8300000000000001,-5.0,-5.0,0.0,14.128509211352727,0.3399886624564588,0.0
0.84,-5.0,-5.0,0.0,14.128509211352727,0.3399886624564588,0.0
0.85,-5.0,-5.0,0.0,14.128509211352727,0.3399886624564588,0.0
0.86,-5.0,-5.0,0.0,14.128509211352727,0.3399886624564588,0.0
0.87,-5.0,-5.0,0.0,14.128509211352727,0.3399886624564588,0.0
0.88,-5.0,-5.0,0.0,14.128509211352727,0.3399886624564588,0.0
0.89,-5.0,-5.0,0.0,14.128509211352727,0.3399886624564588,0.0
0.9,-5.0,-5.0,0.0,14.128509211352727,0.3399886624564588,0.0
0.91,-5.0,-5.0,0.0,14.128509211352727,0.3399886624564588,0.0
0.92,-5.0,-5.0,0.0,14.128509211352727,0.3399886624564588,0.0
0.93,-5.0,-5.0,0.0,14.128509211352727,0.3399886624564588,0.0
0.9400000000000001,-5.0,-5.0,0.0,14.128509211352727,0.3399886624564588,0.0
0.9500000000000001,-5.0,-5.0,0.0,14.128509211352727,0.3399886624564588,0.0
0.96,-5.0,-5.0,0.0,14.128509211352727,0.3399886624564588,0.0
0.97,-5.0,-5.0,0.0,14.128509211352727,0.3399886624564588,0.0
0.98,-5.0,-5.0,0.0,14.128509211352727,0.3399886624564588,0.0
0.99,-5.0,-5.0,0.0,14.128509211352727,0.3399886624564588,0.0
1.0,-5.0,-5.0,0.0,14.128509211352727,0.3399886624564588,0.0
1.01,-5.0,-5.0,0.0,14.128509211352727,0.3399886624564588,0.0
1.02,-5.0,-5.0,0.0,14.128509211352727,0.3399886624564588,0.0
1.03,-5.0,-5.0,0.0,14.128509211352727,0.3399886624564588,0.0
1.04,-5.0,-5.0,0.0,14.128509211352727,0.3399886624564588,0.0
1.05,-5.0,-5.0,0.0,14.128509211352727,0.3399886624564588,0.0
1.06,-5.0,-5.0,0.0,14.128509211352727,0.3399886624564588,0.0
1.07,-5.0,-5.0,0.0,14.128509211352727,0.3399886624564588,0.0
1.08,-5.0,-5.0,0.0,14.128509211352727,0.3399886624564588,0.0
1.09,-5.0,-5.0,0.0,14.128509211352727,0.3399886624564588,0.0
1.1,-5.0,-5.0,0.0,14.128509211352727,0.3399886624564588,0.0
1.11,-5.0,-5.0,0.0,14.128509211352727,0.3399886624564588,0.0
1.12,-4.985288118627173,-5.0,0.0,14.110427049366406,0.3395642611220226,0.0
1.1300000000000001,-4.857864116425547,-5.0,0.0,13.953812039336025,0.3358883943036649,0.0
1.1400000000000001,-4.733851004021649,-5.0,0.0,13.80138930494202,0.33231092320678,0.0
1.1500000000000001,-4.613149605645121,-5.0,0.0,13.653036950670172,0.32882898685606227,0.0
1.16,-4.4956640286060425,-5.0,0.0,13.508637116192778,0.32543981898493274,0.0
1.17,-4.381301534689739,-5.0,0.0,13.368075818303083,0.32214074432562945,0.0
1.18,-4.2699724175611085,-5.0,0.0,13.231242800234009,0.31892917507260654,0.0
1.19,-4.161589885850196,-5.0,0.0,13.09803138795905,0.3158026075098103,0.0
1.2,-4.056069951611132,-5.0,0.0,12.96833835310138,0.31275861879306566,0.0
1.21,-3.9533313238655623,-5.0,0.0,12.842063782087886,0.3097948638790218,0.0
1.22,-3.8532953069593625,-5.0,0.0,12.719110951220687,0.3069090725929886,0.0
1.23,-3.7558857034779347,-5.0,0.0,12.59938620735247,0.30409904682830674,0.0
1.24,-3.661028721480732,-5.0,0.0,12.482798853869353,0.30136265787027866,0.0
1.25,-3.5686528858299713,-5.0,0.0,12.369261041706592,0.29869784383823306,0.0
1.26,-3.4786889534019023,-5.0,0.0,12.258687665136106,0.2961026072395813,0.0
1.27,-3.39106983198143,-5.0,0.0,12.150996262080406,0.29357501263011365,0.0
1.28,-3.3057305026526063,-5.0,0.0,12.04610691872386,0.2911131843751545,0.0
1.29,-3.222607945508356,-5.0,0.0,11.943942178204667,0.28871530450650373,0.0
1.3,-3.141641068513015,-5.0,0.0,11.844426953178974,0.2863796106702459,0.0
1.31,-3.0627706393608096,-5.0,0.0,11.747488442071909,0.28410439416111255,0.0
1.32,-2.985939220182279,-5.0,0.0,11.653056048823018,0.2818879980388371,0.0
1.33,-2.911091104959059,-5.0,0.0,11.561061305965518,0.2797288153227775,0.0
1.34,-2.8381722595152277,-5.0,0.0,11.47143780087017,0.27762528726080565,0.0
1.35,-2.7671302639607744,-5.0,0.0,11.384121105003818,0.27557590166895624,0.0
1.36,-2.697914257469633,-5.0,0.0,11.299048706055869,0.27357919133838193,0.0
1.37,-2.630474885281158,-5.0,0.0,11.216159942799177,0.27163373250649386,0.0
1.3800000000000001,-2.564764247820013,-5.0,0.0,11.135395942553895,0.269738143389194,0.0
1.3900000000000001,-2.5007358518350964,-5.0,0.0,11.056699561133614,0.26789108277136897,0.0
1.4000000000000001,-2.4383445634634944,-5.0,0.0,10.980015325155588,0.26609124865286476,0.0
1.41,-2.377546563130468,-5.0,0.0,10.90528937661009,0.26433737694749393,0.0
1.42,-2.3182993022012024,-5.0,0.0,10.832469419581946,0.26262824023255266,0.0
1.43,-2.2605614613044844,-5.0,0.0,10.761504669025289,0.2609626465465222,0.0
1.44,-2.2042929102526596,-5.0,0.0,10.692345801503876,0.25933943823291583,0.0
1.45,-2.1494546694861527,-5.0,0.0,10.62494490780003,0.2577574908279665,0.0
1.46,-2.0960088729745325,-5.0,0.0,10.559255447320862,0.25621571199052173,0.0
1.47,-2.043918732509601,-5.0,0.0,10.495232204207879,0.2547130404718919,0.0
1.48,-1.9931485033292744,-5.0,0.0,10.432831245087709,0.25324844512423667,0.0
1.49,-1.94366345101411,-5.0,0.0,10.372009878384642,0.25182092394559924,0.0
1.5,-1.8954298196012866,-5.0,0.0,10.31272661512988,0.2504295031600709,0.0
1.51,-1.848414800863572,-5.0,0.0,10.254941131202587,0.24907323633156053,0.0
1.52,-1.8025865047034382,-5.0,0.0,10.198614230942317,0.24775120350975496,0.0
1.53,-1.7579139306149363,-5.0,0.0,10.14370781207257,0.24646251040684652,0.0
1.54,-1.7143669401682653,-5.0,0.0,10.090184831882441,0.2452062876037943,0.0
1.55,-1.6719162304741617,-5.0,0.0,10.038009274611904,0.24398168978483206,0.0
1.56,-1.6305333085873175,-5.0,0.0,9.987146119991158,0.24278789499906372,0.0
1.57,-1.5901904668099873,-5.0,0.0,9.937561312887025,0.2416241039480441,0.0
1.58,-1.5508607588588064,-5.0,0.0,9.889221734010004,0.2404895392982518,0.0
1.59,-1.5125179768595927,-5.0,0.0,9.842095171638503,0.23938344501743566,0.0
1.6,-1.475136629136571,-5.0,0.0,9.796150294320096,0.23830508573389456,0.0
1.61,-1.4386919187640264,-5.0,0.0,9.75135662450972,0.2372537461177464,0.0
1.62,-1.4031597228498842,-5.0,0.0,9.707684513107356,0.23622873028331037,0.0
1.6300000000000001,-1.3685171224258623,-5.0,0.0,9.665105790738501,0.2352293770751262,0.0
1.6400000000000001,-1.334750405506045,-5.0,0.0,9.62360360419824,0.23425529093636474,0.0
1.6500000000000001,-1.3018364006276304,-5.0,0.0,9.583149473774576,0.23330580342772178,0.0
1.6600000000000001,-1.269752599875467,-5.0,0.0,9.543715735312555,0.23238026525160332,0.0
1.67,-1.2384771374297978,-5.0,0.0,9.505275513847375,0.2314780456332753,0.0
1.68,-1.2079887689231579,-5.0,0.0,9.467802698232045,0.23059853172535508,0.0
1.69,-1.1782668515706323,-5.0,0.0,9.431271916716426,0.2297411280346372,0.0
1.7,-1.1492913250395027,-5.0,0.0,9.395658513433638,0.22890525587020918,0.0
1.71,-1.1210426930260298,-5.0,0.0,9.360938525757236,0.2280903528120117,0.0
1.72,-1.0935020055087412,-5.0,0.0,9.327088662487926,0.22729587219886094,0.0
1.73,-1.0666508416491125,-5.0,0.0,9.294086282837903,0.2265212826351996,0.0
1.74,-1.0404712933119817,-5.0,0.0,9.261909376175405,0.22576606751568393,0.0
1.75,-1.0149459491793982,-5.0,0.0,9.230536542499877,0.22502972456692508,0.0
1.76,-0.9900578794328861,-5.0,0.0,9.199946973614654,0.2243117654055957,0.0
1.77,-0.965790620980328,-5.0,0.0,9.170120434969819,0.22361171511227013,0.0
1.78,-0.9421281632048195,-5.0,0.0,9.14103724814616,0.22292911182030967,0.0
1.79,-0.9190549342139317,-5.0,0.0,9.112678273954518,0.22226350631919303,0.0
1.8,-0.8965557875688466,-5.0,0.0,9.08502489612456,0.22161446167167875,0.0
1.81,-0.8746159894738094,-5.0,0.0,9.058059005559691,0.22098155284425822,0.0
1.82,-0.8532212064072523,-5.0,0.0,9.031762985134446,0.22036436635033763,0.0
1.83,-0.8323574931768267,-5.0,0.0,9.006119695013336,0.21976249990566288,0.0
1.84,-0.8120112813814003,-5.0,0.0,8.981112458469559,0.21917556209547334,0.0
1.85,-0.7921693682638602,-5.0,0.0,8.956725048184,0.21860317205292928,0.0
1.86,-0.7728189059393077,-5.0,0.0,8.932941673006,0.21804495914837851,0.0
1.87,-0.753947390983928,-5.0,0.0,8.909746965157021,0.21750056268901632,0.0
1.8800000000000001,-0.7355426543704935,-5.0,0.0,8.887125967860502,0.21696963162854987,0.0
1.8900000000000001,-0.7175928517370823,-5.0,0.0,8.865064123381462,0.2164518242864789,0.0
1.9000000000000001,-0.7000864539762038,-5.0,0.0,8.843547261459483,0.2159468080766095,0.0
1.9100000000000001,-0.6830122381320876,-5.0,0.0,8.82256158812109,0.2154542592444735,0.0
1.92,-0.6663592785944356,-5.0,0.0,8.802093674855511,0.21497386261327375,0.0
1.93,-0.6501169385774509,-5.0,0.0,8.782130448142146,0.2145053113380877,0.0
1.94,-0.6342748618734467,-5.0,0.0,8.762659179315087,0.21404830666798133,0.0
1.95,-0.6188229648708021,-5.0,0.0,8.743667474751975,0.2136025577157317,0.0
1.96,-0.6037514288264735,-5.0,0.0,8.725143266377088,0.21316778123493127,0.0
1.97,-0.589050692383691,-5.0,0.0,8.70707480246404,0.212743701404117,0.0
1.98,-0.5747114443258688,-5.0,0.0,8.689450638730408,0.21233004961775792,0.0
1.99,-0.5607246165581368,-5.0,0.0,8.672259629711006,0.21192656428377712,0.0
2.0,-0.5470813773082646,-5.0,0.0,8.655490920401665,0.21153299062742803,0.0
2.0100000000000002,-0.5337731245390952,-5.0,0.0,8.639133938161907,0.21114908050124065,0.0
2.02,-0.5207914795649282,-5.0,0.0,8.623178384869691,0.21077459220089192,0.0
2.0300000000000002,-0.5081282808646105,-5.0,0.0,8.607614229316644,0.21040929028671365,0.0
2.04,-0.49577557808438893,-5.0,0.0,8.592431699837142,0.21005294541069192,0.0
2.05,-0.4837256262238605,-5.0,0.0,8.577621277162523,0.20970533414875153,0.0
2.06,-0.47197087999863024,-5.0,0.0,8.563173687492148,0.209366238838128,0.0
2.07,-0.4605039883735433,-5.0,0.0,8.549079895774355,0.20903544741966673,0.0
2.08,-0.44931778926060234,-5.0,0.0,8.53533109918974,0.20871275328487168,0.0
2.09,-0.4384053043759209,-5.0,0.0,8.52191872082978,0.2083979551275362,0.0
2.1,-0.427759734250281,-5.0,0.0,8.508834403564626,0.2080908567998185,0.0
2.11,-0.41737445338808526,-5.0,0.0,8.496070004092818,0.20779126717258195,0.0
2.12,-0.4072430055696906,-5.0,0.0,8.483617587167586,0.20749899999988303,0.0
2.13,-0.39735909929231183,-5.0,0.0,8.471469419993271,0.20721387378745137,0.0
2.14,-0.38771660334486535,-5.0,0.0,8.459617966786421,0.2069357116650346,0.0
2.15,-0.3783095425123059,-5.0,0.0,8.448055883496059,0.20666434126247957,0.0
2.16,-0.36913209340517583,-5.0,0.0,8.436776012677932,0.20639959458942664,0.0
2.17,-0.3601785804102509,-5.0,0.0,8.42577137851736,0.2061413079184929,0.0
2.18,-0.3514434717583249,-5.0,0.0,8.415035181996327,0.2058893216718403,0.0
2.19,-0.34292137570531833,-5.0,0.0,8.404560796199622,0.2056434803110071,0.0
2.2,-0.33460703682304593,-5.0,0.0,8.394341761756039,0.20540363222991,0.0
2.21,-0.32649533239611006,-5.0,0.0,8.384371782409625,0.20516962965089738,0.0
2.22,-0.3185812689215186,-5.0,0.0,8.37464472071768,0.20494132852377953,0.0
2.23,-0.31085997870775167,-5.0,0.0,8.36515459387046,0.20471858842771282,0.0
2.24,-0.3033267165701214,-5.0,0.0,8.35589556962968,0.20450127247587374,0.0
2.25,-0.2959768566193833,-5.0,0.0,8.346861962381317,0.20428924722281597,0.0
2.2600000000000002,-0.2888058891406674,-5.0,0.0,8.33804822929963,0.2040823825744369,0.0
2.27,-0.2818094175599049,-5.0,0.0,8.329448966618635,0.20388055170046585,0.0
2.2800000000000002,-0.274983155495024,-5.0,0.0,8.321058906007698,0.20368363094939776,0.0
2.29,-0.2683229238892885,-5.0,0.0,8.312872911048268,0.20349149976579814,0.0
2.3000000000000003,-0.26182464822424484,-5.0,0.0,8.304885973808242,0.20330404060990234,0.0
2.31,-0.25548435580982976,-5.0,0.0,8.297093211511356,0.2031211388794431,0.0
2.32,-0.24929817314928254,-5.0,0.0,8.289489863298359,0.2029426828336327,0.0
2.33,-0.2432623233765807,-5.0,0.0,8.282071287077578,0.2027685635192445,0.0
2.34,-0.23737312376420283,-5.0,0.0,8.274832956461466,0.20259867469870993,0.0
2.35,-0.23162698329909379,-5.0,0.0,8.267770457787535,0.20243291278019945,0.0
2.36,-0.22602040032478402,-5.0,0.0,8.2608794872201,0.20227117674959666,0.0
2.37,-0.22054996024768025,-5.0,0.0,8.254155847931282,0.20211336810433633,0.0
2.38,-0.2152123333056171,-5.0,0.0,8.247595447358195,0.20195939078902625,0.0
2.39,-0.21000427239681854,-5.0,0.0,8.241194294534745,0.20180915113282488,0.0
2.4,-0.20492261096748438,-5.0,0.0,8.23494849749514,0.20166255778849826,0.0
2.41,-0.1999642609562736,-5.0,0.0,8.228854260747596,0.2015195216731275,0.0
2.42,-0.1951262107940163,-5.0,0.0,8.222907882815676,0.20137995591040084,0.0
2.43,-0.19040552345703873,-5.0,0.0,8.2171057538458,0.20124377577446068,0.0
2.44,-0.18579933457254103,-5.0,0.0,8.211444353278576,0.20111089863524878,0.0
2.45,-0.18130485057451678,-5.0,0.0,8.205920247582084,0.20098124390530372,0.0
2.46,-0.17691934690875444,-5.0,0.0,8.200530088045955,0.200854732987987,0.0
2.47,-0.17264016628550582,-5.0,0.0,8.19527060863351,0.20073128922707123,0.0
2.48,-0.16846471697845466,-5.0,0.0,8.190138623891189,0.20061083785767214,0.0
2.49,-0.16439047116866087,-5.0,0.0,8.185131026913062,0.20049330595847537,0.0
2.5,-0.16041496333219843,-5.0,0.0,8.180244787359118,0.20037862240522344,0.0
2.5100000000000002,-0.15653578867024595,-5.0,0.0,8.175476949525622,0.20026671782542568,0.0
2.52,-0.15275060158042875,-5.0,0.0,8.170824630466454,0.20015752455426547,0.0
2.5300000000000002,-0.1490571141682477,-5.0,0.0,8.16628501816337,0.2000509765916541,0.0
2.54,-0.1454530947974683,-5.0,0.0,8.161855369744307,0.19994700956041325,0.0
2.5500000000000003,-0.14193636667837686,-5.0,0.0,8.157533009748317,0.199845560665552,0.0
2.56,-0.13850480649284677,-5.0,0.0,8.153315328435614,0.19974656865460264,0.0
2.57,-0.13515634305518814,-5.0,0.0,8.149199780141629,0.1996499737789885,0.0
2.58,-0.13188895600778783,-5.0,0.0,8.145183881673857,0.19955571775639716,0.0
2.59,-0.12870067455057566,-5.0,0.0,8.141265210750225,0.19946374373412779,0.0
2.6,-0.12558957620338407,-5.0,0.0,8.137441404478013,0.19937399625339078,0.0
2.61,-0.12255378560029398,-5.0,0.0,8.1337101578719,0.19928642121452414,0.0
2.62,-0.11959147331509014,-5.0,0.0,8.130069222410427,0.1992009658431136,0.0
2.63,-0.11670085471697357,-5.0,0.0,8.126516404629498,0.19911757865698088,0.0
2.64,-0.1138801888557051,-5.0,0.0,8.123049564752236,0.1990362094340251,0.0
2.65,-0.11112777737537899,-5.0,0.0,8.119666615353777,0.1989568091808847,0.0
2.66,-0.10844196345604865,-5.0,0.0,8.11636552006053,0.19887933010240877,0.0
2.67,-0.10582113078245038,-5.0,0.0,8.11314429228264,0.19880372557190545,0.0
2.68,-0.10326370253909294,-5.0,0.0,8.110000993978804,0.19872995010215297,0.0
2.69,-0.10076814043100238,-5.0,0.0,8.106933734452857,0.19865795931715416,0.0
2.7,-0.09833294372943249,-5.0,0.0,8.103940669180592,0.19858770992459995,0.0
2.71,-0.09595664834187123,-5.0,0.0,8.101019998666988,0.1985191596890495,0.0
2.72,-0.09363782590569318,-5.0,0.0,8.098169967332039,0.19845226740577873,0.0
2.73,-0.09137508290482677,-5.0,0.0,8.095388862425159,0.19838699287530057,0.0
2.74,-0.0891670598088234,-5.0,0.0,8.09267501296703,0.1983232968785299,0.0
2.75,-0.08701243023373335,-5.0,0.0,8.090026788718205,0.19826114115257523,0.0
2.7600000000000002,-0.08490990012420974,-5.0,0.0,8.087442599173837,0.19820048836714524,0.0
2.77,-0.08285820695627956,-5.0,0.0,8.084920892583858,0.19814130210155087,0.0
2.7800000000000002,-0.08085611896023578,-5.0,0.0,8.082460154997818,0.19808354682228696,0.0
2.79,-0.07890243436312042,-5.0,0.0,8.080058909333841,0.19802718786118104,0.0
2.8000000000000003,-0.0769959806502835,-5.0,0.0,8.077715714471035,0.1979721913940897,0.0
2.81,-0.07513561384551744,-5.0,0.0,8.075429164364666,0.1979185244201331,0.0
2.82,-0.0733202178092802,-5.0,0.0,8.073197887183667,0.1978661547414504,0.0
2.83,-0.07154870355453445,-5.0,0.0,8.071020544469732,0.19781505094346333,0.0
2.84,-0.06982000857974321,-5.0,0.0,8.068895830317466,0.19776518237563387,0.0
2.85,-0.06813311016823813,-5.0,0.0,8.06682248772052,0.19771651953511987,0.0
2.86,-0.06648699617076477,-5.0,0.0,8.064799272660789,0.19766903322392265,0.0
2.87,-0.06488067839568429,-5.0,0.0,8.06282497056613,0.1976226949351611,0.0
2.88,-0.06331319271863022,-5.0,0.0,8.060898396445166,0.1975774768562364,0.0
2.89,-0.061783598489882664,-5.0,0.0,8.059018394158795,0.19753335185173293,0.0
2.9,-0.06029099341147042,-5.0,0.0,8.057183854705583,0.1974902938925902,0.0
2.91,-0.05883448759196514,-5.0,0.0,8.055393684332712,0.1974482773076436,0.0
2.92,-0.05741320534444853,-5.0,0.0,8.053646806746054,0.19740727683549678,0.0
2.93,-0.05602629236745457,-5.0,0.0,8.051942171935897,0.19736726783166728,0.0
2.94,-0.05467291521538946,-5.0,0.0,8.050278755526246,0.19732822625331434,0.0
2.95,-0.053352260782426074,-5.0,0.0,8.048655558140421,0.1972901286443492,0.0
2.96,-0.05206353579951297,-5.0,0.0,8.047071604782827,0.197252952120925,0.0
2.97,-0.05080596634414819,-5.0,0.0,8.045525944236445,0.19721667435729429,0.0
2.98,-0.049578797362578086,-5.0,0.0,8.044017648475553,0.19718127357202694,0.0
2.99,-0.04838129220409156,-5.0,0.0,8.042545812093339,0.19714672851457443,0.0
3.0,-0.04721273216708925,-5.0,0.0,8.041109551744002,0.19711301845217608,0.0
3.0100000000000002,-0.04607241605661636,-5.0,0.0,8.039708005598904,0.19708012315709436,0.0
3.02,-0.04495965975305689,-5.0,0.0,8.038340332816448,0.1970480228941732,0.0
3.0300000000000002,-0.04387379579169533,-5.0,0.0,8.03700571302534,0.19701669840870836,0.0
3.04,-0.042814172952860496,-5.0,0.0,8.035703345820853,0.1969861309146261,0.0
3.0500000000000003,-0.041780155862373866,-5.0,0.0,8.034432450273703,0.19695630208295511,0.0
3.06,-0.040771124602033006,-5.0,0.0,8.03319226445135,0.19692719403059075,0.0
3.0700000000000003,-0.03978647432986774,-5.0,0.0,8.0319820449512,0.19689878930934054,0.0
3.08,-0.03882561490991459,-5.0,0.0,8.03080106644562,0.19687107089524342,0.0
3.09,-0.03788797055126146,-5.0,0.0,8.02964862123831,0.19684402217815877,0.0
3.1,-0.0369729794561221,-5.0,0.0,8.02852401883165,0.19681762695161129,0.0
3.11,-0.03608009347670598,-5.0,0.0,8.02742658550507,0.19679186940289511,0.0
3.12,-0.035208777780655974,-5.0,0.0,8.026355663903814,0.1967667341034219,0.0
3.13,-0.034358510524832436,-5.0,0.0,8.025310612637979,0.19674220599930964,0.0
3.14,-0.03352878253722839,-5.0,0.0,8.024290805891557,0.19671827040220705,0.0
3.15,-0.032719097006806204,-5.0,0.0,8.023295633041247,0.19669491298034641,0.0
3.16,-0.03192896918105233,-5.0,0.0,8.022324498284716,0.19667211974981902,0.0
3.17,-0.031157926071051587,-5.0,0.0,8.021376820278071,0.19664987706606582,0.0
3.18,-0.030405506163888443,-5.0,0.0,8.02045203178241,0.19662817161558216,0.0
3.19,-0.029671259142187534,-5.0,0.0,8.019549579319117,0.1966069904078275,0.0
3.2,-0.028954745610611086,-4.92864744905019,0.0,7.904746283204251,0.19379285344099936,0.0
3.21,-0.02825612524730767,-4.809728998936504,0.0,7.714020493571695,0.18911701772490364,0.0
3.22,-0.02757531979756494,-4.693842985351763,0.0,7.528158237318032,0.1845604164506906,0.0
3.23,-0.026911828927996425,-4.580904242054065,0.0,7.347022921688139,0.18011970090875884,0.0
3.24,-0.026265168558849007,-4.4708303694785005,0.0,7.170482391225302,0.17579163117436708,0.0
3.25,-0.025634870232280692,-4.36354162720604,0.0,6.998408755308956,0.1715730718795483,0.0
3.2600000000000002,-0.02502048051000079,-4.258960831430449,0.0,6.8306782237082535,0.1674609881815375,0.0
3.27,-0.02442156039868031,-4.1570132571522365,0.0,6.667170949717159,0.163452441917071,0.0
3.2800000000000002,-0.02383768480163843,-4.057626544845273,0.0,6.507770880462899,0.15954458793254636,0.0
3.29,-0.02326844199540228,-3.960730611357333,0.0,6.35236561400506,0.15573467058066198,0.0
3.3000000000000003,-0.02271343312982242,-3.8662575648202586,0.0,6.200846262865258,0.15202002037470902,0.0
3.31,-0.022172271750505793,-3.774141623358976,0.0,6.053107323649752,0.1483980507922377,0.0
3.3200000000000003,-0.0216445833424018,-3.684319037401185,0.0,5.909046552446787,0.14486625522029717,0.0
3.33,-0.021130004893446488,-3.596728015401311,0.0,5.7685648457000385,0.14142220403492772,0.0
3.34,-0.020628184477234145,-3.5113086528032893,0.0,5.631566126276421,0.1380635418079975,0.0
3.35,-0.020138780853745965,-3.4280028640770026,0.0,5.497957234463632,0.1347879846348969,0.0
3.36,-0.01966146308722184,-3.3467543176728056,0.0,5.3676478236478715,0.13159331757697262,0.0
3.37,-0.01919591018031388,-3.267508373747505,0.0,5.240550260436438,0.128477392212932,0.0
3.38,-0.018741810723709684,-3.1902120245235923,0.0,5.116579529003675,0.12543812429378712,0.0
3.39,-0.01829886256045956,-3.1148138371513596,0.0,4.995653139451131,0.12247349149621099,0.0
3.4,-0.017866782205502463,-3.0412655570910587,0.0,4.877693699370919,0.1195815964670159,0.0
3.41,-0.01744531146453966,-2.969523234770867,0.0,4.762630720821241,0.11676071112298639,0.0
3.42,-0.01703417060190189,-2.8995392538687055,0.0,4.650387834991218,0.11400896320545106,0.0
3.43,-0.016633088158847936,-2.8312674069527977,0.0,4.540890932700096,0.11132453585285734,0.0
3.44,-0.0162418006670511,-2.7646628467116265,0.0,4.434068086178115,0.10870566568315053,0.0
3.45,-0.015860052373877376,-2.6996820391910656,0.0,4.329849474066439,0.1061506409550709,0.0
3.46,-0.01548759497888669,-2.636282718941884,0.0,4.228167309481107,0.1036577998045689,0.0
3.47,-0.015124187381019734,-2.574423845986148,0.0,4.128955770994154,0.1012255285527376,0.0
3.48,-0.014769595435962539,-2.514065564516066,0.0,4.0321509363932995,0.09885226008186408,0.0
3.49,-0.014423591723208232,-2.455169163243473,0.0,3.9376907190889843,0.09653647227638378,0.0
3.5,-0.014085955322361609,-2.397697037322624,0.0,3.845514807044752,0.09427668652569708,0.0
3.5100000000000002,-0.013756471598256246,-2.3416126517730467,0.0,3.7555646041134705,0.09207146628596742,0.0
3.52,-0.013434931994476967,-2.286880506333144,0.0,3.6677831736682416,0.0899194156981758,0.0
3.5300000000000002,-0.013121133834901863,-2.2334661016788795,0.0,3.582115184422685,0.08781917825985032,0.0
3.54,-0.012814880132898438,-2.1813359069453364,0.0,3.498506858340828,0.08576943554802473,0.0
3.5500000000000003,-0.012515979407827395,-2.1304573284921804,0.0,3.4169059205420025,0.08376890599110572,0.0
3.56,-0.012224245508525636,-2.0807986798571134,0.0,3.3372615511110633,0.08181634368745203,0.0
3.5700000000000003,-0.01193949744345691,-2.03232915284429,0.0,3.2595243387289727,0.0799105372685815,0.0
3.58,-0.01166155921723447,-1.9850187896973677,0.0,3.1836462360428586,0.07805030880502219,0.0
3.59,-0.011390259673235165,-1.93883845630944,0.0,3.109580516699168,0.0762345127529374,0.0
3.6,-0.011125432342038534,-1.8937598164244909,0.0,3.0372817339669758,0.07446203493973388,0.0
3.61,-0.010866915295437813,-1.849755306787297,0.0,2.966705680882496,0.07273179158696422,0.0
3.62,-0.010614551005782487,-1.8067981132008595,0.0,2.8978093518491153,0.0710427283689128,0.0
3.63,-0.010368186210423779,-1.7648621474524508,0.0,2.830550905630535,0.06939381950533538,0.0
3.64,-0.010127671781045833,-1.7239220250713048,0.0,2.7648896296777057,0.0677840668868974,0.0
3.65,-0.009892862597675967,-1.6839530438827655,0.0,2.700785905733225,0.06621249923193159,0.0
3.66,-0.009663617427177331,-1.6449311633254342,0.0,2.638201176659402,0.06467817127319389,0.0
3.67,-0.009439798806036945,-1.6068329844994655,0.0,2.5770979144389585,0.06318016297336856,0.0
3.68,-0.00922127292727093,-1.5696357309156912,0.0,2.5174395892997934,0.06171757876813041,0.0
3.69,-0.00900790953127735,-1.5333172299167026,0.0,2.459190639917419,0.060289546835627324,0.0
3.7,-0.008799581800475107,-1.4978558947423881,0.0,2.4023164446510044,0.05889521839130296,0.0
3.71,-0.008596166257574865,-1.463230707213715,0.0,2.3467832937709785,0.057533767007028155,0.0
3.72,-0.00839754266733533,-1.4294212010097815,0.0,2.2925583626381982,0.05620438795356107,0.0
3.73,-0.00820360241569458,-1.3964088879550591,0.0,2.2396119992358847,0.05490635428170755,0.0
3.74,-0.008014233698063564,-1.3641747367857266,0.0,2.187913680522272,0.05363891768821424,0.0
3.75,-0.00782932444067672,-1.332699670419008,0.0,2.1374328099694657,0.05240132806824118,0.0
3.7600000000000002,-0.007648765516380121,-1.3019651133413748,0.0,2.0881395954847983,0.05119285503849193,0.0
3.77,-0.0074724506581094205,-1.271952976880847,0.0,2.040005025790002,0.050012787358125116,0.0
3.7800000000000002,-0.007300276375309221,-1.2426456449799834,0.0,1.9930008476034244,0.048860432369353245,0.0
3.79,-0.0071321418731768085,-1.2140259604496328,0.0,1.9470995435932605,0.0477351154569442,0.0
3.8000000000000003,-0.006967948974618508,-1.1860772116844234,0.0,1.90227431107139,0.04663617952587869,0.0
3.81,-0.0068076020448119764,-1.1587831198218317,0.0,1.8584990413986053,0.045562984496448945,0.0
3.8200000000000003,-0.006651007918272658,-1.1321278263275103,0.0,1.8157483000735055,0.044514906816117535,0.0
3.83,-0.006498075828327173,-1.106095880990318,0.0,1.7739973074784896,0.04349133898748601,0.0
3.84,-0.0063489687072930045,-1.0828388956230188,0.0,1.7366815621739766,0.042576521764230484,0.0
3.85,-0.006320629861391628,-1.06387567184202,0.0,1.7063697407810776,0.041833290072700126,0.0
3.86,-0.0062929168120639655,-1.049208828678621,0.0,1.6829183594936663,0.04125828063562076,0.0
3.87,-0.006265808963411776,-1.0377118980582385,0.0,1.664528855807197,0.04080739139760578,0.0
3.88,-0.006239286678847312,-1.0193131070490902,0.0,1.6351204496379752,0.04008630977070236,0.0
3.89,-0.006213332462979042,-0.9962926440426082,0.0,1.5983337052353355,0.03918430510370065,0.0
3.9,-0.006187929225320179,-0.9915999412690525,0.0,1.5908100371535987,0.03899985198596993,0.0
3.91,-0.006163057459701094,-0.9870088438193841,0.0,1.5834492470038806,0.03881939206961948,0.0
3.92,-0.006138700778178102,-0.9825162258292202,0.0,1.5762463238382325,0.03864280250365162,0.0
3.93,-0.006114843416818455,-0.9768744435470449,0.0,1.567209240040697,0.0384212373189179,0.0
3.94,-0.006091470371539652,-0.9678818410093598,0.0,1.552822777564927,0.03806850079011401,0.0
3.95,-0.006068567494440581,-0.9556581846075489,0.0,1.5332781399841076,0.03758928138843581,0.0
3.96,-0.006046121160917226,-0.9403188835343936,0.0,1.5087595747406564,0.03698809701493596,0.0
3.97,-0.006024118246285524,-0.9219756775378778,0.0,1.479445471196402,0.03626932192555614,0.0
3.98,-0.006002546103574538,-0.9016556196326039,0.0,1.446975623301051,0.03547316509627105,0.0
3.99,-0.005981392424205227,-0.8984780790439715,0.0,1.441876310798931,0.03534815348491265,0.0
4.0,-0.0059606429024180296,-0.8953612478524584,0.0,1.4368744246487588,0.03522553031812217,0.0
4.01,-0.005940285845135479,-0.8923033696152444,0.0,1.4319671461136643,0.035105226493478844,0.0
4.0200000000000005,-0.00592030997158144,-0.8893027498221963,0.0,1.4271517558462523,0.034987175345133154,0.0
4.03,-0.005900704395564581,-0.8863577532346303,0.0,1.4224256296178712,0.034871312539108364,0.0
4.04,-0.005881458608669997,-0.8834668013604883,0.0,1.4177862342667678,0.03475757597396766,0.0
4.05,-0.005862562464305028,-0.8806283700578252,0.0,1.4132311238521704,0.03464590568653037,0.0
4.0600000000000005,-0.0058440061625489445,-0.8778409872590479,0.0,1.4087579360021554,0.03453624376233832,0.0
4.07,-0.005825780235759569,-0.8751032308088531,0.0,1.404364388443962,0.03442853425059508,0.0
4.08,-0.005807875534892932,-0.8724137264092733,0.0,1.4000482757062216,0.03432272308332006,0.0
4.09,-0.005790283216495035,-0.8697711456656813,0.0,1.395807465983168,0.03421875799847326,0.0
4.1,-0.005772994730327392,-0.8671742042279948,0.0,1.3916398981516682,0.03411658846682666,0.0
4.11,-0.005756001807590513,-0.864621660021701,0.0,1.3875435789323503,0.03401616562236824,0.0
4.12,-0.005739296449711814,-0.862112311563664,0.0,1.383516580186835,0.03391744219604249,0.0
4.13,-0.005722870917666545,-0.859644996357996,0.0,1.3795570363434155,0.03382037245263997,0.0
4.14,-0.0057067177218023,-0.8572185893675776,0.0,1.3756631419441612,0.033724912130663635,0.0
4.15,-0.005690829612139552,-0.8548320015570774,0.0,1.3718331493067653,0.03363101838500819,0.0
4.16,-0.00567519956912234,-0.852484178503594,0.0,1.3680653662948874,0.03353864973229908,0.0
4.17,-0.00565982079479482,-0.8501740990712657,0.0,1.3643581541911916,0.03344776599874917,0.0
4.18,-0.005644686704380921,-0.8479007741464318,0.0,1.3607099256675141,0.03335832827039678,0.0
4.19,-0.005629790918245678,-0.8456632454301278,0.0,1.3571191428470752,0.033270298845599906,0.0
4.2,-0.005615127254218135,-0.8434605842848907,0.0,1.3535843154538305,0.033183641189666956,0.0
4.21,-0.005600689720256929,-0.8412918906330408,0.0,1.3501039990444297,0.033098319891512476,0.0
4.22,-0.0055864725074407165,-0.8391562919037587,0.0,1.3466767933185004,0.03301430062223311,0.0
4.23,-0.0055724699832667614,-0.8370529420264508,0.0,1.34330134050318,0.03293155009550389,0.0
4.24,-0.0055586766852418765,-0.834981020468031,0.0,1.3399763238081717,0.032850036029703114,0.0
4.25,-0.005545087314750907,-0.8329397313118918,0.0,1.3367004659476673,0.03276972711167691,0.0
4.26,-0.005531696731188743,-0.8309283023764614,0.0,1.3334725277258055,0.032690592962061144,0.0
4.2700000000000005,-0.005518499946342686,-0.8289459843713661,0.0,1.3302913066824822,0.03261260410208291,0.0
4.28,-0.005505492119012729,-0.826992050089332,0.0,1.3271556357965324,0.03253573192176858,0.0
4.29,-0.0054926685498580125,-0.8250657936320575,0.0,1.324064382243388,0.032459948649487196,0.0
4.3,-0.005480024676458376,-0.8231665296684011,0.0,1.3210164462046323,0.032385227322766434,0.0
4.3100000000000005,-0.005467556068580556,-0.8212935927233044,0.0,1.3180107597268613,0.03231154176031697,0.0
4.32,-0.005455258423639131,-0.8194463364959712,0.0,1.3150462856275034,0.03223886653520832,0.0
4.33,-0.00544312756234288,-0.8176241332058981,0.0,1.3121220164453207,0.032167176949139925,0.0
4.34,-0.005431159424517727,-0.8158263729654295,0.0,1.309236973433489,0.032096449007756184,0.0
4.3500000000000005,-0.005419350065097935,-0.8140524631775853,0.0,1.306390205593247,0.03202665939695591,0.0
4.36,-0.005407695650277589,-0.812301827957968,0.0,1.303580788746144,0.03195778546014821,0.0
4.37,-0.005396192453814979,-0.8105739075796349,0.0,1.3008078246432087,0.03188980517641332,0.0
4.38,-0.005384836853482698,-0.8088681579398602,0.0,1.2980704401091723,0.03182269713952303,0.0
4.39,-0.005373625327656847,-0.8071840500477917,0.0,1.2953677862202888,0.031756440537784474,0.0
4.4,-0.005362554452038897,-0.8055210695320347,0.0,1.2926990375140999,0.03169101513466737,0.0
4.41,-0.005351620896504248,-0.8038787161672665,0.0,1.2900633912297288,0.03162640125017941,0.0
4.42,-0.005340821422071744,-0.8022565034190215,0.0,1.287460066577379,0.031562579742957814,0.0
4.43,-0.0053301528779887124,-0.8006539580058285,0.0,1.2848883040356356,0.031499531993042326,0.0
4.44,-0.005319612198926413,-0.7990706194779318,0.0,1.2823473646754031,0.031437239885301414,0.0
4.45,-0.005309196402280989,-0.7975060398118623,0.0,1.2798365295092717,0.0313756857934816,0.0
4.46,-0.005298902585575286,-0.7959597830201588,0.0,1.2773550988651954,0.03131485256485302,0.0
4.47,-0.005288727923957149,-0.7944314247755815,0.0,1.274902391783446,0.03125472350542547,0.0
4.48,-0.005278669667790005,-0.7929205520491882,0.0,1.27247774543577,0.031195282365708846,0.0
4.49,-0.005268725140331741,-0.791426762761673,0.0,1.2700805145658907,0.031136513326996833,0.0
4.5,-0.005258891735498114,-0.7899496654474047,0.0,1.2677100709503344,0.031078400988148867,0.0
4.51,-0.0052491669157070904,-0.7884888789306181,0.0,1.265365802878785,0.031020930352850754,0.0
4.5200000000000005,-0.005239548209800682,-0.7870440320132507,0.0,1.263047114653136,0.030964086817333848,0.0
4.53,-0.0052300332110410425,-0.7856147631739296,0.0,1.2607534261044138,0.03090785615853212,0.0
4.54,-0.0052206195751776895,-0.7842007202776473,0.0,1.2584841721268762,0.030852224522660524,0.0
4.55,-0.005211305018582949,-0.7828015602956803,0.0,1.2562388022285214,0.03079717841419545,0.0
4.5600000000000005,-0.005202087316452759,-0.7814169490353293,0.0,1.254016780097397,0.030742704685242716,0.0
4.57,-0.005192964301070188,-0.7800465608790782,0.0,1.251817583182988,0.030688790525274994,0.0
4.58,-0.005183933860129091,-0.7786900785327866,0.0,1.2496407022921208,0.030635423451225403,0.0
4.59,-0.005174993935115489,-0.7773471927825532,0.0,1.247485641198776,0.03058259129792182,0.0
4.6000000000000005,-0.005166142519744326,-0.7760176022598985,0.0,1.2453519162672564,0.030530282208848753,0.0
4.61,-0.005157377658449418,-0.7747010132149349,0.0,1.243239056088175,0.030478484627223364,0.0
4.62,-0.0051486974449244365,-0.773397139297207,0.0,1.2411466011267358,0.03042718728737301,0.0
4.63,-0.005140100020712963,-0.7721057013438984,0.0,1.2390741033828576,0.030376379206403056,0.0
4.64,-0.005131583573845637,-0.7708264271751162,0.0,1.2370211260626451,0.030326049676142785,0.0
4.65,-0.00512314633752259,-0.7695590513959758,0.0,1.2349872432607791,0.030276188255359156,0.0
4.66,-0.005114786588839406,-0.7683033152052249,0.0,1.2329720396533805,0.03022678476222721,0.0
4.67,-0.0051065026475549,-0.7670589662101488,0.0,1.230975110200994,0.030177829267048584,0.0
4.68,-0.005098292874899157,-0.765825758247523,0.0,1.228996059861234,0.03012931208520692,0.0
4.69,-0.005090155672420255,-0.7646034512103772,0.0,1.2270345033107866,0.030081223770352696,0.0
4.7,-0.005082089480868222,-0.7633918108803526,0.0,1.225090064676366,0.030033555107807416,0.0
4.71,-0.005074092779114836,-0.7621906087654412,0.0,1.2231623772743385,0.0299862971081805,0.0
4.72,-0.0050661640831078944,-0.7609996219429058,0.0,1.2212510833586154,0.029939441001188692,0.0
4.73,-0.0050583019448587,-0.7598186329071878,0.0,1.2193558338765935,0.029892978229672875,0.0
4.74,-0.005050504951461518,-0.7586474294226163,0.0,1.2174762882327816,0.029846900443803337,0.0
4.75,-0.005042771724143819,-0.757485804380745,0.0,1.2156121140598433,0.029801199495466713,0.0
4.76,-0.0050351009173462,-0.7563335556621434,0.0,1.2137629869968116,0.029755867432828872,0.0
4.7700000000000005,-0.005027491217830889,-0.7551904860024853,0.0,1.211928590474184,0.029710896495066464,0.0
4.78,-0.005019941343817796,-0.7540564028627708,0.0,1.2101086155056593,0.02966627910726121,0.0
4.79,-0.005012450044147143,-0.7529311183035444,0.0,1.2083027604862648,0.029622007875451,0.0
4.8,-0.005005016097467675,-0.7518144488629547,0.0,1.2065107309966927,0.029578075581832956,0.0
4.8100000000000005,-0.004997638311449591,-0.7507062154385267,0.0,1.204732239613555,0.02953447518011203,0.0
4.82,-0.004990315522021297,-0.7496062431725119,0.0,1.2029670057253892,0.029491199790989988,0.0
4.83,-0.00498304659262913,-0.7485143613406909,0.0,1.2012147553542183,0.02944824269779119,0.0
4.84,-0.004975830413519273,-0.7474304032445085,0.0,1.1994752209824426,0.02940559734221854,0.0
4.8500000000000005,-0.004968665901041078,-0.746354206106423,0.0,1.1977481413849014,0.029363257320236542,0.0
4.86,-0.004961551996971046,-0.7452856109683613,0.0,1.1960332614659095,0.029321216378076158,0.0
4.87,-0.004954487667856776,-0.7442244625931707,0.0,1.1943303321011136,0.029279468408357864,0.0
4.88,-0.004947471904380168,-0.7431706093689646,0.0,1.1926391099839777,0.029238007446328134,0.0
4.89,-0.004940503720739253,-0.7421239032162669,0.0,1.1909593574767716,0.029196827666206442,0.0
4.9,-0.004933582154048,-0.7410841994978542,0.0,1.1892908424658943,0.02915592337763838,0.0
4.91,-0.004926706263753507,-0.7400513569312116,0.0,1.1876333382213726,0.029115289022251262,0.0
4.92,-0.004919875131069983,-0.7390252375035093,0.0,1.1859866232604153,0.029074919170309126,0.0
4.93,-0.004913087858428954,-0.7380057063890182,0.0,1.1843504812148882,0.02903480851746378,0.0
4.94,-0.004906343568945186,-0.736992631868883,0.0,1.182724700702567,0.028994951881598487,0.0
4.95,-0.0048996414058977665,-0.7359858852531758,0.0,1.1811090752020426,0.028955344199761302,0.0
4.96,-0.004892980532225884,-0.7349853408051557,0.0,1.1795034029311775,0.02891598052518538,0.0
4.97,-0.004886360130038789,-0.7339908756676589,0.0,1.1779074867289732,0.028876856024392862,0.0
4.98,-0.004879779400139508,-0.7330023697915545,0.0,1.1763211339407587,0.02883796597438021,0.0
4.99,-0.004873237561561846,-0.732019705866197,0.0,1.174744156306583,0.028799305759882175,0.0
5.0,-0.004866733851120256,-0.7310427692518108,0.0,1.173176369852699,0.02876087087071145,0.0
5.01,-0.004860267522972168,-0.7300714479137473,0.0,1.171617594786069,0.028722656899172402,0.0
5.0200000000000005,-0.0048538378481923754,-0.7291056323585519,0.0,1.1700676553917573,0.028684659537545672,0.0
5.03,-0.004847444114359095,-0.7281452155717855,0.0,1.1685263799331436,0.028646874575641818,0.0
5.04,-0.004841085625151344,-0.7271900929575456,0.0,1.1669936005548802,0.028609297898422297,0.0
5.05,-0.004834761699957262,-0.7262401622796313,0.0,1.1654691531884591,0.02857192548368442,0.0
5.0600000000000005,-0.004828471673493054,-0.725295323604304,0.0,1.163952877460364,0.028534753399809588,0.0
5.07,-0.004822214895432209,-0.7243554792445922,0.0,1.1624446166026814,0.02849777780357198,0.0
5.08,-0.004815990730044692,-0.7234205337060924,0.0,1.1609442173661366,0.028460994938006606,0.0
5.09,-0.0048097985558457935,-0.7224903936342224,0.0,1.1594515299354302,0.028424401130333617,0.0
5.1000000000000005,-0.004803637765254331,-0.7215649677628804,0.0,1.1579664078468566,0.028387992789938837,0.0
5.11,-0.004797507764259948,-0.7206441668644671,0.0,1.1564887079080908,0.02835176640640723,0.0
5.12,-0.0047914079720992025,-0.7197279037012316,0.0,1.1550182901201211,0.02831571854760907,0.0
5.13,-0.004785337820940194,-0.7188160929778988,0.0,1.1535550176012144,0.028279845857835915,0.0
5.14,-0.0047792967555754795,-0.7179086512955402,0.0,1.152098756512889,0.028244145055985766,0.0
5.15,-0.004773284233123016,-0.7170054971066532,0.0,1.1506493759878342,0.02820861293379611,0.0
5.16,-0.004767299722734901,-0.7161065506714097,0.0,1.1492067480596884,0.028173246354122248,0.0
5.17,-0.004761342705313679,-0.7152117340150418,0.0,1.1477707475946601,0.028138042249261072,0.0
5.18,-0.004755412673235983,-0.7143209708863302,0.0,1.1463412522249017,0.0281029976193176,0.0
5.19,-0.004749509130083312,-0.7134341867171624,0.0,1.1449181422836168,0.02806810953061423,0.0
5.2,-0.004743631590379715,-0.7125513085831309,0.0,1.143501300741821,0.028033375114140276,0.0
5.21,-0.004737779579336198,-0.7116722651651392,0.0,1.1420906131467323,0.02799879156404172,0.0
5.22,-0.004731952632601655,-0.7107969867119889,0.0,1.1406859675617314,0.027964356136149157,0.0
5.23,-0.004726150296020131,-0.7099254050039175,0.0,1.1392872545078405,0.027930066146543253,0.0
5.24,-0.004720372125394234,-0.7090574533170602,0.0,1.1378943669066997,0.02789591897015677,0.0
5.25,-0.004714617686254527,-0.7081930663888097,0.0,1.1365072000249716,0.02786191203941154,0.0
5.26,-0.004708886553634734,-0.7073321803840495,0.0,1.1351256514201524,0.02782804284289012,0.0
5.2700000000000005,-0.004703178311852577,-0.7064747328622323,0.0,1.133749620887748,0.027794308924040736,0.0
5.28,-0.0046974925542961,-0.7056206627452842,0.0,1.132379010409751,0.027760707879914137,0.0
5.29,-0.004691828883215327,-0.7047699102863088,0.0,1.131013724104429,0.027727237359932676,0.0
5.3,-0.004686186909519096,-0.7039224170390688,0.0,1.1296536681773475,0.027693895064689677,0.0
5.3100000000000005,-0.004680566252576931,-0.7030781258282255,0.0,1.1282987508736038,0.027660678744778334,0.0
5.32,-0.004674966540025809,-0.702236980720312,0.0,1.1269488824312521,0.027627586199649917,0.0
5.33,-0.004669387407581689,-0.7013989269954236,0.0,1.1256039750358742,0.027594615276500176,0.0
5.34,-0.004663828498855675,-0.7005639111196019,0.0,1.1242639427762442,0.027561763869182233,0.0
5.3500000000000005,-0.004658289465174675,-0.6997318807178973,0.0,1.1229287016011247,0.02752902991714764,0.0
5.36,-0.004652769965406447,-0.6989027845480869,0.0,1.1215981692770687,0.02749641140441175,0.0
5.37,-0.0046472696657889065,-0.698076572475036,0.0,1.1202722653472856,0.027463906358545346,0.0
5.38,-0.004641788239763574,-0.6972531954456785,0.0,1.1189509110914855,0.027431512849690146,0.0
5.39,-0.004636325367813066,-0.6964326054646078,0.0,1.117634029486715,0.02739922898959878,0.0
5.4,-0.0046308807373025025,-0.6956147555702522,0.0,1.1163215451691022,0.027367052930696887,0.0
5.41,-0.004625454042324745,-0.6947995998116295,0.0,1.1150133843965895,0.027334982865169485,0.0
5.42,-0.004620044983549344,-0.6939870932256562,0.0,1.1137094750124783,0.027303017024067337,0.0
5.43,-0.004614653268075117,-0.6931771918150027,0.0,1.112409746409921,0.027271153676436292,0.0
5.44,-0.004609278609286242,-0.692369852526478,0.0,1.1111141294972207,0.02723939112846682,0.0
5.45,-0.004603920726711787,-0.6915650332299279,0.0,1.109822556663964,0.027207727722663586,0.0
5.46,-0.004598579345888582,-0.6907626926976372,0.0,1.1085349617479752,0.02717616183703533,0.0
5.47,-0.004593254198227341,-0.6899627905842205,0.0,1.1072512800030407,0.027144691884303688,0.0
5.48,-0.004587945020881959,-0.6891652874069871,0.0,1.1059714480673934,0.02711331631113051,0.0
5.49,-0.0045826515566218876,-0.6883701445267725,0.0,1.104695403932959,0.027082033597363945,0.0
5.5,-0.004577373553707524,-0.6875773241292183,0.0,1.10342308691531,0.02705084225530189,0.0
5.51,-0.004572110765768533,-0.686786789206496,0.0,1.1021544376243393,0.027019740828972943,0.0
5.5200000000000005,-0.004566862951685005,-0.6859985035394551,0.0,1.1008893979356054,0.026988727893434032,0.0
5.53,-0.0045616298754714135,-0.6852124316801917,0.0,1.0996279109623623,0.02695780205408469,0.0
5.54,-0.004556411306163277,-0.6844285389350246,0.0,1.098369921028243,0.02692696194599726,0.0
5.55,-0.0045512070177064585,-0.6836467913478658,0.0,1.0971153736405683,0.026896206233262752,0.0
5.5600000000000005,-0.004546016788849038,-0.6828671556839788,0.0,1.0958642154642786,0.0268655336083516,0.0
5.57,-0.004540840403035696,-0.6820895994141141,0.0,1.0946163942964846,0.02683494279148989,0.0
5.58,-0.0045356776483045395,-0.6813140906990106,0.0,1.0933718590415815,0.026804432530049143,0.0
5.59,-0.004530528317186317,-0.6805405983742572,0.0,1.092130559686974,0.02677400159795132,0.0
5.6000000000000005,-0.004525392206605954,-0.6797690919355008,0.0,1.0908924472793182,0.026743648795086308,0.0
5.61,-0.004520269117786348,-0.6789995415239974,0.0,1.0896574739013445,0.026713372946743818,0.0
5.62,-0.004515158856154386,-0.6782319179124925,0.0,1.0884255926491966,0.026683172903057693,0.0
5.63,-0.0045100612312491085,-0.6774661924914274,0.0,1.0871967576102985,0.026653047538463467,0.0
5.64,-0.004504976056631972,-0.6767023372554595,0.0,1.0859709238417175,0.02662299575116779,0.0
5.65,-0.0044999031497991665,-0.675940324790291,0.0,1.084748047349029,0.026593016462630424,0.0
5.66,-0.004494842332095929,-0.6751801282597982,0.0,1.0835280850656583,0.02656310861705766,0.0
5.67,-0.004489793428632806,-0.6744217213934527,0.0,1.0823109948326997,0.026533271180907682,0.0
5.68,-0.004484756268203827,-0.6736650784740296,0.0,1.0810967353791914,0.026503503142407,0.0
5.69,-0.004479730683206513,-0.6729101743255932,0.0,1.0798852663028253,0.026473803511077382,0.0
5.7,-0.00447471650956372,-0.6721569843017555,0.0,1.0786765480511158,0.026444171317274463,0.0
5.71,-0.004469713586647227,-0.6714054842741992,0.0,1.0774705419029742,0.026414605611735798,0.0
5.72,-0.004464721757203065,-0.6706556506214604,0.0,1.0762672099507087,0.02638510546513971,0.0
5.73,-0.004459740867278518,-0.6699074602179641,0.0,1.0750665150824308,0.026355669967673974,0.0
5.74,-0.004454770766150767,-0.6691608904233047,0.0,1.0738684209648504,0.026326298228613952,0.0
5.75,-0.004449811306257137,-0.6684159190717693,0.0,1.0726728920264634,0.026296989375910535,0.0
5.76,-0.004444862343126909,-0.667672524462094,0.0,1.0714798934411134,0.026267742555787062,0.0
5.7700000000000005,-0.0044399237353146565,-0.666930685347451,0.0,1.0702893911119251,0.026238556932345503,0.0
5.78,-0.004434995344335069,-0.6661903809256582,0.0,1.0691013516555825,0.026209431687180984,0.0
5.79,-0.004430077034599237,-0.6654515908296078,0.0,1.0679157423869834,0.026180366019005634,0.0
5.8,-0.0044251686733523515,-0.6647142951179088,0.0,1.0667325313042115,0.026151359143280147,0.0
5.8100000000000005,-0.00442027013061279,-0.6639784742657363,0.0,1.0655516870738548,0.026122410291853835,0.0
5.82,-0.004415381279112556,-0.6632441091558857,0.0,1.064373179016657,0.026093518712612937,0.0
5.83,-0.004410501994239046,-0.662511181070024,0.0,1.0631969770934584,0.026064683669135853,0.0
5.84,-0.004405632153978094,-0.661779671680136,0.0,1.0620230518914902,0.026035904440357225,0.0
5.8500000000000005,-0.004400771638858292,-0.6610495630401594,0.0,1.060851374610935,0.02600718032023839,0.0
5.86,-0.004395920331896532,-0.6603208375778045,0.0,1.0596819170518097,0.025978510617445973,0.0
5.87,-0.004391078118544747,-0.659593478086555,0.0,1.0585146516011223,0.025949894655036772,0.0
5.88,-0.004386244886637832,-0.6588674677178447,0.0,1.0573495512203204,0.02592133177015027,0.0
5.89,-0.004381420526342714,-0.6581427899734064,0.0,1.0561865894330045,0.025892821313707345,0.0
5.9,-0.004376604930108536,-0.6574194286977899,0.0,1.0550257403129344,0.025864362650116206,0.0
5.91,-0.004371797992617937,-0.6566973680710434,0.0,1.0538669784722736,0.025835955156984267,0.0
5.92,-0.004366999610739396,-0.655976592601555,0.0,1.0527102790501055,0.02580759822483656,0.0
5.93,-0.0043622096834806355,-0.6552570871190531,0.0,1.0515556177012033,0.025779291256840475,0.0
5.94,-0.004357428111943029,-0.6545388367677578,0.0,1.050402970585028,0.025751033668536018,0.0
5.95,-0.0043526547992770075,-0.6538218269996832,0.0,1.0492523143549966,0.025722824887572705,0.0
5.96,-0.004347889650638451,-0.6531060435680857,0.0,1.0481036261479557,0.025694664353451507,0.0
5.97,-0.004343132573146017,-0.652391472521055,0.0,1.0469568835738987,0.025666551517272786,0.0
5.98,-0.004338383475839409,-0.6516781001952456,0.0,1.0458120647059101,0.025638485841489787,0.0
5.99,-0.004333642269638548,-0.6509659132097434,0.0,1.0446691480703167,0.0256104667996671,0.0
6.0,-0.004328908867303639,-0.6502548984600671,0.0,1.0435281126370677,0.025582493876244936,0.0
6.01,-0.004324183183396092,-0.6495450431122991,0.0,1.0423889378103106,0.02555456656630804,0.0
6.0200000000000005,-0.004319465134240308,-0.6488363345973436,0.0,1.0412516034191766,0.025526684375359765,0.0
6.03,-0.004314754637886274,-0.6481287606053099,0.0,1.0401160897087738,0.02549884681910135,0.0
6.04,-0.004310051614072991,-0.6474223090800167,0.0,1.0389823773313605,0.025471053423215456,0.0
6.05,-0.004305355984192673,-0.6467169682136165,0.0,1.0378504473377157,0.02544330372315458,0.0
6.0600000000000005,-0.0043006676712557335,-0.646012726441334,0.0,1.0367202811687095,0.025415597263934536,0.0
6.07,-0.004295986599856519,-0.6453095724363213,0.0,1.0355918606470327,0.025387933599931592,0.0
6.08,-0.004291312696139792,-0.6446074951046205,0.0,1.0344651679691144,0.02536031229468434,0.0
6.09,-0.0042866458877679255,-0.6439064835802382,0.0,1.0333401856972262,0.025332732920700103,0.0
6.1000000000000005,-0.004281986103888818,-0.6432065272203248,0.0,1.0322168967517409,0.025305195059265304,0.0
6.11,-0.004277333275104484,-0.6425076156004563,0.0,1.0310952844035521,0.025277698300259405,0.0
6.12,-0.004272687333440332,-0.6418097385100209,0.0,1.0299753322666936,0.02525024224197414,0.0
6.13,-0.004268048212315097,-0.6411128859477002,0.0,1.028857024291056,0.025222826490934894,0.0
6.140000000000001,-0.004263415846511424,-0.6404170481170522,0.0,1.0277403447553275,0.025195450661727667,0.0
6.15,-0.004258790172147072,-0.6397222154221855,0.0,1.0266252782600342,0.02516811437682839,0.0
6.16,-0.004254171126646749,-0.6390283784635281,0.0,1.0255118097207585,0.025140817266436775,0.0
6.17,-0.004249558648714541,-0.6383355280336863,0.0,1.0243999243614865,0.02511355896831312,0.0
6.18,-0.004244952678306935,-0.6376436551133924,0.0,1.0232896077081108,0.02508633912761913,0.0
6.19,-0.004240353156606422,-0.6369527508675391,0.0,1.0221808455820662,0.025059157396761834,0.0
6.2,-0.004235760025995655,-0.6362628066412985,0.0,1.0210736240940936,0.025032013435240627,0.0
6.21,-0.00423117323003217,-0.6355738139563241,0.0,1.0199679296381594,0.025004906909498404,0.0
6.22,-0.004226592713423641,-0.6348857645070343,0.0,1.0188637488854746,0.02497783749277474,0.0
6.23,-0.004222018422003663,-0.6341986501569747,0.0,1.0177610687786713,0.02495080486496325,0.0
6.24,-0.004217450302708053,-0.633512462935258,0.0,1.0166598765260781,0.024923808712471154,0.0
6.25,-0.004212888303551659,-0.6328271950330802,0.0,1.0155601595961437,0.024896848728082666,0.0
6.26,-0.004208332373605655,-0.6321428388003107,0.0,1.0144619057119442,0.02486992461082424,0.0
6.2700000000000005,-0.004203782462975321,-0.6314593867421544,0.0,1.0133651028458446,0.024843036065833785,0.0
6.28,-0.0041992385227783095,-0.6307768315158861,0.0,1.012269739214253,0.024816182804232013,0.0
6.29,-0.004194700505123352,-0.6300951659276539,0.0,1.0111758032724827,0.02478936454299646,0.0
6.3,-0.004190168363089434,-0.629414382929349,0.0,1.0100832837097407,0.024762581004838687,0.0
6.3100000000000005,-0.004185642050705405,-0.628734475615544,0.0,1.0089921694442066,0.0247358319180836,0.0
6.32,-0.004181121522930027,-0.6280554372204956,0.0,1.0079024496182258,0.0247091170165516,0.0
6.33,-0.004176606735632437,-0.6273772611152103,0.0,1.0068141135935995,0.024682436039443135,0.0
6.34,-0.004172097645573034,-0.6266999408045725,0.0,1.0057271509469738,0.024655788731225693,0.0
6.3500000000000005,-0.004167594210384762,-0.6260234699245341,0.0,1.0046415514653377,0.02462917484152335,0.0
6.36,-0.0041630963885547975,-0.6253478422393626,0.0,1.0035573051415925,0.02460259412500824,0.0
6.37,-0.004158604139406618,-0.6246730516389483,0.0,1.0024744021702443,0.0245760463412949,0.0
6.38,-0.004154117423082454,-0.6239990921361681,0.0,1.0013928329431685,0.02454953125483644,0.0
6.390000000000001,-0.00414963620052611,-0.6233259578643054,0.0,1.0003125880454649,0.02452304863482296,0.0
6.4,-0.0041451604334661486,-0.6226536430745234,0.0,0.9992336582514094,0.024496598255082304,0.0
6.41,-0.00414069008439943,-0.6219821421333935,0.0,0.9981560345204846,0.024470179893982643,0.0
6.42,-0.004136225116575004,-0.6213114495204747,0.0,0.9970797079934918,0.024443793334337355,0.0
6.43,-0.004131765493978331,-0.6206415598259438,0.0,0.9960046699887599,0.024417438363311915,0.0
6.44,-0.004127311181315847,-0.6199724677482772,0.0,0.9949309119984057,0.024391114772332283,0.0
6.45,-0.004122862143999847,-0.6193041680919802,0.0,0.9938584256847108,0.02436482235699608,0.0
6.46,-0.004118418348133693,-0.6186366557653641,0.0,0.9927872028765395,0.02433856091698477,0.0
6.47,-0.004113979760497326,-0.6179699257783708,0.0,0.9917172355658516,0.024312330255978152,0.0
6.48,-0.00410954634853309,-0.6173039732404437,0.0,0.9906485159042947,0.024286130181570838,0.0
6.49,-0.004105118080331853,-0.616638793358442,0.0,0.9895810361998383,0.024259960505189766,0.0
6.5,-0.004100694924619415,-0.6159743814345994,0.0,0.9885147889135163,0.024233821042014256,0.0
6.51,-0.0040962768507432105,-0.615310732864527,0.0,0.9874497666562102,0.02420771161089721,0.0
6.5200000000000005,-0.004091863828659285,-0.614647843135256,0.0,0.986385962185517,0.024181632034288324,0.0
6.53,-0.004087455828919543,-0.613985707823324,0.0,0.9853233684026661,0.024155582138158542,0.0
6.54,-0.0040830528226592725,-0.6133243225928988,0.0,0.984261978349526,0.02412956175192653,0.0
6.55,-0.0040786547815849245,-0.6126636831939445,0.0,0.9832017852056413,0.024103570708386243,0.0
6.5600000000000005,-0.004074261677962148,-0.6120037854604234,0.0,0.9821427822853643,0.024077608843636446,0.0
6.57,-0.004069873484604085,-0.611344625308538,0.0,0.9810849630350176,0.024051675997011166,0.0
6.58,-0.0040654901748599015,-0.6106861987350077,0.0,0.9800283210301469,0.02402577201101249,0.0
6.59,-0.0040611117226035665,-0.6100285018153845,0.0,0.9789728499728012,0.02399989673124367,0.0
6.6000000000000005,-0.004056738102222858,-0.6093715307024,0.0,0.9779185436888918,0.023974050006344578,0.0
6.61,-0.004052369288608609,-0.6087152816243516,0.0,0.9768653961255933,0.02394823168792785,0.0
6.62,-0.004048005257144175,-0.6080597508835186,0.0,0.9758134013488114,0.023922441630516898,0.0
6.63,-0.004043645983695118,-0.6074049348546143,0.0,0.9747625535406911,0.02389667969148474,0.0
6.640000000000001,-0.0040392914445991105,-0.6067508299832687,0.0,0.973712846997182,0.02387094573099438,0.0
6.65,-0.004034941616656054,-0.606097432784544,0.0,0.9726642761256621,0.023845239611940548,0.0
6.66,-0.004030596477118403,-0.6054447398414813,0.0,0.9716168354426024,0.023819561199892425,0.0
6.67,-0.004026256003681679,-0.6047927478036764,0.0,0.9705705195712788,0.023793910363037525,0.0
6.68,-0.004021920174475206,-0.6041414533858868,0.0,0.9695253232395381,0.02376828697212698,0.0
6.69,-0.004017588968053023,-0.6034908533666673,0.0,0.9684812412776092,0.023742690900421883,0.0
6.7,-0.004013262363384986,-0.6028409445870345,0.0,0.9674382686159629,0.02371712202364077,0.0
6.71,-0.00400894033984807,-0.6021917239491582,0.0,0.9663964002832012,0.023691580219907863,0.0
6.72,-0.0040046228772178385,-0.6015431884150815,0.0,0.9653556314040199,0.023666065369703258,0.0
6.73,-0.004000309955660097,-0.6008953350054664,0.0,0.9643159571971783,0.023640577355812955,0.0
6.74,-0.003996001555722724,-0.6002481607983673,0.0,0.9632773729735429,0.023615116063281046,0.0
6.75,-0.003991697658327666,-0.5996016629280277,0.0,0.9622398741341539,0.02358968137936228,0.0
6.76,-0.003987398244763106,-0.5989558385837047,0.0,0.9612034561683346,0.023564273193475642,0.0
6.7700000000000005,-0.003983103296675791,-0.5983106850085157,0.0,0.9601681146518408,0.02353889139715912,0.0
6.78,-0.003978812796063519,-0.5976661994983106,0.0,0.9591338452450613,0.023513535884025445,0.0
6.79,-0.003974526725267791,-0.5970223794005673,0.0,0.9581006436912303,0.023488206549718386,0.0
6.8,-0.003970245066966608,-0.5963792221133108,0.0,0.9570685058147016,0.023462903291870337,0.0
6.8100000000000005,-0.003965967804167418,-0.5957367250840521,0.0,0.9560374275192427,0.02343762601006061,0.0
6.82,-0.003961694920200216,-0.5950948858087534,0.0,0.9550074047863801,0.023412374605774746,0.0
6.83,-0.003957426398710787,-0.5944537018308118,0.0,0.9539784336737612,0.023387148982364495,0.0
6.84,-0.003953162223654081,-0.5938131707400659,0.0,0.9529505103135605,0.023361949045008577,0.0
6.8500000000000005,-0.0039489023792877425,-0.5931732901718213,0.0,0.9519236309109231,0.0233367747006747,0.0
6.86,-0.003944646850165756,-0.5925340578058984,0.0,0.9508977917424244,0.023311625858081657,0.0
6.87,-0.003940395621132242,-0.5918954713656993,0.0,0.9498729891545871,0.023286502427663044,0.0
6.88,-0.003936148677315368,-0.5912575286172933,0.0,0.9488492195623991,0.0232614043215309,0.0
6.890000000000001,-0.003931906004121394,-0.5906202273685226,0.0,0.9478264794478892,0.023236331453440822,0.0
6.9,-0.0039276675872288395,-0.5899835654681264,0.0,0.9468047653587198,0.023211283738757416,0.0
6.91,-0.003923433412582774,-0.5893475408048826,0.0,0.9457840739068033,0.0231862610944204,0.0
6.92,-0.0039192034663892246,-0.5887121513067685,0.0,0.9447644017669592,0.023161263438911697,0.0
6.93,-0.0039149777351097014,-0.5880773949401377,0.0,0.943745745675596,0.023136290692223112,0.0
6.94,-0.003910756205455835,-0.5874432697089148,0.0,0.9427281024294171,0.023111342775824602,0.0
6.95,-0.003906538864384127,-0.5868097736538078,0.0,0.9417114688841483,0.02308641961263306,0.0
6.96,-0.003902325699090811,-0.5861769048515346,0.0,0.9406958419533145,0.023061521126982336,0.0
6.97,-0.0038981166970068165,-0.5855446614140675,0.0,0.939681218607009,0.023036647244593138,0.0
6.98,-0.0038939118457928436,-0.5849130414878931,0.0,0.9386675958707154,0.023011797892544043,0.0
6.99,-0.003889711133334534,-0.5842820432532875,0.0,0.9376549708241467,0.02298697299924307,0.0
7.0,-0.0038855145477377493,-0.5836516649236054,0.0,0.9366433406000951,0.02296217249439953,0.0
7.01,-0.00388132207732394,-0.5830219047445868,0.0,0.935632702383324,0.022937396308996817,0.0
7.0200000000000005,-0.0038771337106256157,-0.5823927609936745,0.0,0.9346230534094813,0.022912644375265766,0.0
7.03,-0.0038729494363819086,-0.5817642319793491,0.0,0.9336143909640165,0.02288791662665812,0.0
7.04,-0.0038687692435342307,-0.5811363160404757,0.0,0.9326067123811413,0.022863212997821042,0.0
7.05,-0.0038645931212220163,-0.5805090115456649,0.0,0.9316000150428071,0.0228385334245721,0.0
7.0600000000000005,-0.00386042105877856,-0.5798823168926476,0.0,0.9305942963776933,0.02281387784387433,0.0
7.07,-0.0038562530457269353,-0.5792562305076615,0.0,0.9295895538602293,0.022789246193812458,0.0
7.08,-0.0038520890717760026,-0.5786307508448519,0.0,0.9285857850096291,0.02276463841356899,0.0
7.09,-0.0038479291268164965,-0.5780058763856842,0.0,0.9275829873889501,0.022740054443401374,0.0
7.1000000000000005,-0.0038437732009171982,-0.5773816056383679,0.0,0.9265811586041705,0.022715494224619243,0.0
7.11,-0.0038396212843211813,-0.5767579371372938,0.0,0.925580296303282,0.02269095769956222,0.0
7.12,-0.003835473367442145,-0.5761348694424827,0.0,0.9245803981754069,0.022666444811578212,0.0
7.13,-0.003831329440860817,-0.5755124011390449,0.0,0.923581461949935,0.02264195550500235,0.0
7.140000000000001,-0.003827189495321426,-0.5748905308366506,0.0,0.9225834853956636,0.022617489725135834,0.0
7.15,-0.003823053521728265,-0.574269257169014,0.0,0.9215864663199822,0.02259304741822599,0.0
7.16,-0.003818921511142307,-0.5736485787933839,0.0,0.9205904025680448,0.02256862853144596,0.0
7.17,-0.0038147934547779015,-0.5730284943900489,0.0,0.9195952920219795,0.022544233012875232,0.0
7.18,-0.003810669343999536,-0.5724090026618492,0.0,0.9186011326001086,0.02251986081148073,0.0
7.19,-0.003806549170318671,-0.5717901023337032,0.0,0.9176079222561796,0.022495511877097744,0.0
7.2,-0.0038024329253906314,-0.5711717921521386,0.0,0.9166156589786254,0.022471186160411976,0.0
7.21,-0.0037983206010115647,-0.5705540708848369,0.0,0.9156243407898207,0.022446883612941147,0.0
7.22,-0.003794212189115471,-0.5699369373201864,0.0,0.9146339657453721,0.02242260418701771,0.0
7.23,-0.0037901076817712853,-0.5693203902668443,0.0,0.9136445319334167,0.022398347835771625,0.0
7.24,-0.003786007071180023,-0.5687044285533082,0.0,0.912656037473928,0.02237411451311329,0.0
7.25,-0.003781910349671985,-0.5680890510274959,0.0,0.9116684805180473,0.02234990417371724,0.0
7.26,-0.0037778175097040218,-0.5674742565563342,0.0,0.9106818592474175,0.022325716773005766,0.0
7.2700000000000005,-0.0037737285438568567,-0.5668600440253572,0.0,0.9096961718735496,0.022301552267133307,0.0
7.28,-0.0037696434448324565,-0.5662464123383114,0.0,0.9087114166371739,0.02227741061297078,0.0
7.29,-0.003765562205451465,-0.5656333604167701,0.0,0.9077275918076348,0.02225329176809041,0.0
7.3,-0.003761484818650687,-0.5650208871997551,0.0,0.9067446956822753,0.02222919569075095,0.0
7.3100000000000005,-0.0037574112774806257,-0.5644089916433672,0.0,0.905762726585848,0.02220512233988309,0.0
7.32,-0.003753341575103065,-0.563797672720423,0.0,0.90478168286993,0.02218107167507504,0.0
7.33,-0.0037492757047887138,-0.5631869294201011,0.0,0.9038015629123556,0.022157043656558822,0.0
7.34,-0.003745213659914886,-0.562576760747593,0.0,0.9028223651166604,0.02213303824519651,0.0
7.3500000000000005,-0.003741155433963243,-0.5619671657237649,0.0,0.9018440879115286,0.02210905540246664,0.0
7.36,-0.0037371010205175664,-0.5613581433848226,0.0,0.9008667297502666,0.02208509509045148,0.0
7.37,-0.0037330504132615946,-0.5607496927819864,0.0,0.8998902891102744,0.022061157271823863,0.0
7.38,-0.003729003605976888,-0.560141812981171,0.0,0.898914764492532,0.022037241909834773,0.0
7.390000000000001,-0.0037249605925407537,-0.5595345030626734,0.0,0.8979401544211042,0.022013348968301056,0.0
7.4,-0.003720921366924201,-0.5589277621208654,0.0,0.896966457442634,0.021989478411593107,0.0
7.41,-0.003716885923189943,-0.5583215892638942,0.0,0.8959936721258848,0.02196563020462363,0.0
7.42,-0.0037128542554904476,-0.5577159836133893,0.0,0.8950217970612443,0.021941804312835423,0.0
7.43,-0.003708826358066017,-0.5571109443041736,0.0,0.8940508308602794,0.02191800070219052,0.0
7.44,-0.003704802225242914,-0.5565064704839827,0.0,0.8930807721552753,0.021894219339158853,0.0
7.45,-0.003700781851431525,-0.5559025613131887,0.0,0.8921116195988005,0.021870460190707645,0.0
7.46,-0.003696765231124566,-0.5552992159645302,0.0,0.8911433718632654,0.02184672322429049,0.0
7.47,-0.003692752358895319,-0.5546964336228482,0.0,0.8901760276405069,0.021823008407837297,0.0
7.48,-0.003688743229395905,-0.5540942134848256,0.0,0.8892095856413594,0.021799315709743663,0.0
7.49,-0.0036847378373556024,-0.553492554758736,0.0,0.8882440445952647,0.02177564509886136,0.0
7.5,-0.0036807361775791896,-0.5528914566641939,0.0,0.8872794032498583,0.021751996544488172,0.0
7.51,-0.0036767382449453268,-0.5522909184319114,0.0,0.8863156603705905,0.02172837001635867,0.0
7.5200000000000005,-0.003672744034404971,-0.5516909393034607,0.0,0.8853528147403369,0.021704765484634566,0.0
7.53,-0.0036687535409798268,-0.5510915185310412,0.0,0.884390865159026,0.021681182919895656,0.0
7.54,-0.0036647667597608227,-0.5504926553772505,0.0,0.8834298104432778,0.021657622293130913,0.0
7.55,-0.0036607836859066257,-0.5498943491148612,0.0,0.8824696494260387,0.02163408357572956,0.0
7.5600000000000005,-0.0036568043146421817,-0.5492965990266022,0.0,0.8815103809562332,0.021610566739472554,0.0
7.57,-0.003652828641257292,-0.5486994044049441,0.0,0.880552003898419,0.021587071756524075,0.0
7.58,-0.003648856661105213,-0.5481027645518894,0.0,0.8795945171324483,0.021563598599423257,0.0
7.59,-0.00364488836960129,-0.5475066787787669,0.0,0.8786379195531469,0.021540147241076384,0.0
7.6000000000000005,-0.003640923762221617,-0.5469111464060308,0.0,0.8776822100699776,0.021516717654748455,0.0
7.61,-0.0036369628345017248,-0.5463161667630635,0.0,0.8767273876067352,0.021493309814055905,0.0
7.62,-0.0036330055820352957,-0.5457217391879823,0.0,0.8757734511012311,0.021469923692958776,0.0
7.63,-0.0036290520004729075,-0.545127863027451,0.0,0.8748203995049935,0.021446559265753392,0.0
7.640000000000001,-0.0036251020855208017,-0.5445345376364946,0.0,0.8738682317829649,0.0214232165070649,0.0
7.65,-0.0036211558329396778,-0.5439417623783186,0.0,0.872916946913221,0.021399895391840406,0.0
7.66,-0.0036172132385435102,-0.5433495366241309,0.0,0.8719665438866744,0.021376595895341795,0.0
7.67,-0.003613274298198395,-0.5427578597529684,0.0,0.8710170217068078,0.02135331799313903,0.0
7.68,-0.003609339007821416,-0.5421667311515278,0.0,0.8700683793893884,0.021330061661103284,0.0
7.69,-0.0036054073633795384,-0.5415761502139979,0.0,0.8691206159622177,0.021306826875400718,0.0
7.7,-0.0036014793608885208,-0.5409861163418968,0.0,0.868173730464847,0.021283613612485573,0.0
7.71,-0.0035975549964118534,-0.5403966289439129,0.0,0.8672277219483441,0.021260421849094407,0.0
7.72,-0.0035936342660597177,-0.5398076874357483,0.0,0.8662825894750256,0.021237251562239545,0.0
7.73,-0.0035897171659879687,-0.5392192912399651,0.0,0.8653383321182229,0.021214102729203356,0.0
7.74,-0.0035858036923971347,-0.5386314397858367,0.0,0.8643949489620306,0.021190975327532065,0.0
7.75,-0.0035818938415314414,-0.5380441325091998,0.0,0.8634524391010863,0.021167869335030353,0.0
7.76,-0.0035779876096778563,-0.5374573688523117,0.0,0.8625108016403201,0.02114478472975527,0.0
7.7700000000000005,-0.003574084993165152,-0.5368711482637093,0.0,0.8615700356947465,0.021121721490011017,0.0
7.78,-0.0035701859883629883,-0.536285470198071,0.0,0.8606301403892367,0.021098679594343486,0.0
7.79,-0.0035662905916810143,-0.5357003341160825,0.0,0.8596911148582955,0.021075659021534736,0.0
7.8,-0.003562398799567989,-0.5351157394843044,0.0,0.858752958245861,0.021052659750598064,0.0
7.8100000000000005,-0.003558510608510922,-0.5345316857750422,0.0,0.857815669705094,0.02102968176077291,0.0
7.82,-0.0035546260150342303,-0.5339481724662212,0.0,0.856879248398165,0.02100672503151953,0.0
7.83,-0.0035507450156989115,-0.5333651990412612,0.0,0.8559436934960697,0.020983789542514588,0.0
7.84,-0.003546867607101737,-0.5327827649889559,0.0,0.8550090041784237,0.020960875273646016,0.0
7.8500000000000005,-0.0035429937858744627,-0.5322008698033539,0.0,0.8540751796332772,0.020937982205008573,0.0
7.86,-0.003539123548683048,-0.5316195129836419,0.0,0.8531422190569237,0.02091511031689907,0.0
7.87,-0.0035352568922269074,-0.531038694034031,0.0,0.8522101216537276,0.020892259589812234,0.0
7.88,-0.0035313938132381585,-0.5304584124636462,0.0,0.851278886635927,0.02086943000443573,0.0
7.890000000000001,-0.0035275343084809007,-0.5298786677864152,0.0,0.8503485132234782,0.02084662154164651,0.0
7.9,-0.0035236783747505003,-0.5292994595209634,0.0,0.8494190006438698,0.02082383418250615,0.0
7.91,-0.0035198260088728957,-0.5287207871905076,0.0,0.8484903481319601,0.020801067908256914,0.0
7.92,-0.0035159772077039135,-0.5281426503227551,0.0,0.8475625549298166,0.02077832270031777,0.0
7.930000000000001,-0.0035121319681286024,-0.5275650484498018,0.0,0.8466356202865475,0.02075559854028036,0.0
7.94,-0.0035082902870605765,-0.526987981108035,0.0,0.8457095434581468,0.020732895409905052,0.0
7.95,-0.0035044521614413762,-0.5264114478380371,0.0,0.8447843237073404,0.020710213291117302,0.0
7.96,-0.003500617588239843,-0.5258354481844906,0.0,0.8438599603034378,0.02068755216600397,0.0
7.97,-0.003496786564451502,-0.5252599816960871,0.0,0.8429364525221787,0.020664912016809492,0.0
7.98,-0.003492959087097963,-0.524685047925436,0.0,0.8420137996455924,0.020642292825932575,0.0
7.99,-0.0034891351532263335,-0.5241106464289769,0.0,0.8410920009618521,0.020619694575922495,0.0
8.0,-0.003485314759908638,-0.523536776766892,0.0,0.8401710557651416,0.02059711724947591,0.0
8.01,-0.003481497904241261,-0.5229634385030231,0.0,0.8392509633555107,0.02057456082943325,0.0
8.02,-0.003477684583344389,-0.5223906312047869,0.0,0.8383317230387545,0.02055202529877583,0.0
8.03,-0.00347387479436147,-0.5218183544430944,0.0,0.8374133341262685,0.020529510640622244,0.0
8.040000000000001,-0.0034700685344586897,-0.5212466077922724,0.0,0.836495795934935,0.02050701683822558,0.0
8.05,-0.003466265800824448,-0.5206753908299839,0.0,0.8355791077869884,0.020484543874970184,0.0
8.06,-0.0034624665906688545,-0.5201047031371536,0.0,0.8346632690098941,0.02046209173436859,0.0
8.07,-0.00345867090122323,-0.5195345442978921,0.0,0.8337482789362383,0.02043966040005889,0.0
8.08,-0.0034548787297396227,-0.5189649138994237,0.0,0.8328341369035933,0.020417249855801435,0.0
8.09,-0.0034510900734903305,-0.518395811532014,0.0,0.8319208422544231,0.02039486008547645,0.0
8.1,-0.003447304929767436,-0.5178272367889007,0.0,0.8310083943359541,0.020372491073080954,0.0
8.11,-0.0034435232958823507,-0.5172591892662253,0.0,0.8300967925000764,0.020350142802726283,0.0
8.120000000000001,-0.003439745169165366,-0.516691668562965,0.0,0.8291860361032248,0.020327815258635192,0.0
8.13,-0.003435970546965221,-0.516124674280868,0.0,0.8282761245062907,0.020305508425139677,0.0
8.14,-0.0034321994266486686,-0.5155582060243883,0.0,0.8273670570744992,0.020283222286677977,0.0
8.15,-0.0034284318056000632,-0.5149922634006243,0.0,0.8264588331773224,0.020260956827792477,0.0
8.16,-0.0034246676812209444,-0.5144268460192555,0.0,0.825551452188376,0.02023871203312711,0.0
8.17,-0.003420907050929639,-0.5138619534924831,0.0,0.82464491348532,0.020216487887424986,0.0
8.18,-0.003417149912160869,-0.5132975854349711,0.0,0.8237392164497688,0.020194284375526138,0.0
8.19,-0.0034133962623653646,-0.512733741463788,0.0,0.8228343604671928,0.020172101482365132,0.0
8.2,-0.003409646099009488,-0.5121704211983505,0.0,0.8219303449268354,0.020149939192969035,0.0
8.21,-0.003405899419574866,-0.5116076242603684,0.0,0.8210271692216128,0.020127797492454958,0.0
8.22,-0.00340215622155803,-0.51104535027379,0.0,0.820124832748042,0.020105676366028283,0.0
8.23,-0.00339841650247006,-0.510483598864749,0.0,0.8192233349061404,0.02008357579898019,0.0
8.24,-0.0033946802598362404,-0.5099223696615134,0.0,0.8183226750993534,0.020061495776685943,0.0
8.25,-0.003390947491195723,-0.5093616622944336,0.0,0.8174228527344679,0.020039436284602658,0.0
8.26,-0.003387218194101195,-0.5088014763958932,0.0,0.816523867221534,0.02001739730826753,0.0
8.27,-0.0033834923661185527,-0.5082418116002604,0.0,0.8156257179737868,0.019995378833295753,0.0
8.28,-0.0033797700048265864,-0.5076826675438398,0.0,0.8147284044075677,0.019973380845378717,0.0
8.290000000000001,-0.0033760511078166733,-0.5071240438648269,0.0,0.8138319259422527,0.019951403330282218,0.0
8.3,-0.0033723356726924635,-0.5065659402032608,0.0,0.8129362820001788,0.0199294462738446,0.0
8.31,-0.003368623697069593,-0.506008356200981,0.0,0.812041472006569,0.019907509661975017,0.0
8.32,-0.0033649151785753867,-0.5054512915015826,0.0,0.8111474953894665,0.019885593480651702,0.0
8.33,-0.003361210114848575,-0.5048947457503742,0.0,0.8102543515796617,0.019863697715920274,0.0
8.34,-0.003357508503539016,-0.5043387185943359,0.0,0.809362040010629,0.019841822353892126,0.0
8.35,-0.00335381034230742,-0.5037832096820778,0.0,0.808470560118461,0.01981996738074286,0.0
8.36,-0.0033501156288250834,-0.5032282186638002,0.0,0.8075799113417956,0.019798132782710486,0.0
8.370000000000001,-0.003346424360773628,-0.5026737451912544,0.0,0.8066900931217663,0.01977631854609413,0.0
8.38,-0.003342736535844746,-0.5021197889177045,0.0,0.8058011049019317,0.01975452465725246,0.0
8.39,-0.0033390521517399447,-0.5015663494978888,0.0,0.8049129461282157,0.019732751102602072,0.0
8.4,-0.003335371206170308,-0.5010134265879842,0.0,0.80402561624885,0.019710997868616135,0.0
8.41,-0.00333169369685625,-0.5004610198455692,0.0,0.8031391147143219,0.019689264941823173,0.0
8.42,-0.0033280196215272877,-0.49990912892958944,0.0,0.8022534409773022,0.019667552308805167,0.0
8.43,-0.0033243489779218017,-0.49935775350032224,0.0,0.8013685944926076,0.019645859956196752,0.0
8.44,-0.0033206817637868222,-0.49880689321934385,0.0,0.800484574717136,0.019624187870683575,0.0
8.45,-0.0033170179768777994,-0.4982565477494957,0.0,0.7996013811098145,0.019602536039001018,0.0
8.46,-0.0033133576149583953,-0.49770671675485256,0.0,0.7987190131315537,0.019580904447933083,0.0
8.47,-0.0033097006758002682,-0.49715739990069024,0.0,0.7978374702451845,0.019559293084310883,0.0
8.48,-0.00330604715718287,-0.4966085968534554,0.0,0.7969567519154237,0.019537701935011746,0.0
8.49,-0.0033023970568932417,-0.4960603072807345,0.0,0.7960768576088143,0.019516130986957744,0.0
8.5,-0.0032987503727258186,-0.49551253085122504,0.0,0.7951977867936819,0.01949458022711469,0.0
8.51,-0.0032951071024822356,-0.4949652672347056,0.0,0.7943195389400884,0.019473049642490952,0.0
8.52,-0.0032914672439711377,-0.49441851610200793,0.0,0.7934421135197841,0.01945153922013629,0.0
8.53,-0.003287830795007996,-0.4938722771249892,0.0,0.7925655100061663,0.019430048947140816,0.0
8.540000000000001,-0.003284197753414929,-0.49332654997650516,0.0,0.7916897278742349,0.01940857881063395,0.0
8.55,-0.0032805681170205198,-0.4927813343303824,0.0,0.7908147666005464,0.019387128797783298,0.0
8.56,-0.00327694188365965,-0.49223662986139377,0.0,0.7899406256631771,0.019365698895793676,0.0
8.57,-0.0032733190511733254,-0.49169243624523196,0.0,0.7890673045416797,0.019344289091906136,0.0
8.58,-0.0032696996174085106,-0.49114875315848494,0.0,0.7881948027170436,0.01932289937339691,0.0
8.59,-0.003266083580217971,-0.49060558027861156,0.0,0.7873231196716517,0.019301529727576427,0.0
8.6,-0.0032624709374601065,-0.4900629172839179,0.0,0.7864522548892527,0.019280180141788603,0.0
8.61,-0.0032588616869988055,-0.4895207638535335,0.0,0.7855822078549161,0.01925885060340969,0.0
8.620000000000001,-0.0032552558267032873,-0.48897911966738916,0.0,0.784712978054992,0.019237541099847374,0.0
8.63,-0.003251653354447953,-0.48843798440619424,0.0,0.7838445649770843,0.019216251618540094,0.0
8.64,-0.003248054268112243,-0.4878973577514147,0.0,0.7829769681100109,0.01919498214695597,0.0
8.65,-0.003244458565580497,-0.48735723938525244,0.0,0.7821101869437684,0.01917373267259212,0.0
8.66,-0.003240866244741806,-0.4868176289906234,0.0,0.7812442209695024,0.01915250318297377,0.0
8.67,-0.0032372773034898866,-0.4862785262511381,0.0,0.7803790696794692,0.019131293665653363,0.0
8.68,-0.0032336917397229443,-0.48573993085108114,0.0,0.7795147325670112,0.01911010410821002,0.0
8.69,-0.0032301095513435378,-0.48520184247539155,0.0,0.7786512091265199,0.01908893449824854,0.0
8.700000000000001,-0.0032265307362584626,-0.4846642608096444,0.0,0.7777884988534033,0.01906778482339866,0.0
8.71,-0.0032229552923786187,-0.48412718554003126,0.0,0.7769266012440643,0.019046655071314506,0.0
8.72,-0.0032193832176188888,-0.48359061635334233,0.0,0.7760655157958644,0.0190255452296737,0.0
8.73,-0.003215814509898025,-0.48305455293694854,0.0,0.7752052420070973,0.01900445528617673,0.0
8.74,-0.0032122491671385265,-0.48251899497878414,0.0,0.7743457793769588,0.018983385228546163,0.0
8.75,-0.003208687187266531,-0.48198394216732965,0.0,0.7734871274055236,0.01896233504452615,0.0
8.76,-0.003205128568211697,-0.48144939419159455,0.0,0.7726292855937142,0.018941304721881613,0.0
8.77,-0.0032015733079071023,-0.48091535074110187,0.0,0.7717722534432779,0.018920294248397706,0.0
8.78,-0.003198021404289132,-0.4803818115058714,0.0,0.7709160304567595,0.018899303611879102,0.0
8.790000000000001,-0.003194472855297375,-0.4798487761764045,0.0,0.7700606161374745,0.018878332800149392,0.0
8.8,-0.003190927658874526,-0.4793162444436686,0.0,0.7692060099894901,0.018857381801050618,0.0
8.81,-0.0031873858129662837,-0.4787842159990827,0.0,0.7683522115175934,0.018836450602442406,0.0
8.82,-0.0031838473155212524,-0.47825269053450226,0.0,0.7674992202272768,0.018815539192201747,0.0
8.83,-0.0031803121644908483,-0.47772166774220487,0.0,0.7666470356247069,0.018794647558222122,0.0
8.84,-0.0031767803578292056,-0.47719114731487655,0.0,0.7657956572167066,0.01877377568841308,0.0
8.85,-0.003173251893493089,-0.47666112894559853,0.0,0.7649450845107333,0.01875292357069976,0.0
8.86,-0.003169726769441799,-0.47613161232783285,0.0,0.764095317014855,0.018732091193022268,0.0
8.870000000000001,-0.00316620498363709,-0.47560259715541003,0.0,0.7632463542377325,0.01871127854333522,0.0
8.88,-0.003162686534043084,-0.47507408312251653,0.0,0.7623981956885938,0.018690485609607156,0.0
8.89,-0.0031591714186261876,-0.4745460699236817,0.0,0.7615508408772237,0.018669712379820284,0.0
8.9,-0.0031556596353550085,-0.47401855725376574,0.0,0.7607042893139312,0.01864895884196961,0.0
8.91,-0.0031521511822002806,-0.473491544807948,0.0,0.7598585405095427,0.01862822498406286,0.0
8.92,-0.0031486460571347836,-0.4729650322817155,0.0,0.7590135939753765,0.018607510794119833,0.0
8.93,-0.003145144258133268,-0.47243901937085087,0.0,0.7581694492232225,0.018586816260171838,0.0
8.94,-0.003141645783172383,-0.47191350577142227,0.0,0.7573261057653317,0.01856614137026156,0.0
8.950000000000001,-0.0031381506302306014,-0.4713884911797715,0.0,0.7564835631143981,0.018545486112442472,0.0
8.96,-0.003134658797288147,-0.47086397529250373,0.0,0.7556418207835286,0.018524850474778216,0.0
8.97,-0.003131170282326935,-0.47033995780647786,0.0,0.7548008782862454,0.018504234445342597,0.0
8.98,-0.003127685083330494,-0.46981643841879545,0.0,0.7539607351364571,0.018483638012218896,0.0
8.99,-0.003124203198283906,-0.4692934168267912,0.0,0.7531213908484479,0.01846306116349961,0.0
9.0,-0.0031207246251737405,-0.4687708927280232,0.0,0.752282844936858,0.01844250388728595,0.0
