# results of the dFBA model 
# the columns are: t and the concentrations in each compounds
# the compounds are: galactose, glucose, thiosulfate, butyrate, Fprau, Styphi,  
# the nominal flux is: -5.0, -5.0, -5.0, -5.0, -5.0, -5.0,  
# the initial concentration are: 66.0, 0.0, 55.0, 78.0, 0.851131626822206, 0.8750049422346086,  
t,galactose,glucose,thiosulfate,butyrate,Fprau,Styphi
0.0,66.0,0.0,55.0,78.0,0.851131626822206,0.8750049422346086
0.01,65.9138058857991,0.0,54.956284526756576,78.05230568259059,0.8523592787759294,0.8794218915708956
0.02,65.82733042758767,0.0,54.91234858578117,78.10468680964993,0.8535887014655438,0.8838611372857487
0.03,65.7405724303951,0.0,54.868191066565664,78.15714348999732,0.8548198974451162,0.8883227919293603
0.04,65.65353069358842,0.0,54.823810853026195,78.20967583260904,0.8560528692723979,0.8928069686231649
0.05,65.56620401084459,0.0,54.77920682347528,78.26228394661851,0.8572876195088291,0.8973137810534427
0.06,65.47859117012337,0.0,54.734377850594214,78.3149679413166,0.8585241507195449,0.9018433434834355
0.07,65.39069095363949,0.0,54.689322801404934,78.36772792615179,0.8597624654733801,0.906395770753176
0.08,65.30250213783488,0.0,54.64404053724189,78.42056401073044,0.8610025663428746,0.9109711782823995
0.09,65.21402349335072,0.0,54.59852991372377,78.47347630481704,0.8622444559042791,0.9155696820734701
0.1,65.12525378499946,0.0,54.552789780725064,78.52646491833433,0.8634881367375602,0.9201913987143221
0.11,65.03619177173657,0.0,54.506818982347525,78.57952996136365,0.8647336114264056,0.9248364453814152
0.12,64.94683620663236,0.0,54.46061635689152,78.6326715441451,0.8659808825582299,0.9295049398427059
0.13,64.85718583684346,0.0,54.41418073682718,78.68588977707779,0.8672299527241796,0.9341970004606331
0.14,64.76723940358431,0.0,54.367510948765414,78.73918477072009,0.8684808245191384,0.9389127461951194
0.15,64.67699564209849,0.0,54.320605813428855,78.7925566357898,0.8697335005417333,0.9436522966065864
0.16,64.58645328162987,0.0,54.27346414562261,78.84600548316442,0.8709879833943389,0.9484157718589866
0.17,64.49561104539367,0.0,54.22608475420487,78.89953142388141,0.8722442756830839,0.9532032927228495
0.18,64.40446765054745,0.0,54.17846644205738,78.95313456913837,0.8735023800178559,0.9580149805783442
0.19,64.3130218081618,0.0,54.130608006055795,79.00681503029327,0.8747622990123065,0.9628509574183561
0.2,64.22127222319114,0.0,54.0825082370399,79.06057291886472,0.8760240352838579,0.9677113458515803
0.21,64.12921759444406,0.0,54.034165919783625,79.1144083465322,0.877287591453707,0.9725962691056298
0.22,64.03685661455391,0.0,53.985579832964966,79.16832142513623,0.8785529701468319,0.9775058510301602
0.23,63.94418796994898,0.0,53.93674874913577,79.22231226667867,0.8798201739919965,0.9824402161000093
0.24,63.851210340822604,0.0,53.887671434691356,79.27638098332294,0.8810892056217566,0.9873994894183532
0.25,63.75792240110321,0.0,53.83834664983996,79.33052768739421,0.8823600676724652,0.992383796719878
0.26,63.664322818424154,0.0,53.788773148572126,79.3847524913797,0.8836327627842777,0.9973932643739676
0.27,63.57041025409348,0.0,53.73894967862985,79.43905550792886,0.8849072936011578,1.0024280193879076
0.28,63.47618336306349,0.0,53.68887498147564,79.49343684985362,0.8861836627708827,1.0074881894101053
0.29,63.381640793900225,0.0,53.638547792261434,79.54789663012865,0.8874618729450485,1.0125739027333265
0.3,63.286781188752755,0.0,53.58796683979729,79.60243496189153,0.8887419267790764,1.0176852882979475
0.31,63.19160318332242,0.0,53.53713084652004,79.65705195844308,0.890023826932217,1.0228224756952247
0.32,63.096105406831846,0.0,53.48603852846172,79.71174773324749,0.8913075760675573,1.0279855951705796
0.33,63.00028648199387,0.0,53.43468859521786,79.76652239993264,0.892593176852025,1.0331747776269016
0.34,62.90414502498031,0.0,53.38307974991563,79.8213760722903,0.8938806319563946,1.0383901546278664
0.35000000000000003,62.80767964539067,0.0,53.33121068918191,79.87630886427637,0.8951699440552928,1.0436318584012723
0.36,62.71088894622057,0.0,53.279080103111035,79.93132089001111,0.8964611158272044,1.0489000218423912
0.37,62.613771523830145,0.0,53.226686675232585,79.98641226377939,0.8977541499544773,1.0541947785173398
0.38,62.516325967912294,0.0,53.174029082478874,80.04158310003092,0.8990490491233284,1.0595162626664643
0.39,62.418550861460744,0.0,53.121105995152355,80.09683351338049,0.9003458160238492,1.0648646092077447
0.4,62.32044478073804,0.0,53.067916076892885,80.1521636186082,0.9016444533500114,1.0702399537402156
0.41000000000000003,62.22200629524333,0.0,53.01445798464479,80.20757353065973,0.9029449637996723,1.0756424325474037
0.42,62.12323396768005,0.0,52.96073036862381,80.26306336464653,0.9042473500745803,1.081072182600783
0.43,62.02412635392347,0.0,52.90673187228384,80.3186332358461,0.9055516148803813,1.0865293415632478
0.44,61.924682002988106,0.0,52.85246113228361,80.37428325970218,0.9068577609266233,1.0920140477926026
0.45,61.824899456994956,0.0,52.79791677845309,80.43001355182508,0.9081657909267626,1.0975264403450704
0.46,61.72477725113864,0.0,52.743097433759864,80.48582422799183,0.9094757075981695,1.103066658978818
0.47000000000000003,61.624313913654355,0.0,52.68800171427521,80.54171540414644,0.9107875136621335,1.1086348441574994
0.48,61.523507965784745,0.0,52.63262822914017,80.59768719640019,0.9121012118438694,1.1142311370538165
0.49,61.4223579217466,0.0,52.5769755805313,80.6537397210318,0.9134168048725227,1.1198556795530992
0.5,61.32086228869739,0.0,52.52104236362643,80.70987309448773,0.9147342954811755,1.1255086142569024
0.51,61.2190195667017,0.0,52.46482716657012,80.76608743338241,0.9160536864068518,1.1311900844866212
0.52,61.11682824869751,0.0,52.40832857043905,80.82238285449846,0.9173749803905236,1.1369002342871244
0.53,61.01428682046234,0.0,52.35154514920722,80.87875947478692,0.9186981801771162,1.1426392084304073
0.54,60.91139376057922,0.0,52.29447546971095,80.93521741136755,0.9200232885155145,1.1484071524192614
0.55,60.80814754040258,0.0,52.23711809161379,80.99175678152903,0.921350308158568,1.154204212490964
0.56,60.704546624023926,0.0,52.17947156737121,81.04837770272921,0.9226792418630969,1.1600305356209852
0.5700000000000001,60.600589468237466,0.0,52.12153444219517,81.10508029259537,0.924010092389898,1.1658862695267151
0.58,60.4962745225055,0.0,52.06330525401849,81.16186466892445,0.9253428625037498,1.171771562671208
0.59,60.3916002289237,0.0,52.00478253345907,81.21873094968328,0.9266775549734189,1.1776865642669467
0.6,60.2865650221863,0.0,51.94596480378398,81.27567925300886,0.9280141725716654,1.1836314242796264
0.61,60.1811673295511,0.0,51.88685058087331,81.33270969720859,0.929352718075249,1.1896062934319556
0.62,60.07540557080428,0.0,51.8274383731839,81.3898224007605,0.9306931942649344,1.1956113232074779
0.63,59.96927815822517,0.0,51.76772668171297,81.44701748231351,0.9320356039254969,1.2016466658544132
0.64,59.86278349655085,0.0,51.707713999961435,81.5042950606877,0.933379949845729,1.2077124743895171
0.65,59.75591998294054,0.0,51.64739881389717,81.5616552548745,0.9347262348184454,1.2138089026019605
0.66,59.648686006939954,0.0,51.586779601918074,81.619098184037,0.9360744616404891,1.2199361050572288
0.67,59.541079950445415,0.0,51.525854834814965,81.67662396751015,0.9374246331127374,1.2260942371010406
0.68,59.433100187667904,0.0,51.464622975734294,81.73423272480103,0.9387767520401072,1.2322834548632862
0.6900000000000001,59.3247450850969,0.0,51.40308248014073,81.7919245755891,0.9401308212315614,1.2385039152619859
0.7000000000000001,59.21601300146419,0.0,51.34123179577952,81.84969963972644,0.9414868435001144,1.2447557760072692
0.71,59.10690228770738,0.0,51.27906936263873,81.90755803723799,0.9428448216628378,1.2510391956053721
0.72,58.99741128693341,0.0,51.21659361291127,81.96549988832183,0.9442047585408669,1.257354333362657
0.73,58.88753833438186,0.0,51.153802970956804,82.0235253133494,0.9455666569594059,1.26370134938965
0.74,58.77728175738809,0.0,51.09069585326344,82.08163443286576,0.946930519747734,1.2700804046051029
0.75,58.66663987534634,0.0,51.027270668409265,82.13982736758985,0.9482963497392114,1.2764916607400698
0.76,58.55561099967256,0.0,50.96352581702373,82.19810423841471,0.9496641497712849,1.2829352803420104
0.77,58.444193433767225,0.0,50.899459691748824,82.25646516640779,0.951033922685494,1.2894114267789094
0.78,58.33238547297792,0.0,50.83507067720009,82.31491027281113,0.952405671327477,1.2959202642434189
0.79,58.22018540456184,0.0,50.7703571499275,82.37343967904167,0.9537793985469765,1.3024619577570213
0.8,58.107591507648124,0.0,50.70531747837609,82.43205350669146,0.9551551071978454,1.3090366731742136
0.81,57.994602053200055,0.0,50.63995002284651,82.49075187752794,0.956532800138053,1.3156445771867116
0.8200000000000001,57.88121530397716,0.0,50.57425313545532,82.5495349134942,0.957912480229691,1.3222858373276765
0.8300000000000001,57.767429514497096,0.0,50.508225160095144,82.6084027367092,0.9592941503389792,1.3289606219759624
0.84,57.6532429309975,0.0,50.44186443239464,82.66735546946803,0.9606778133362717,1.3356691003603858
0.85,57.5386537913976,0.0,50.37516927967832,82.72639323424221,0.9620634720960624,1.342411442564015
0.86,57.423660325259796,0.0,50.30813802092618,82.78551615367988,0.9634511294969915,1.3491878195284832
0.87,57.30826075375099,0.0,50.240768966733135,82.84472435060609,0.9648407884218515,1.3559984030583223
0.88,57.19245328960393,0.0,50.173060419268296,82.90401794802305,0.9662324517575926,1.3628433658253183
0.89,57.076236137078254,0.0,50.105010672234094,82.96339706911041,0.9676261223953294,1.3697228813728899
0.9,56.959607491921524,0.0,50.03661801082516,83.02286183722548,0.9690218032303463,1.3766371241204876
0.91,56.842565541330075,0.0,49.9678807116871,83.08241237590346,0.9704194971621039,1.3835862693680163
0.92,56.725108463909805,0.0,49.89879704287507,83.14204880885778,0.9718192070942449,1.3905704933002798
0.93,56.60723442963672,0.0,49.829365263812136,83.20177125998029,0.9732209359346002,1.3975899729914476
0.9400000000000001,56.48894159981741,0.0,49.75958362524751,83.26157985334154,0.974624686595195,1.404644886409544
0.9500000000000001,56.370228127049444,0.0,49.68945036921459,83.32147471319105,0.9760304619922543,1.411735412420961
0.96,56.251092155181546,0.0,49.618963728988795,83.38145596395755,0.9774382650462098,1.418861730794992
0.97,56.13153181927375,0.0,49.54812192904527,83.44152373024922,0.9788480986817054,1.4260240222083909
0.98,56.01154524555729,0.0,49.47692318501636,83.501678136854,0.9802599658276036,1.433222468249952
0.99,55.89113055139455,0.0,49.405365703648954,83.5619193087398,0.9816738694169911,1.440457251425114
1.0,55.77028584523871,0.0,49.33344768276161,83.62224737105481,0.9830898123871855,1.4477285551605876
1.01,55.64900922659342,0.0,49.26116731120156,83.6826624491277,0.9845077976797411,1.4550365638090057
1.02,55.52729878597224,0.0,49.18852276880144,83.74316466846793,0.9859278282404548,1.462381462653597
1.03,55.40515260485804,0.0,49.11551222633595,83.80375415476597,0.9873499070193726,1.4697634379128839
1.04,55.28256875566224,0.0,49.04213384547824,83.86443103389361,0.9887740369707958,1.4771826767454042
1.05,55.159545301684005,0.0,48.968385778756186,83.92519543190419,0.9902002210532865,1.4846393672544556
1.06,55.03608029706919,0.0,48.894266169508455,83.98604747503283,0.9916284622296744,1.492133698492865
1.07,54.91217178676932,0.0,48.819773151840394,84.0469872896968,0.9930587634670626,1.499665860467782
1.08,54.78781780650039,0.0,48.74490485057975,84.10801500249563,0.994491127736834,1.507236044145495
1.09,54.66301638270155,0.0,48.669659381232194,84.16913074021151,0.9959255580146573,1.5148444414562747
1.1,54.537765532493715,0.0,48.59403484993668,84.23033462980949,0.9973620572804932,1.5224912452992385
1.11,54.412063263638046,0.0,48.51802935342063,84.29162679843773,0.9988006285186007,1.5301766495472422
1.12,54.28590757449436,0.0,48.44164097895492,84.3530073734278,1.000241274717543,1.5379008490517951
1.1300000000000001,54.1592964539794,0.0,48.364867804308716,84.41447648229492,1.0016839988701944,1.545664039648
1.1400000000000001,54.03222788152506,0.0,48.287707897704095,84.47603425273824,1.0031288039737456,1.5534664181595181
1.1500000000000001,53.904699827036445,0.0,48.210159317770525,84.53768081264113,1.0045756930297105,1.56130818240356
1.16,53.7767102508499,0.0,48.132220113499166,84.59941629007136,1.0060246690439323,1.5691895311958999
1.17,53.648257103690945,0.0,48.05388832419693,84.66124081328145,1.00747573502659,1.5771106643559172
1.18,53.51933832663207,0.0,47.97516197944048,84.72315451070892,1.008928893992204,1.5850717827116623
1.19,53.389951851050505,0.0,47.89603909902993,84.78515751097653,1.0103841489596432,1.593073088104948
1.2,53.26009559858588,0.0,47.81651769294244,84.84724994289257,1.0118415029521306,1.6011147833964672
1.21,53.1297674810978,0.0,47.736595761285656,84.90943193545112,1.0133009589972497,1.6091970724709361
1.22,52.99896540062339,0.0,47.656271294250885,84.9717036178323,1.014762520126951,1.6173201602422635
1.23,52.86768724933469,0.0,47.57554227206619,85.03406511940258,1.0162261893775586,1.6254842526587459
1.24,52.73593090949606,0.0,47.49440666494923,85.09651656971502,1.0176919697897755,1.6336895567082883
1.25,52.603694253421445,0.0,47.41286243306003,85.15905809850953,1.019159864408691,1.6419362804236537
1.26,52.47097514343165,0.0,47.33090752645343,85.22168983571316,1.0206298762837864,1.650224632887736
1.27,52.337771431811525,0.0,47.24853988503151,85.28441191144039,1.0221020084689414,1.6585548242388615
1.28,52.20408096076707,0.0,47.16575743849576,85.34722445599333,1.0235762640224408,1.6669270656761166
1.29,52.06990156238254,0.0,47.082558106299096,85.41012759986205,1.0250526460069804,1.6753415694647027
1.3,51.93523105857743,0.0,46.99893979759769,85.47312147372486,1.0265311574896736,1.6837985489413174
1.31,51.800067261063525,0.0,46.914900411202694,85.53620620844853,1.0280118015420576,1.6922982185195636
1.32,51.66440797130183,0.0,46.83043783553171,85.5993819350886,1.0294945812401002,1.7008407936953855
1.33,51.528250980459454,0.0,46.74554994856014,85.66264878488964,1.0309794996642057,1.7094264910525323
1.34,51.39159406936656,0.0,46.660234617772375,85.72600688928553,1.0324665598992215,1.718055528268049
1.35,51.25443500847321,0.0,46.57448970011281,85.7894563798997,1.0339557650344446,1.7267281241177954
1.36,51.11677155780618,0.0,46.48831304193666,85.85299738854548,1.035447118163628,1.7354444984819937
1.37,50.97860146692586,0.0,46.40170247896068,85.91663004722628,1.0369406223849869,1.7442048723508017
1.3800000000000001,50.839922474883025,0.0,46.31465583621368,85.98035448813592,1.038436280801205,1.7530094678299166
1.3900000000000001,50.7007323101757,0.0,46.22717092798687,86.0441708436589,1.0399340965194421,1.7618585081462061
1.4000000000000001,50.56102869070602,0.0,46.139245557784065,86.10807924637068,1.041434072651339,1.770752217653368
1.41,50.42080932373699,0.0,46.05087751827176,86.17207982903791,1.0429362123130246,1.779690821837618
1.42,50.28007190584942,0.0,45.96206459122899,86.23617272461877,1.0444405186251227,1.7886745473234062
1.43,50.13881412289878,0.0,45.87280454749707,86.30035806626319,1.0459469947127584,1.7977036218791642
1.44,49.99703364997214,0.0,45.783095146929185,86.36463598731318,1.047455643705564,1.8067782744230785
1.45,49.85472815134509,0.0,45.69293413833982,86.42900662130306,1.048966468737686,1.8158987350288949
1.46,49.71189528043877,0.0,45.60231925945405,86.49347010195977,1.050479472947792,1.8250652349317518
1.47,49.5685326797769,0.0,45.511248236856645,86.55802656320313,1.0519946594790759,1.8342780065340423
1.48,49.42463798094291,0.0,45.41971878594109,86.62267613914611,1.0535120314792659,1.8435372834113066
1.49,49.28020880453712,0.0,45.32772861085844,86.68741896409513,1.0550315921006301,1.8528433003181544
1.5,49.13524276013398,0.0,45.235275404466,86.75225517255033,1.0565533444999835,1.8621962931942162
1.51,48.989737446239445,0.0,45.14235684827588,86.81718489920587,1.0580772918386945,1.8715964991701255
1.52,48.84369045024843,0.0,45.04897061240347,86.88220827895015,1.0596034372826912,1.8810441565735307
1.53,48.697099348402304,0.0,44.95511435551571,86.94732544686616,1.0611317840024683,1.8905395049351374
1.54,48.549961705746625,0.0,44.86078572477926,87.01253653823171,1.0626623351730933,1.9000827849947817
1.55,48.402275076088856,0.0,44.765982355808546,87.07784168851977,1.0641950939742135,1.9096742387075336
1.56,48.25403700195636,0.0,44.67070187261365,87.14324103339867,1.0657300635900626,1.9193141092498314
1.57,48.10524501455445,0.0,44.574941887548114,87.20873470873244,1.067267247209467,1.9290026410256467
1.58,47.95589663372459,0.0,44.478700001256634,87.27432285058107,1.0688066480258527,1.9387400796726815
1.59,47.80598936790285,0.0,44.381973802622575,87.34000559520082,1.0703482692372517,1.9485266720685959
1.6,47.65552071407848,0.0,44.284760868715416,87.40578307904447,1.0718921140463087,1.9583626663372666
1.61,47.50448815775266,0.0,44.187058764738104,87.4716554387616,1.073438185660288,1.9682483118550786
1.62,47.35288917289754,0.0,44.08886504397425,87.53762281119893,1.0749864872910797,1.9781838592572472
1.6300000000000001,47.20072122191544,0.0,43.99017724773529,87.60368533340052,1.076537022155207,1.9881695604441725
1.6400000000000001,47.047981755598286,0.0,43.89099290530747,87.66984314260813,1.0780897934738325,1.9982056685878262
1.6500000000000001,46.89466821308736,0.0,43.79130953389878,87.73609637626147,1.0796448044727647,2.0082924381381706
1.6600000000000001,46.740778021833215,0.0,43.69112463858582,87.80244517199849,1.0812020583824649,2.0184301248296084
1.67,46.586308597556,0.0,43.59043571226053,87.86888966765564,1.082761558438054,2.0286189856874683
1.68,46.43125734420597,0.0,43.489240235576865,87.9354300012682,1.0843233078793197,2.038859279034521
1.69,46.27562165392438,0.0,43.38753567689741,88.00206631107056,1.085887309950722,2.049151264497527
1.7,46.11939890700472,0.0,43.28531949223987,88.0687987354965,1.0874535679014008,2.0594952030138214
1.71,45.96258647185423,0.0,43.18258912522357,88.13562741317944,1.0890220849851826,2.069891356837928
1.72,45.80518170495589,0.0,43.07934200701581,88.20255248295278,1.0905928644605871,2.0803399895482078
1.73,45.647181950830756,0.0,42.97557555627822,88.26957408385019,1.0921659095908343,2.090841366053544
1.74,45.488584542000666,0.0,42.87128717911307,88.33669235510584,1.0937412236438502,2.101395752600057
1.75,45.329386798951454,0.0,42.76647426900949,88.40390743615477,1.095318809892275,2.1120034167778536
1.76,45.16958603009662,0.0,42.66113420678971,88.4712194666331,1.0968986716134694,2.1226646275278127
1.77,45.009179531741395,0.0,42.555264360555206,88.53862858637838,1.0984808120895209,2.133379655148404
1.78,44.84816458804744,0.0,42.44886208563287,88.60613493542985,1.100065234607251,2.14414877130254
1.79,44.68653847099797,0.0,42.341924724521135,88.67373865402875,1.1016519424582225,2.154972249024464
1.8,44.524298440363474,0.0,42.23444960683613,88.7414398826186,1.1032409389387452,2.165850362726673
1.81,44.36144174366807,0.0,42.12643404925775,88.80923876184545,1.104832227349884,2.1767833882068746
1.82,44.19796561615636,0.0,42.01787535547584,88.87713543255828,1.106425810997465,2.187771602654979
1.83,44.033867280761065,0.0,41.90877081613629,88.94513003580917,1.108021693192082,2.198815284660127
1.84,43.869143948071205,0.0,41.799117708787215,89.0132227128537,1.109619877249105,2.209914714217754
1.85,43.70379281630107,0.0,41.68891329782516,89.08141360515117,1.1112203664886853,2.2210701727366877
1.86,43.5378110712599,0.0,41.5781548344413,89.1497028543649,1.1128231642357629,2.2322819430462832
1.87,43.37119588632236,0.0,41.46683955656773,89.21809060236258,1.1144282738200741,2.243550309403594
1.8800000000000001,43.203944422399786,0.0,41.35496468882381,89.28657699121649,1.116035698576158,2.2548755575005783
1.8900000000000001,43.03605382791229,0.0,41.242527442462574,89.35516216320386,1.1176454418433628,2.266257974471343
1.9000000000000001,42.86752123876177,0.0,41.12952501531718,89.42384626080712,1.119257506965854,2.277697848899423
1.9100000000000001,42.69834377830583,0.0,41.01595459174751,89.49262942671423,1.1208718972926197,2.2891954708250983
1.92,42.5285185573327,0.0,40.90181334258684,89.56151180381893,1.1224886161774796,2.300751131752746
1.93,42.35804267403711,0.0,40.787098425088644,89.63049353522109,1.1241076669790901,2.3123651246582337
1.94,42.186913213997244,0.0,40.671806982873456,89.69957476422698,1.1257290530609525,2.3240377439963447
1.95,42.015127250152865,0.0,40.55593614587596,89.76875563434956,1.1273527777914192,2.3357692857082446
1.96,41.84268184278448,0.0,40.43948303029219,89.83803628930882,1.128978844543701,2.3475600472289853
1.97,41.6695740394938,0.0,40.32244473852686,89.907416873032,1.1306072566958745,2.3594103274950444
1.98,41.49580087518545,0.0,40.20481835914096,89.976897529654,1.1322380176308886,2.3713204269519057
1.99,41.32135937204994,0.0,40.08660096679944,90.04647840351755,1.1338711307365714,2.383290647561675
2.0,41.14624653954809,0.0,39.967789622219186,90.11615963917363,1.135506599405638,2.3953212928107375
2.0100000000000002,40.97045937439683,0.0,39.848381372117196,90.1859413813817,1.1371444270356967,2.4074126677174505
2.02,40.79399486055656,0.0,39.72837324915896,90.25582377510999,1.1387846170292566,2.4195650788398786
2.0300000000000002,40.61684996922002,0.0,39.60776227190718,90.32580696553586,1.1404271727937345,2.4317788342835644
2.04,40.439021658802815,0.0,39.48654544477065,90.39589109804606,1.1420720977414618,2.444054243709341
2.05,40.260506874935714,0.0,39.36471975795358,90.46607631823706,1.143719395289692,2.4563916183411822
2.06,40.08130255045861,0.0,39.24228218740509,90.5363627719153,1.1453690688606075,2.4687912709740942
2.07,39.90140560541646,0.0,39.11922969476913,90.60675060509755,1.1470211218813267,2.481253515982045
2.08,39.72081294705712,0.0,38.99555922733474,90.67723996401119,1.148675557783911,2.4937786693259345
2.09,39.53952146983126,0.0,38.87126771798664,90.74783099509453,1.1503323800053726,2.5063670485616076
2.1,39.35752805539429,0.0,38.746352085156296,90.81852384499706,1.1519915919876809,2.519018972847902
2.11,39.17482957261066,0.0,38.62080923277334,90.88931866057983,1.15365319717777,2.5317347629547426
2.12,38.9914228775604,0.0,38.49463605021749,90.9602155889157,1.1553171990275455,2.5445147412712728
2.13,38.80730481354804,0.0,38.36782941227091,91.03121477728966,1.1569836009938923,2.557359231814029
2.14,38.622472211114136,0.0,38.24038617907109,91.10231637319916,1.1586524065386814,2.570268560235154
2.15,38.43692188804943,0.0,38.11230319606423,91.17352052435437,1.1603236191287767,2.583243053830655
2.16,38.25065064941173,0.0,37.98357729395922,91.24482737867855,1.1619972422360432,2.596283041548702
2.17,38.06365528754569,0.0,37.854205288682174,91.3162370843083,1.1636732793373532,2.609388853997966
2.18,37.875932582105655,0.0,37.724183981331564,91.38774978959388,1.1653517339145942,2.622560823456003
2.19,37.68747930008156,0.0,37.59351015813408,91.45936564309955,1.167032609454676,2.6357992838776756
2.2,37.498292195828235,0.0,37.46218059040108,91.53108479360381,1.1687159094495372,2.6491045709036234
2.21,37.30836801109807,0.0,37.33019203448584,91.60290739009982,1.1704016373961537,2.66247702186877
2.22,37.11770347507732,0.0,37.19754123174146,91.6748335817956,1.1720897967965453,2.675916975810877
2.23,36.92629530442616,0.0,37.064224908479694,91.74686351811438,1.1737803911577829,2.689424773479139
2.24,36.73414020332269,0.0,36.93023977593051,91.81899734869495,1.175473423991996,2.703000757342824
2.25,36.54123486351103,0.0,36.79558253020254,91.8912352233919,1.1771688988163795,2.7166452715999534
2.2600000000000002,36.34757596435378,0.0,36.66024985224449,91.963577292276,1.1788668191532023,2.730358662186032
2.27,36.153160172888896,0.0,36.52423840780749,92.03602370563445,1.180567188529813,2.744141276782817
2.2800000000000002,35.95798414389139,0.0,36.38754484740841,92.10857461397123,1.1822700104786479,2.7579934648271327
2.29,35.76204451993987,0.0,36.25016580629432,92.18123016800739,1.183975288537239,2.77191557751973
2.3000000000000003,35.565337931488315,0.0,36.112097904407975,92.2539905186814,1.18568302624822,2.7859079678341923
2.31,35.367860996943215,0.0,35.9733377463545,92.32685581714945,1.1873932271593355,2.799970990525881
2.32,35.169610322746415,0.0,35.833881921369326,92.3998262147857,1.189105894823446,2.8141050021409333
2.33,34.97058250346387,0.0,35.69372700328731,92.47290186318271,1.1908210327985376,2.8283103610253004
2.34,34.770774121880635,0.0,35.55286955051327,92.54608291415167,1.1925386446477275,2.8425874273338327
2.35,34.57018174910231,0.0,35.41130610599391,92.61936951972271,1.194258733939273,2.856936563039411
2.36,34.36880194466343,0.0,35.269033197191135,92.69276183214528,1.1959813042465777,2.8713581319421237
2.37,34.16663125664292,0.0,35.126047336057006,92.76626000388843,1.1977063591481996,2.885852499678492
2.38,33.9636662217871,0.0,34.982345019010225,92.83986418764111,1.1994339022278582,2.9004200337307364
2.39,33.75990336564053,0.0,34.83792272691432,92.91357453631251,1.2011639370744422,2.915061103436098
2.4,33.55533920268518,0.0,34.69277692505758,92.98739120303239,1.2028964672820168,2.9297760799961994
2.41,33.34997023648821,0.0,34.54690406313486,93.06131434115134,1.2046314964498313,2.9445653364864572
2.42,33.143792959858914,0.0,34.40030057523125,93.1353441042412,1.206369028182326,2.95942924786554
2.43,32.93680385501517,0.0,34.252962879807825,93.20948064609527,1.2081090660891407,2.9743681909848765
2.44,32.72899939375997,0.0,34.10488737968946,93.28372412072869,1.2098516137851214,2.989382544598207
2.45,32.520376037668484,0.0,33.95607046205485,93.35807468237876,1.2115966748903282,3.0044726893711893
2.46,32.31093023828622,0.0,33.806508498428904,93.43253248550522,1.2133442530300425,3.019639007891048
2.47,32.10065843733882,0.0,33.65619784467741,93.50709768479062,1.2150943518347748,3.0348818846762753
2.48,31.8895570669542,0.0,33.5051348410044,93.58177043514063,1.2168469749402724,3.0502017061863795
2.49,31.677622549897453,0.0,33.353315811952044,93.65655089168433,1.2186021259875264,3.065598860831683
2.5,31.464851299819465,0.0,33.200737066403356,93.73143920977456,1.2203598086227796,3.0810737389831697
2.5100000000000002,31.251239721519724,0.0,33.04739489758778,93.80643554498826,1.222120026497534,3.096626732982383
2.52,31.036784211224237,0.0,32.89328558308981,93.88154005312674,1.223882783268559,3.112258237151372
2.5300000000000002,30.821481156879273,0.0,32.738405384860826,93.95675289021605,1.2256480825978977,3.1279686478026902
2.54,30.605326938461825,0.0,32.582750549234184,94.03207421250728,1.2274159281528756,3.1437583632494417
2.5500000000000003,30.388317928307703,0.0,32.426317306943844,94.1075041764769,1.2291863236061078,3.1596277838153815
2.56,30.170450491458187,0.0,32.2691018731466,94.18304293882706,1.2309592726355068,3.1755773118450636
2.57,29.9517209860263,0.0,32.11110044744819,94.25869065648597,1.2327347789242897,3.191607351714043
2.58,29.73212576358377,0.0,31.952309213933273,94.33444748660816,1.2345128461609869,3.2077183098391275
2.59,29.51166116956986,0.0,31.792724341199783,94.41031358657484,1.2362934780394481,3.2239105946886815
2.6,29.290323543723257,0.0,31.63234198239747,94.48628911399425,1.2380766782588517,3.2401846167929826
2.61,29.068109220538403,0.0,31.471158275271176,94.5623742267019,1.2398624505237112,3.2565407887546303
2.62,28.845014529747598,0.0,31.309169342208858,94.63856908276102,1.2416507985438838,3.2729795252590055
2.63,28.6210357968304,0.0,31.146371290294685,94.7148738404628,1.2434417260345776,3.2895012430847856
2.64,28.396169343551954,0.0,30.98276021136741,94.79128865832675,1.245235236716359,3.306106361114511
2.65,28.170411488531833,0.0,30.81833218208429,94.867813695101,1.2470313343151616,3.3227953003452044
2.66,27.94375854784538,0.0,30.65308326399084,94.94444910976272,1.2488300225622924,3.3395684838990456
2.67,27.71620683565934,0.0,30.48700950359665,95.0211950615183,1.2506313051944409,3.356426337034098
2.68,27.4877526649039,0.0,30.320106932457648,95.09805170980381,1.2524351859536862,3.3733692871550907
2.69,27.25839234798347,0.0,30.152371567265032,95.17501921428531,1.2542416685875049,3.3903977638242564
2.7,27.028122197528372,0.0,29.983799409941287,95.25209773485912,1.2560507568487786,3.4075121987722197
2.71,26.796938527190214,0.0,29.81438644774359,95.32928743165219,1.2578624544958024,3.424713025908944
2.72,26.56483765248351,0.0,29.644128653374967,95.40658846502247,1.2596767652922918,3.4420006813347332
2.73,26.331815891676598,0.0,29.47302198510362,95.48400099555916,1.2614936930073914,3.459375603351288
2.74,26.097869566734918,0.0,29.301062386890862,95.56152518408312,1.2633132414156822,3.476838232472818
2.75,25.862995004320133,0.0,29.128245788527984,95.63916119164719,1.2651354142971896,3.4943890114372103
2.7600000000000002,25.62718853684864,0.0,28.95456810578266,95.71690917953646,1.2669602154373911,3.512028385217254
2.77,25.390446503613454,0.0,28.780025240555265,95.79476930926869,1.2687876486272243,3.5297568010319234
2.7800000000000002,25.15276525197367,0.0,28.604613081045706,95.87274174259458,1.2706177176630948,3.547574708357715
2.79,24.914141138616046,0.0,28.428327501931214,95.95082664149818,1.272450426346884,3.5654825589400447
2.8000000000000003,24.674570530893646,0.0,28.251164364555777,96.02902416819714,1.2742857784859574,3.583480806804699
2.81,24.434049808246787,0.0,28.07311951713174,96.10733448514311,1.2761237778931713,3.6015699082693473
2.82,24.192575363712095,0.0,27.89418879495428,96.18575775502207,1.2779644283868825,3.6197503219551126
2.83,23.950143605525778,0.0,27.71436802062941,96.2642941407546,1.2798077337909548,3.6380225087981963
2.84,23.706750958827918,0.0,27.533653004316246,96.34294380549633,1.2816536979347677,3.6563869320615665
2.85,23.462393867474947,0.0,27.352039543984308,96.4217069126382,1.2835023246532238,3.674844057346703
2.86,23.21706879596825,0.0,27.169523425686677,96.50058362580683,1.2853536177867573,3.6933943526054014
2.87,22.97077223150741,0.0,26.986100423849884,96.57957410886482,1.2872075811813417,3.712038288151637
2.88,22.72350068617743,0.0,26.801766301581452,96.65867852591116,1.289064218688498,3.73077633667349
2.89,22.47525069927994,0.0,26.616516810996053,96.73789704128151,1.290923534165302,3.749608973245129
2.9,22.22601883981949,0.0,26.430347693561377,96.81722981954859,1.2927855314743935,3.768536675338856
2.91,21.975801709156823,0.0,26.243254680464762,96.89667702552245,1.2946502144839833,3.787559922837212
2.92,21.72459594384225,0.0,26.055233493001833,96.9762388242509,1.296517587067862,3.8066791980451433
2.93,21.472398218643345,0.0,25.866279842988362,97.05591538101979,1.298387653105407,3.8258949857022304
2.94,21.21920524978263,0.0,25.676389433196725,97.13570686135337,1.3002604164815919,3.8452077729949767
2.95,20.965013798402232,0.0,25.485557957818383,97.21561343101466,1.3021358810869934,3.8646180495691613
2.96,20.709820674274294,0.0,25.293781102953922,97.29563525600575,1.3040140508178002,3.8841263075422527
2.97,20.45362273977762,0.0,25.101054547132293,97.3757725025682,1.3058949295758207,3.9037330415158866
2.98,20.19641691416309,0.0,24.90737396186099,97.4560253371833,1.307778521268491,3.923438748588404
2.99,19.93820017813263,0.0,24.71273501220904,97.53639392657254,1.3096648298088833,3.943243928367456
3.0,19.678969578759062,0.0,24.51713335742482,97.61687843769782,1.3115538591157143,3.9631490829826697
3.0100000000000002,19.418722234776865,0.0,24.320564651590818,97.69747903776188,1.3134456131133523,3.9831547170983788
3.02,19.15745534227711,0.0,24.123024544317662,97.77819589420865,1.3153400957318262,4.0032613379264195
3.0300000000000002,18.895166180843265,0.0,23.924508681479864,97.85902917472356,1.3172373109068338,4.02346945523899
3.04,18.631852120168592,0.0,23.725012705995894,97.9399790472339,1.3191372625797495,4.043779581381574
3.0500000000000003,18.367510627200154,0.0,23.52453225865548,98.0210456799092,1.3210399546976324,4.06419223128593
3.06,18.10213927385959,0.0,23.3230629789971,98.10222924116151,1.322945391213235,4.084707922483149
3.0700000000000003,17.83573574539629,0.0,23.120600506239022,98.18352989964583,1.324853576085011,4.1053271751167735
3.08,17.56829784943507,0.0,22.917140480267328,98.26494782426043,1.3267645132771242,4.126050511955985
3.09,17.299823525787577,0.0,22.71267854268478,98.34648318414717,1.3286782067594554,4.146878458408861
3.1,17.030310857104837,0.0,22.507210337924587,98.42813614869189,1.330594660507612,4.167811542535691
3.11,16.759758080457637,0.0,22.300731514433448,98.50990688752472,1.3325138785029356,4.188850295062369
3.12,16.48816359994197,0.0,22.093237725928702,98.5917955705205,1.3344358647325103,4.209995249393844
3.13,16.215526000418865,0.0,21.884724632734635,98.67380236779908,1.3363606231891711,4.231246941627653
3.14,15.94184406251171,0.0,21.67518790320354,98.75592744972569,1.3382881578715125,4.252605910567501
3.15,15.667116778999906,0.0,21.464623215227547,98.83817098691127,1.3402184727838957,4.2740726977369325
3.16,15.391343372766029,0.0,21.253026257847672,98.92053315021286,1.3421515719364585,4.295647847393053
3.17,15.114523316474386,0.0,21.040392732967184,99.00301411073394,1.3440874593451224,4.317331906540332
3.18,14.836656354183203,0.0,20.826718357176937,99.0856140398248,1.3460261390316017,4.339125424944469
3.19,14.557742525120517,0.0,20.611998863700926,99.16833310908285,1.3479676150234112,4.3610289551463355
3.2,14.277782189886405,0.0,20.39623000447115,99.25117149035303,1.3499118913538748,4.38304305247598
3.21,13.99782567635922,0.0,20.179407552341555,99.3338132933582,1.3518515538512108,4.405146451314884
3.22,13.72335850623453,0.0,19.961528371203197,99.41461222958792,1.3537479629411675,4.427225381227332
3.23,13.45427304532797,0.0,19.742594941381597,99.49360901061469,1.3556020741536046,4.449281754484516
3.24,13.190463769929382,0.0,19.52260969783483,99.57084346197063,1.357414822222376,4.471317453087698
3.25,12.931827225420962,0.0,19.3015750342866,99.64635454191281,1.3591871215257691,4.49333432935917
3.2600000000000002,12.678261985706825,0.0,19.079493307502414,99.72018035981398,1.3609198665181443,4.515334206521753
3.27,12.429668613438064,0.0,18.85636684172338,99.79235819418464,1.3626139321529291,4.537318879267097
3.2800000000000002,12.18594962101771,0.0,18.63219793327326,99.86292451033312,1.364270174297111,4.5592901143130184
3.29,11.947009432370303,0.0,18.406988855355984,99.93191497766966,1.365889430137379,4.581249650950094
3.3000000000000003,11.71275434546108,0.0,18.18074186306226,99.99936448666111,1.367472518578059,4.603199201577766
3.31,11.483092495550078,0.0,17.95345919860595,100.06530716544191,1.3690202406309888,4.625140452230147
3.3200000000000003,11.257933819166743,0.0,17.725143096812598,100.1297763960879,1.3705333797974748,4.647075063091766
3.33,11.037190018790923,0.0,17.49579579088482,100.19280483055883,1.3720127024424733,4.669004669003457
3.34,10.820774528226396,0.0,17.26541951847186,100.25442440631544,1.3734589581611365,4.690930879958591
3.35,10.60860247865333,0.0,17.034016528073117,100.3146663616173,1.3748728801378618,4.712855281589855
3.36,10.400590665346401,0.0,16.801589085808818,100.37356125050701,1.376255185497983,4.734779435646778
3.37,10.19665751504549,0.0,16.568139482594283,100.43113895748664,1.3776065756522369,4.756704880464188
3.38,9.996723053966168,0.0,16.333670041758317,100.48742871189212,1.3789277366341404,4.7786331314217865
3.39,9.800708876437419,0.0,16.09818312715056,100.54245910197125,1.38021933943041,4.800565681395026
3.4,9.608538114154332,0.0,15.86168115178764,100.59625808867068,1.3814820403045551,4.8225040011974665
3.41,9.420135406033658,0.0,15.624166587093647,100.64885301913768,1.3827164811137715,4.844449540014774
3.42,9.235426868660449,0.0,15.385641972796726,100.70027063994173,1.3839232896192641,4.866403725830555
3.43,9.054340067314165,0.0,15.146109927550924,100.75053711002167,1.3851030797901225,4.888367965844156
3.44,8.876803987562907,0.0,14.90557316036058,100.79967801336318,1.3862564521008738,4.910343646880629
3.45,8.702749007414614,0.0,14.664034482893932,100.84771837141221,1.3873839938228334,4.932332135792984
3.46,8.532106870014326,0.0,14.421496822783313,100.89468265522922,1.3884862793093733,4.95433477985691
3.47,8.36481065687679,0.0,14.177963238021526,100.94059479738924,1.389563870275226,4.976352907158099
3.48,8.20079476164391,0.0,13.933436932578042,100.98547820363281,1.3906173160699395,4.998387826972329
3.49,8.039994864356775,0.0,13.687921273374736,101.02935576427257,1.3916471539455992,5.020440830138441
3.5,7.882347906232132,0.0,13.44141980877948,101.07224986536032,1.3926539093189259,5.042513189424364
3.5100000000000002,7.727792064933463,0.0,13.193936288797351,101.11418239961925,1.3936380960278631,5.064606159886304
3.52,7.576266730326925,0.0,12.945474687163989,101.15517477714597,1.3946002165827625,5.086720979221263
3.5300000000000002,7.427712480712671,0.0,12.696039225574538,101.19524793588687,1.3955407624122702,5.108858868112986
3.54,7.282071059522226,0.0,12.447097279975036,101.2344223518934,1.3964602141040265,5.131011084113604
3.5500000000000003,7.139285352472771,0.0,12.203036548995133,101.27271810771487,1.3973590430098939,5.153148951351467
3.56,6.999299365169383,0.0,11.963761322544247,101.31015501004171,1.3982377140071285,5.175274130385891
3.5700000000000003,6.862058201146454,0.0,11.729177767200243,101.34675241300631,1.3990966813511239,5.197388255290354
3.58,6.727508040339661,0.0,11.499193889412002,101.38252922884361,1.3999363889256229,5.219492934154559
3.59,6.595596117980059,0.0,11.273719499423532,101.41750393828461,1.4007572704866615,5.241589749577832
3.6,6.466270703902018,0.0,11.052666175905424,101.45169460069035,1.4015597499004195,5.263680259153985
3.61,6.339481082256881,0.0,10.835947231279826,101.48511886393337,1.4023442413751457,5.285765995947754
3.62,6.215177531624392,0.0,10.62347767772532,101.5177939740338,1.4031111496873248,5.3078484689629475
3.63,6.09331130551411,0.0,10.415174193848353,101.54973678455683,1.4038608704022413,5.329929163602433
3.64,5.973834613249127,0.0,10.21095509200819,101.58096376577801,1.404593790089097,5.352009542120081
3.65,5.8567006012246345,0.0,10.01074028628254,101.61149101362281,1.4053102865308282,5.374091044064785
3.66,5.741863334533956,0.0,9.814451261061313,101.64133425838654,1.4060107289287682,5.39617508671669
3.67,5.629277778954858,0.0,9.622011040256188,101.6705088732405,1.4066954781022936,5.418263065515745
3.68,5.5188997832890765,0.0,9.43334415711391,101.69902988253023,1.4073648866835902,5.440356354482698
3.69,5.410686062048114,0.0,9.24837662462148,101.72691196987141,1.4080192993076681,5.462456306632654
3.7,5.304594178478544,0.0,9.067035906491647,101.75416948604868,1.4086590527977545,5.484564254381324
3.71,5.200582527920141,0.0,8.889250888717301,101.78081645672279,1.4092844763461847,5.50668150994406
3.72,5.098610321490335,0.0,8.714951851683628,101.80686658995099,1.4098958916909126,5.528809365727818
3.73,4.9986375700885635,0.0,8.544070442827087,101.83233328352578,1.4104936132877548,5.550949094716141
3.74,4.900625068714278,0.0,8.376539649830477,101.8572296321366,1.4110779484784812,5.573101950847291
3.75,4.804534381092429,0.0,8.212293774343605,101.88156843435912,1.4116491976548595,5.595269169385635
3.7600000000000002,4.71032782460042,0.0,8.05126840621922,101.90536219947683,1.4122076544187605,5.617451967286397
3.77,4.617968455490608,0.0,7.893400398254138,101.92862315413886,1.4127536057384258,5.6396403788123965
3.7800000000000002,4.527420054402557,0.0,7.738627841425625,101.95136328485897,1.4132873329459452,5.6618347732147924
3.79,4.43864711215937,0.0,7.586890040613358,101.97359430816391,1.4138091110366202,5.684036462212848
3.8000000000000003,4.351614815842519,0.0,7.43812749079741,101.99532767372884,1.4143192087425542,5.706246737434895
3.81,4.2662890351397245,0.0,7.292281853722951,102.01657457062308,1.4148178886792437,5.728466870806855
3.8200000000000003,4.1826363089605145,0.0,7.149295935022501,102.03734593340148,1.4153054074885478,5.7506981149339005
3.83,4.10062383231423,0.0,7.009113661786765,102.05765244804573,1.4157820159781347,5.772941703475328
3.84,4.020219443445323,0.0,6.87168006057526,102.07750455775955,1.4162479592575,5.795198851512783
3.85,3.941391611220905,0.0,6.736941235858098,102.09691246862187,1.4167034768706492,5.817470755911924
3.86,3.8641094227655928,0.0,6.604844348880488,102.1158861551016,1.417148802925535,5.839758595677647
3.87,3.7883425713388164,0.0,6.475337596941655,102.13443536543788,1.4175841662203341,5.86206353230296
3.88,3.71406134444982,0.0,6.348370193080053,102.15256962688923,1.41800979036665,5.884386710111623
3.89,3.641236612205706,0.0,6.223892346156915,102.17029825085523,1.418425893909721,5.906729256594659
3.9,3.569839815887947,0.0,6.101855241330308,102.18763033787395,1.418832690445715,5.92909228274082
3.91,3.499842956752889,0.0,5.982211020912067,102.20457478249857,1.4192303887361852,5.95147688336113
3.92,3.4312185850518517,0.0,5.8649127656000655,102.22114027805608,1.4196191928197637,5.973884137407586
3.93,3.3639397892665213,0.0,5.749914476078495,102.23733532129155,1.4199993021211619,5.9963151082861295
3.94,3.2979801855554127,0.0,5.637171054978917,102.25316821690055,1.420370911557552,6.018770844163973
3.95,3.2333139074072674,0.0,5.5266382891950165,102.26864708195284,1.4207342116423936,6.0412523782713885
3.96,3.169915595497321,0.0,5.418272832544134,102.28377985021008,1.421089388586774,6.063760729198036
3.97,3.1077603877424713,0.0,5.312032188768759,102.29857427634036,1.4214366243983245,6.08629690118395
3.98,3.0468239095514424,0.0,5.207874694871332,102.31303794003203,1.4217760969777775,6.108861884405241
3.99,2.98708226426612,0.0,5.105759504775816,102.32717825000964,1.4221079802132215,6.1314566552546435
4.0,2.9285120237903137,0.0,5.005646573309623,102.34100244795427,1.4224324440721146,6.154082176616963
4.01,2.8710902194022685,0.0,4.90749664049963,102.35451761233082,1.4227496546911143,6.176739398139526
4.0200000000000005,2.814794332747322,0.0,4.811271216176108,102.3677306621246,1.4230597744637772,6.199429256497728
4.03,2.7596022870071786,0.0,4.716932564878537,102.38064836048942,1.423362962126183,6.222152675655745
4.04,2.7054924382423318,0.0,4.6244436910573885,102.39327731830957,1.423659372840536,6.244910567122509
4.05,2.652443566904247,0.0,4.533768324566067,102.40562399767771,1.423949158276794,6.26770383020302
4.0600000000000005,2.6004348695139674,0.0,4.444870906437321,102.41769471529082,1.4242324666923742,6.290533352245087
4.07,2.54944595050389,0.0,4.357716574938549,102.42949564576635,1.4245094430099845,6.313400008881565
4.08,2.4994568142194997,0.0,4.272271151900538,102.44103282488038,1.4247802288936267,6.336304664268179
4.09,2.4504478570779407,0.0,4.188501129314253,102.45231215272992,1.4250449628228166,6.359247547502182
4.1,2.402399859880334,0.0,4.106373656190444,102.46333939770477,1.425303780185808,6.382224756233399
4.11,2.3552939802748374,0.0,4.025856525676906,102.47412020510394,1.4255568134818248,6.4052371893045965
4.12,2.3091117453674874,0.0,3.946918162428339,102.48466009294704,1.4258041922227522,6.428285733527975
4.13,2.2638350444779287,0.0,3.869527610223862,102.49496445489052,1.4260460430015827,6.451371263928496
4.14,2.219446122037185,0.0,3.7936545198273155,102.50503856307486,1.4262824895592414,6.474494643982771
4.15,2.1759275706246908,0.0,3.7192691370856035,102.51488757090434,1.4265136528498294,6.497656725853594
4.16,2.1332623241418536,0.0,3.6463422912603956,102.52451651576114,1.4267396511043264,6.5208583506201885
4.17,2.0914336511194644,0.0,3.574845383588623,102.5339303216555,1.4269605998927908,6.544100348504251
4.18,2.0504251481563376,0.0,3.5047503760672774,102.54313380181341,1.4271766121850946,6.567383539091861
4.19,2.0102207334866056,0.0,3.436029780458115,102.55213166120339,1.4273877984102301,6.590708731551338
4.2,1.9708046406731428,0.0,3.368656647507956,102.56092849900408,1.4275942665142243,6.614076724847101
4.21,1.9321614124246498,0.0,3.3026045563803486,102.56952881101378,1.427796122016694,6.637488307949627
4.22,1.8942758945339704,0.0,3.2378476042944593,102.57793699200373,1.4279934680660775,6.66094426004155
4.23,1.857133229935265,0.0,3.174360396367117,102.58615733801618,1.428186405493574,6.684445350719995
4.24,1.8207188528777107,0.0,3.1121180356540363,102.59419404860895,1.4283750328658227,6.707992340195195
4.25,1.785018483213442,0.0,3.05109611338631,102.60205122904752,1.4285594465363536,6.731585979485472
4.26,1.750018120797492,0.0,2.991270699398343,102.609732892446,1.4287397406958393,6.755227010608637
4.2700000000000005,1.7157040399975412,0.0,2.9326183327434734,102.61724296185844,1.4289160074211766,6.778916166769879
4.28,1.682062784311315,0.0,2.8751160124936015,102.62458527232134,1.4290883367234282,6.802654172546205
4.29,1.6490811610895244,0.0,2.8187411887192173,102.6317635728489,1.4292568165946506,6.826441744067496
4.3,1.6167462363622789,0.0,2.7634717536462916,102.63878152838184,1.4294215330536366,6.850279589194232
4.3100000000000005,1.58504532976694,0.0,2.7092860329865602,102.64564272169125,1.429582570190597,6.874168407691959
4.32,1.5539660095754313,0.0,2.656162777437804,102.65235065523815,1.42974001021081,6.8981088914025515
4.33,1.5234960878190502,0.0,2.604081154350788,102.65890875299034,1.429893933477259,6.922101724412315
4.34,1.4936236155088727,0.0,2.553020739559596,102.66532036219704,1.4300444185522885,6.946147583217013
4.3500000000000005,1.464336877949875,0.0,2.502961509372153,102.67158875512274,1.4301915422382976,6.970247136883857
4.36,1.4356243901469363,0.0,2.4538838327177968,102.67771713074106,1.4303353796174954,6.994401047210513
4.37,1.407474892300918,0.0,2.4057684634488203,102.68370861638954,1.430476004090741,7.018609968881192
4.38,1.3798773453930568,0.0,2.358596532792961,102.68956626938645,1.4306134874154912,7.042874549619865
4.39,1.3528209268559381,0.0,2.3123495419538833,102.69529307861039,1.4307478997428746,7.0671954303406626
4.4,1.3262950263293511,0.0,2.2670093548567483,102.70089196604366,1.430879309653915,7.091573245295514
4.41,1.3002892414993639,0.0,2.2225581910360277,102.70636578828014,1.4310077841949231,7.116008622219063
4.42,1.274793374018984,0.0,2.1789786186627724,102.71171733799869,1.431133388912079,7.140502182470922
4.43,1.2497974255088078,0.0,2.1362535477086,102.71694934540277,1.431256187885219,7.165054541175317
4.44,1.225291593636086,0.0,2.0943662232437257,102.7220644796271,1.431376243760853,7.189666307358156
4.45,1.2012662682706725,0.0,2.0533002188663976,102.72706535011214,1.431493617784424,7.214338084081584
4.46,1.1777120277163455,0.0,2.0130394302611743,102.73195450794725,1.4316083698318316,7.239070468576062
4.47,1.154619635016025,0.0,1.9735680688835042,102.73673444718304,1.4317205584402364,7.26386405237002
4.48,1.1319800343294362,0.0,1.9348706557681414,102.74140760611392,1.4318302408381598,7.288719421417126
4.49,1.1097843473818,0.0,1.8969320154589622,102.74597636853132,1.4319374729748993,7.313637156221217
4.5,1.088023869982157,0.0,1.859737270057806,102.75044306494833,1.4320423095492723,7.338617831958939
4.51,1.0666900686099579,0.0,1.823271833390006,102.7548099737966,1.432144804037706,7.363662018600129
4.5200000000000005,1.045774577068586,0.0,1.7875214052843196,102.75907932259582,1.432245008721689,7.388770281025989
4.53,1.0252691932044962,0.0,1.7524719659650192,102.76325328909678,1.4323429747145962,7.413943179145094
4.54,1.0051658756906825,0.0,1.7181097705539403,102.76733400239831,1.4324387519879076,7.439181268007266
4.55,0.9854567408732181,0.0,1.6844213436803337,102.77132354403898,1.4325323893968285,7.464485097915362
4.5600000000000005,0.9661340596796256,0.0,1.6513934741964056,102.77522394906387,1.4326239347053298,7.489855214535015
4.57,0.9471902545878682,0.0,1.619013209996476,102.77903720706736,1.4327134346106207,7.515292159002356
4.58,0.9286178966547728,0.0,1.5872678529377215,102.78276526321204,1.432800934767065,7.540796468029766
4.59,0.9104097026027184,0.0,1.5561449538605112,102.7864100192247,1.432886479809557,7.566368674009696
4.6000000000000005,0.8925585319634494,0.0,1.5256323077063836,102.78997333436975,1.4329701133763681,7.592009305116574
4.61,0.8750573842778915,0.0,1.4957179487317487,102.79345702640047,1.4330518781314745,7.617714768718464
4.62,0.857899396350874,0.0,1.4663901458154398,102.7968628740381,1.4331318158227409,7.643483715308877
4.63,0.8410778395596804,0.0,1.4376373978582744,102.80019261690052,1.4332099672802494,7.669316738396896
4.64,0.8245861172153729,0.0,1.409448429272818,102.80344795563127,1.433286372419326,7.6952144259604545
4.65,0.8084177619758558,0.0,1.3818121855615861,102.80663055277934,1.4333610702611899,7.721177360571471
4.66,0.7925664333096626,0.0,1.3547178289819473,102.80974203365871,1.4334340989531282,7.74720611951867
4.67,0.7770259150094732,0.0,1.3281547342960267,102.81278398718827,1.433505495788209,7.773301274928122
4.68,0.7617901127543855,0.0,1.3021124846039478,102.8157579667124,1.4335752972245406,7.79946339388156
4.69,0.7468530517199857,0.0,1.2765808672587724,102.81866549080274,1.4336435389040911,7.8256930385324965
4.7,0.7322088742352801,0.0,1.2515498698615415,102.8215080440417,1.433710255671076,7.8519907662202
4.71,0.7178518374855688,0.0,1.2270096763348446,102.82428707778793,1.4337754815899253,7.8783571295815555
4.72,0.7037763112603616,0.0,1.202950663073377,102.82700401092433,1.433839249962841,7.904792676660863
4.73,0.6899767757454525,0.0,1.1793633951699776,102.82966023058904,1.4339015933469514,7.9312979510176005
4.74,0.6764478193582867,0.0,1.1562386227156642,102.83225709288966,1.4339625435710766,7.9578734918322
4.75,0.6631841366257712,0.0,1.1335672771722198,102.8347959236012,1.4340221317521085,7.984519834009869
4.76,0.6501805261036973,0.0,1.1113404678159018,102.83727801884817,1.4340803883110202,8.011237508282495
4.7700000000000005,0.6374318883369581,0.0,1.089549478250884,102.83970464577101,1.4341373429885091,8.038027041308666
4.78,0.6249332238597628,0.0,1.068185762991063,102.84207704317751,1.4341930248602839,8.064888955771856
4.79,0.6126796312350615,0.0,1.0472409441088852,102.8443964221793,1.4342474623520047,8.09182377047679
4.8,0.6006663051324133,0.0,1.0267068079498876,102.8466639668139,1.434300683253883,8.11883200044404
4.8100000000000005,0.5888885344435424,0.0,1.0065753019116543,102.84888083465263,1.4343527147349489,8.145914157002883
4.82,0.5773417004348455,0.0,0.9868385312859356,102.8510481573947,1.4344035833569966,8.173070747882434
4.83,0.566021274936123,0.0,0.9674887561626819,102.85316704144786,1.434453315088211,8.200302277301127
4.84,0.5549228185648264,0.0,0.9485183883947862,102.85523856849586,1.4345019353164867,8.227609246054529
4.8500000000000005,0.5440419789851239,0.0,0.9299199886223394,102.85726379605302,1.4345494688624447,8.25499215160156
4.86,0.5333744892011018,0.0,0.9116862633552346,102.85924375800624,1.4345959399921535,8.282451488149114
4.87,0.522916165883433,0.0,0.8938100621129751,102.86117946514477,1.434641372429563,8.309987746735144
4.88,0.5126629077288559,0.0,0.8762843746205637,102.86307190567797,1.4346857893686566,8.337601415310212
4.89,0.5026106938518196,0.0,0.8591023280593763,102.86492204574131,1.4347292134853284,8.365292978817553
4.9,0.49275558220766624,0.0,0.8422571843719375,102.866730829891,1.4347716669489916,8.393062919271669
4.91,0.48309370804673163,0.0,0.8257423376195466,102.86849918158742,1.4348131714339245,8.420911715835492
4.92,0.4736212823987565,0.0,0.8095513113917123,102.87022800366759,1.4348537481303607,8.448839844896135
4.93,0.46433459058701615,0.0,0.7936777562663846,102.87191817880701,1.4348934177553283,8.476847780139254
4.94,0.45522999077158444,0.0,0.7781154473199848,102.87357056997104,1.4349322005632446,8.504935992622066
4.95,0.4463039125211612,0.0,0.7628582816862596,102.87518602085615,1.4349701163562716,8.533104950845031
4.96,0.4375528554129031,0.0,0.7479002761629996,102.87676535632114,1.4350071844944388,8.561355120822228
4.97,0.42897338765970894,0.0,0.7332355648656859,102.87830938280877,1.435043423905536,8.589686966150449
4.98,0.4205621447644205,0.0,0.718858396927143,102.87981888875765,1.4350788530947853,8.61810094807705
4.99,0.41231582820041224,0.0,0.7047631342422971,102.88129464500518,1.4351134901542935,8.646597525566559
5.0,0.4042312041180512,0.0,0.690944249257154,102.8827374051811,1.4351473527722922,8.67517451335227
5.01,0.39630510207652075,0.0,0.6773963228011314,102.88414790646098,1.4351804582508216,8.70383223897757
5.0200000000000005,0.3885344138005105,0.0,0.6641140419618935,102.88552686956328,1.435212823505662,8.732571190977445
5.03,0.3809160919612848,0.0,0.6510921980018564,102.88687499909507,1.4352444650744478,8.761391855063868
5.04,0.37344714898165177,0.0,0.6383256843155455,102.8881929839135,1.4352753991251512,8.790294714201773
5.05,0.3661246558643645,0.0,0.6258094944270054,102.88948149747901,1.4353056414643723,8.819280248683638
5.0600000000000005,0.3589457410434946,0.0,0.6135387200264759,102.89074119820056,1.4353352075454426,8.848348936202699
5.07,0.351907589258328,0.0,0.6015085490455646,102.89197272977307,1.4353641124763445,8.877501251924818
5.08,0.3450074404493412,0.0,0.5897142637701613,102.89317672150725,1.4353923710274523,8.906737668559048
5.09,0.3382425886758247,0.0,0.5781512389903543,102.89435378865188,1.4354199976390978,8.936058656426903
5.1000000000000005,0.33161038105473006,0.0,0.5668149401866218,102.89550453270898,1.4354470064289646,8.965464683530364
5.11,0.3251082167203236,0.0,0.55570092175159,102.89662954174166,1.4354734111993168,8.994956215618643
5.12,0.3187335458042388,0.0,0.5448048252466569,102.89772939067517,1.4354992254440633,9.024533716253742
5.13,0.3124838684355282,0.0,0.5341223776928008,102.8988046415911,1.4355244623556627,9.054197646874806
5.14,0.3063567337603218,0.0,0.5236493898949027,102.89985584401495,1.4355491348318732,9.08394846686132
5.15,0.30034973898070766,0.0,0.5133817547989242,102.90088353519721,1.4355732554823502,9.113786633595153
5.16,0.2944605284124585,0.0,0.5033154458812983,102.90188824038812,1.435596836635094,9.143712602521472
5.17,0.2886867925612338,0.0,0.49344651556990027,102.90287047310625,1.4356198903427544,9.173726827208569
5.18,0.2830262672168959,0.0,0.48377109369598065,102.90383073540097,1.435642428388791,9.203829759406595
5.19,0.2774767325655842,0.0,0.4742853859764516,102.9047695181091,1.4356644622934966,9.234021849105238
5.2,0.27203601231920016,0.0,0.4649856725259329,102.90568730110573,1.435686003319884,9.264303544590362
5.21,0.26670197286196096,0.0,0.45586830639797343,102.90658455354937,1.4357070624794408,9.294675292499623
5.22,0.2614725224136872,0.0,0.4469297121548759,102.90746173412164,1.4357276505377548,9.32513753787709
5.23,0.25634561020949725,0.0,0.4381663844655646,102.9083192912616,1.4357477780200123,9.355690724226887
5.24,0.2513192256955855,0.0,0.4295748867309457,102.90915766339472,1.435767455216374,9.386335293565867
5.25,0.2463913977407701,0.0,0.4211518497362213,102.90997727915672,1.4357866921872284,9.41707168647535
5.26,0.24156019386350008,0.0,0.4128939703296287,102.91077855761246,1.435805498768329,9.447900342151934
5.2700000000000005,0.23682371947401967,0.0,0.404798010127087,102.91156190846986,1.4358238845758153,9.478821698457404
5.28,0.23218011713139183,0.0,0.39686079424224213,102.91232773228903,1.4358418590111202,9.509836191967745
5.29,0.22762756581509003,0.0,0.3890792100414138,102.91307642068664,1.4358594312657689,9.540944258021293
5.3,0.22316428021087256,0.0,0.3814502059229547,102.91380835653582,1.435876610326069,9.572146330766024
5.3100000000000005,0.21878851001065938,0.0,0.3739707901205438,102.91452391416153,1.4358934049776957,9.603442843206011
5.32,0.21449853922613665,0.0,0.3666380295299449,102.91522345953149,1.4359098238101744,9.634834227247055
5.33,0.21029268551582025,0.0,0.3594490485587695,102.91590735044286,1.4359258752212622,9.666320913741517
5.34,0.20616929952531396,0.0,0.35240102799879364,102.91657593670483,1.4359415674212315,9.697903332532357
5.3500000000000005,0.20212676424050388,0.0,0.3454912039203859,102.91722956031694,1.4359569084370574,9.729581912496398
5.36,0.19816349435343517,0.0,0.3387168665886136,102.91786855564357,1.4359719061165122,9.761357081586834
5.37,0.1942779356406227,0.0,0.33207535940060157,102.9184932495844,1.4359865681321664,9.793229266874992
5.38,0.19046856435355167,0.0,0.32556407784372704,102.91910396174117,1.4360009019853022,9.825198894591365
5.39,0.18673388662112908,0.0,0.3191804684742422,102.91970100458055,1.4360149150097368,9.85726639016593
5.4,0.18307243786385205,0.0,0.3129220279159237,102.9202846835935,1.436028614375563,9.889432178267771
5.41,0.1794827822194628,0.0,0.3067863018783566,102.92085529745101,1.4360420070928035,9.921696682843997
5.42,0.17596351197986548,0.0,0.30077088419446724,102.92141313815638,1.4360551000149853,9.954060327158007
5.43,0.1725132470390838,0.0,0.29487341587692867,102.92195849119402,1.4360678998426324,9.986523533827084
5.44,0.16913063435204295,0.0,0.2890915841930673,102.92249163567497,1.4360804131266818,10.01908672485934
5.45,0.16581434740396367,0.0,0.2834231217579091,102.92301284447922,1.4360926462718229,10.05175032169003
5.46,0.16256308569016045,0.0,0.27786580564500896,102.92352238439473,1.4361046055397608,10.084514745217238
5.47,0.15937557420603965,0.0,0.27241745651471466,102.92402051625344,1.4361162970524086,10.117380415836966
5.48,0.1562505629470977,0.0,0.26707593775952415,102.92450749506418,1.4361277267950066,10.150347753477606
5.49,0.15318682641872322,0.0,0.26183915466620017,102.92498357014263,1.436138900619173,10.183417177633842
5.5,0.150183163155611,0.0,0.2567050535943139,102.92544898523838,1.4361498242458859,10.216589107399965
5.51,0.147238395250599,0.0,0.251671621170896,102.92590397865914,1.4361605032683986,10.24986396150263
5.5200000000000005,0.1443513678927441,0.0,0.2467368835008784,102.92634878339217,1.4361709431550895,10.283242158333065
5.53,0.14152094891445502,0.0,0.24189890539301806,102.92678362722302,1.4361811492522487,10.316724115978731
5.54,0.1387460283475049,0.0,0.2371557896009981,102.92720873285157,1.4361911267868028,10.350310252254452
5.55,0.1360255179877499,0.0,0.2325056760794099,102.92762431800554,1.436200880868978,10.384000984733026
5.5600000000000005,0.13335835096838225,0.0,0.2279467412543234,102.92803059555142,1.436210416494903,10.417796730775331
5.57,0.13074348134155123,0.0,0.2234771973081602,102.9284277736029,1.4362197385491569,10.451697907559923
5.58,0.12817988366818747,0.0,0.21909529147858844,102.92881605562701,1.4362288518072557,10.485704932112148
5.59,0.12566655261587006,0.0,0.21479930537116515,102.92919564054765,1.4362377609380872,10.519818221332772
5.6000000000000005,0.12320250256457849,0.0,0.21058755428545603,102.92956672284707,1.4362464705062892,10.554038192026141
5.61,0.12078676722017498,0.0,0.20645838655436866,102.92992949266493,1.436254984974576,10.588365260927885
5.62,0.11841839923546567,0.0,0.20241018289643986,102.93028413589514,1.4362633087060115,10.622799756535398
5.63,0.11609646983869183,0.0,0.1984413557808234,102.93063083428316,1.4362714459662924,10.657342066891095
5.64,0.11382006846930572,0.0,0.19455034880472882,102.9309697655167,1.4362794009258766,10.691992610210836
5.65,0.11158830242088795,0.0,0.19073563608306748,102.93130110331532,1.436287177662087,10.726751804714516
5.66,0.10940029649106661,0.0,0.18699572165006614,102.93162501751897,1.4362947801611894,10.761620068652233
5.67,0.10725519263830059,0.0,0.18332913887261387,102.93194167417457,1.4363022123204245,10.79659782033003
5.68,0.10515214964539274,0.0,0.17973444987511164,102.93225123562064,1.4363094779499939,10.831685478135233
5.69,0.10309034278960072,0.0,0.17621024497559964,102.93255386057002,1.4363165807750018,10.86688346056138
5.7,0.10106896351921639,0.0,0.17275514213294083,102.9328497041908,1.4363235244373544,10.90219218623275
5.71,0.09908721913648666,0.0,0.16936778640484396,102.93313891818532,1.4363303124976154,10.937612073928502
5.72,0.09714433248675163,0.0,0.16604684941651368,102.9334216508676,1.4363369484368211,10.973143542606444
5.73,0.09523954165367807,0.0,0.1627910288397193,102.93369804723888,1.4363434356582547,11.008787011426413
5.74,0.0933720996604687,0.0,0.15959904788207774,102.93396824906152,1.436349777489181,11.044542899773306
5.75,0.09154127417693009,0.0,0.15646965478635072,102.93423239493131,1.4363559771825423,11.080411627279734
5.76,0.0897463472322844,0.0,0.15340162233955953,102.93449062034809,1.436362037918617,11.116393613848336
5.7700000000000005,0.08798661493361216,0.0,0.15039374739172504,102.93474305778477,1.4363679628066406,11.15248927967375
5.78,0.08626138718981585,0.0,0.14744485038404415,102.934989836755,1.4363737548863904,11.18869904526424
5.79,0.08456998744099593,0.0,0.1445537748863178,102.93523108387905,1.4363794171297357,11.225023331462992
5.8,0.08291175239313327,0.0,0.1417193871434488,102.93546692294846,1.4363849524421528,11.261462559469095
5.8100000000000005,0.08128603175797379,0.0,0.13894057563083217,102.93569747498913,1.4363903636642061,11.298017150858193
5.82,0.07969218799801352,0.0,0.1362162506184629,102.93592285832297,1.4363956535729965,11.334687527602837
5.83,0.07812959607648384,0.0,0.1335453437435911,102.93614318862832,1.4364008248835776,11.37147411209252
5.84,0.07659764321223907,0.0,0.13092680759175596,102.93635857899889,1.4364058802503397,11.408377327153424
5.8500000000000005,0.07509572863945006,0.0,0.12835961528603526,102.93656914000142,1.4364108222683638,11.445397596067876
5.86,0.07362326337200986,0.0,0.1258427600843483,102.93677497973208,1.4364156534747448,11.4825353425935
5.87,0.07217966997255869,0.0,0.1233752549846552,102.9369762038716,1.436420376349885,11.519790990982115
5.88,0.07076438232603793,0.0,0.12095613233789725,102.93717291573914,1.43642499331876,11.557164965998327
5.89,0.06937684541768424,0.0,0.11858444346852672,102.93736521634501,1.4364295067521542,11.594657692937885
5.9,0.06801651511537671,0.0,0.11625925830247717,102.93755320444222,1.436433918967871,11.632269597645744
5.91,0.06668285795625167,0.0,0.11397966500242859,102.93773697657677,1.436438232231915,11.670001106533885
5.92,0.06653701162090409,0.0,0.11174476961022412,102.93791662713696,1.436442448759647,11.707377002978419
5.93,0.06639189681741431,0.0,0.10955369569629815,102.93809537550031,1.4364466441121715,11.744020038708353
5.94,0.06624749980770353,0.0,0.10740558401597858,102.9382732386279,1.4364508186875764,11.779944583541623
5.95,0.06610380727250752,0.0,0.10529959217252802,102.93845023296333,1.4364549728718052,11.815164725535023
5.96,0.06596080629545845,0.0,0.10323489428679217,102.9386263744525,1.436459107039119,11.849694276508947
5.97,0.06581848434790342,0.0,0.10121068067332566,102.93880167856229,1.4364632215525373,11.883546777463774
5.98,0.06567682927441945,0.0,0.09922615752286829,102.93897616029854,1.4364673167642577,11.916735503890076
5.99,0.06553582927898662,0.0,0.09728054659104733,102.9391498342231,1.4364713930160575,11.949273470974685
6.0,0.065395472911784,0.0,0.09537308489318366,102.93932271447021,1.436475450639677,11.981173438704694
6.01,0.06525574905657519,0.0,0.09350302440508203,102.93949481476201,1.4364794899571853,12.012447916871368
6.0200000000000005,0.06511664691865164,0.0,0.09166963176968826,102.93966614842351,1.4364835112813295,12.043109169975951
6.03,0.06497815601330498,0.0,0.0898721880094983,102.9398367283968,1.4364875149158698,12.073169222039269
6.04,0.06484026615480042,0.0,0.08810998824460617,102.94000656725471,1.4364915011558996,12.10263986131703
6.05,0.06470296744582545,0.0,0.08638234141628055,102.94017567721383,1.4364954702881512,12.131532644922679
6.0600000000000005,0.06456625026738945,0.0,0.08468857001596132,102.94034407014699,1.4364994225912884,12.15985890335959
6.07,0.06443010526915124,0.0,0.08302800981956993,102.94051175759525,1.436503358336188,12.187629744964404
6.08,0.06429452336015315,0.0,0.08140000962702934,102.9406787507793,1.4365072777862076,12.21485606026324
6.09,0.06415949569994112,0.0,0.07980393100689151,102.94084506061047,1.436511181197444,12.241548526242493
6.1000000000000005,0.06402501369005187,0.0,0.07823914804597207,102.94101069770124,1.43651506881898,12.267717610535877
6.11,0.06389106896584902,0.0,0.07670504710389418,102.94117567237532,1.4365189408931205,12.293373575529392
6.12,0.06375765338869108,0.0,0.07520102657244528,102.94133999467735,1.43652279765562,12.318526482385778
6.13,0.06362475903841543,0.0,0.07372649663965224,102.94150367438216,1.4365266393359013,12.343186194990079
6.140000000000001,0.06349237820612307,0.0,0.07228087905848259,102.94166672100373,1.4365304661572635,12.367362383817824
6.15,0.06336050338724977,0.0,0.07086360692008097,102.94182914380367,1.436534278337084,12.391064529727378
6.16,0.06322912727491019,0.0,0.06947412443145193,102.94199095179953,1.436538076087011,12.414301927677922
6.17,0.06309824275350218,0.0,0.06811188669750189,102.94215215377265,1.4365418596131492,12.437083690374534
6.18,0.06296784289255915,0.0,0.06677635950735479,102.94231275827579,1.4365456291162375,12.4594187518418
6.19,0.0628379209408391,0.0,0.06546701912485764,102.9424727736404,1.4365493847918211,12.481315870927356
6.2,0.06270847032063953,0.0,0.06418335208319376,102.94263220798366,1.4365531268304161,12.502783634736723
6.21,0.06257948462232782,0.0,0.06292485498352329,102.94279106921525,1.4365568554176682,12.52383046200081
6.22,0.062450957599077664,0.0,0.061691034297571855,102.9429493650438,1.436560570734505,12.544464606377364
6.23,0.06232288316180206,0.0,0.06048140617409005,102.94310710298323,1.4365642729572834,12.564694159687711
6.24,0.062195255374274304,0.0,0.05929549624910789,102.94326429035873,1.4365679622579304,12.584527055090014
6.25,0.06206806844842875,0.0,0.05813283945990969,102.94342093431253,1.43657163880408,12.60397107019031
6.26,0.06194131673983329,0.0,0.05699297986265656,102.94357704180958,1.4365753027592039,12.623033830092561
6.2700000000000005,0.06181499474332635,0.0,0.05587547045358487,102.94373261964284,1.4365789542827385,12.641722810388886
6.28,0.06168909708881112,0.0,0.054779872993710656,102.9438876744386,1.4365825935302068,12.660045340091166
6.29,0.06156361853720044,0.0,0.05370575783697123,102.94404221266134,1.4365862206533353,12.678008604505164
6.3,0.06143855397650586,0.0,0.052652703761736495,102.9441962406187,1.4365898358001683,12.6956196480483
6.3100000000000005,0.06131389841806492,0.0,0.051620297805624014,102.944349764466,1.4365934391151765,12.712885377012158
6.32,0.06118964699290066,0.0,0.050608135103552956,102.94450279021088,1.436597030739363,12.729812562270844
6.33,0.061065794948208095,0.0,0.049615818728973485,102.94465532371754,1.4366006108103648,12.746407841936222
6.34,0.06094233764396236,0.0,0.048642959538209296,102.94480737071098,1.4366041794625515,12.762677723961103
6.3500000000000005,0.060819270549643444,0.0,0.04768917601785225,102.944958936781,1.43660773682712,12.778628588691378
6.36,0.06069658924107285,0.0,0.04675409413514926,102.94511002738616,1.4366112830321864,12.794266691368117
6.37,0.06057428939735774,0.0,0.045837347191322805,102.9452606478575,1.4366148182028742,12.809598164580606
6.38,0.060452366797938084,0.0,0.044938575677767455,102.9454108034022,1.4366183424614,12.824629020671283
6.390000000000001,0.060330817319732874,0.0,0.04405742713506613,102.94556049910716,1.4366218559271569,12.839365154093516
6.4,0.060209636934381375,0.0,0.04319355601477071,102.94570973994234,1.436625358716793,12.853812343723154
6.41,0.060088821705575744,0.0,0.042346623543892854,102.9458585307641,1.4366288509442904,12.867976255124761
6.42,0.05996836778648148,0.0,0.04151629759205182,102.94600687631831,1.4366323327210389,12.881862442773395
6.43,0.05984827141724213,0.0,0.04070225254122727,102.94615478124354,1.4366358041559082,12.89547635223284
6.44,0.059728528922565284,0.0,0.03990416915806595,102.94630225007394,1.4366392653553188,12.90882332229112
6.45,0.05960913670938649,0.0,0.03912173446869211,102.9464492872422,1.4366427164233089,12.921908587054139
6.46,0.05949009126460828,0.0,0.03835464163597266,102.9465958970823,1.4366461574616,12.934737277998275
6.47,0.05937138915291147,0.0,0.03760258983918888,102.94674208383223,1.4366495885696609,12.947314425982723
6.48,0.059253027014635876,0.0,0.036865284156067525,102.9468878516366,1.436653009844768,12.959644963222377
6.49,0.05913500156372809,0.0,0.036142435447125025,102.94703320454916,1.4366564213820665,12.97173372522204
6.5,0.05901730958575365,0.0,0.035433760242279434,102.94717814653526,1.4366598232746262,12.983585452672688
6.51,0.05889994793597129,0.0,0.034738980629685716,102.94732268147429,1.4366632156134982,12.99520479331058
6.5200000000000005,0.05878291353746702,0.0,0.0340578241467507,102.94746681316187,1.436666598487769,13.006596303739883
6.53,0.058666203379345895,0.0,0.033390023673285,102.94761054531217,1.4366699719846128,13.017764451219593
6.54,0.05854981451497925,0.0,0.03273531732675,102.94775388156005,1.4366733361893422,13.028713615415388
6.55,0.058433744060305604,0.0,0.032093448359558824,102.94789682546313,1.4366766911854574,13.039448090117148
6.5600000000000005,0.05831798919218312,0.0,0.031464165058391,102.94803938050389,1.4366800370546942,13.049972084922794
6.57,0.058202547146792,0.0,0.030847220645481375,102.94818155009155,1.43668337387707,13.060289726889115
6.58,0.058087415218084894,0.0,0.030242373181844483,102.94832333756406,1.4366867017309286,13.070405062150213
6.59,0.05797259075628365,0.0,0.029649385472396553,102.94846474618994,1.4366900206929847,13.080322057504231
6.6000000000000005,0.057858071166420964,0.0,0.029068024972937798,102.94860577917005,1.4366933308383645,13.090044601968955
6.61,0.057743853906925116,0.0,0.028498063698958624,102.94874643963936,1.4366966322406483,13.099576508306919
6.62,0.057629936488246526,0.0,0.027939278136233946,102.94888673066865,1.4366999249719092,13.10892151452061
6.63,0.057516316471524595,0.0,0.027391449153170534,102.94902665526614,1.4367032091027527,13.118083285318345
6.640000000000001,0.05740299146729348,0.0,0.026854361914873073,102.9491662163791,1.436706484702353,13.127065413551419
6.65,0.05728995913422551,0.0,0.026327805798895168,102.94930541689538,1.4367097518384904,13.13587142162306
6.66,0.05717721717791087,0.0,0.025811574312642322,102.94944425964498,1.4367130105775863,13.144504762869767
6.67,0.057064763349672594,0.0,0.025305465012394432,102.94958274740141,1.4367162609847375,13.152968822915557
6.68,0.056952595445415345,0.0,0.02480927942391611,102.94972088288318,1.4367195031237496,13.161266920999667
6.69,0.05684071130450717,0.0,0.02432282296462364,102.94985866875521,1.4367227370571696,13.169402311278205
6.7,0.05672910880869295,0.0,0.023845904867278077,102.94999610763007,1.4367259628463167,13.1773781841003
6.71,0.056617785881038635,0.0,0.023378338105174586,102.95013320206938,1.436729180551314,13.185197667259219
6.72,0.056506740484905144,0.0,0.022919939318798613,102.95026995458501,1.436732390231117,13.192863827218943
6.73,0.0563959706229511,0.0,0.022470528743920207,102.95040636764037,1.4367355919435434,13.20037967031671
6.74,0.05628547433616337,0.0,0.02202993014109824,102.95054244365154,1.4367387857453007,13.207748143941973
6.75,0.05617524970291454,0.0,0.0215979707265669,102.9506781849885,1.4367419716920138,13.21497213769223
6.76,0.05606529483804652,0.0,0.021174481104477352,102.95081359397624,1.4367451498382513,13.22205448450621
6.7700000000000005,0.0559556078919794,0.0,0.020759295200467993,102.95094867289579,1.4367483202375517,13.228997961774816
6.78,0.05584618704984475,0.0,0.020352250196537247,102.95108342398541,1.436751482942448,13.235805292430312
6.79,0.055737030530642696,0.0,0.01995318646719338,102.95121784944153,1.436754638004492,13.242479146014132
6.8,0.05562813658642185,0.0,0.019561947516856252,102.95135195141984,1.4367577854742792,13.24902213972376
6.8100000000000005,0.05551950350148156,0.0,0.019178379918486522,102.95148573203619,1.4367609254014706,13.25543683943908
6.82,0.055411129591595755,0.0,0.01880233325341816,102.95161919336763,1.436764057834816,13.26172576072861
6.83,0.0553030132032576,0.0,0.018433660052370744,102.95175233745331,1.436767182822175,13.267891369835992
6.84,0.055195152712944506,0.0,0.018072215737618375,102.95188516629536,1.4367703004105397,13.27393608464715
6.8500000000000005,0.05508754652640269,0.0,0.017717858566292523,102.9520176818598,1.436773410646054,13.279862275638482
6.86,0.05498019307795088,0.0,0.017370449574796592,102.95214988607742,1.4367765135740345,13.285672266806456
6.87,0.054873090829802414,0.0,0.017029852524310385,102.95228178084457,1.4367796092389902,13.291368336578978
6.88,0.05476623827140531,0.0,0.016695933847363124,102.952413368024,1.436782697684641,13.296952718708903
6.890000000000001,0.05465963391879976,0.0,0.016368562595454043,102.95254464944566,1.436785778953937,13.302427603150004
6.9,0.05455327631399235,0.0,0.016047610387700043,102.95267562690745,1.436788853089077,13.307795136915791
6.91,0.05444716402434685,0.0,0.015732951360490237,102.952806302176,1.436791920131524,13.313057424921464
6.92,0.054341295641990695,0.0,0.015424462118127683,102.95293667698736,1.4367949801220252,13.318216530809378
6.93,0.054235669783237045,0.0,0.015122021684438904,102.95306675304778,1.436798033100627,13.323274477758314
6.94,0.05413028508802172,0.0,0.01482551145533226,102.95319653203433,1.4368010791066916,13.32823324927688
6.95,0.05402514021935475,0.0,0.014534815152286528,102.95332601559562,1.4368041181789133,13.333094789981354
6.96,0.05392023386278595,0.0,0.014249818776751497,102.95345520535247,1.4368071503553335,13.33786100635829
6.97,0.05381556472588433,0.0,0.013970410565442645,102.9535841028985,1.4368101756733558,13.34253376751215
6.98,0.05371113153773064,0.0,0.013696480946512397,102.95371270980083,1.4368131941697613,13.347114905898286
6.99,0.05360693304842306,0.0,0.01342792249658078,102.9538410276006,1.4368162058807223,13.351606218041557
7.0,0.05350296802859532,0.0,0.013164629898608608,102.95396905781367,1.4368192108418167,13.356009465240842
7.01,0.05339923526894708,0.0,0.012906499900596674,102.95409680193109,1.436822209088041,13.36032637425975
7.0200000000000005,0.05329573357978617,0.0,0.012653431275094778,102.95422426141975,1.4368252006538238,13.364558638003777
7.03,0.05319246179058236,0.0,0.012405324779504684,102.95435143772292,1.4368281855730394,13.368707916184196
7.04,0.05308941874953238,0.0,0.012162083117161455,102.95447833226072,1.4368311638790194,13.37277583596892
7.05,0.052986603323135775,0.0,0.011923610899177896,102.95460494643072,1.4368341356045655,13.37676399262061
7.0600000000000005,0.05288401439578141,0.0,0.011689814607037153,102.9547312816084,1.4368371007819616,13.380673950122267
7.07,0.05278165086934427,0.0,0.011460602555918777,102.9548573391477,1.436840059442985,13.384507241790558
7.08,0.05267951166279226,0.0,0.011235884858743899,102.95498312038141,1.4368430116189184,13.388265370877118
7.09,0.052577595711802746,0.0,0.01101557339092539,102.95510862662178,1.43684595734056,13.391949811158058
7.1000000000000005,0.05247590196838866,0.0,0.010799581755809206,102.95523385916087,1.436848896638236,13.395562007511922
7.11,0.05237442940053368,0.0,0.01058782525079334,102.95535881927103,1.4368518295418093,13.399103376486298
7.12,0.05227317699183651,0.0,0.010380220834111118,102.95548350820536,1.4368547560806912,13.402575306853334
7.13,0.05217214374116382,0.0,0.010176687092265801,102.95560792719813,1.4368576762838505,13.405979160154349
7.140000000000001,0.05207132866231169,0.0,0.009977144208103727,102.95573207746517,1.436860590179824,13.409316271233775
7.15,0.05197073078367535,0.0,0.009781513929513458,102.95585596020432,1.4368634977967256,13.412587948762624
7.16,0.05187034914792691,0.0,0.009589719538738684,102.9559795765958,1.4368663991622561,13.415795475751693
7.17,0.051770182811700996,0.0,0.009401685822292827,102.9561029278026,1.4368692943037118,13.4189401100547
7.18,0.051670230845287914,0.0,0.009217339041463556,102.9562260149709,1.4368721832479936,13.422023084861571
7.19,0.0515704923323343,0.0,0.009036606903395644,102.95634883923033,1.4368750660216156,13.425045609182034
7.2,0.05147096636955099,0.0,0.008859418532740828,102.95647140169447,1.4368779426507141,13.428008868319742
7.21,0.051371652066427874,0.0,0.008685704443863556,102.95659370346111,1.4368808131610549,13.430914024337103
7.22,0.05127254854495567,0.0,0.008515396513591721,102.95671574561261,1.436883677578042,13.433762216510985
7.23,0.05117365493935432,0.0,0.008348427954501686,102.95683752921627,1.4368865359267253,13.436554561779497
7.24,0.0510749703958079,0.0,0.008184733288727142,102.95695905532462,1.4368893882318086,13.439292155179999
7.25,0.050976494072205815,0.0,0.008024248322281512,102.95708032497572,1.436892234517656,13.44197607027853
7.26,0.05087822513789028,0.0,0.007866910119883835,102.95720133919355,1.4368950748083011,13.444607359590815
7.2700000000000005,0.05078016277340964,0.0,0.007712656980278269,102.95732209898823,1.4368979091274523,13.447187054995018
7.28,0.05068230617027768,0.0,0.007561428412037519,102.95744260535638,1.4369007374985006,13.449716168136392
7.29,0.05058465453073853,0.0,0.0074131651098407044,102.95756285928137,1.4369035599445263,13.452195690824015
7.3,0.05048720706753722,0.0,0.007267808931216377,102.9576828617336,1.436906376488306,13.454626595419722
7.3100000000000005,0.05038996300369556,0.0,0.007125302873741546,102.95780261367084,1.4369091871523185,13.457009835219436
7.32,0.050292921572293384,0.0,0.00698559105268779,102.9579221160384,1.4369119919587514,13.459346344826999
7.33,0.05019608201625483,0.0,0.006848618679105676,102.95804136976948,1.4369147909295075,13.461637040520687
7.34,0.050099443588139725,0.0,0.006714332038338898,102.95816037578537,1.4369175840862103,13.463882820612538
7.3500000000000005,0.050003005549939826,0.0,0.006582678468959704,102.95827913499575,1.4369203714502103,13.466084565800628
7.36,0.04990676717287979,0.0,0.006453606342117357,102.9583976482989,1.436923153042591,13.468243139514442
7.37,0.04981072773722283,0.0,0.006327065041291526,102.95851591658194,1.4369259288841738,13.470359388253474
7.38,0.04971488653208086,0.0,0.006203004942442673,102.95863394072111,1.4369286989955241,13.472434141919193
7.390000000000001,0.0496192428552291,0.0,0.00608137739455164,102.95875172158192,1.4369314633969565,13.474468214140485
7.4,0.04952379601292491,0.0,0.005962134700540823,102.95886926001943,1.4369342221085402,13.476462402592732
7.41,0.049428545319730954,0.0,0.005845230098569435,102.95898655687847,1.4369369751501033,13.478417489310623
7.42,0.04933349009834226,0.0,0.005730617743695524,102.95910361299383,1.4369397225412395,13.480334240994829
7.43,0.04923862967941746,0.0,0.005618252689897572,102.95922042919047,1.436942464301311,13.482213409312678
7.44,0.04914396340141382,0.0,0.0055080908724486,102.95933700628375,1.4369452004494545,13.484055731192921
7.45,0.049049490610426086,0.0,0.005400089090635882,102.95945334507958,1.4369479310045858,13.485861929114728
7.46,0.04895521066002905,0.0,0.005294204990819492,102.95956944637467,1.4369506559854042,13.48763271139101
7.47,0.04886112291112372,0.0,0.005190397049823031,102.95968531095669,1.4369533754103965,13.489368772446188
7.48,0.04876722673178699,0.0,0.005088624558650031,102.95980093960443,1.436956089297842,13.49107079308852
7.49,0.04867352149712481,0.0,0.004988847606519638,102.95991633308805,1.4369587976658162,13.49273944077708
7.5,0.04858000658912866,0.0,0.004891027065215331,102.96003149216918,1.436961500532196,13.494375369883512
7.51,0.048486681396535294,0.0,0.00479512457374052,102.96014641760117,1.4369641979146626,13.495979221948641
7.5200000000000005,0.048393545314689736,0.0,0.004701102523275019,102.96026111012918,1.4369668898307055,13.497551625934062
7.53,0.048300597745411324,0.0,0.00460892404242649,102.96037557049043,1.4369695762976273,13.499093198468788
7.54,0.04820783809686283,0.0,0.004518552982771068,102.96048979941425,1.4369722573325467,13.500604544091068
7.55,0.04811526578342258,0.0,0.004429953904677517,102.96060379762237,1.4369749329524026,13.50208625548546
7.5600000000000005,0.0480228802255594,0.0,0.0043430920634093305,102.96071756582896,1.4369776031739576,13.503538913715257
7.57,0.047930680849710444,0.0,0.0042579333954993435,102.96083110474086,1.4369802680138013,13.504963088450353
7.58,0.04783866708816178,0.0,0.004174444505391514,102.96094441505768,1.436982927488354,13.506359338190641
7.59,0.04774683837893164,0.0,0.004092592652344621,102.96105749747196,1.4369855816138706,13.507728210485043
7.6000000000000005,0.04765519416565636,0.0,0.004012345737592766,102.96117035266931,1.4369882304064425,13.50907024214622
7.61,0.0475637338974788,0.0,0.003933672291757614,102.96128298132857,1.4369908738820025,13.5103859594611
7.62,0.04747245702893934,0.0,0.0038565414625074644,102.96139538412189,1.4369935120563266,13.511675878397257
7.63,0.04738136301986932,0.0,0.003780923002458298,102.9615075617149,1.436996144945038,13.512940504805254
7.640000000000001,0.04729045133528682,0.0,0.003706787257312057,102.96161951476685,1.4369987725636093,13.514180334617016
7.65,0.04719972144529486,0.0,0.003634105154227507,102.96173124393073,1.4370013949273663,13.515395854040312
7.66,0.047109172824981754,0.0,0.0035628481904191244,102.96184274985333,1.4370040120514904,13.516587539749425
7.67,0.047018804954323826,0.0,0.0034929884219795336,102.96195403317546,1.4370066239510215,13.517755859072086
7.68,0.0469286173180902,0.0,0.0034244984529211114,102.962065094532,1.4370092306408606,13.518901270172734
7.69,0.04683860940574975,0.0,0.003357351424432462,102.96217593455202,1.4370118321357728,13.520024222232191
7.7,0.04674878071138011,0.0,0.0032915210043455508,102.96228655385895,1.4370144284503898,13.521125155623817
7.71,0.04665913073357874,0.0,0.0032269813768093635,102.9623969530706,1.4370170195992125,13.522204502086195
7.72,0.046569658975375905,0.0,0.0031637072321660424,102.96250713279932,1.4370196055966133,13.523262684892448
7.73,0.046480364944149644,0.0,0.0031016737570255318,102.96261709365211,1.4370221864568389,13.524300119016225
7.74,0.04639124815154261,0.0,0.003040856624534835,102.96272683623073,1.4370247621940124,13.525317211294437
7.75,0.04630230811338072,0.0,0.0029812319848380735,102.96283636113174,1.4370273328221361,13.526314360586802
7.76,0.04621354434959365,0.0,0.0029227764557236014,102.96294566894665,1.437029898355093,13.52729195793226
7.7700000000000005,0.04612495638413702,0.0,0.002865467113454511,102.96305476026201,1.4370324588066503,13.528250386702316
7.78,0.04603654374491642,0.0,0.002809281483778932,102.96316363565951,1.4370350141904602,13.52919002275139
7.79,0.04594830596371293,0.0,0.0027541975331166002,102.96327229571605,1.437037564520063,13.530111234564208
7.8,0.04586024257611047,0.0,0.0027001936599182355,102.96338074100385,1.437040109808889,13.531014383400304
7.8100000000000005,0.0457723531214246,0.0,0.0026472486861943484,102.9634889720905,1.4370426500702602,13.531899823435692
7.82,0.04568463714263299,0.0,0.0025953418492101455,102.9635969895391,1.437045185317393,13.532767901901758
7.83,0.045597094186307315,0.0,0.00254445279334328,102.9637047939083,1.4370477155633992,13.533618959221432
7.84,0.04550972380254675,0.0,0.0024945615621012546,102.96381238575243,1.437050240821289,13.53445332914268
7.8500000000000005,0.045422525544912856,0.0,0.0024456485902953477,102.96391976562153,1.4370527611039725,13.535271338869395
7.86,0.04533549897036588,0.0,0.0023976946963679877,102.96402693406142,1.437055276424261,13.536073309189703
7.87,0.04524864363920252,0.0,0.002350681074870576,102.96413389161386,1.4370577867948693,13.53685955460177
7.88,0.04516195911499496,0.0,0.0023045892890888003,102.96424063881653,1.4370602922284172,13.53763038343713
7.890000000000001,0.045075444964531315,0.0,0.0022594012638125494,102.96434717620316,1.4370627927374322,13.538386097981599
7.9,0.044989100757757305,0.0,0.002215099278247597,102.96445350430359,1.4370652883343495,13.539126994593824
7.91,0.044902926067719284,0.0,0.002171665959066272,102.96455962364384,1.4370677790315152,13.539853363821496
7.92,0.044816920470508385,0.0,0.002129084273594384,102.96466553474613,1.4370702648411866,13.540565490515293
7.930000000000001,0.044731083545205996,0.0,0.002087337523131749,102.96477123812906,1.4370727457755352,13.541263653940584
7.94,0.04464541487383039,0.0,0.0020464093364036757,102.96487673430757,1.4370752218466472,13.541948127886947
7.95,0.044559914041284475,0.0,0.0020062836631408584,102.96498202379304,1.4370776930665252,13.542619180775539
7.96,0.044474580635304684,0.0,0.0019669447677851553,102.96508710709338,1.4370801594470899,13.543277075764353
7.97,0.044389414246411026,0.0,0.0019283772233187797,102.96519198471304,1.4370826210001812,13.543922070851426
7.98,0.04430441446785815,0.0,0.0018905659052144898,102.96529665715312,1.4370850777375601,13.544554418976007
7.99,0.04421958089558751,0.0,0.0018534959855044018,102.96540112491138,1.43708752967091,13.545174368117754
8.0,0.044134913128180533,0.0,0.0018171529269650998,102.96550538848236,1.4370899768118375,13.545782161393976
8.01,0.04405041076681284,0.0,0.0017815224774167646,102.96560944835736,1.4370924191718741,13.546378037154978
8.02,0.0439660734152094,0.0,0.001746590664134083,102.96571330502458,1.4370948567624782,13.54696222907753
8.03,0.04388190067960069,0.0,0.001712343788366748,102.9658169589691,1.4370972895950347,13.547534966256501
8.040000000000001,0.04379789216867977,0.0,0.0016787684199674,102.96592041067298,1.437099717680858,13.54809647329471
8.05,0.04371404749356031,0.0,0.001645851392124902,102.96602366061528,1.4371021410311922,13.548646970390992
8.06,0.04363036626773551,0.0,0.0016135797962008843,102.96612670927213,1.4371045596572123,13.549186673426563
8.07,0.043546848107037864,0.0,0.0015819409766675335,102.96622955711679,1.437106973570026,13.549715794049671
8.08,0.04346349262959984,0.0,0.0015509225261446406,102.96633220461968,1.437109382780674,13.550234539758602
8.09,0.04338029945581535,0.0,0.0015205122805339614,102.9664346522484,1.437111787300132,13.550743113983042
8.1,0.04329726820830211,0.0,0.0014906983142489818,102.96653690046784,1.4371141871393112,13.551241716163867
8.11,0.043214398511864746,0.0,0.0014614689355382175,102.9666389497402,1.4371165823090593,13.551730541831342
8.120000000000001,0.043131689993458705,0.0,0.0014328126819002133,102.966740800525,1.4371189728201617,13.552209782681807
8.13,0.043049142282154944,0.0,0.0014047183155884444,102.96684245327918,1.4371213586833431,13.552679626652852
8.14,0.042966755009105344,0.0,0.0013771748192043572,102.9669439084571,1.4371237399092676,13.553140257997013
8.15,0.04288452780750892,0.0,0.0013501713913768208,102.96704516651057,1.4371261165085398,13.553591857354034
8.16,0.042802460312578686,0.0,0.0013236974425262949,102.96714622788897,1.4371284884917066,13.554034601821702
8.17,0.042720552161509245,0.0,0.0012977425907120539,102.9672470930392,1.4371308558692573,13.554468665025297
8.18,0.04263880299344509,0.0,0.0012722966575608372,102.96734776240577,1.4371332186516246,13.554894217185685
8.19,0.04255721244944952,0.0,0.0012473496642753305,102.9674482364308,1.437135576849186,13.555311425186066
8.2,0.042475780172474324,0.0,0.0012228918277209122,102.96754851555411,1.437137930472264,13.55572045263742
8.21,0.042394505807329945,0.0,0.0011989135565891296,102.96764860021324,1.4371402795311277,13.556121459942668
8.22,0.04231338900065643,0.0,0.0011754054476364015,102.96774849084343,1.4371426240359928,13.55651460435958
8.23,0.042232429400894916,0.0,0.001152358281996472,102.96784818787773,1.4371449639970233,13.556900040062432
8.24,0.042151626658259694,0.0,0.0011297630215651687,102.967947691747,1.4371472994243317,13.557277918202484
8.25,0.042070980424710934,0.0,0.0011076108054560478,102.96804700287994,1.43714963032798,13.55764838696724
8.26,0.04199049035392795,0.0,0.001085892946525537,102.96814612170313,1.4371519567179805,13.558011591638572
8.27,0.04191015610128298,0.0,0.0010646009279662127,102.96824504864107,1.4371542786042961,13.55836767464968
8.28,0.04182997732381562,0.0,0.0010437263999668752,102.9683437841162,1.4371565959968422,13.558716775640963
8.290000000000001,0.041749953680207695,0.0,0.001023261176438113,102.96844232854895,1.4371589089054861,13.55905903151477
8.3,0.041670084830758715,0.0,0.0010031972318020714,102.96854068235773,1.4371612173400485,13.55939457648909
8.31,0.041590370437361836,0.0,0.0009835266978451681,102.968638845959,1.4371635213103042,13.559723542150188
8.32,0.04151081016348027,0.0,0.0009642418606325177,102.9687368197673,1.437165820825982,13.560046057504206
8.33,0.0414314036741243,0.0,0.0009453351574828605,102.96883460419522,1.4371681158967666,13.560362249027753
8.34,0.04135215063582865,0.0,0.0009267991740028043,102.96893219965351,1.437170406532298,13.560672240717505
8.35,0.04127305071663044,0.0,0.0009086266411792199,102.96902960655105,1.437172692742173,13.56097615413883
8.36,0.04119410358604749,0.0,0.0008908104325286469,102.96912682529488,1.437174974535946,13.561274108473462
8.370000000000001,0.04111530891505718,0.0,0.000873343561302595,102.96922385629028,1.437177251923128,13.56156622056624
8.38,0.041036666376075656,0.0,0.0008562191777476421,102.96932069994074,1.4371795249131896,13.561852604970923
8.39,0.04095817564293756,0.0,0.0008394305664192569,102.96941735664798,1.4371817935155595,13.562133373995122
8.4,0.04087983639087607,0.0,0.0008229711435482911,102.96951382681202,1.4371840577396267,13.562408637744337
8.41,0.0408016482965035,0.0,0.0008068344544591089,102.96961011083117,1.4371863175947395,13.562678504165136
8.42,0.04072361103779212,0.0,0.0007910141710383421,102.96970620910207,1.4371885730902074,13.56294307908749
8.43,0.040645724294055566,0.0,0.0007755040892532765,102.9698021220197,1.4371908242353009,13.563202466266265
8.44,0.04056798774593044,0.0,0.0007602981267188986,102.96989784997741,1.4371930710392522,13.563456767421929
8.45,0.04049040107535847,0.0,0.0007453903203126456,102.96999339336696,1.4371953135112558,13.563706082280422
8.46,0.040412963965568906,0.0,0.0007307748238359271,102.97008875257849,1.437197551660469,13.563950508612278
8.47,0.04033567610106134,0.0,0.0007164459057214972,102.97018392800058,1.4371997854960121,13.564190142270961
8.48,0.04025853716758885,0.0,0.0007023979467857815,102.97027892002029,1.4372020150269695,13.564425077230455
8.49,0.04018154685214153,0.0,0.000688625438025276,102.97037372902314,1.4372042402623897,13.564655405622114
8.5,0.0401047048429303,0.0,0.0006751229784561529,102.97046835539314,1.4372064612112856,13.5648812177708
8.51,0.040028010829371095,0.0,0.0006618852729962283,102.9705627995128,1.4372086778826354,13.565102602230295
8.52,0.03995146450206937,0.0,0.0006489071303884591,102.97065706176322,1.437210890285383,13.565319645818036
8.53,0.03987506555280488,0.0,0.000636183461165156,102.970751142524,1.4372130984284386,13.565532433649155
8.540000000000001,0.03979881367451683,0.0,0.0006237092756521137,102.97084504217331,1.437215302320678,13.56574104916986
8.55,0.03972270856128928,0.0,0.0006114796820118762,102.97093876108795,1.4372175019709446,13.56594557419016
8.56,0.03964674990833687,0.0,0.0005994898843253688,102.9710322996433,1.437219697388049,13.566146088915943
8.57,0.03957093741199083,0.0,0.0005877351807111458,102.97112565821335,1.437221888580769,13.566342671980436
8.58,0.03949527076968527,0.0,0.0005762109614815156,102.97121883717075,1.4372240755578514,13.566535400475038
8.59,0.03941974967994376,0.0,0.0005649127073348192,102.97131183688681,1.4372262583280107,13.566724349979548
8.6,0.03934437384236614,0.0,0.000553835987583156,102.97140465773151,1.4372284368999304,13.566909594591815
8.61,0.03926914295761566,0.0,0.0005429764584148588,102.97149730007351,1.4372306112822637,13.56709120695678
8.620000000000001,0.03919405672740632,0.0,0.0005323298611910381,102.97158976428018,1.4372327814836328,13.567269258294983
8.63,0.03911911485449052,0.0,0.0005218920207755275,102.97168205071762,1.4372349475126303,13.567443818430476
8.64,0.039044317042646895,0.0,0.000511658843897576,102.97177415975065,1.4372371093778187,13.567614955818215
8.65,0.03896966299666843,0.0,0.0005016263175466431,102.97186609174285,1.4372392670877316,13.567782737570898
8.66,0.03889515242235084,0.0,0.0004917905073986697,102.97195784705656,1.4372414206508735,13.567947229485293
8.67,0.0388207850264811,0.0,0.0004821475562732056,102.97204942605289,1.4372435700757198,13.568108496068035
8.68,0.0387465605168263,0.0,0.0004726936826207898,102.97214082909176,1.437245715370718,13.56826660056092
8.69,0.03867247860212266,0.0,0.00046342517903999,102.97223205653188,1.4372478565442877,13.568421604965707
8.700000000000001,0.03859853899206476,0.0,0.00045433841082351956,102.97232310873079,1.43724999360482,13.56857357006844
8.71,0.038524741397295045,0.0,0.0004454298145328623,102.97241398604486,1.4372521265606795,13.568722555463276
8.72,0.038451085529393456,0.0,0.00043669589660084535,102.97250468882929,1.437254255420203,13.568868619575861
8.73,0.03837757110086732,0.0,0.0004281332319616131,102.97259521743817,1.437256380191701,13.569011819686239
8.74,0.03830419782514144,0.0,0.00041973846270746383,102.97268557222442,1.4372585008834573,13.569152211951314
8.75,0.03823096541654833,0.0,0.00041150829677202334,102.97277575353986,1.437260617503729,13.569289851426879
8.76,0.03815787359031871,0.0,0.00040343950663923855,102.97286576173522,1.437262730060748,13.569424792089196
8.77,0.03808492206257215,0.0,0.0003955289280776848,102.97295559716011,1.4372648385627196,13.569557086856173
8.78,0.038012110550307884,0.0,0.000387773458899691,102.97304526016305,1.4372669430178244,13.569686787608113
8.790000000000001,0.03793943877139583,0.0,0.0003801700577447951,102.97313475109151,1.4372690434342175,13.569813945208054
8.8,0.03786690644456778,0.0,0.00037271574288705404,102.97322407029189,1.437271139820029,13.56993860952172
8.81,0.03779451328940875,0.0,0.00036540759106573926,102.97331321810954,1.4372732321833648,13.57006082943708
8.82,0.037722259026348515,0.0,0.00035824273633896006,102.97340219488875,1.4372753205323057,13.570180652883511
8.83,0.037650143376653296,0.0,0.00035121836895976474,102.97349100097281,1.4372774048749086,13.5702981268506
8.84,0.037578166062417595,0.0,0.00034433173427427915,102.97357963670397,1.4372794852192066,13.57041329740657
8.85,0.03750632680655623,0.0,0.00033758013164145016,102.97366810242347,1.4372815615732089,13.570526209716345
8.86,0.03743462533279647,0.0,0.00033096091337397074,102.97375639847156,1.437283633944901,13.570636908059262
8.870000000000001,0.03736306136567037,0.0,0.0003244714836999713,102.97384452518749,1.4372857023422456,13.570745435846435
8.88,0.037291634630507206,0.0,0.0003181092977450699,102.97393248290952,1.437287766773182,13.57085183563778
8.89,0.03722034485342609,0.0,0.0003118718605343822,102.97402027197495,1.437289827245627,13.570956149158707
8.9,0.03714919176132871,0.0,0.0003057567260141002,102.97410789272011,1.4372918837674742,13.571058417316479
8.91,0.03707817508189225,0.0,0.0002997614960922551,102.97419534548038,1.4372939363465953,13.571158680216255
8.92,0.03700729454356232,0.0,0.0002938838196982893,102.97428263059018,1.4372959849908393,13.571256977176821
8.93,0.03693654987554621,0.0,0.00028812139186106797,102.974369748383,1.4372980297080338,13.571353346746003
8.94,0.03686594080780609,0.0,0.0002824719528049686,102.9744566991914,1.437300070505984,13.571447826715788
8.950000000000001,0.036795467071052454,0.0,0.00027693328706369474,102.97454348334703,1.4373021073924737,13.571540454137146
8.96,0.03672512839673764,0.0,0.00027150322261146543,102.97463010118061,1.4373041403752653,13.571631265334556
8.97,0.03665492451704947,0.0,0.0002661796300112406,102.97471655302193,1.4373061694620999,13.571720295920253
8.98,0.03658485516490504,0.0,0.0002609604215796477,102.97480283919995,1.4373081946606971,13.57180758080819
8.99,0.0365149200739446,0.0,0.00025584355056828206,102.97488896004268,1.4373102159787563,13.571893154227737
9.0,0.03644511897852554,0.0,0.0002508270103610608,102.97497491587725,1.4373122334239556,13.571977049737097
