# uptake constraint 
# the columns are: t and the constraint for each substrate metabolites
# the compounds are: galactose, glucose, thiosulfate, butyrate, Fprau, Styphi,  
# the nominal flux is: -5.0, -5.0, -5.0, -5.0, -5.0, -5.0,  
# the initial concentration are: 68.0, 0.0, 74.0, 0.0, 0.7460142802434464, 0.23666236299758114,  

t,galactose,glucose,thiosulfate
0.0,-5.0,-0.0,-5.0
0.01,-5.0,-0.0,-5.0
0.02,-5.0,-0.0,-5.0
0.03,-5.0,-0.0,-5.0
0.04,-5.0,-0.0,-5.0
0.05,-5.0,-0.0,-5.0
0.06,-5.0,-0.0,-5.0
0.07,-5.0,-0.0,-5.0
0.08,-5.0,-0.0,-5.0
0.09,-5.0,-0.0,-5.0
0.1,-5.0,-0.0,-5.0
0.11,-5.0,-0.0,-5.0
0.12,-5.0,-0.0,-5.0
0.13,-5.0,-0.0,-5.0
0.14,-5.0,-0.0,-5.0
0.15,-5.0,-0.0,-5.0
0.16,-5.0,-0.0,-5.0
0.17,-5.0,-0.0,-5.0
0.18,-5.0,-0.0,-5.0
0.19,-5.0,-0.0,-5.0
0.2,-5.0,-0.0,-5.0
0.21,-5.0,-0.0,-5.0
0.22,-5.0,-0.0,-5.0
0.23,-5.0,-0.0,-5.0
0.24,-5.0,-0.0,-5.0
0.25,-5.0,-0.0,-5.0
0.26,-5.0,-0.0,-5.0
0.27,-5.0,-0.0,-5.0
0.28,-5.0,-0.0,-5.0
0.29,-5.0,-0.0,-5.0
0.3,-5.0,-0.0,-5.0
0.31,-5.0,-0.0,-5.0
0.32,-5.0,-0.0,-5.0
0.33,-5.0,-0.0,-5.0
0.34,-5.0,-0.0,-5.0
0.35000000000000003,-5.0,-0.0,-5.0
0.36,-5.0,-0.0,-5.0
0.37,-5.0,-0.0,-5.0
0.38,-5.0,-0.0,-5.0
0.39,-5.0,-0.0,-5.0
0.4,-5.0,-0.0,-5.0
0.41000000000000003,-5.0,-0.0,-5.0
0.42,-5.0,-0.0,-5.0
0.43,-5.0,-0.0,-5.0
0.44,-5.0,-0.0,-5.0
0.45,-5.0,-0.0,-5.0
0.46,-5.0,-0.0,-5.0
0.47000000000000003,-5.0,-0.0,-5.0
0.48,-5.0,-0.0,-5.0
0.49,-5.0,-0.0,-5.0
0.5,-5.0,-0.0,-5.0
0.51,-5.0,-0.0,-5.0
0.52,-5.0,-0.0,-5.0
0.53,-5.0,-0.0,-5.0
0.54,-5.0,-0.0,-5.0
0.55,-5.0,-0.0,-5.0
0.56,-5.0,-0.0,-5.0
0.5700000000000001,-5.0,-0.0,-5.0
0.58,-5.0,-0.0,-5.0
0.59,-5.0,-0.0,-5.0
0.6,-5.0,-0.0,-5.0
0.61,-5.0,-0.0,-5.0
0.62,-5.0,-0.0,-5.0
0.63,-5.0,-0.0,-5.0
0.64,-5.0,-0.0,-5.0
0.65,-5.0,-0.0,-5.0
0.66,-5.0,-0.0,-5.0
0.67,-5.0,-0.0,-5.0
0.68,-5.0,-0.0,-5.0
0.6900000000000001,-5.0,-0.0,-5.0
0.7000000000000001,-5.0,-0.0,-5.0
0.71,-5.0,-0.0,-5.0
0.72,-5.0,-0.0,-5.0
0.73,-5.0,-0.0,-5.0
0.74,-5.0,-0.0,-5.0
0.75,-5.0,-0.0,-5.0
0.76,-5.0,-0.0,-5.0
0.77,-5.0,-0.0,-5.0
0.78,-5.0,-0.0,-5.0
0.79,-5.0,-0.0,-5.0
0.8,-5.0,-0.0,-5.0
0.81,-5.0,-0.0,-5.0
0.8200000000000001,-5.0,-0.0,-5.0
0.8300000000000001,-5.0,-0.0,-5.0
0.84,-5.0,-0.0,-5.0
0.85,-5.0,-0.0,-5.0
0.86,-5.0,-0.0,-5.0
0.87,-5.0,-0.0,-5.0
0.88,-5.0,-0.0,-5.0
0.89,-5.0,-0.0,-5.0
0.9,-5.0,-0.0,-5.0
0.91,-5.0,-0.0,-5.0
0.92,-5.0,-0.0,-5.0
0.93,-5.0,-0.0,-5.0
0.9400000000000001,-5.0,-0.0,-5.0
0.9500000000000001,-5.0,-0.0,-5.0
0.96,-5.0,-0.0,-5.0
0.97,-5.0,-0.0,-5.0
0.98,-5.0,-0.0,-5.0
0.99,-5.0,-0.0,-5.0
1.0,-5.0,-0.0,-5.0
1.01,-5.0,-0.0,-5.0
1.02,-5.0,-0.0,-5.0
1.03,-5.0,-0.0,-5.0
1.04,-5.0,-0.0,-5.0
1.05,-5.0,-0.0,-5.0
1.06,-5.0,-0.0,-5.0
1.07,-5.0,-0.0,-5.0
1.08,-5.0,-0.0,-5.0
1.09,-5.0,-0.0,-5.0
1.1,-5.0,-0.0,-5.0
1.11,-5.0,-0.0,-5.0
1.12,-5.0,-0.0,-5.0
1.1300000000000001,-5.0,-0.0,-5.0
1.1400000000000001,-5.0,-0.0,-5.0
1.1500000000000001,-5.0,-0.0,-5.0
1.16,-5.0,-0.0,-5.0
1.17,-5.0,-0.0,-5.0
1.18,-5.0,-0.0,-5.0
1.19,-5.0,-0.0,-5.0
1.2,-5.0,-0.0,-5.0
1.21,-5.0,-0.0,-5.0
1.22,-5.0,-0.0,-5.0
1.23,-5.0,-0.0,-5.0
1.24,-5.0,-0.0,-5.0
1.25,-5.0,-0.0,-5.0
1.26,-5.0,-0.0,-5.0
1.27,-5.0,-0.0,-5.0
1.28,-5.0,-0.0,-5.0
1.29,-5.0,-0.0,-5.0
1.3,-5.0,-0.0,-5.0
1.31,-5.0,-0.0,-5.0
1.32,-5.0,-0.0,-5.0
1.33,-5.0,-0.0,-5.0
1.34,-5.0,-0.0,-5.0
1.35,-5.0,-0.0,-5.0
1.36,-5.0,-0.0,-5.0
1.37,-5.0,-0.0,-5.0
1.3800000000000001,-5.0,-0.0,-5.0
1.3900000000000001,-5.0,-0.0,-5.0
1.4000000000000001,-5.0,-0.0,-5.0
1.41,-5.0,-0.0,-5.0
1.42,-5.0,-0.0,-5.0
1.43,-5.0,-0.0,-5.0
1.44,-5.0,-0.0,-5.0
1.45,-5.0,-0.0,-5.0
1.46,-5.0,-0.0,-5.0
1.47,-5.0,-0.0,-5.0
1.48,-5.0,-0.0,-5.0
1.49,-5.0,-0.0,-5.0
1.5,-5.0,-0.0,-5.0
1.51,-5.0,-0.0,-5.0
1.52,-5.0,-0.0,-5.0
1.53,-5.0,-0.0,-5.0
1.54,-5.0,-0.0,-5.0
1.55,-5.0,-0.0,-5.0
1.56,-5.0,-0.0,-5.0
1.57,-5.0,-0.0,-5.0
1.58,-5.0,-0.0,-5.0
1.59,-5.0,-0.0,-5.0
1.6,-5.0,-0.0,-5.0
1.61,-5.0,-0.0,-5.0
1.62,-5.0,-0.0,-5.0
1.6300000000000001,-5.0,-0.0,-5.0
1.6400000000000001,-5.0,-0.0,-5.0
1.6500000000000001,-5.0,-0.0,-5.0
1.6600000000000001,-5.0,-0.0,-5.0
1.67,-5.0,-0.0,-5.0
1.68,-5.0,-0.0,-5.0
1.69,-5.0,-0.0,-5.0
1.7,-5.0,-0.0,-5.0
1.71,-5.0,-0.0,-5.0
1.72,-5.0,-0.0,-5.0
1.73,-5.0,-0.0,-5.0
1.74,-5.0,-0.0,-5.0
1.75,-5.0,-0.0,-5.0
1.76,-5.0,-0.0,-5.0
1.77,-5.0,-0.0,-5.0
1.78,-5.0,-0.0,-5.0
1.79,-5.0,-0.0,-5.0
1.8,-5.0,-0.0,-5.0
1.81,-5.0,-0.0,-5.0
1.82,-5.0,-0.0,-5.0
1.83,-5.0,-0.0,-5.0
1.84,-5.0,-0.0,-5.0
1.85,-5.0,-0.0,-5.0
1.86,-5.0,-0.0,-5.0
1.87,-5.0,-0.0,-5.0
1.8800000000000001,-5.0,-0.0,-5.0
1.8900000000000001,-5.0,-0.0,-5.0
1.9000000000000001,-5.0,-0.0,-5.0
1.9100000000000001,-5.0,-0.0,-5.0
1.92,-5.0,-0.0,-5.0
1.93,-5.0,-0.0,-5.0
1.94,-5.0,-0.0,-5.0
1.95,-5.0,-0.0,-5.0
1.96,-5.0,-0.0,-5.0
1.97,-5.0,-0.0,-5.0
1.98,-5.0,-0.0,-5.0
1.99,-5.0,-0.0,-5.0
2.0,-5.0,-0.0,-5.0
2.0100000000000002,-5.0,-0.0,-5.0
2.02,-5.0,-0.0,-5.0
2.0300000000000002,-5.0,-0.0,-5.0
2.04,-5.0,-0.0,-5.0
2.05,-5.0,-0.0,-5.0
2.06,-5.0,-0.0,-5.0
2.07,-5.0,-0.0,-5.0
2.08,-5.0,-0.0,-5.0
2.09,-5.0,-0.0,-5.0
2.1,-5.0,-0.0,-5.0
2.11,-5.0,-0.0,-5.0
2.12,-5.0,-0.0,-5.0
2.13,-5.0,-0.0,-5.0
2.14,-5.0,-0.0,-5.0
2.15,-5.0,-0.0,-5.0
2.16,-5.0,-0.0,-5.0
2.17,-5.0,-0.0,-5.0
2.18,-5.0,-0.0,-5.0
2.19,-5.0,-0.0,-5.0
2.2,-5.0,-0.0,-5.0
2.21,-5.0,-0.0,-5.0
2.22,-5.0,-0.0,-5.0
2.23,-5.0,-0.0,-5.0
2.24,-5.0,-0.0,-5.0
2.25,-5.0,-0.0,-5.0
2.2600000000000002,-5.0,-0.0,-5.0
2.27,-5.0,-0.0,-5.0
2.2800000000000002,-5.0,-0.0,-5.0
2.29,-5.0,-0.0,-5.0
2.3000000000000003,-5.0,-0.0,-5.0
2.31,-5.0,-0.0,-5.0
2.32,-5.0,-0.0,-5.0
2.33,-5.0,-0.0,-5.0
2.34,-5.0,-0.0,-5.0
2.35,-5.0,-0.0,-5.0
2.36,-5.0,-0.0,-5.0
2.37,-5.0,-0.0,-5.0
2.38,-5.0,-0.0,-5.0
2.39,-5.0,-0.0,-5.0
2.4,-5.0,-0.0,-5.0
2.41,-5.0,-0.0,-5.0
2.42,-5.0,-0.0,-5.0
2.43,-5.0,-0.0,-5.0
2.44,-5.0,-0.0,-5.0
2.45,-5.0,-0.0,-5.0
2.46,-5.0,-0.0,-5.0
2.47,-5.0,-0.0,-5.0
2.48,-5.0,-0.0,-5.0
2.49,-5.0,-0.0,-5.0
2.5,-5.0,-0.0,-5.0
2.5100000000000002,-5.0,-0.0,-5.0
2.52,-5.0,-0.0,-5.0
2.5300000000000002,-5.0,-0.0,-5.0
2.54,-5.0,-0.0,-5.0
2.5500000000000003,-5.0,-0.0,-5.0
2.56,-5.0,-0.0,-5.0
2.57,-5.0,-0.0,-5.0
2.58,-5.0,-0.0,-5.0
2.59,-5.0,-0.0,-5.0
2.6,-5.0,-0.0,-5.0
2.61,-5.0,-0.0,-5.0
2.62,-5.0,-0.0,-5.0
2.63,-5.0,-0.0,-5.0
2.64,-5.0,-0.0,-5.0
2.65,-5.0,-0.0,-5.0
2.66,-5.0,-0.0,-5.0
2.67,-5.0,-0.0,-5.0
2.68,-5.0,-0.0,-5.0
2.69,-5.0,-0.0,-5.0
2.7,-5.0,-0.0,-5.0
2.71,-5.0,-0.0,-5.0
2.72,-5.0,-0.0,-5.0
2.73,-5.0,-0.0,-5.0
2.74,-5.0,-0.0,-5.0
2.75,-5.0,-0.0,-5.0
2.7600000000000002,-5.0,-0.0,-5.0
2.77,-5.0,-0.0,-5.0
2.7800000000000002,-5.0,-0.0,-5.0
2.79,-5.0,-0.0,-5.0
2.8000000000000003,-5.0,-0.0,-5.0
2.81,-5.0,-0.0,-5.0
2.82,-5.0,-0.0,-5.0
2.83,-5.0,-0.0,-5.0
2.84,-5.0,-0.0,-5.0
2.85,-5.0,-0.0,-5.0
2.86,-5.0,-0.0,-5.0
2.87,-5.0,-0.0,-5.0
2.88,-5.0,-0.0,-5.0
2.89,-5.0,-0.0,-5.0
2.9,-5.0,-0.0,-5.0
2.91,-5.0,-0.0,-5.0
2.92,-5.0,-0.0,-5.0
2.93,-5.0,-0.0,-5.0
2.94,-5.0,-0.0,-5.0
2.95,-5.0,-0.0,-5.0
2.96,-5.0,-0.0,-5.0
2.97,-5.0,-0.0,-5.0
2.98,-5.0,-0.0,-5.0
2.99,-5.0,-0.0,-5.0
3.0,-5.0,-0.0,-5.0
3.0100000000000002,-5.0,-0.0,-5.0
3.02,-5.0,-0.0,-5.0
3.0300000000000002,-5.0,-0.0,-5.0
3.04,-5.0,-0.0,-5.0
3.0500000000000003,-5.0,-0.0,-5.0
3.06,-5.0,-0.0,-5.0
3.0700000000000003,-5.0,-0.0,-5.0
3.08,-5.0,-0.0,-5.0
3.09,-5.0,-0.0,-5.0
3.1,-5.0,-0.0,-5.0
3.11,-5.0,-0.0,-5.0
3.12,-5.0,-0.0,-5.0
3.13,-5.0,-0.0,-5.0
3.14,-5.0,-0.0,-5.0
3.15,-5.0,-0.0,-5.0
3.16,-5.0,-0.0,-5.0
3.17,-5.0,-0.0,-5.0
3.18,-5.0,-0.0,-5.0
3.19,-5.0,-0.0,-5.0
3.2,-5.0,-0.0,-5.0
3.21,-5.0,-0.0,-5.0
3.22,-5.0,-0.0,-5.0
3.23,-5.0,-0.0,-5.0
3.24,-5.0,-0.0,-5.0
3.25,-5.0,-0.0,-5.0
3.2600000000000002,-5.0,-0.0,-5.0
3.27,-5.0,-0.0,-5.0
3.2800000000000002,-5.0,-0.0,-5.0
3.29,-5.0,-0.0,-5.0
3.3000000000000003,-5.0,-0.0,-5.0
3.31,-5.0,-0.0,-5.0
3.3200000000000003,-5.0,-0.0,-5.0
3.33,-5.0,-0.0,-5.0
3.34,-5.0,-0.0,-5.0
3.35,-5.0,-0.0,-5.0
3.36,-5.0,-0.0,-5.0
3.37,-5.0,-0.0,-5.0
3.38,-5.0,-0.0,-5.0
3.39,-5.0,-0.0,-5.0
3.4,-5.0,-0.0,-5.0
3.41,-5.0,-0.0,-5.0
3.42,-5.0,-0.0,-5.0
3.43,-5.0,-0.0,-5.0
3.44,-5.0,-0.0,-5.0
3.45,-5.0,-0.0,-5.0
3.46,-5.0,-0.0,-5.0
3.47,-5.0,-0.0,-5.0
3.48,-5.0,-0.0,-5.0
3.49,-5.0,-0.0,-5.0
3.5,-5.0,-0.0,-5.0
3.5100000000000002,-5.0,-0.0,-5.0
3.52,-5.0,-0.0,-5.0
3.5300000000000002,-5.0,-0.0,-5.0
3.54,-5.0,-0.0,-5.0
3.5500000000000003,-5.0,-0.0,-5.0
3.56,-5.0,-0.0,-5.0
3.5700000000000003,-5.0,-0.0,-5.0
3.58,-5.0,-0.0,-5.0
3.59,-5.0,-0.0,-5.0
3.6,-5.0,-0.0,-5.0
3.61,-5.0,-0.0,-5.0
3.62,-5.0,-0.0,-5.0
3.63,-5.0,-0.0,-5.0
3.64,-5.0,-0.0,-5.0
3.65,-5.0,-0.0,-5.0
3.66,-5.0,-0.0,-5.0
3.67,-5.0,-0.0,-5.0
3.68,-5.0,-0.0,-5.0
3.69,-5.0,-0.0,-5.0
3.7,-5.0,-0.0,-5.0
3.71,-5.0,-0.0,-5.0
3.72,-5.0,-0.0,-5.0
3.73,-5.0,-0.0,-5.0
3.74,-5.0,-0.0,-5.0
3.75,-5.0,-0.0,-5.0
3.7600000000000002,-5.0,-0.0,-5.0
3.77,-5.0,-0.0,-5.0
3.7800000000000002,-5.0,-0.0,-5.0
3.79,-5.0,-0.0,-5.0
3.8000000000000003,-5.0,-0.0,-5.0
3.81,-5.0,-0.0,-5.0
3.8200000000000003,-5.0,-0.0,-5.0
3.83,-5.0,-0.0,-5.0
3.84,-5.0,-0.0,-5.0
3.85,-5.0,-0.0,-5.0
3.86,-5.0,-0.0,-5.0
3.87,-5.0,-0.0,-5.0
3.88,-5.0,-0.0,-5.0
3.89,-5.0,-0.0,-5.0
3.9,-5.0,-0.0,-5.0
3.91,-5.0,-0.0,-5.0
3.92,-5.0,-0.0,-5.0
3.93,-5.0,-0.0,-5.0
3.94,-5.0,-0.0,-5.0
3.95,-5.0,-0.0,-5.0
3.96,-5.0,-0.0,-5.0
3.97,-5.0,-0.0,-5.0
3.98,-5.0,-0.0,-5.0
3.99,-5.0,-0.0,-5.0
4.0,-5.0,-0.0,-5.0
4.01,-5.0,-0.0,-5.0
4.0200000000000005,-5.0,-0.0,-5.0
4.03,-5.0,-0.0,-5.0
4.04,-5.0,-0.0,-5.0
4.05,-5.0,-0.0,-5.0
4.0600000000000005,-5.0,-0.0,-5.0
4.07,-5.0,-0.0,-5.0
4.08,-5.0,-0.0,-5.0
4.09,-5.0,-0.0,-5.0
4.1,-5.0,-0.0,-5.0
4.11,-5.0,-0.0,-5.0
4.12,-5.0,-0.0,-5.0
4.13,-5.0,-0.0,-5.0
4.14,-5.0,-0.0,-5.0
4.15,-5.0,-0.0,-5.0
4.16,-5.0,-0.0,-5.0
4.17,-5.0,-0.0,-5.0
4.18,-5.0,-0.0,-5.0
4.19,-5.0,-0.0,-5.0
4.2,-5.0,-0.0,-5.0
4.21,-5.0,-0.0,-5.0
4.22,-5.0,-0.0,-5.0
4.23,-5.0,-0.0,-5.0
4.24,-5.0,-0.0,-5.0
4.25,-5.0,-0.0,-5.0
4.26,-5.0,-0.0,-5.0
4.2700000000000005,-5.0,-0.0,-5.0
4.28,-5.0,-0.0,-5.0
4.29,-5.0,-0.0,-5.0
4.3,-5.0,-0.0,-5.0
4.3100000000000005,-5.0,-0.0,-5.0
4.32,-5.0,-0.0,-5.0
4.33,-5.0,-0.0,-5.0
4.34,-5.0,-0.0,-5.0
4.3500000000000005,-5.0,-0.0,-5.0
4.36,-5.0,-0.0,-5.0
4.37,-5.0,-0.0,-5.0
4.38,-5.0,-0.0,-5.0
4.39,-5.0,-0.0,-5.0
4.4,-5.0,-0.0,-5.0
4.41,-5.0,-0.0,-5.0
4.42,-5.0,-0.0,-5.0
4.43,-5.0,-0.0,-5.0
4.44,-5.0,-0.0,-5.0
4.45,-5.0,-0.0,-5.0
4.46,-5.0,-0.0,-5.0
4.47,-5.0,-0.0,-5.0
4.48,-5.0,-0.0,-5.0
4.49,-5.0,-0.0,-5.0
4.5,-5.0,-0.0,-5.0
4.51,-5.0,-0.0,-5.0
4.5200000000000005,-5.0,-0.0,-5.0
4.53,-5.0,-0.0,-5.0
4.54,-5.0,-0.0,-5.0
4.55,-5.0,-0.0,-5.0
4.5600000000000005,-5.0,-0.0,-5.0
4.57,-5.0,-0.0,-5.0
4.58,-5.0,-0.0,-5.0
4.59,-5.0,-0.0,-5.0
4.6000000000000005,-5.0,-0.0,-5.0
4.61,-5.0,-0.0,-5.0
4.62,-5.0,-0.0,-5.0
4.63,-5.0,-0.0,-5.0
4.64,-5.0,-0.0,-5.0
4.65,-5.0,-0.0,-5.0
4.66,-5.0,-0.0,-5.0
4.67,-5.0,-0.0,-5.0
4.68,-5.0,-0.0,-5.0
4.69,-5.0,-0.0,-5.0
4.7,-5.0,-0.0,-5.0
4.71,-5.0,-0.0,-5.0
4.72,-5.0,-0.0,-5.0
4.73,-5.0,-0.0,-5.0
4.74,-5.0,-0.0,-5.0
4.75,-5.0,-0.0,-5.0
4.76,-5.0,-0.0,-5.0
4.7700000000000005,-5.0,-0.0,-5.0
4.78,-5.0,-0.0,-5.0
4.79,-5.0,-0.0,-5.0
4.8,-5.0,-0.0,-5.0
4.8100000000000005,-5.0,-0.0,-5.0
4.82,-5.0,-0.0,-5.0
4.83,-5.0,-0.0,-5.0
4.84,-5.0,-0.0,-5.0
4.8500000000000005,-5.0,-0.0,-5.0
4.86,-5.0,-0.0,-5.0
4.87,-5.0,-0.0,-5.0
4.88,-5.0,-0.0,-5.0
4.89,-5.0,-0.0,-5.0
4.9,-5.0,-0.0,-5.0
4.91,-5.0,-0.0,-5.0
4.92,-5.0,-0.0,-5.0
4.93,-5.0,-0.0,-5.0
4.94,-5.0,-0.0,-5.0
4.95,-5.0,-0.0,-5.0
4.96,-5.0,-0.0,-5.0
4.97,-5.0,-0.0,-5.0
4.98,-5.0,-0.0,-5.0
4.99,-5.0,-0.0,-5.0
5.0,-5.0,-0.0,-5.0
5.01,-5.0,-0.0,-5.0
5.0200000000000005,-5.0,-0.0,-5.0
5.03,-5.0,-0.0,-5.0
5.04,-5.0,-0.0,-5.0
5.05,-5.0,-0.0,-5.0
5.0600000000000005,-5.0,-0.0,-5.0
5.07,-5.0,-0.0,-5.0
5.08,-5.0,-0.0,-5.0
5.09,-5.0,-0.0,-5.0
5.1000000000000005,-5.0,-0.0,-5.0
5.11,-5.0,-0.0,-5.0
5.12,-4.926417742364047,-0.0,-5.0
5.13,-4.811416613226734,-0.0,-5.0
5.14,-4.699232120365834,-0.0,-5.0
5.15,-4.589788860127571,-0.0,-5.0
5.16,-4.483013750600934,-0.0,-5.0
5.17,-4.378835946219779,-0.0,-5.0
5.18,-4.277186756127062,-0.0,-5.0
5.19,-4.17799956610751,-0.0,-5.0
5.2,-4.081209763906371,-0.0,-5.0
5.21,-3.986754667762501,-0.0,-5.0
5.22,-3.894573457993919,-0.0,-5.0
5.23,-3.804607111483291,-0.0,-5.0
5.24,-3.7167983389194252,-0.0,-5.0
5.25,-3.6310915246590296,-0.0,-5.0
5.26,-3.5474326690805906,-0.0,-5.0
5.2700000000000005,-3.4657693333093595,-0.0,-5.0
5.28,-3.3860505861991483,-0.0,-5.0
5.29,-3.3082269534628943,-0.0,-5.0
5.3,-3.2322503688498823,-0.0,-5.0
5.3100000000000005,-3.158074127273003,-0.0,-5.0
5.32,-3.0856528397946925,-0.0,-5.0
5.33,-3.0149423903850185,-0.0,-5.0
5.34,-2.9458998943700188,-0.0,-5.0
5.3500000000000005,-2.8784836584927236,-0.0,-5.0
5.36,-2.8126531425133234,-0.0,-5.0
5.37,-2.7483689222788223,-0.0,-5.0
5.38,-2.685592654196092,-0.0,-5.0
5.39,-2.6242870410456485,-0.0,-5.0
5.4,-2.564415799076683,-0.0,-5.0
5.41,-2.505943626326897,-0.0,-5.0
5.42,-2.4488361721135226,-0.0,-5.0
5.43,-2.3930600076446362,-0.0,-5.0
5.44,-2.3385825977023575,-0.0,-5.0
5.45,-2.2853722733519763,-0.0,-5.0
5.46,-2.233398205633268,-0.0,-5.0
5.47,-2.1826303801924243,-0.0,-5.0
5.48,-2.1330395728150364,-0.0,-5.0
5.49,-2.0845973258224775,-0.0,-5.0
5.5,-2.037275925295846,-0.0,-5.0
5.51,-1.9910483790933329,-0.0,-5.0
5.5200000000000005,-1.9458883956285018,-0.0,-5.0
5.53,-1.9017703633785072,-0.0,-5.0
5.54,-1.8586693310927098,-0.0,-5.0
5.55,-1.8165609886735463,-0.0,-5.0
5.5600000000000005,-1.7754216487028027,-0.0,-5.0
5.57,-1.7352282285876726,-0.0,-5.0
5.58,-1.6959582333021623,-0.0,-5.0
5.59,-1.6575897387005163,-0.0,-5.0
5.6000000000000005,-1.6201013753803792,-0.0,-5.0
5.61,-1.5834723130744306,-0.0,-5.0
5.62,-1.5476822455501613,-0.0,-5.0
5.63,-1.5127113759983772,-0.0,-5.0
5.64,-1.4785404028918667,-0.0,-5.0
5.65,-1.4451505062964811,-0.0,-5.0
5.66,-1.412523334617663,-0.0,-5.0
5.67,-1.3806409917661795,-0.0,-5.0
5.68,-1.3494860247275287,-0.0,-5.0
5.69,-1.3190414115201547,-0.0,-5.0
5.7,-1.2892905495282307,-0.0,-5.0
5.71,-1.260217244195382,-0.0,-5.0
5.72,-1.2318056980662988,-0.0,-5.0
5.73,-1.20404050016372,-0.0,-5.0
5.74,-1.1769066156888155,-0.0,-5.0
5.75,-1.1503893760334643,-0.0,-5.0
5.76,-1.1244744690934205,-0.0,-5.0
5.7700000000000005,-1.0991479298718025,-0.0,-5.0
5.78,-1.0743961313627672,-0.0,-5.0
5.79,-1.0502057757056509,-0.0,-5.0
5.8,-1.0265638856002424,-0.0,-5.0
5.8100000000000005,-1.0034577959742346,-0.0,-5.0
5.82,-0.9808751458942502,-0.0,-5.0
5.83,-0.9588038707121836,-0.0,-5.0
5.84,-0.9372321944389275,-0.0,-5.0
5.8500000000000005,-0.916148622337856,-0.0,-5.0
5.86,-0.8955419337307411,-0.0,-5.0
5.87,-0.875401175009061,-0.0,-5.0
5.88,-0.8557156528439261,-0.0,-5.0
5.89,-0.8364749275881125,-0.0,-5.0
5.9,-0.817668806863942,-0.0,-5.0
5.91,-0.7992873393309771,-0.0,-5.0
5.92,-0.7813208086277369,-0.0,-5.0
5.93,-0.7637597274818498,-0.0,-5.0
5.94,-0.7465948319832681,-0.0,-5.0
5.95,-0.7298170760153729,-0.0,-5.0
5.96,-0.713417625838983,-0.0,-5.0
5.97,-0.6973878548244673,-0.0,-5.0
5.98,-0.6817193383273337,-0.0,-5.0
5.99,-0.6664038487028381,-0.0,-5.0
6.0,-0.6514333504553141,-0.0,-5.0
6.01,-0.6367999955180792,-0.0,-5.0
6.0200000000000005,-0.6224961186599226,-0.0,-5.0
6.03,-0.6085142330143223,-0.0,-5.0
6.04,-0.5948470257276692,-0.0,-5.0
6.05,-0.5814873537229147,-0.0,-5.0
6.0600000000000005,-0.5684282395751756,-0.0,-5.0
6.07,-0.5556628674959588,-0.0,-5.0
6.08,-0.5431845794227723,-0.0,-5.0
6.09,-0.5309868712110145,-0.0,-5.0
6.1000000000000005,-0.5190633889251242,-0.0,-5.0
6.11,-0.5074079252260902,-0.0,-5.0
6.12,-0.4960144158525083,-0.0,-5.0
6.13,-0.48487693619247074,-0.0,-5.0
6.140000000000001,-0.47398969794366674,-0.0,-5.0
6.15,-0.4633470458591548,-0.0,-5.0
6.16,-0.4529434545763561,-0.0,-5.0
6.17,-0.44277352552689603,-0.0,-5.0
6.18,-0.4328319839249999,-0.0,-5.0
6.19,-0.4231136758322242,-0.0,-5.0
6.2,-0.41361356529637405,-0.0,-5.0
6.21,-0.40432673156253096,-0.0,-5.0
6.22,-0.3952483663541771,-0.0,-5.0
6.23,-0.38637377122247013,-0.0,-5.0
6.24,-0.37769835496178283,-0.0,-5.0
6.25,-0.36921763108968114,-0.0,-5.0
6.26,-0.36092721538957223,-0.0,-5.0
6.2700000000000005,-0.35282282351431027,-0.0,-5.0
6.28,-0.34490026864909823,-0.0,-5.0
6.29,-0.3371554592320793,-0.0,-5.0
6.3,-0.3295843967310578,-0.0,-5.0
6.3100000000000005,-0.32218317347483894,-0.0,-5.0
6.32,-0.3149479705377222,-0.0,-5.0
6.33,-0.30787505567572876,-0.0,-5.0
6.34,-0.3009607813131846,-0.0,-5.0
6.3500000000000005,-0.29420158257832385,-0.0,-5.0
6.36,-0.2875939753866164,-0.0,-5.0
6.37,-0.2811345545705617,-0.0,-5.0
6.38,-0.2748199920547302,-0.0,-5.0
6.390000000000001,-0.2686470350748667,-0.0,-5.0
6.4,-0.2626125044399083,-0.0,-5.0
6.41,-0.2567132928357993,-0.0,-5.0
6.42,-0.2509463631700223,-0.0,-5.0
6.43,-0.24530874695579172,-0.0,-5.0
6.44,-0.23979754273489043,-0.0,-5.0
6.45,-0.23440991453815618,-0.0,-5.0
6.46,-0.22914309038265512,-0.0,-5.0
6.47,-0.22399436080460608,-0.0,-5.0
6.48,-0.21896107742714657,-0.0,-5.0
6.49,-0.21404065156205623,-0.0,-5.0
6.5,-0.20923055710272204,-0.0,-5.0
6.51,-0.20452833961794956,-0.0,-5.0
6.5200000000000005,-0.19993157939637737,-0.0,-5.0
6.53,-0.19543791126584503,-0.0,-5.0
6.54,-0.1910450233463017,-0.0,-5.0
6.55,-0.1867506558321601,-0.0,-5.0
6.5600000000000005,-0.18255259980335664,-0.0,-5.0
6.57,-0.17844869606439928,-0.0,-5.0
6.58,-0.17443683401070445,-0.0,-5.0
6.59,-0.1705149505215434,-0.0,-4.917725217085172
6.6000000000000005,-0.16668190417426254,-0.0,-4.803155699273436
6.61,-0.16293600281303297,-0.0,-4.69130482077183
6.62,-0.15927521538755096,-0.0,-4.5821057993004155
6.63,-0.15569756054226588,-0.0,-4.47549359723033
6.640000000000001,-0.15220110529327055,-0.0,-4.371404871266421
6.65,-0.1487839637451133,-0.0,-4.269777923792233
6.66,-0.14544429584613114,-0.0,-4.170552655813347
6.67,-0.1421803061809602,-0.0,-4.073670521437896
6.68,-0.13899024279893368,-0.0,-3.979074483835797
6.69,-0.1358723960771299,-0.0,-3.8867089726207986
6.7,-0.13282509761688213,-0.0,-3.7965198426019016
6.71,-0.12984671917260968,-0.0,-3.7084543338529894
6.72,-0.12693567161187364,-0.0,-3.6224610330517653
6.73,-0.12409040390560562,-0.0,-3.538489836041147
6.74,-0.12130940214749719,-0.0,-3.456491911568289
6.75,-0.11859118860157819,-0.0,-3.376419666158303
6.76,-0.11593432077704903,-0.0,-3.298226710081545
6.7700000000000005,-0.11333739052946885,-0.0,-3.2218678243750722
6.78,-0.11079902318743469,-0.0,-3.1472989288805073
6.79,-0.10831787670392065,-0.0,-3.0744770512621185
6.8,-0.10589264083147681,-0.0,-3.0033602969704023
6.8100000000000005,-0.1035220363205184,-0.0,-2.933907820117899
6.82,-0.10120481413996384,-0.0,-2.8660797952352963
6.83,-0.09893975471950815,-0.0,-2.7998373898771924
6.84,-0.09672566721284513,-0.0,-2.7351427380481166
6.8500000000000005,-0.09456138878117577,-0.0,-2.6719589144205753
6.86,-0.09244578389636596,-0.0,-2.6102499093180263
6.87,-0.09037774366313878,-0.0,-2.549980604436742
6.88,-0.08835618515970933,-0.0,-2.4911167492815607
6.890000000000001,-0.08638005079629142,-0.0,-2.4336249382914947
6.9,-0.08444830769092557,-0.0,-2.3774725886321013
6.91,-0.0825599863604279,-0.0,-2.322629310707245
6.92,-0.08071411410149486,-0.0,-2.2690645416500392
6.93,-0.07890972392181816,-0.0,-2.2167478676545884
6.94,-0.07714587148774468,-0.0,-2.165649626111463
6.95,-0.07542163456405176,-0.0,-2.1157408858009505
6.96,-0.07373611246887767,-0.0,-2.0669934276643844
6.97,-0.07208842554334093,-0.0,-2.0193797261342574
6.98,-0.07047771463540045,-0.0,-1.9728729310045845
6.99,-0.0689031405975228,-0.0,-1.9274468498236759
7.0,-0.0673638837977389,-0.0,-1.8830759307921738
7.01,-0.06585914364368715,-0.0,-1.839735246149844
7.0200000000000005,-0.06438813811925327,-0.0,-1.797400476035247
7.03,-0.06295010333343166,-0.0,-1.756047892803001
7.04,-0.061544293081045004,-0.0,-1.715654345783921
7.05,-0.06016997841497179,-0.0,-1.6761972464738693
7.0600000000000005,-0.058826447229543444,-0.0,-1.6376545541376626
7.07,-0.0575130038547838,-0.0,-1.6000047618148971
7.08,-0.056228968661175056,-0.0,-1.5632268827150195
7.09,-0.05497367767464467,-0.0,-1.5273004369894378
7.1000000000000005,-0.05374648220147808,-0.0,-1.4922054388689054
7.11,-0.05254674846287166,-0.0,-1.4579223841548334
7.12,-0.051373857238849956,-0.0,-1.4244322380535908
7.13,-0.05022720352128032,-0.0,-1.391716423343242
7.140000000000001,-0.04910619617572649,-0.0,-1.3597568088625416
7.15,-0.0480102576118914,-0.0,-1.328535698312366
7.16,-0.046938823462407395,-0.0,-1.298035819360102
7.17,-0.045891342269739926,-0.0,-1.2682403130378475
7.18,-0.044867275180978085,-0.0,-1.239132723425585
7.19,-0.04386609565029276,-0.0,-1.2106969876108067
7.2,-0.04288728914885007,-0.0,-1.1829174259163486
7.21,-0.04193035288197447,-0.0,-1.1557787323884785
7.22,-0.04099479551336218,-0.0,-1.1292659655375519
7.23,-0.040080136896152106,-0.0,-1.1033645393238058
7.24,-0.03918590781066733,-0.0,-1.0780602143811115
7.25,-0.03831164970864574,-0.0,-1.053339089471748
7.26,-0.037456914463784435,-0.0,-1.0291875931654817
7.2700000000000005,-0.03662126412842754,-0.0,-1.0055924757364714
7.28,-0.03580427069623242,-0.0,-0.9825408012717142
7.29,-0.03500551587065423,-0.0,-0.9600199399849723
7.3,-0.03422459083909373,-0.0,-0.9380175607302984
7.3100000000000005,-0.03346109605255764,-0.0,-0.916521623709484
7.32,-0.0327146410106856,-0.0,-0.8955203733679278
7.33,-0.031984844052002165,-0.0,-0.875002331473601
7.34,-0.03127133214925615,-0.0,-0.8549562903739564
7.3500000000000005,-0.030573740709714144,-0.0,-0.8353713064257912
7.36,-0.02989171338027843,-0.0,-0.8162366935932305
7.37,-0.029224901857303913,-0.0,-0.7975420172091514
7.38,-0.02857296570099179,-0.0,-0.7792770878955145
7.390000000000001,-0.02793557215424152,-0.0,-0.7614319556382081
7.4,-0.027312395965846132,-0.0,-0.7439969040121498
7.41,-0.02670311921791889,-0.0,-0.7269624445525215
7.42,-0.02610743115744299,-0.0,-0.7103193112681355
7.43,-0.02552502803183862,-0.0,-0.694058455293061
7.44,-0.02495561292844506,-0.0,-0.6781710396727471
7.45,-0.02439889561781814,-0.0,-0.6626484342810028
7.46,-0.02385459240074636,-0.0,-0.6474822108642977
7.47,-0.02332242595889158,-0.0,-0.6326641382099547
7.48,-0.022802125208962895,-0.0,-0.6181861774349122
7.49,-0.02229342516033474,-0.0,-0.6040404773918256
7.5,-0.021796066776022933,-0.0,-0.590219370189381
7.51,-0.02130979683693445,-0.0,-0.5767153668237808
7.5200000000000005,-0.020834367809309435,-0.0,-0.5635211529184543
7.53,-0.020369537715275755,-0.0,-0.5506295845691287
7.54,-0.01991507000643894,-0.0,-0.5380336842914849
7.55,-0.019470733440432236,-0.0,-0.5257266370686967
7.5600000000000005,-0.019036301960353632,-0.0,-0.5137017864962364
7.57,-0.01861155457701864,-0.0,-0.5019526310214011
7.58,-0.0181962752539596,-0.0,-0.49047282027508904
7.59,-0.017790252795104062,-0.0,-0.479256151493425
7.6000000000000005,-0.01739328073506663,-0.0,-0.4682965660269033
7.61,-0.0170051572319904,-0.0,-0.4575881459347825
7.62,-0.016625684962875864,-0.0,-0.4471251106625297
7.63,-0.01625467102133665,-0.0,-0.4369018138001755
7.640000000000001,-0.015891937044826727,-0.0,-0.4269130702477969
7.65,-0.015537297997125239,-0.0,-0.41715346988893887
7.66,-0.01519057276756394,-0.0,-0.40761772120569706
7.67,-0.014851584328845433,-0.0,-0.3983006564526035
7.68,-0.014520159643333938,-0.0,-0.3891972286904213
7.69,-0.014196129571574874,-0.0,-0.3803025088942079
7.7,-0.013879328782986654,-0.0,-0.3716116831336489
7.71,-0.013569595668669839,-0.0,-0.3631200498237206
7.72,-0.013266772256280097,-0.0,-0.3548230170437975
7.73,-0.012970704126913226,-0.0,-0.3467160999233822
7.74,-0.012681240333951559,-0.0,-0.3387949180926793
7.75,-0.01239823332382284,-0.0,-0.33105519319629895
7.76,-0.012121538858623652,-0.0,-0.32349274646841514
7.7700000000000005,-0.0118510159405611,-0.0,-0.3161034963677599
7.78,-0.01158652673816753,-0.0,-0.308883456270881
7.79,-0.01132793651424431,-0.0,-0.3018287322221308
7.8,-0.011075113555491966,-0.0,-0.2949355207389055
7.8100000000000005,-0.010827929103785057,-0.0,-0.28820010667069174
7.82,-0.01058625728905134,-0.0,-0.28161886111052115
7.83,-0.010349975063715777,-0.0,-0.2751882393574714
7.84,-0.0101189621386711,-0.0,-0.2689047789288933
7.8500000000000005,-0.009893100920737587,-0.0,-0.2627650976210792
7.86,-0.009672276451575701,-0.0,-0.25676589161712454
7.87,-0.009456376348016285,-0.0,-0.2509039336407707
7.88,-0.009245290743773796,-0.0,-0.24517607115504897
7.890000000000001,-0.009038912232509104,-0.0,-0.2395792246045806
7.9,-0.008837135812209178,-0.0,-0.23411038570041834
7.91,-0.008639858830851867,-0.0,-0.22876661574634669
7.92,-0.008446980933324777,-0.0,-0.22354504400558703
7.930000000000001,-0.008258404009568105,-0.0,-0.2184428661068838
7.94,-0.008074032143912026,-0.0,-0.2134573424889752
7.95,-0.00789377156557998,-0.0,-0.2085857968824797
7.96,-0.007717530600329988,-0.0,-0.20382561482825565
7.97,-0.007545219623206806,-0.0,-0.19917424223131713
7.98,-0.007376751012378421,-0.0,-0.19462918394941378
7.99,-0.007212039104031086,-0.0,-0.19018800241540698
8.0,-0.007051000148297726,-0.0,-0.1858483162925972
8.01,-0.006893552266195214,-0.0,-0.181607799162181
8.02,-0.006739615407546587,-0.0,-0.17746417824203728
8.03,-0.006589111309864941,-0.0,-0.1734152331360645
8.040000000000001,-0.006441963458176257,-0.0,-0.16945879461331045
8.05,-0.006298097045759048,-0.0,-0.16559274341615737
8.06,-0.006157438935779215,-0.0,-0.1618150090968433
8.07,-0.006019919143372888,-0.0,-0.15812361580636344
8.08,-0.005885467756257151,-0.0,-0.15451658708756413
8.09,-0.005754016288690709,-0.0,-0.15099198785553772
8.1,-0.005625497788247127,-0.0,-0.14754792772550263
8.11,-0.0054998468011848555,-0.0,-0.1441825599660671
8.120000000000001,-0.005376999338614817,-0.0,-0.14089408047764027
8.13,-0.005256892843446454,-0.0,-0.13768072679535803
8.14,-0.0051394661580936325,-0.0,-0.13454077711590823
8.15,-0.005024659492922275,-0.0,-0.1314725493476567
8.16,-0.004912414395422059,-0.0,-0.12847440018349168
8.17,-0.004802673720084961,-0.0,-0.12554472419581922
8.18,-0.004695381598973856,-0.0,-0.12268195295315833
8.19,-0.004590483412964838,-0.0,-0.1198845541577987
8.2,-0.004487925763647291,-0.0,-0.11715103080399823
8.21,-0.0043876564458661844,-0.0,-0.11447992035621153
8.22,-0.004289624420891428,-0.0,-0.11186979394685408
8.23,-0.004193779790199525,-0.0,-0.10931925559311984
8.24,-0.004100073769853092,-0.0,-0.10682694143238242
8.25,-0.004008458665464237,-0.0,-0.10439151897572305
8.26,-0.003918887847728055,-0.0,-0.10201168637913925
8.27,-0.0038313157285129015,-0.0,-0.09968617173200149
8.28,-0.003745697737494428,-0.0,-0.09741373236233458
8.290000000000001,-0.00366199029932064,-0.0,-0.09519315415851302
8.3,-0.0035801508112956073,-0.0,-0.0930232509069691
8.31,-0.003500137621569729,-0.0,-0.0909028636455237
8.32,-0.0034219100078247454,-0.0,-0.08883086003195914
8.33,-0.00334542815644201,-0.0,-0.08680613372746382
8.34,-0.0032706531421427838,-0.0,-0.08482760379458738
8.35,-0.0031975469080895978,-0.0,-0.08289421410935481
8.36,-0.0031260722464380017,-0.0,-0.08100493278719627
8.370000000000001,-0.003056192779328271,-0.0,-0.07915875162235911
8.38,-0.0029878729403068926,-0.0,-0.07735468554047609
8.39,-0.002921077956167901,-0.0,-0.07559177206397248
8.4,-0.002855773829204379,-0.0,-0.07386907079000304
8.41,-0.0027919273198606536,-0.0,-0.0721856628806171
8.42,-0.0027295059297759755,-0.0,-0.07054065056485795
8.43,-0.002668477885210651,-0.0,-0.06893315665251015
8.44,-0.002608812120845851,-0.0,-0.06736232405921534
8.45,-0.002550478263948503,-0.0,-0.06582731534268423
8.46,-0.00249344661889289,-0.0,-0.06432731224973952
8.47,-0.0024376881520307807,-0.0,-0.06286151527393054
8.48,-0.0023831744769020977,-0.0,-0.06142914322346753
8.49,-0.002329877839778337,-0.0,-0.060029432799229225
8.5,-0.0022777711055311186,-0.0,-0.05866163818260376
8.51,-0.0022268277438184476,-0.0,-0.05732503063292892
8.52,-0.0021770218155814213,-0.0,-0.05601889809430329
8.53,-0.0021283279598443045,-0.0,-0.054742544811545904
8.540000000000001,-0.002080721380811049,-0.0,-0.053495290955086955
8.55,-0.002034177835251511,-0.0,-0.052276472254577995
8.56,-0.001988673620170759,-0.0,-0.051085439641014835
8.57,-0.0019441855607550437,-0.0,-0.04992155889717183
8.58,-0.0019006909985881258,-0.0,-0.048784210316150725
8.59,-0.001858167780131831,-0.0,-0.047672788367852485
8.6,-0.001816594245464821,-0.0,-0.04658670137318482
8.61,-0.0017759492172737252,-0.0,-0.045525371185823005
8.620000000000001,-0.0017362119900909145,-0.0,-0.04448823288134588
8.63,-0.001697362319773314,-0.0,-0.0434747344535732
8.64,-0.0016593804132168084,-0.0,-0.04248433651793491
8.65,-0.0016222469183008962,-0.0,-0.041516512021706815
8.66,-0.001585942914058386,-0.0,-0.04057074596095129
8.67,-0.0015504499010650491,-0.0,-0.03964653510400548
8.68,-0.0015157497920442484,-0.0,-0.038743387721363313
8.69,-0.0014818249162751116,-0.0,-0.03786082371897723
8.700000000000001,-0.0014486579829924512,-0.0,-0.036998373572509576
8.71,-0.0014162320858731917,-0.0,-0.03615557846414803
8.72,-0.001384530695287726,-0.0,-0.035331990061004084
8.73,-0.001353537649904993,-0.0,-0.034527170274664364
8.74,-0.00132323714848521,-0.0,-0.03374069102629409
8.75,-0.0012936137418560257,-0.0,-0.03297213401716294
8.76,-0.0012646523250679645,-0.0,-0.03222109050446643
8.77,-0.0012363381297251183,-0.0,-0.03148716108231898
8.78,-0.0012086567164871402,-0.0,-0.03076995546779807
8.790000000000001,-0.0011815939677386885,-0.0,-0.030069092291921354
8.8,-0.0011551360804225447,-0.0,-0.029384198895441756
8.81,-0.0011292695590327335,-0.0,-0.02871491112934818
8.82,-0.0011039812087640403,-0.0,-0.02806087315996215
8.83,-0.0010792581288144162,-0.0,-0.027421737278523324
8.84,-0.0010550877058368318,-0.0,-0.02679716371515936
8.85,-0.0010314576075372286,-0.0,-0.026186820457138132
8.86,-0.001008355776415282,-0.0,-0.02559038307130264
8.870000000000001,-0.0009857704236447755,-0.0,-0.02500753453059143
8.88,-0.0009636900230904537,-0.0,-0.024437965044549526
8.89,-0.0009421033054582912,-0.0,-0.023881371893737232
8.9,-0.0009209992525761873,-0.0,-0.02333745926794626
8.91,-0.0009003670918021641,-0.0,-0.022805938108134884
8.92,-0.0008801962905572104,-0.0,-0.022286525951995775
8.93,-0.0008604765509799796,-0.0,-0.02177894678307233
8.94,-0.0008411978047006124,-0.0,-0.02128293088334128
8.950000000000001,-0.0008223502077310183,-0.0,-0.02079821468918116
8.96,-0.0008039241354690103,-0.0,-0.02032454065064832
8.97,-0.000785910177813742,-0.0,-0.019861657093983878
8.98,-0.0007682991343899618,-0.0,-0.019409318087276813
8.99,-0.0007643756972032482,-0.0,-0.01896837967496717
9.0,-0.0007605249437885876,-0.0,-0.01853879446783799
