# uptake constraint 
# the columns are: t and the constraint for each substrate metabolites
# the compounds are: galactose, glucose, thiosulfate, butyrate, Fprau, Styphi,  
# the nominal flux is: -5.0, -5.0, -5.0, -5.0, -5.0, -5.0,  
# the initial concentration are: 89.0, 89.0, 51.0, 31.0, 0.20240459312571835, 0.7348931623102908,  

t,galactose,glucose,thiosulfate
0.0,-5.0,-5.0,-5.0
0.01,-5.0,-5.0,-5.0
0.02,-5.0,-5.0,-5.0
0.03,-5.0,-5.0,-5.0
0.04,-5.0,-5.0,-5.0
0.05,-5.0,-5.0,-5.0
0.06,-5.0,-5.0,-5.0
0.07,-5.0,-5.0,-5.0
0.08,-5.0,-5.0,-5.0
0.09,-5.0,-5.0,-5.0
0.1,-5.0,-5.0,-5.0
0.11,-5.0,-5.0,-5.0
0.12,-5.0,-5.0,-5.0
0.13,-5.0,-5.0,-5.0
0.14,-5.0,-5.0,-5.0
0.15,-5.0,-5.0,-5.0
0.16,-5.0,-5.0,-5.0
0.17,-5.0,-5.0,-5.0
0.18,-5.0,-5.0,-5.0
0.19,-5.0,-5.0,-5.0
0.2,-5.0,-5.0,-5.0
0.21,-5.0,-5.0,-5.0
0.22,-5.0,-5.0,-5.0
0.23,-5.0,-5.0,-5.0
0.24,-5.0,-5.0,-5.0
0.25,-5.0,-5.0,-5.0
0.26,-5.0,-5.0,-5.0
0.27,-5.0,-5.0,-5.0
0.28,-5.0,-5.0,-5.0
0.29,-5.0,-5.0,-5.0
0.3,-5.0,-5.0,-5.0
0.31,-5.0,-5.0,-5.0
0.32,-5.0,-5.0,-5.0
0.33,-5.0,-5.0,-5.0
0.34,-5.0,-5.0,-5.0
0.35000000000000003,-5.0,-5.0,-5.0
0.36,-5.0,-5.0,-5.0
0.37,-5.0,-5.0,-5.0
0.38,-5.0,-5.0,-5.0
0.39,-5.0,-5.0,-5.0
0.4,-5.0,-5.0,-5.0
0.41000000000000003,-5.0,-5.0,-5.0
0.42,-5.0,-5.0,-5.0
0.43,-5.0,-5.0,-5.0
0.44,-5.0,-5.0,-5.0
0.45,-5.0,-5.0,-5.0
0.46,-5.0,-5.0,-5.0
0.47000000000000003,-5.0,-5.0,-5.0
0.48,-5.0,-5.0,-5.0
0.49,-5.0,-5.0,-5.0
0.5,-5.0,-5.0,-5.0
0.51,-5.0,-5.0,-5.0
0.52,-5.0,-5.0,-5.0
0.53,-5.0,-5.0,-5.0
0.54,-5.0,-5.0,-5.0
0.55,-5.0,-5.0,-5.0
0.56,-5.0,-5.0,-5.0
0.5700000000000001,-5.0,-5.0,-5.0
0.58,-5.0,-5.0,-5.0
0.59,-5.0,-5.0,-5.0
0.6,-5.0,-5.0,-5.0
0.61,-5.0,-5.0,-5.0
0.62,-5.0,-5.0,-5.0
0.63,-5.0,-5.0,-5.0
0.64,-5.0,-5.0,-5.0
0.65,-5.0,-5.0,-5.0
0.66,-5.0,-5.0,-5.0
0.67,-5.0,-5.0,-5.0
0.68,-5.0,-5.0,-5.0
0.6900000000000001,-5.0,-5.0,-5.0
0.7000000000000001,-5.0,-5.0,-5.0
0.71,-5.0,-5.0,-5.0
0.72,-5.0,-5.0,-5.0
0.73,-5.0,-5.0,-5.0
0.74,-5.0,-5.0,-5.0
0.75,-5.0,-5.0,-5.0
0.76,-5.0,-5.0,-5.0
0.77,-5.0,-5.0,-5.0
0.78,-5.0,-5.0,-5.0
0.79,-5.0,-5.0,-5.0
0.8,-5.0,-5.0,-5.0
0.81,-5.0,-5.0,-5.0
0.8200000000000001,-5.0,-5.0,-5.0
0.8300000000000001,-5.0,-5.0,-5.0
0.84,-5.0,-5.0,-5.0
0.85,-5.0,-5.0,-5.0
0.86,-5.0,-5.0,-5.0
0.87,-5.0,-5.0,-5.0
0.88,-5.0,-5.0,-5.0
0.89,-5.0,-5.0,-5.0
0.9,-5.0,-5.0,-5.0
0.91,-5.0,-5.0,-5.0
0.92,-5.0,-5.0,-5.0
0.93,-5.0,-5.0,-5.0
0.9400000000000001,-5.0,-5.0,-5.0
0.9500000000000001,-5.0,-5.0,-5.0
0.96,-5.0,-5.0,-5.0
0.97,-5.0,-5.0,-5.0
0.98,-5.0,-5.0,-5.0
0.99,-5.0,-5.0,-5.0
1.0,-5.0,-5.0,-5.0
1.01,-5.0,-5.0,-5.0
1.02,-5.0,-5.0,-5.0
1.03,-5.0,-5.0,-5.0
1.04,-5.0,-5.0,-5.0
1.05,-5.0,-5.0,-5.0
1.06,-5.0,-5.0,-5.0
1.07,-5.0,-5.0,-5.0
1.08,-5.0,-5.0,-5.0
1.09,-5.0,-5.0,-5.0
1.1,-5.0,-5.0,-5.0
1.11,-5.0,-5.0,-5.0
1.12,-5.0,-5.0,-5.0
1.1300000000000001,-5.0,-5.0,-5.0
1.1400000000000001,-5.0,-5.0,-5.0
1.1500000000000001,-5.0,-5.0,-5.0
1.16,-5.0,-5.0,-5.0
1.17,-5.0,-5.0,-5.0
1.18,-5.0,-5.0,-5.0
1.19,-5.0,-5.0,-5.0
1.2,-5.0,-5.0,-5.0
1.21,-5.0,-5.0,-5.0
1.22,-5.0,-5.0,-5.0
1.23,-5.0,-5.0,-5.0
1.24,-5.0,-5.0,-5.0
1.25,-5.0,-5.0,-5.0
1.26,-5.0,-5.0,-5.0
1.27,-5.0,-5.0,-5.0
1.28,-5.0,-5.0,-5.0
1.29,-5.0,-5.0,-5.0
1.3,-5.0,-5.0,-5.0
1.31,-5.0,-5.0,-5.0
1.32,-5.0,-5.0,-5.0
1.33,-5.0,-5.0,-5.0
1.34,-5.0,-5.0,-5.0
1.35,-5.0,-5.0,-5.0
1.36,-5.0,-5.0,-5.0
1.37,-5.0,-5.0,-5.0
1.3800000000000001,-5.0,-5.0,-5.0
1.3900000000000001,-5.0,-5.0,-5.0
1.4000000000000001,-5.0,-5.0,-5.0
1.41,-5.0,-5.0,-5.0
1.42,-5.0,-5.0,-5.0
1.43,-5.0,-5.0,-5.0
1.44,-5.0,-5.0,-5.0
1.45,-5.0,-5.0,-5.0
1.46,-5.0,-5.0,-5.0
1.47,-5.0,-5.0,-5.0
1.48,-5.0,-5.0,-5.0
1.49,-5.0,-5.0,-5.0
1.5,-5.0,-5.0,-5.0
1.51,-5.0,-5.0,-5.0
1.52,-5.0,-5.0,-5.0
1.53,-5.0,-5.0,-5.0
1.54,-5.0,-5.0,-5.0
1.55,-5.0,-5.0,-5.0
1.56,-5.0,-5.0,-5.0
1.57,-5.0,-5.0,-5.0
1.58,-5.0,-5.0,-5.0
1.59,-5.0,-5.0,-5.0
1.6,-5.0,-5.0,-5.0
1.61,-5.0,-5.0,-5.0
1.62,-5.0,-5.0,-5.0
1.6300000000000001,-5.0,-5.0,-5.0
1.6400000000000001,-5.0,-5.0,-5.0
1.6500000000000001,-5.0,-5.0,-5.0
1.6600000000000001,-5.0,-5.0,-5.0
1.67,-5.0,-5.0,-5.0
1.68,-5.0,-5.0,-5.0
1.69,-5.0,-5.0,-5.0
1.7,-5.0,-5.0,-5.0
1.71,-5.0,-5.0,-5.0
1.72,-5.0,-5.0,-5.0
1.73,-5.0,-5.0,-5.0
1.74,-5.0,-5.0,-5.0
1.75,-5.0,-5.0,-5.0
1.76,-5.0,-5.0,-5.0
1.77,-5.0,-5.0,-5.0
1.78,-5.0,-5.0,-5.0
1.79,-5.0,-5.0,-5.0
1.8,-5.0,-5.0,-5.0
1.81,-5.0,-5.0,-5.0
1.82,-5.0,-5.0,-5.0
1.83,-5.0,-5.0,-5.0
1.84,-5.0,-5.0,-5.0
1.85,-5.0,-5.0,-5.0
1.86,-5.0,-5.0,-5.0
1.87,-5.0,-5.0,-5.0
1.8800000000000001,-5.0,-5.0,-5.0
1.8900000000000001,-5.0,-5.0,-5.0
1.9000000000000001,-5.0,-5.0,-5.0
1.9100000000000001,-5.0,-5.0,-5.0
1.92,-5.0,-5.0,-5.0
1.93,-5.0,-5.0,-5.0
1.94,-5.0,-5.0,-5.0
1.95,-5.0,-5.0,-5.0
1.96,-5.0,-5.0,-5.0
1.97,-5.0,-5.0,-5.0
1.98,-5.0,-5.0,-5.0
1.99,-5.0,-5.0,-5.0
2.0,-5.0,-5.0,-5.0
2.0100000000000002,-5.0,-5.0,-5.0
2.02,-5.0,-5.0,-5.0
2.0300000000000002,-5.0,-5.0,-5.0
2.04,-5.0,-5.0,-5.0
2.05,-5.0,-5.0,-5.0
2.06,-5.0,-5.0,-5.0
2.07,-5.0,-5.0,-5.0
2.08,-5.0,-5.0,-5.0
2.09,-5.0,-5.0,-5.0
2.1,-5.0,-5.0,-5.0
2.11,-5.0,-5.0,-5.0
2.12,-5.0,-5.0,-5.0
2.13,-5.0,-5.0,-5.0
2.14,-5.0,-5.0,-5.0
2.15,-5.0,-5.0,-5.0
2.16,-5.0,-5.0,-5.0
2.17,-5.0,-5.0,-5.0
2.18,-5.0,-5.0,-5.0
2.19,-5.0,-5.0,-5.0
2.2,-5.0,-5.0,-5.0
2.21,-5.0,-5.0,-5.0
2.22,-5.0,-5.0,-5.0
2.23,-5.0,-5.0,-5.0
2.24,-5.0,-5.0,-5.0
2.25,-5.0,-5.0,-5.0
2.2600000000000002,-5.0,-5.0,-5.0
2.27,-5.0,-5.0,-5.0
2.2800000000000002,-5.0,-5.0,-5.0
2.29,-5.0,-5.0,-5.0
2.3000000000000003,-5.0,-5.0,-5.0
2.31,-5.0,-5.0,-5.0
2.32,-5.0,-5.0,-5.0
2.33,-5.0,-5.0,-5.0
2.34,-5.0,-5.0,-5.0
2.35,-5.0,-5.0,-5.0
2.36,-5.0,-5.0,-5.0
2.37,-5.0,-5.0,-5.0
2.38,-5.0,-5.0,-5.0
2.39,-5.0,-5.0,-5.0
2.4,-5.0,-5.0,-5.0
2.41,-5.0,-5.0,-5.0
2.42,-5.0,-5.0,-5.0
2.43,-5.0,-5.0,-5.0
2.44,-5.0,-5.0,-5.0
2.45,-5.0,-5.0,-5.0
2.46,-5.0,-5.0,-5.0
2.47,-5.0,-5.0,-5.0
2.48,-5.0,-5.0,-5.0
2.49,-5.0,-5.0,-5.0
2.5,-5.0,-5.0,-5.0
2.5100000000000002,-5.0,-5.0,-5.0
2.52,-5.0,-5.0,-5.0
2.5300000000000002,-5.0,-5.0,-5.0
2.54,-5.0,-5.0,-5.0
2.5500000000000003,-5.0,-5.0,-5.0
2.56,-5.0,-5.0,-5.0
2.57,-5.0,-5.0,-5.0
2.58,-5.0,-5.0,-5.0
2.59,-5.0,-5.0,-5.0
2.6,-5.0,-5.0,-5.0
2.61,-5.0,-5.0,-5.0
2.62,-5.0,-5.0,-5.0
2.63,-5.0,-5.0,-5.0
2.64,-5.0,-5.0,-5.0
2.65,-5.0,-5.0,-5.0
2.66,-5.0,-5.0,-5.0
2.67,-5.0,-5.0,-5.0
2.68,-5.0,-5.0,-5.0
2.69,-5.0,-5.0,-5.0
2.7,-5.0,-5.0,-5.0
2.71,-5.0,-5.0,-5.0
2.72,-5.0,-5.0,-5.0
2.73,-5.0,-5.0,-5.0
2.74,-5.0,-5.0,-5.0
2.75,-5.0,-5.0,-5.0
2.7600000000000002,-5.0,-5.0,-5.0
2.77,-5.0,-5.0,-5.0
2.7800000000000002,-5.0,-5.0,-5.0
2.79,-5.0,-5.0,-5.0
2.8000000000000003,-5.0,-5.0,-5.0
2.81,-5.0,-5.0,-5.0
2.82,-5.0,-5.0,-5.0
2.83,-5.0,-5.0,-5.0
2.84,-5.0,-5.0,-5.0
2.85,-5.0,-5.0,-5.0
2.86,-5.0,-5.0,-5.0
2.87,-5.0,-5.0,-5.0
2.88,-5.0,-5.0,-5.0
2.89,-5.0,-5.0,-5.0
2.9,-5.0,-5.0,-5.0
2.91,-5.0,-5.0,-5.0
2.92,-5.0,-5.0,-5.0
2.93,-5.0,-5.0,-5.0
2.94,-5.0,-5.0,-5.0
2.95,-5.0,-5.0,-5.0
2.96,-5.0,-5.0,-5.0
2.97,-5.0,-5.0,-5.0
2.98,-5.0,-5.0,-5.0
2.99,-5.0,-5.0,-5.0
3.0,-5.0,-5.0,-5.0
3.0100000000000002,-5.0,-5.0,-5.0
3.02,-5.0,-5.0,-5.0
3.0300000000000002,-5.0,-5.0,-5.0
3.04,-5.0,-5.0,-5.0
3.0500000000000003,-5.0,-5.0,-5.0
3.06,-5.0,-5.0,-5.0
3.0700000000000003,-5.0,-5.0,-5.0
3.08,-5.0,-5.0,-5.0
3.09,-5.0,-5.0,-5.0
3.1,-5.0,-5.0,-5.0
3.11,-5.0,-5.0,-5.0
3.12,-5.0,-5.0,-5.0
3.13,-5.0,-5.0,-5.0
3.14,-5.0,-5.0,-4.922754336957748
3.15,-5.0,-5.0,-4.795155012922829
3.16,-5.0,-5.0,-4.670901797833298
3.17,-5.0,-5.0,-4.549904966346984
3.18,-5.0,-5.0,-4.432077300202096
3.19,-5.0,-5.0,-4.317334013026633
3.2,-5.0,-5.0,-4.205592677659918
3.21,-5.0,-5.0,-4.096773155889803
3.22,-5.0,-5.0,-3.990797530513483
3.23,-5.0,-5.0,-3.8875900396338396
3.24,-5.0,-5.0,-3.7870770131071234
3.25,-5.0,-5.0,-3.6891868110614507
3.2600000000000002,-5.0,-5.0,-3.5938497644090672
3.27,-5.0,-5.0,-3.500998117278643
3.2800000000000002,-5.0,-5.0,-3.410565971297012
3.29,-5.0,-5.0,-3.322489231652777
3.3000000000000003,-5.0,-5.0,-3.236705554877032
3.31,-5.0,-5.0,-3.1531542982791825
3.3200000000000003,-5.0,-5.0,-3.0717764709784237
3.33,-5.0,-5.0,-2.9925146864739016
3.34,-5.0,-5.0,-2.915313116698911
3.35,-5.0,-5.0,-2.84011744750674
3.36,-5.0,-5.0,-2.7668748355378874
3.37,-5.0,-5.0,-2.6955338664204063
3.38,-5.0,-5.0,-2.6260445142570785
3.39,-5.0,-5.0,-2.5583581023549584
3.4,-5.0,-5.0,-2.4924272651545905
3.41,-5.0,-5.0,-2.4282059113178986
3.42,-5.0,-5.0,-2.3656491879353396
3.43,-5.0,-5.0,-2.30471344581445
3.44,-5.0,-5.0,-2.2453562058133913
3.45,-5.0,-5.0,-2.18753612618449
3.46,-5.0,-5.0,-2.1312129708941114
3.47,-5.0,-5.0,-2.0763475788864905
3.48,-5.0,-5.0,-2.0229018342603604
3.49,-5.0,-5.0,-1.9708386373284033
3.5,-5.0,-5.0,-1.9201218765306498
3.5100000000000002,-5.0,-5.0,-1.8707164011740511
3.52,-5.0,-5.0,-1.8225879949714543
3.5300000000000002,-5.0,-5.0,-1.7757033503542057
3.54,-5.0,-5.0,-1.7300300435335478
3.5500000000000003,-5.0,-5.0,-1.6855365102868773
3.56,-5.0,-5.0,-1.6421920224457982
3.5700000000000003,-5.0,-5.0,-1.5999666650637308
3.58,-5.0,-5.0,-1.5588313142416377
3.59,-5.0,-5.0,-1.518757615591184
3.6,-5.0,-5.0,-1.4797179633153874
3.61,-5.0,-5.0,-1.4416854798875127
3.62,-5.0,-5.0,-1.4046339963096337
3.63,-5.0,-5.0,-1.3685380329329473
3.64,-5.0,-5.0,-1.3333727808225264
3.65,-5.0,-5.0,-1.299114083649811
3.66,-5.0,-5.0,-1.2657384200967
3.67,-5.0,-5.0,-1.2332228867556627
3.68,-5.0,-5.0,-1.2015451815108127
3.69,-5.0,-5.0,-1.1706835873854005
3.7,-5.0,-5.0,-1.1406169568416678
3.71,-5.0,-5.0,-1.1113246965194774
3.72,-5.0,-5.0,-1.082786752400585
3.73,-5.0,-5.0,-1.0549835953858537
3.74,-5.0,-5.0,-1.0278962072731337
3.75,-5.0,-5.0,-1.0015060671239295
3.7600000000000002,-5.0,-5.0,-0.9757951380073674
3.77,-4.999009806540723,-4.999009806540723,-0.950745854110349
3.7800000000000002,-4.8717911499071676,-4.8717911499071676,-0.9263416085666569
3.79,-4.748150112393668,-4.748150112393668,-0.9026278549131094
3.8000000000000003,-4.62796899873911,-4.62796899873911,-0.8795818414839286
3.81,-4.511134845444466,-4.511134845444466,-0.8571817286189461
3.8200000000000003,-4.397539187300426,-4.397539187300426,-0.8354065438866878
3.83,-4.287077837676556,-4.287077837676556,-0.8142361399346567
3.84,-4.1796506816327526,-4.1796506816327526,-0.7936511547881482
3.85,-4.075161480986407,-4.075161480986407,-0.7736329744326897
3.86,-3.973517690534876,-3.973517690534876,-0.7541636975277808
3.87,-3.874630284693595,-3.874630284693595,-0.7352261021111154
3.88,-3.778413593865622,-3.778413593865622,-0.7168036141630141
3.89,-3.684785149909323,-3.684785149909323,-0.6988802779104503
3.9,-3.593665540117559,-3.593665540117559,-0.6814407277589206
3.91,-3.5049782691645714,-3.5049782691645714,-0.6644701617485462
3.92,-3.418649628516112,-3.418649628516112,-0.6479543164382655
3.93,-3.3346085728345494,-3.3346085728345494,-0.6318794431288562
3.94,-3.252786602943946,-3.252786602943946,-0.6162322853418506
3.95,-3.173117654950779,-3.173117654950779,-0.601000057477232
3.96,-3.0955379951441935,-3.0955379951441935,-0.5861704245781759
3.97,-3.0199861203257408,-3.0199861203257408,-0.5717314831360467
3.98,-2.9464026632425706,-2.9464026632425706,-0.557671742873435
3.99,-2.874730302820254,-2.874730302820254,-0.543980109447244
4.0,-2.8049136789119125,-2.8049136789119125,-0.5306458680177344
4.01,-2.7368993112993056,-2.7368993112993056,-0.5176586676330492
4.0200000000000005,-2.6706355226990697,-2.6706355226990697,-0.5050085063820778
4.03,-2.606072365543562,-2.606072365543562,-0.4926857172716171
4.04,-2.5431615523208135,-2.5431615523208135,-0.48068095478665185
4.05,-2.4818563892720626,-2.4818563892720626,-0.468985182095238
4.0600000000000005,-2.4221117132582966,-2.4221117132582966,-0.4575896588619391
4.07,-2.363883831619235,-2.363883831619235,-0.44648592963605765
4.08,-2.307130464859393,-2.307130464859393,-0.43566581278303257
4.09,-2.251810692006197,-2.251810692006197,-0.4251213899293515
4.1,-2.1978848984948343,-2.1978848984948343,-0.41484499589316975
4.11,-2.1453147264434445,-2.1453147264434445,-0.4048292090745376
4.12,-2.094063027190677,-2.094063027190677,-0.3950668422807361
4.13,-2.0440938159753954,-2.0440938159753954,-0.38555093396370554
4.14,-1.9953722286455846,-1.9953722286455846,-0.3762747398479395
4.15,-1.9478644802902982,-1.9478644802902982,-0.3672317249285051
4.16,-1.901537825694786,-1.901537825694786,-0.3584155558200626
4.17,-1.8563605215248526,-1.8563605215248526,-0.3498200934388784
4.18,-1.8123017901520162,-1.8123017901520162,-0.3414393860008806
4.19,-1.7693317850361603,-1.7693317850361603,-0.33326766231979044
4.2,-1.7274215575872256,-1.7274215575872256,-0.3252993253902798
4.21,-1.6865430254319527,-1.6865430254319527,-0.31752894624196926
4.22,-1.6466689420159377,-1.6466689420159377,-0.3099512580508838
4.23,-1.607772867475187,-1.607772867475187,-0.30256115049573956
4.24,-1.5698291407150622,-1.5698291407150622,-0.2953536643471413
4.25,-1.532812852637983,-1.532812852637983,-0.2883239862784331
4.26,-1.4966998204644855,-1.4966998204644855,-0.28146744388756606
4.2700000000000005,-1.4614665630953003,-1.4614665630953003,-0.2747795009199303
4.28,-1.4270902774649692,-1.4270902774649692,-0.2682557526826459
4.29,-1.3935500677073713,-1.3935500677073713,-0.26189217444981866
4.3,-1.360825841099269,-1.360825841099269,-0.2556848982240803
4.3100000000000005,-1.3288964407413757,-1.3288964407413757,-0.24962983606690126
4.32,-1.29774131930847,-1.29774131930847,-0.24372301854016537
4.33,-1.2673405186791826,-1.2673405186791826,-0.23796059073753298
4.34,-1.2376746503722682,-1.2376746503722682,-0.23233880847275865
4.3500000000000005,-1.2087248767519034,-1.2087248767519034,-0.22685403461769088
4.36,-1.1804728929665476,-1.1804728929665476,-0.22150273558306643
4.37,-1.1529009095877711,-1.1529009095877711,-0.21628147793557503
4.38,-1.1259916359172215,-1.1259916359172215,-0.2111869251450112
4.39,-1.099728263931544,-1.099728263931544,-0.20621583445565086
4.4,-1.0740944528366496,-1.0740944528366496,-0.20136505387629394
4.41,-1.0490743142041787,-1.0490743142041787,-0.19663151928369765
4.42,-1.0246527395380531,-1.0246527395380531,-0.19201232027861226
4.43,-1.0008146847798627,-1.0008146847798627,-0.18750455651950443
4.44,-0.9775455037281429,-0.9775455037281429,-0.18310540484082133
4.45,-0.954830950482305,-0.954830950482305,-0.1788121198207203
4.46,-0.9326571670075802,-0.9326571670075802,-0.1746220313560399
4.47,-0.9110106711527121,-0.9110106711527121,-0.17053254232560472
4.48,-0.8898783980837804,-0.8898783980837804,-0.16654113694893088
4.49,-0.8692476317542602,-0.8692476317542602,-0.16264536710306227
4.5,-0.8491059404428168,-0.8491059404428168,-0.1588428394804463
4.51,-0.8294412251635246,-0.8294412251635246,-0.15513122534801171
4.5200000000000005,-0.8102417096390082,-0.8102417096390082,-0.15150825859162095
4.53,-0.791495930625536,-0.791495930625536,-0.14797173382924603
4.54,-0.7731927285755721,-0.7731927285755721,-0.14451950459004204
4.55,-0.7553212386239908,-0.7553212386239908,-0.1411494815566263
4.5600000000000005,-0.7378708818847957,-0.7378708818847957,-0.13785963086799782
4.57,-0.7208313570458104,-0.7208313570458104,-0.13464797248065133
4.58,-0.7041926322493858,-0.7041926322493858,-0.1315125785855541
4.59,-0.687944937247726,-0.687944937247726,-0.1284515720787612
4.6000000000000005,-0.672078755821955,-0.672078755821955,-0.12546312508354698
4.61,-0.6565850502050206,-0.6565850502050206,-0.12254550368215106
4.62,-0.6414553417484404,-0.6414553417484404,-0.11969708391241396
4.63,-0.6266808513432429,-0.6266808513432429,-0.1169161805971328
4.64,-0.6122529318141199,-0.6122529318141199,-0.11420113360462737
4.65,-0.5981631606552263,-0.5981631606552263,-0.1115503263529426
4.66,-0.5844033335493567,-0.5844033335493567,-0.10896218454381489
4.67,-0.570965458102549,-0.570965458102549,-0.1064351749389249
4.68,-0.55784174778574,-0.55784174778574,-0.1039678041767895
4.69,-0.5450246160754745,-0.5450246160754745,-0.10155861762871908
4.7,-0.5325066707860229,-0.5325066707860229,-0.09920619829233708
4.71,-0.5202807085856062,-0.5202807085856062,-0.09690916572122515
4.72,-0.5083397096897452,-0.5083397096897452,-0.0946661749893207
4.73,-0.49667683272506036,-0.49667683272506036,-0.09247591568875417
4.74,-0.48528540975713463,-0.48528540975713463,-0.09033711095987013
4.75,-0.47415894147633425,-0.47415894147633425,-0.08824851655223119
4.76,-0.46329109253574124,-0.46329109253574124,-0.08620891991545541
4.7700000000000005,-0.45267568703560246,-0.45267568703560246,-0.08421713931878673
4.78,-0.4423067041489393,-0.4423067041489393,-0.08227202299834561
4.79,-0.43217827388318825,-0.43217827388318825,-0.08037244833105078
4.8,-0.4222846729729573,-0.4222846729729573,-0.07851732103424636
4.8100000000000005,-0.41262032089919065,-0.41262032089919065,-0.07670557439010818
4.82,-0.4031797760302284,-0.4031797760302284,-0.07493616849394254
4.83,-0.39395773188043515,-0.39395773188043515,-0.07320808952552665
4.84,-0.3849490134822488,-0.3849490134822488,-0.07152034904267547
4.8500000000000005,-0.37614857386767236,-0.37614857386767236,-0.06987198329625265
4.86,-0.3675514906553891,-0.3675514906553891,-0.06826205256587549
4.87,-0.3591529627398409,-0.3591529627398409,-0.06668964051559394
4.88,-0.3509483070787516,-0.3509483070787516,-0.06515385356885248
4.89,-0.3429329555757222,-0.3429329555757222,-0.06365382030207178
4.9,-0.33510245205465555,-0.33510245205465555,-0.06218869085621311
4.91,-0.3274524493228972,-0.3274524493228972,-0.06075763636571342
4.92,-0.3199787063201023,-0.3199787063201023,-0.05935984840420389
4.93,-0.31267708534995364,-0.31267708534995364,-0.05799453844644678
4.94,-0.3055435493919692,-0.3055435493919692,-0.056660937345947876
4.95,-0.29857415949074145,-0.29857415949074145,-0.05535829482772288
4.96,-0.2917650722200571,-0.2917650722200571,-0.05408587899571573
4.97,-0.28511253721943886,-0.28511253721943886,-0.05284297585438654
4.98,-0.2786128948007464,-0.2786128948007464,-0.05162888884400473
4.99,-0.2722625736225639,-0.2722625736225639,-0.050442938389200796
5.0,-0.2660580884301833,-0.2660580884301833,-0.04928446146034678
5.01,-0.25999603785907893,-0.25999603785907893,-0.048152811147351704
5.0200000000000005,-0.25407310229984276,-0.25407310229984276,-0.04704735624547338
5.03,-0.24828604182262803,-0.24828604182262803,-0.045967480852763205
5.04,-0.24263169415921834,-0.24263169415921834,-0.04491258397877404
5.05,-0.23710697274090958,-0.23710697274090958,-0.04388207916417535
5.0600000000000005,-0.23170886479045694,-0.23170886479045694,-0.042875394110932455
5.07,-0.22643442946640288,-0.22643442946640288,-0.04189197032271914
5.08,-0.22128079605816217,-0.22128079605816217,-0.04093126275524491
5.09,-0.21624516357966325,-0.21624516357966325,-0.039992739740085256
5.1000000000000005,-0.2113247971544449,-0.2113247971544449,-0.039075882280670445
5.11,-0.20651702592234697,-0.20651702592234697,-0.03818018364642134
5.12,-0.20181924242388746,-0.20181924242388746,-0.037305149255740314
5.13,-0.19722890102605417,-0.19722890102605417,-0.03645029637137737
5.14,-0.1927435163902842,-0.1927435163902842,-0.035615153804029305
5.15,-0.18836066198136614,-0.18836066198136614,-0.03479926162392338
5.16,-0.1840779686160421,-0.1840779686160421,-0.034002170880146045
5.17,-0.17989312305013047,-0.17989312305013047,-0.033223443327484684
5.18,-0.1758038666030285,-0.1758038666030285,-0.0324626511605593
5.19,-0.17180799381849446,-0.17180799381849446,-0.0317193767550276
5.2,-0.16790335116064406,-0.16790335116064406,-0.03099321241565517
5.21,-0.16408783574413366,-0.16408783574413366,-0.030283760131048654
5.22,-0.16035939409753575,-0.16035939409753575,-0.02959063133485731
5.23,-0.1567160209589456,-0.1567160209589456,-0.028913446673254243
5.24,-0.15315575810288973,-0.15315575810288973,-0.028251835778515193
5.25,-0.14967669319763752,-0.14967669319763752,-0.02760543704851868
5.26,-0.14627695869204652,-0.14627695869204652,-0.026973897431996977
5.2700000000000005,-0.1429547307311,-0.1429547307311,-0.02635687221937317
5.28,-0.13970822809932337,-0.13970822809932337,-0.025754024839024666
5.29,-0.13653571119129174,-0.13653571119129174,-0.025165026658818875
5.3,-0.13343548100846547,-0.13343548100846547,-0.024589556792771628
5.3100000000000005,-0.13040587818161678,-0.13040587818161678,-0.02402730191268372
5.32,-0.1274452820181317,-0.1274452820181317,-0.02347795606461564
5.33,-0.12455210957349615,-0.12455210957349615,-0.02294122049006477
5.34,-0.1217248147462949,-0.1217248147462949,-0.022416803451713957
5.3500000000000005,-0.11896188739607508,-0.11896188739607508,-0.021904420063624166
5.36,-0.11626185248344424,-0.11626185248344424,-0.021403792125748035
5.37,-0.11362326923179379,-0.11362326923179379,-0.020914647962645045
5.38,-0.11104473031005696,-0.11104473031005696,-0.020436722266282598
5.39,-0.10852486103592847,-0.10852486103592847,-0.0199697559428109
5.4,-0.10743168878559549,-0.10691023625076235,-0.01951429812121181
5.41,-0.1050054397088871,-0.10648044734026667,-0.01907064757591665
5.42,-0.10397070095335052,-0.10605996507639764,-0.018638434708013227
5.43,-0.1029611314465355,-0.10564849875071368,-0.01821730436104144
5.44,-0.10197596302132095,-0.10524577078535788,-0.017806915124414707
5.45,-0.10101445660989464,-0.10485151416920224,-0.01740693867692628
5.46,-0.10007590088632642,-0.10446547196469579,-0.017017059167672106
5.47,-0.09915961098467305,-0.10408739684214446,-0.016636972631922806
5.48,-0.09826492728775314,-0.10371705063965715,-0.016266386439661638
5.49,-0.09739121428208543,-0.10335420394712092,-0.015905018774674082
5.5,-0.09653785947480863,-0.10299863571268733,-0.015552598142229701
5.51,-0.09570427236870009,-0.10265013287035879,-0.015208862903539188
5.5200000000000005,-0.09488988349168634,-0.10230848998736604,-0.014873560835300306
5.53,-0.0940941434774915,-0.10197350893011828,-0.014546448712766662
5.54,-0.0933165221943035,-0.10164499854759262,-0.014227291914884017
5.55,-0.09255650791855402,-0.1013227743711089,-0.013915864050140817
5.5600000000000005,-0.09181360655110589,-0.10100665832950644,-0.0136119466018736
5.57,-0.09108734087332665,-0.10069647847880772,-0.013315328591854756
5.58,-0.09037724984069635,-0.10039206874551444,-0.013025806261070107
5.59,-0.08968288791175394,-0.1000932686827391,-0.01274318276666781
5.6000000000000005,-0.08900382441033375,-0.09979992323842787,-0.012467267894128425
5.61,-0.08833964291917633,-0.09951188253497929,-0.012197877783769313
5.62,-0.08768994070312414,-0.09922900165960906,-0.011934834670755083
5.63,-0.0870543281602274,-0.09895114046485257,-0.011677966637839985
5.64,-0.08643242829919327,-0.09867816337863648,-0.011427107380118567
5.65,-0.08582387624171084,-0.09840993922338645,-0.011182095981107473
5.66,-0.0852283187482777,-0.0981463410436718,-0.01094277669952455
5.67,-0.08464541376623916,-0.09788724594191947,-0.010708998766171708
5.68,-0.08407482999883165,-0.09763253492175805,-0.010480616190365197
5.69,-0.08351624649409663,-0.09738209273858081,-0.010257487575391891
5.7,-0.08296935225260016,-0.09713580775694029,-0.01003947594250231
5.71,-0.08243384585295856,-0.09689357181441229,-0.00982644856298126
5.72,-0.08190943509423029,-0.09665528009158764,-0.009618276797865047
5.73,-0.08139583665429104,-0.09642083098787109,-0.009414835944900207
5.74,-0.08089277576336082,-0.09619012600278569,-0.009216005092363137
5.75,-0.0791922647955496,-0.09596306962249851,-0.009021666979382677
5.76,-0.07894198007497712,-0.09573957074210414,-0.00883170786242891
5.7700000000000005,-0.07869608601801274,-0.09551953769381646,-0.008646017387651236
5.78,-0.07845447255086956,-0.09530288329555542,-0.008464488468767259
5.79,-0.07821703283917868,-0.09508952294489736,-0.008287017170221357
5.8,-0.07798366317383897,-0.09487937452800553,-0.008113502595347951
5.8100000000000005,-0.0777542628616673,-0.09467235833239195,-0.007943846779289625
5.82,-0.07752873412061173,-0.0944683969633228,-0.007777954586434421
5.83,-0.07730698197931771,-0.09426741526369001,-0.0076157336121499344
5.84,-0.07708891418081831,-0.09406934023718153,-0.007457094088604221
5.8500000000000005,-0.07687444109016858,-0.0938741009745919,-0.007301948794475242
5.86,-0.07666347560583066,-0.09368162858312384,-0.007150212968361465
5.87,-0.07645593307461337,-0.09349185611853872,-0.00700180422571656
5.88,-0.07625173121003266,-0.09330471852002241,-0.006856642479140688
5.89,-0.07605079001391059,-0.09312015254763957,-0.006714649861870009
5.9,-0.07585303170106618,-0.09293809672225646,-0.006575750654314512
5.91,-0.0756583806269533,-0.09275849126781845,-0.0064398712135022235
5.92,-0.07537268737225696,-0.09258127805587447,-0.006306939905295442
5.93,-0.07445891772574104,-0.09240640066517401,-0.006176887039251677
5.94,-0.07294688616487825,-0.09223380486112596,-0.006049644806008618
5.95,-0.07144869058068205,-0.0920634378732575,-0.005925147217078765
5.96,-0.07127483821712399,-0.0918952476544908,-0.005803330046945225
5.97,-0.07110360058986095,-0.09172918200215215,-0.0056841307773557725
5.98,-0.07093491708897626,-0.09156519162205277,-0.005567488543717475
5.99,-0.07076872870826312,-0.09140322853424229,-0.005453344083499176
6.0,-0.07060497799565117,-0.0912432460322413,-0.005341639686553779
6.01,-0.07044360900544858,-0.09108519864376872,-0.0052323191472766544
6.0200000000000005,-0.07028456725232266,-0.09092904209290004,-0.005125327718520702
6.03,-0.07012779966694359,-0.09077473326359536,-0.005020612067192468
6.04,-0.06997325455322731,-0.09062223016453945,-0.004918120231457484
6.05,-0.06982088154710457,-0.09047149189523834,-0.004817801579486452
6.0600000000000005,-0.06967063157675184,-0.09032247861332031,-0.004719606769677255
6.07,-0.069522456824218,-0.09017515150299103,-0.00462348771229088
6.08,-0.06937631068841409,-0.09002947274459523,-0.00452939753244231
6.09,-0.06923214774937411,-0.08988540548523954,-0.004437290534390279
6.1000000000000005,-0.06908992373375879,-0.08974291381043323,-0.004347122167072398
6.11,-0.06894959548155576,-0.08960196271670573,-0.004258848990834697
6.12,-0.0688111209138991,-0.08946251808516135,-0.0041724286453070384
6.13,-0.06867445900200653,-0.08932454665593398,-0.004087819818378051
6.140000000000001,-0.0685395697371444,-0.08918801600350557,-0.00400498221622546
6.15,-0.06840641410161248,-0.08905289451285472,-0.003923876534359643
6.16,-0.06827495404069792,-0.08891915135640238,-0.0038444644296402137
6.17,-0.06814515243555598,-0.0887867564717237,-0.0037667084932272565
6.18,-0.06801697307698372,-0.08865568053999605,-0.0036905722244305527
6.19,-0.06789038064006031,-0.08852589496515507,-0.0036160200054218042
6.2,-0.06776534065961504,-0.08839737185373153,-0.003543017076776414
6.21,-0.06764181950647613,-0.08827008399534265,-0.0034715295138128795
6.22,-0.06751978436450916,-0.08814400484381363,-0.00340152420369925
6.23,-0.06739920320836482,-0.08801910849890512,-0.0033329688232974623
6.24,-0.06728004478196335,-0.08789536968862426,-0.0032658318177176183
6.25,-0.06716227857763157,-0.08777276375209718,-0.003200082379555512
6.26,-0.06704587481592861,-0.08765126662298264,-0.0031356904287878446
6.2700000000000005,-0.06693080442607477,-0.08753085481340633,-0.0030726265933006657
6.28,-0.06681703902701408,-0.08741150539839715,-0.0030108621900276464
6.29,-0.06670455090904648,-0.08729319600080693,-0.002950369206675751
6.3,-0.06659331301604036,-0.08717590477669623,-0.002891120284016854
6.3100000000000005,-0.0664832989281761,-0.08705961040116945,-0.0028330886987247275
6.32,-0.06637448284523305,-0.08694429205464291,-0.002776248346737701
6.33,-0.06626683957036789,-0.08682992940953069,-0.002720573727128103
6.34,-0.0661603444943917,-0.08671650261733353,-0.0026660399264603844
6.3500000000000005,-0.066054973580518,-0.08660399229611626,-0.0026126226036205635
6.36,-0.06595070334956779,-0.08649237951836043,-0.0025602979751003434
6.37,-0.06584751086560073,-0.08638164579917894,-0.002509042800719929
6.38,-0.06574537372200065,-0.08627177308488015,-0.0024588343697742295
6.390000000000001,-0.06564427002793152,-0.08616274374186943,-0.0024096504875877247
6.4,-0.06554417839522803,-0.08605454054587658,-0.0023614694624638946
6.41,-0.06544507792564266,-0.08594714667149801,-0.002314270093015642
6.42,-0.06534694819847034,-0.08584054568204312,-0.002268031655863707
6.43,-0.06524976925853068,-0.08573472151967425,-0.0022227338936905527
6.44,-0.06515352160449411,-0.08562965849583087,-0.00217835700363773
6.45,-0.06505818617754607,-0.08552534128192814,-0.002134881626035154
6.46,-0.06496374435036356,-0.08542175490032085,-0.0020922888334512194
6.47,-0.06487017791641088,-0.0853188847155241,-0.0020505601200530702
6.48,-0.06477746907954016,-0.08521671642568197,-0.00200967739126678
6.49,-0.06468560044387428,-0.0851152360542765,-0.0019696229537275673
6.5,-0.06459455500397415,-0.08501442994206883,-0.001930379505510565
6.51,-0.06450431613528658,-0.08491428473926503,-0.0018919301266330088
6.5200000000000005,-0.06441486758484939,-0.08481478739789972,-0.0018542582698190587
6.53,-0.06432619346225436,-0.08471592516442994,-0.0018173477515188007
6.54,-0.06423827823085553,-0.08461768557253319,-0.0017811827431732778
6.55,-0.06415110669922523,-0.0845200564361026,-0.0017457477627177192
6.5600000000000005,-0.06406466401283055,-0.08442302584243358,-0.0017110276663154116
6.57,-0.06397893564593907,-0.08432658214559534,-0.001677007640314939
6.58,-0.06389390739375465,-0.08423071395998212,-0.0016436731934237842
6.59,-0.0638095653647499,-0.08413541015403792,-0.0016110101490915373
6.6000000000000005,-0.06372589597320386,-0.08404065984415009,-0.0015790046380962043
6.61,-0.06364288593194226,-0.08394645238870577,-0.0015476430913273368
6.62,-0.06356052224527652,-0.08385277738230695,-0.001516912232759934
6.63,-0.06347879220211321,-0.08375962465013889,-0.0014867990726132837
6.640000000000001,-0.06339768336926446,-0.08366698424248717,-0.0014572909006891103
6.65,-0.06331718358491423,-0.08357484642939932,-0.0014283752798836032
6.66,-0.06323728095226493,-0.08348320169548626,-0.0014000400398680828
6.67,-0.06315796383335553,-0.08339204073485966,-0.001372273270933252
6.68,-0.0630792208430194,-0.08330135444620089,-0.0013450633179921472
6.69,-0.06300104084302262,-0.08321113392795808,-0.0013183987747370817
6.7,-0.06292341293633053,-0.08312137047366693,-0.0012922684779460261
6.71,-0.06284632646153636,-0.08303205556739235,-0.0012666615019340376
6.72,-0.06276977098742618,-0.08294318087928677,-0.0012415671531454875
6.73,-0.06269373630768213,-0.08285473826126204,-0.0012169749648829884
6.74,-0.0626182124357174,-0.08276671974277157,-0.0011928746921690615
6.75,-0.0625431895996458,-0.0826791175266997,-0.0011692563067367088
6.76,-0.062468658237377885,-0.08259192398535478,-0.0011461099921451928
6.7700000000000005,-0.06239460899183472,-0.08250513165656355,-0.001123426139017443
6.78,-0.062321032706285154,-0.08241873323986344,-0.0011011953403956309
6.79,-0.062247920419796855,-0.08233272159279048,-0.0010794083872115627
6.8,-0.06217526336280555,-0.08224708972725976,-0.0010580562638686604
6.8100000000000005,-0.06210305295278206,-0.08216183080603591,-0.0010371301439323908
6.82,-0.06203128079002429,-0.08207693813929137,-0.0010166213859261217
6.83,-0.061959938653531665,-0.08199240518124956,-0.0009965215292294643
6.84,-0.061889018496997586,-0.08190822552691095,-0.0009768222900762742
6.8500000000000005,-0.06181851244488683,-0.08182439290885961,-0.0009575155576495537
6.86,-0.061748412788620116,-0.08174090119414801,-0.0009385933902706045
6.87,-0.06167871198284171,-0.08165774438125785,-0.0009200480116798493
6.88,-0.06160940264178276,-0.08157491659713519,-0.0009018718074068321
6.890000000000001,-0.06154047753571177,-0.08149241209429735,-0.0008840573212269796
6.9,-0.06147192958746379,-0.08141022524801009,-0.0008665972517027826
6.91,-0.061403751869061954,-0.08132835055353294,-0.0008494844488071314
6.92,-0.061335937598416476,-0.08124678262343082,-0.0008327119106266069
6.93,-0.061268480136097564,-0.08116551618495035,-0.0008162727801425968
6.94,-0.06120137298219573,-0.08108454607745914,-0.0008001603420881732
6.95,-0.0611346097732435,-0.08100386724994596,-0.0007843680198787293
6.96,-0.061068184279216946,-0.08092347475858085,-0.000768889372614436
6.97,-0.06100209040061169,-0.08084336376433304,-0.0007537180921526324
6.98,-0.06093632216558041,-0.08076352953064549,-0.0007388480002483297
6.99,-0.0608708737271364,-0.08068396742116427,-0.0007242730457610531
7.0,-0.06080573936043452,-0.08060467289752178,-0.0007099873019263063
7.01,-0.06074091346010052,-0.08052564151717191,-0.0006959849636899902
7.0200000000000005,-0.06067639053762814,-0.0804468689312763,-0.0006822603451041594
7.03,-0.06061216521884573,-0.08036835088263977,-0.0006688078767825436
7.04,-0.06054823224142692,-0.08029008320369449,-0.0006556221034143122
7.05,-0.06048458645246574,-0.08021206181453072,-0.0006426976813346008
7.0600000000000005,-0.06042122280611304,-0.08013428272097371,-0.0006300293761503633
7.07,-0.06035813636125453,-0.08005674201270499,-0.0006176120604201534
7.08,-0.0602953222792514,-0.07997943586142736,-0.0006054407113864809
7.09,-0.06023277582173256,-0.07990236051907229,-0.0005935104087594264
7.1000000000000005,-0.06017049234843315,-0.07982551231604863,-0.0005818163325502342
7.11,-0.060108467315085075,-0.0797488876595316,-0.0005703537609536428
7.12,-0.06004669627135033,-0.07967248303179122,-0.0005591180682777435
7.13,-0.05998517485881542,-0.07959629498855891,-0.0005481047229201954
7.140000000000001,-0.05992389880901112,-0.07952032015743164,-0.000537309285389653
7.15,-0.05986286394149471,-0.07944455523631229,-0.0005267274063713022
7.16,-0.05980206616196031,-0.07936899699188583,-0.0005163548248354231
7.17,-0.059741501460408616,-0.07929364225812997,-0.0005061873661879317
7.18,-0.05968116590933944,-0.07921848793485971,-0.0004962209404618837
7.19,-0.05962105566200023,-0.07914353098630487,-0.00048645154054894566
7.2,-0.059561166950662825,-0.0790687684397198,-0.00047687524046987175
7.21,-0.05950149608494887,-0.07899419738402444,-0.0004674881936830473
7.22,-0.059442039450181734,-0.07891981496847615,-0.0004582866314301865
7.23,-0.05938279350578127,-0.07884561840137123,-0.0004492668611182954
7.24,-0.059323754783696885,-0.07877160494877582,-0.00044042526473703854
7.25,-0.059264919886865663,-0.07869777193328512,-0.00043175829731066537
7.26,-0.05920628548771752,-0.07862411673281047,-0.00042326248538367996
7.2700000000000005,-0.059147848326700524,-0.07855063677939349,-0.0004149344255394564
7.28,-0.05908960521085053,-0.07847732955804679,-0.0004067707829510245
7.29,-0.059031553012378876,-0.07840419260562033,-0.00039876828996326984
7.3,-0.05897368866730765,-0.07833122350969322,-0.0003909237447058137
7.3100000000000005,-0.05891600917411848,-0.07825841990748998,-0.00038323400973585626
7.32,-0.05885851159244639,-0.078185779484821,-0.0003756960107102851
7.33,-0.058801193041784404,-0.07811329997504622,-0.00036830673508637056
7.34,-0.05874405070023594,-0.078040979158062,-0.00036106323085038493
7.3500000000000005,-0.05868708180328353,-0.07796881485931025,-0.0003539626052735015
7.36,-0.058630283642577635,-0.07789680494880934,-0.0003470020236943451
7.37,-0.058573653564767084,-0.07782494734020655,-0.00034017870832758176
7.38,-0.05851718897035021,-0.07775323998985115,-0.0003334899370979503
7.390000000000001,-0.05846088731254242,-0.077681680895888,-0.0003269330424991561
7.4,-0.058404746096172994,-0.07761026809737094,-0.0003205054104770582
7.41,-0.05834876287661953,-0.07753899967339573,-0.0003142044793365992
7.42,-0.05829293525873422,-0.07746787374225174,-0.0003080277386719379
7.43,-0.05823726089582713,-0.07739688846059248,-0.00030197272831926006
7.44,-0.0581817374886545,-0.0773260420226239,-0.000296037037331756
7.45,-0.058126362784423395,-0.0772553326593108,-0.000290218302976265
7.46,-0.05807113457582744,-0.07718475863760003,-0.00028451420975109934
7.47,-0.058016050700108845,-0.07711431825966107,-0.0002789224884245741
7.48,-0.05796110903812344,-0.07704400986214273,-0.00027344091509377876
7.49,-0.05790630751343757,-0.07697383181544622,-0.0002680673102631389
7.5,-0.057851644091440564,-0.07690378252301384,-0.00026279953794232743
7.51,-0.05779711677847997,-0.07683386042063328,-0.0002576355047630955
7.5200000000000005,-0.05774272362101153,-0.07676406397575664,-0.0002525731591146027
7.53,-0.05768846270476704,-0.07669439168683445,-0.00024761049029683806
7.54,-0.05763433215394087,-0.07662484208266399,-0.00024274552769173167
7.55,-0.05758033013039591,-0.07655541372175156,-0.00023797633995156734
7.5600000000000005,-0.05752645483288543,-0.07648610519168868,-0.00023330103420431575
7.57,-0.0574727044962863,-0.07641691510854154,-0.00022871775527551617
7.58,-0.05741907739085356,-0.07634784211625367,-0.00022422468492634478
7.59,-0.057365571821493266,-0.07627888488606147,-0.00021982004110751517
7.6000000000000005,-0.05731218612704662,-0.07621004211592211,-0.00021550207722866553
7.61,-0.057258918679589356,-0.07614131252995403,-0.0002112690814428954
7.62,-0.057205767883744124,-0.07607269487788909,-0.00020711937594612194
7.63,-0.05715273217601702,-0.07600418793453662,-0.00020305131629093438
7.640000000000001,-0.057099810024126806,-0.07593579049925887,-0.00019906329071463276
7.65,-0.0570469999263823,-0.07586750139545781,-0.00019515371948114328
7.66,-0.05699430041103613,-0.07579931947007264,-0.00019132105423651135
7.67,-0.05694171003567315,-0.07573124359308829,-0.00018756377737767953
7.68,-0.05688922738661748,-0.07566327265705411,-0.00018388040143426385
7.69,-0.05683685107832904,-0.07559540557661315,-0.0001802694684630498
7.7,-0.05678457975283097,-0.07552764128804122,-0.00017672954945493506
7.71,-0.05673241207914549,-0.07545997874879574,-0.00017325924375405195
7.72,-0.05668034675273747,-0.07539241693707432,-0.0001698571784888097
7.73,-0.05662838249497095,-0.07532495485138273,-0.00016652200801460146
7.74,-0.05657651805258012,-0.0752575915101118,-0.00016325241336792774
7.75,-0.05652475219715161,-0.07519032595112357,-0.0001600471017316932
7.76,-0.056473083724613224,-0.07512315723134608,-0.00015690480591143912
7.7700000000000005,-0.056421511454734535,-0.07505608442637672,-0.00015382428382227926
7.78,-0.056370034230640555,-0.07498910663009405,-0.00015080431798631294
7.79,-0.05631865091832891,-0.07492222295427776,-0.00014784371504029262
7.8,-0.05626736040620868,-0.07485543252823677,-0.00014494130525332998
7.8100000000000005,-0.05621616160464219,-0.07478873449844504,-0.00014209594205442813
7.82,-0.05616505344549298,-0.07472212802818519,-0.00013930650156963311
7.83,-0.05611403488168212,-0.07465561229719958,-0.00013657188216860175
7.84,-0.05606310488676999,-0.07458918650134874,-0.0001338910040203884
7.8500000000000005,-0.056012262454522975,-0.07452284985227708,-0.00013126280865825659
7.86,-0.05596150659851309,-0.07445660157708553,-0.00012868625855332635
7.87,-0.05591083635169682,-0.07439044091801111,-0.0001261603366968722
7.88,-0.055860250766038955,-0.07432436713211335,-0.0001236840461910908
7.890000000000001,-0.055809748912113544,-0.07425837949096713,-0.00012125640984816103
7.9,-0.05575932987872325,-0.07419247728036199,-0.00011887646979742384
7.91,-0.05570899277253727,-0.07412665980000803,-0.00011654328710051204
7.92,-0.05565873671771812,-0.07406092636324757,-0.00011425594137426494
7.930000000000001,-0.05560856085557291,-0.07399527629677315,-0.00011201353042126548
7.94,-0.05555846434419611,-0.07392970894035139,-0.00010981516986784165
7.95,-0.055508446358135025,-0.07386422364655257,-0.00010765999280937733
7.96,-0.055458506088051154,-0.07379881978048596,-0.00010554714946278058
7.97,-0.05540864274039454,-0.07373349671954053,-0.00010347580682596165
7.98,-0.05535885553707894,-0.07366825385313146,-0.00010144514834417515
7.99,-0.05530914371517285,-0.07360309058245135,-9.945437358308465e-05
8.0,-0.05525950652658968,-0.07353800632022733,-9.750269790841105e-05
8.01,-0.05520994323778172,-0.07347300049048272,-9.558935217202846e-05
8.02,-0.05516045312945466,-0.07340807252830386,-9.371358240437507e-05
8.03,-0.055111035496264484,-0.07334322187961194,-9.187464951304856e-05
8.040000000000001,-0.05506168964654654,-0.07327844800093926,-9.007182898745922e-05
8.05,-0.05501241490203003,-0.07321375035921059,-8.830441060941584e-05
8.06,-0.0549632105975693,-0.07314912843152863,-8.657169816952262e-05
8.07,-0.054914076080880996,-0.07308458170496439,-8.487300918926813e-05
8.08,-0.054865010712273066,-0.07302010967635161,-8.320767464868901e-05
8.09,-0.05481601386440434,-0.07295571185208564,-8.157503871949483e-05
8.1,-0.05476708492201693,-0.07289138774792643,-7.99744585035418e-05
8.11,-0.054718223281704885,-0.07282713688880563,-7.84053037765463e-05
8.120000000000001,-0.05466942835166891,-0.07276295880863774,-7.686695673693069e-05
8.13,-0.054620699551482035,-0.07269885305013524,-7.535881175969715e-05
8.14,-0.054572036311854,-0.07263481916462738,-7.388027515522633e-05
8.15,-0.0545234380744164,-0.07257085671188296,-7.243076493290091e-05
8.16,-0.0544749042914902,-0.07250696525993666,-7.100971056945538e-05
8.17,-0.05442643442587929,-0.07244314438491904,-6.961655278195596e-05
8.18,-0.05437802795065189,-0.07237939367088997,-6.82507433053164e-05
8.19,-0.05432968434893406,-0.07231571270967568,-6.69117446742575e-05
8.2,-0.05428140311370808,-0.07225210110070908,-6.559903000961989e-05
8.21,-0.05423318374760949,-0.07218855845087345,-6.431208280894182e-05
8.22,-0.054185025762736615,-0.07212508437434931,-6.305039674121543e-05
8.23,-0.054136928680456116,-0.0720616784924645,-6.181347544573648e-05
8.24,-0.05408889203121766,-0.07199834043354746,-6.060083233496497e-05
8.25,-0.05404091535436589,-0.07193506983278339,-5.941199040131515e-05
8.26,-0.053992998197967275,-0.07187186633207349,-5.82464820277954e-05
8.27,-0.05394514011862884,-0.07180872957989712,-5.71038488024202e-05
8.28,-0.053897340681325484,-0.07174565923117679,-5.5983641336317856e-05
8.290000000000001,-0.0538495994592359,-0.07168265494714592,-5.488541908545928e-05
8.3,-0.0538019160335719,-0.07161971639521943,-5.380875017593479e-05
8.31,-0.05375428999342056,-0.07155684324886682,-5.2753211232707176e-05
8.32,-0.053706720935580085,-0.07149403518748826,-5.1718387211771044e-05
8.33,-0.05365920846440819,-0.07143129189629271,-5.070387123564971e-05
8.34,-0.05361175219166795,-0.07136861306617902,-4.9709264432162325e-05
8.35,-0.053564351736379114,-0.07130599839361924,-4.87341757763955e-05
8.36,-0.05351700672467043,-0.07124344758054445,-4.777822193581475e-05
8.370000000000001,-0.05346971678963983,-0.07118096033423296,-4.68410271184528e-05
8.38,-0.05342248157120829,-0.07111853636720061,-4.592222292411261e-05
8.39,-0.05337530071598683,-0.07105617539709376,-4.5021448198524804e-05
8.4,-0.053328173877141304,-0.070993877146584,-4.41383488903999e-05
8.41,-0.05328110071425624,-0.0709316413432654,-4.327257791131734e-05
8.42,-0.05323408089320949,-0.07086946771955376,-4.242379499839445e-05
8.43,-0.05318711408604522,-0.07080735601258785,-4.1591666579679266e-05
8.44,-0.05314019997084854,-0.07074530596413287,-4.0775865642212935e-05
8.45,-0.05309333823162263,-0.07068331732048577,-3.9976071602707993e-05
8.46,-0.053046528558173205,-0.0706213898323825,-3.9191970180790094e-05
8.47,-0.05299977064598872,-0.07055952325490741,-3.8423253274751935e-05
8.48,-0.052953064196126116,-0.0704977173474041,-3.766961883976903e-05
8.49,-0.052906408915098985,-0.0704359718733886,-3.693077076852801e-05
8.5,-0.0528598045147697,-0.07037428660046392,-3.620641877421934e-05
8.51,-0.05281325071223997,-0.07031266130023665,-3.549627827584698e-05
8.52,-0.05276674722974316,-0.07025109574823506,-3.4800070285808775e-05
8.53,-0.052720293794547304,-0.0701895897238291,-3.4117521299702257e-05
8.540000000000001,-0.0526738901388496,-0.07012814301015188,-3.344836318831124e-05
8.55,-0.052627535999672855,-0.07006675539402289,-3.279233309172982e-05
8.56,-0.05258123111877999,-0.07000542666587266,-3.214917331558102e-05
8.57,-0.05253497524256849,-0.06994415661966916,-3.15186312292883e-05
8.58,-0.05248876812198235,-0.06988294505284554,-3.0900459166359075e-05
8.59,-0.052442609512417804,-0.06982179176622949,-3.0294414326639886e-05
8.6,-0.05239649917363526,-0.0697606965639739,-2.97002586805042e-05
8.61,-0.052350436869675394,-0.06969965925348917,-2.9117758874934124e-05
8.620000000000001,-0.0523044223687667,-0.06963867964537675,-2.854668614145843e-05
8.63,-0.052258455443242216,-0.06957775755336398,-2.7986816205909774e-05
8.64,-0.05221253586946464,-0.06951689279424057,-2.7437929199965065e-05
8.65,-0.05216666342773369,-0.06945608518779606,-2.689980957443334e-05
8.66,-0.0521208379022194,-0.06939533455675871,-2.6372246014256463e-05
8.67,-0.05207505908086996,-0.06933464072673572,-2.585503135518854e-05
8.68,-0.05202932675535142,-0.06927400352615451,-2.5347962502120668e-05
8.69,-0.05198364072096332,-0.06921342278620539,-2.48508403490183e-05
8.700000000000001,-0.05193800077656857,-0.0691528983407852,-2.43634697004392e-05
8.71,-0.05189240672452332,-0.06909243002644236,-2.3885659194600553e-05
8.72,-0.05184685837060151,-0.06903201768232287,-2.3417221227964428e-05
8.73,-0.05180135552393138,-0.06897166115011737,-2.2957971881311517e-05
8.74,-0.05175589799693168,-0.06891136027400954,-2.2507730847273532e-05
8.75,-0.051710485605231886,-0.06885111490062536,-2.2066321359295316e-05
8.76,-0.05166511816762803,-0.06879092487898336,-2.1633570121998295e-05
8.77,-0.051619795505997663,-0.06873079006044612,-2.120930724291749e-05
8.78,-0.051574517445255284,-0.0686707102986726,-2.0793366165584797e-05
8.790000000000001,-0.051529283813283186,-0.06861068544957147,-2.0385583603931883e-05
8.8,-0.05148409444087247,-0.06855071537125543,-1.9985799477986477e-05
8.81,-0.051438949161667864,-0.06849079992399645,-1.9593856850836466e-05
8.82,-0.05139384781210811,-0.068430938970182,-1.920960186683663e-05
8.83,-0.0513487902313692,-0.06837113237427199,-1.8832883691033426e-05
8.84,-0.05130377626131335,-0.06831138000275686,-1.8463554449783658e-05
8.85,-0.05125880574642898,-0.06825168172411626,-1.810146917254339e-05
8.86,-0.05121387853378598,-0.06819203740877881,-1.7746485734803957e-05
8.870000000000001,-0.051168994472981,-0.0681324469290826,-1.7398464802152305e-05
8.88,-0.05112415341608191,-0.06807291015923635,-1.7057269775433464e-05
8.89,-0.05107935521758443,-0.06801342697528164,-1.6722766736993297e-05
8.9,-0.05103459973436233,-0.06795399725505574,-1.6394824397980165e-05
8.91,-0.050989886825620986,-0.06789462087815526,-1.607331404668453e-05
8.92,-0.05094521635284239,-0.0678352977259005,-1.5758109497896028e-05
8.93,-0.05090058817975357,-0.06777602768130055,-1.5449087043257795e-05
8.94,-0.050856002172271014,-0.06771681062901917,-1.5146125402598408e-05
8.950000000000001,-0.05081145819846285,-0.06765764645534131,-1.4849105676222069e-05
8.96,-0.05076695612850057,-0.06759853504814024,-1.4557911298138083e-05
8.97,-0.05072249583461897,-0.06753947629684558,-1.4272427990211105e-05
8.98,-0.05067807719108014,-0.06748047009241173,-1.39925437172139e-05
8.99,-0.05063370007412607,-0.06742151632728714,-1.3718148642764845e-05
9.0,-0.05058936436194316,-0.06736261489538407,-1.3449135086132628e-05
