# uptake constraint 
# the columns are: t and the constraint for each substrate metabolites
# the compounds are: galactose, glucose, thiosulfate, butyrate, Fprau, Styphi,  
# the nominal flux is: -5.0, -5.0, -5.0, -5.0, -5.0, -5.0,  
# the initial concentration are: 0.0, 43.0, 0.0, 89.0, 0.32749556441254546, 0.3663924498262474,  

t,galactose,glucose,thiosulfate
0.0,-0.0,-5.0,-0.0
0.01,-0.0,-5.0,-0.0
0.02,-0.0,-5.0,-0.0
0.03,-0.0,-5.0,-0.0
0.04,-0.0,-5.0,-0.0
0.05,-0.0,-5.0,-0.0
0.06,-0.0,-5.0,-0.0
0.07,-0.0,-5.0,-0.0
0.08,-0.0,-5.0,-0.0
0.09,-0.0,-5.0,-0.0
0.1,-0.0,-5.0,-0.0
0.11,-0.0,-5.0,-0.0
0.12,-0.0,-5.0,-0.0
0.13,-0.0,-5.0,-0.0
0.14,-0.0,-5.0,-0.0
0.15,-0.0,-5.0,-0.0
0.16,-0.0,-5.0,-0.0
0.17,-0.0,-5.0,-0.0
0.18,-0.0,-5.0,-0.0
0.19,-0.0,-5.0,-0.0
0.2,-0.0,-5.0,-0.0
0.21,-0.0,-5.0,-0.0
0.22,-0.0,-5.0,-0.0
0.23,-0.0,-5.0,-0.0
0.24,-0.0,-5.0,-0.0
0.25,-0.0,-5.0,-0.0
0.26,-0.0,-5.0,-0.0
0.27,-0.0,-5.0,-0.0
0.28,-0.0,-5.0,-0.0
0.29,-0.0,-5.0,-0.0
0.3,-0.0,-5.0,-0.0
0.31,-0.0,-5.0,-0.0
0.32,-0.0,-5.0,-0.0
0.33,-0.0,-5.0,-0.0
0.34,-0.0,-5.0,-0.0
0.35000000000000003,-0.0,-5.0,-0.0
0.36,-0.0,-5.0,-0.0
0.37,-0.0,-5.0,-0.0
0.38,-0.0,-5.0,-0.0
0.39,-0.0,-5.0,-0.0
0.4,-0.0,-5.0,-0.0
0.41000000000000003,-0.0,-5.0,-0.0
0.42,-0.0,-5.0,-0.0
0.43,-0.0,-5.0,-0.0
0.44,-0.0,-5.0,-0.0
0.45,-0.0,-5.0,-0.0
0.46,-0.0,-5.0,-0.0
0.47000000000000003,-0.0,-5.0,-0.0
0.48,-0.0,-5.0,-0.0
0.49,-0.0,-5.0,-0.0
0.5,-0.0,-5.0,-0.0
0.51,-0.0,-5.0,-0.0
0.52,-0.0,-5.0,-0.0
0.53,-0.0,-5.0,-0.0
0.54,-0.0,-5.0,-0.0
0.55,-0.0,-5.0,-0.0
0.56,-0.0,-5.0,-0.0
0.5700000000000001,-0.0,-5.0,-0.0
0.58,-0.0,-5.0,-0.0
0.59,-0.0,-5.0,-0.0
0.6,-0.0,-5.0,-0.0
0.61,-0.0,-5.0,-0.0
0.62,-0.0,-5.0,-0.0
0.63,-0.0,-5.0,-0.0
0.64,-0.0,-5.0,-0.0
0.65,-0.0,-5.0,-0.0
0.66,-0.0,-5.0,-0.0
0.67,-0.0,-5.0,-0.0
0.68,-0.0,-5.0,-0.0
0.6900000000000001,-0.0,-5.0,-0.0
0.7000000000000001,-0.0,-5.0,-0.0
0.71,-0.0,-5.0,-0.0
0.72,-0.0,-5.0,-0.0
0.73,-0.0,-5.0,-0.0
0.74,-0.0,-5.0,-0.0
0.75,-0.0,-5.0,-0.0
0.76,-0.0,-5.0,-0.0
0.77,-0.0,-5.0,-0.0
0.78,-0.0,-5.0,-0.0
0.79,-0.0,-5.0,-0.0
0.8,-0.0,-5.0,-0.0
0.81,-0.0,-5.0,-0.0
0.8200000000000001,-0.0,-5.0,-0.0
0.8300000000000001,-0.0,-5.0,-0.0
0.84,-0.0,-5.0,-0.0
0.85,-0.0,-5.0,-0.0
0.86,-0.0,-5.0,-0.0
0.87,-0.0,-5.0,-0.0
0.88,-0.0,-5.0,-0.0
0.89,-0.0,-5.0,-0.0
0.9,-0.0,-5.0,-0.0
0.91,-0.0,-5.0,-0.0
0.92,-0.0,-5.0,-0.0
0.93,-0.0,-5.0,-0.0
0.9400000000000001,-0.0,-5.0,-0.0
0.9500000000000001,-0.0,-5.0,-0.0
0.96,-0.0,-5.0,-0.0
0.97,-0.0,-5.0,-0.0
0.98,-0.0,-5.0,-0.0
0.99,-0.0,-5.0,-0.0
1.0,-0.0,-5.0,-0.0
1.01,-0.0,-5.0,-0.0
1.02,-0.0,-5.0,-0.0
1.03,-0.0,-5.0,-0.0
1.04,-0.0,-5.0,-0.0
1.05,-0.0,-5.0,-0.0
1.06,-0.0,-5.0,-0.0
1.07,-0.0,-5.0,-0.0
1.08,-0.0,-5.0,-0.0
1.09,-0.0,-5.0,-0.0
1.1,-0.0,-5.0,-0.0
1.11,-0.0,-5.0,-0.0
1.12,-0.0,-5.0,-0.0
1.1300000000000001,-0.0,-5.0,-0.0
1.1400000000000001,-0.0,-5.0,-0.0
1.1500000000000001,-0.0,-5.0,-0.0
1.16,-0.0,-5.0,-0.0
1.17,-0.0,-5.0,-0.0
1.18,-0.0,-5.0,-0.0
1.19,-0.0,-5.0,-0.0
1.2,-0.0,-5.0,-0.0
1.21,-0.0,-5.0,-0.0
1.22,-0.0,-5.0,-0.0
1.23,-0.0,-5.0,-0.0
1.24,-0.0,-5.0,-0.0
1.25,-0.0,-5.0,-0.0
1.26,-0.0,-5.0,-0.0
1.27,-0.0,-5.0,-0.0
1.28,-0.0,-5.0,-0.0
1.29,-0.0,-5.0,-0.0
1.3,-0.0,-5.0,-0.0
1.31,-0.0,-5.0,-0.0
1.32,-0.0,-5.0,-0.0
1.33,-0.0,-5.0,-0.0
1.34,-0.0,-5.0,-0.0
1.35,-0.0,-5.0,-0.0
1.36,-0.0,-5.0,-0.0
1.37,-0.0,-5.0,-0.0
1.3800000000000001,-0.0,-5.0,-0.0
1.3900000000000001,-0.0,-5.0,-0.0
1.4000000000000001,-0.0,-5.0,-0.0
1.41,-0.0,-5.0,-0.0
1.42,-0.0,-5.0,-0.0
1.43,-0.0,-5.0,-0.0
1.44,-0.0,-5.0,-0.0
1.45,-0.0,-5.0,-0.0
1.46,-0.0,-5.0,-0.0
1.47,-0.0,-5.0,-0.0
1.48,-0.0,-5.0,-0.0
1.49,-0.0,-5.0,-0.0
1.5,-0.0,-5.0,-0.0
1.51,-0.0,-5.0,-0.0
1.52,-0.0,-5.0,-0.0
1.53,-0.0,-5.0,-0.0
1.54,-0.0,-5.0,-0.0
1.55,-0.0,-5.0,-0.0
1.56,-0.0,-5.0,-0.0
1.57,-0.0,-5.0,-0.0
1.58,-0.0,-5.0,-0.0
1.59,-0.0,-5.0,-0.0
1.6,-0.0,-5.0,-0.0
1.61,-0.0,-5.0,-0.0
1.62,-0.0,-5.0,-0.0
1.6300000000000001,-0.0,-5.0,-0.0
1.6400000000000001,-0.0,-5.0,-0.0
1.6500000000000001,-0.0,-5.0,-0.0
1.6600000000000001,-0.0,-5.0,-0.0
1.67,-0.0,-5.0,-0.0
1.68,-0.0,-5.0,-0.0
1.69,-0.0,-5.0,-0.0
1.7,-0.0,-5.0,-0.0
1.71,-0.0,-5.0,-0.0
1.72,-0.0,-5.0,-0.0
1.73,-0.0,-5.0,-0.0
1.74,-0.0,-5.0,-0.0
1.75,-0.0,-5.0,-0.0
1.76,-0.0,-5.0,-0.0
1.77,-0.0,-5.0,-0.0
1.78,-0.0,-5.0,-0.0
1.79,-0.0,-5.0,-0.0
1.8,-0.0,-5.0,-0.0
1.81,-0.0,-5.0,-0.0
1.82,-0.0,-5.0,-0.0
1.83,-0.0,-5.0,-0.0
1.84,-0.0,-5.0,-0.0
1.85,-0.0,-5.0,-0.0
1.86,-0.0,-5.0,-0.0
1.87,-0.0,-5.0,-0.0
1.8800000000000001,-0.0,-5.0,-0.0
1.8900000000000001,-0.0,-5.0,-0.0
1.9000000000000001,-0.0,-5.0,-0.0
1.9100000000000001,-0.0,-5.0,-0.0
1.92,-0.0,-5.0,-0.0
1.93,-0.0,-5.0,-0.0
1.94,-0.0,-5.0,-0.0
1.95,-0.0,-5.0,-0.0
1.96,-0.0,-5.0,-0.0
1.97,-0.0,-5.0,-0.0
1.98,-0.0,-5.0,-0.0
1.99,-0.0,-5.0,-0.0
2.0,-0.0,-5.0,-0.0
2.0100000000000002,-0.0,-5.0,-0.0
2.02,-0.0,-5.0,-0.0
2.0300000000000002,-0.0,-5.0,-0.0
2.04,-0.0,-5.0,-0.0
2.05,-0.0,-5.0,-0.0
2.06,-0.0,-5.0,-0.0
2.07,-0.0,-5.0,-0.0
2.08,-0.0,-5.0,-0.0
2.09,-0.0,-5.0,-0.0
2.1,-0.0,-5.0,-0.0
2.11,-0.0,-5.0,-0.0
2.12,-0.0,-5.0,-0.0
2.13,-0.0,-5.0,-0.0
2.14,-0.0,-5.0,-0.0
2.15,-0.0,-5.0,-0.0
2.16,-0.0,-5.0,-0.0
2.17,-0.0,-5.0,-0.0
2.18,-0.0,-5.0,-0.0
2.19,-0.0,-5.0,-0.0
2.2,-0.0,-5.0,-0.0
2.21,-0.0,-5.0,-0.0
2.22,-0.0,-5.0,-0.0
2.23,-0.0,-5.0,-0.0
2.24,-0.0,-5.0,-0.0
2.25,-0.0,-5.0,-0.0
2.2600000000000002,-0.0,-5.0,-0.0
2.27,-0.0,-5.0,-0.0
2.2800000000000002,-0.0,-5.0,-0.0
2.29,-0.0,-5.0,-0.0
2.3000000000000003,-0.0,-5.0,-0.0
2.31,-0.0,-5.0,-0.0
2.32,-0.0,-5.0,-0.0
2.33,-0.0,-5.0,-0.0
2.34,-0.0,-5.0,-0.0
2.35,-0.0,-5.0,-0.0
2.36,-0.0,-5.0,-0.0
2.37,-0.0,-5.0,-0.0
2.38,-0.0,-5.0,-0.0
2.39,-0.0,-5.0,-0.0
2.4,-0.0,-5.0,-0.0
2.41,-0.0,-5.0,-0.0
2.42,-0.0,-5.0,-0.0
2.43,-0.0,-5.0,-0.0
2.44,-0.0,-5.0,-0.0
2.45,-0.0,-5.0,-0.0
2.46,-0.0,-5.0,-0.0
2.47,-0.0,-5.0,-0.0
2.48,-0.0,-5.0,-0.0
2.49,-0.0,-5.0,-0.0
2.5,-0.0,-5.0,-0.0
2.5100000000000002,-0.0,-5.0,-0.0
2.52,-0.0,-5.0,-0.0
2.5300000000000002,-0.0,-5.0,-0.0
2.54,-0.0,-5.0,-0.0
2.5500000000000003,-0.0,-5.0,-0.0
2.56,-0.0,-5.0,-0.0
2.57,-0.0,-5.0,-0.0
2.58,-0.0,-5.0,-0.0
2.59,-0.0,-5.0,-0.0
2.6,-0.0,-5.0,-0.0
2.61,-0.0,-5.0,-0.0
2.62,-0.0,-5.0,-0.0
2.63,-0.0,-5.0,-0.0
2.64,-0.0,-5.0,-0.0
2.65,-0.0,-5.0,-0.0
2.66,-0.0,-5.0,-0.0
2.67,-0.0,-5.0,-0.0
2.68,-0.0,-5.0,-0.0
2.69,-0.0,-5.0,-0.0
2.7,-0.0,-5.0,-0.0
2.71,-0.0,-5.0,-0.0
2.72,-0.0,-5.0,-0.0
2.73,-0.0,-5.0,-0.0
2.74,-0.0,-5.0,-0.0
2.75,-0.0,-5.0,-0.0
2.7600000000000002,-0.0,-5.0,-0.0
2.77,-0.0,-5.0,-0.0
2.7800000000000002,-0.0,-5.0,-0.0
2.79,-0.0,-5.0,-0.0
2.8000000000000003,-0.0,-5.0,-0.0
2.81,-0.0,-5.0,-0.0
2.82,-0.0,-5.0,-0.0
2.83,-0.0,-5.0,-0.0
2.84,-0.0,-5.0,-0.0
2.85,-0.0,-5.0,-0.0
2.86,-0.0,-5.0,-0.0
2.87,-0.0,-5.0,-0.0
2.88,-0.0,-5.0,-0.0
2.89,-0.0,-5.0,-0.0
2.9,-0.0,-5.0,-0.0
2.91,-0.0,-5.0,-0.0
2.92,-0.0,-5.0,-0.0
2.93,-0.0,-5.0,-0.0
2.94,-0.0,-5.0,-0.0
2.95,-0.0,-5.0,-0.0
2.96,-0.0,-5.0,-0.0
2.97,-0.0,-5.0,-0.0
2.98,-0.0,-5.0,-0.0
2.99,-0.0,-5.0,-0.0
3.0,-0.0,-5.0,-0.0
3.0100000000000002,-0.0,-5.0,-0.0
3.02,-0.0,-5.0,-0.0
3.0300000000000002,-0.0,-5.0,-0.0
3.04,-0.0,-5.0,-0.0
3.0500000000000003,-0.0,-5.0,-0.0
3.06,-0.0,-5.0,-0.0
3.0700000000000003,-0.0,-5.0,-0.0
3.08,-0.0,-5.0,-0.0
3.09,-0.0,-5.0,-0.0
3.1,-0.0,-5.0,-0.0
3.11,-0.0,-5.0,-0.0
3.12,-0.0,-5.0,-0.0
3.13,-0.0,-5.0,-0.0
3.14,-0.0,-5.0,-0.0
3.15,-0.0,-5.0,-0.0
3.16,-0.0,-5.0,-0.0
3.17,-0.0,-5.0,-0.0
3.18,-0.0,-5.0,-0.0
3.19,-0.0,-5.0,-0.0
3.2,-0.0,-5.0,-0.0
3.21,-0.0,-5.0,-0.0
3.22,-0.0,-5.0,-0.0
3.23,-0.0,-5.0,-0.0
3.24,-0.0,-5.0,-0.0
3.25,-0.0,-5.0,-0.0
3.2600000000000002,-0.0,-5.0,-0.0
3.27,-0.0,-5.0,-0.0
3.2800000000000002,-0.0,-5.0,-0.0
3.29,-0.0,-5.0,-0.0
3.3000000000000003,-0.0,-5.0,-0.0
3.31,-0.0,-5.0,-0.0
3.3200000000000003,-0.0,-5.0,-0.0
3.33,-0.0,-5.0,-0.0
3.34,-0.0,-5.0,-0.0
3.35,-0.0,-5.0,-0.0
3.36,-0.0,-5.0,-0.0
3.37,-0.0,-5.0,-0.0
3.38,-0.0,-5.0,-0.0
3.39,-0.0,-5.0,-0.0
3.4,-0.0,-5.0,-0.0
3.41,-0.0,-5.0,-0.0
3.42,-0.0,-5.0,-0.0
3.43,-0.0,-5.0,-0.0
3.44,-0.0,-5.0,-0.0
3.45,-0.0,-5.0,-0.0
3.46,-0.0,-5.0,-0.0
3.47,-0.0,-5.0,-0.0
3.48,-0.0,-5.0,-0.0
3.49,-0.0,-5.0,-0.0
3.5,-0.0,-5.0,-0.0
3.5100000000000002,-0.0,-5.0,-0.0
3.52,-0.0,-5.0,-0.0
3.5300000000000002,-0.0,-5.0,-0.0
3.54,-0.0,-5.0,-0.0
3.5500000000000003,-0.0,-5.0,-0.0
3.56,-0.0,-5.0,-0.0
3.5700000000000003,-0.0,-5.0,-0.0
3.58,-0.0,-5.0,-0.0
3.59,-0.0,-5.0,-0.0
3.6,-0.0,-5.0,-0.0
3.61,-0.0,-5.0,-0.0
3.62,-0.0,-5.0,-0.0
3.63,-0.0,-5.0,-0.0
3.64,-0.0,-5.0,-0.0
3.65,-0.0,-5.0,-0.0
3.66,-0.0,-5.0,-0.0
3.67,-0.0,-5.0,-0.0
3.68,-0.0,-5.0,-0.0
3.69,-0.0,-5.0,-0.0
3.7,-0.0,-5.0,-0.0
3.71,-0.0,-5.0,-0.0
3.72,-0.0,-5.0,-0.0
3.73,-0.0,-5.0,-0.0
3.74,-0.0,-5.0,-0.0
3.75,-0.0,-5.0,-0.0
3.7600000000000002,-0.0,-5.0,-0.0
3.77,-0.0,-5.0,-0.0
3.7800000000000002,-0.0,-5.0,-0.0
3.79,-0.0,-5.0,-0.0
3.8000000000000003,-0.0,-5.0,-0.0
3.81,-0.0,-5.0,-0.0
3.8200000000000003,-0.0,-5.0,-0.0
3.83,-0.0,-5.0,-0.0
3.84,-0.0,-5.0,-0.0
3.85,-0.0,-5.0,-0.0
3.86,-0.0,-5.0,-0.0
3.87,-0.0,-5.0,-0.0
3.88,-0.0,-5.0,-0.0
3.89,-0.0,-5.0,-0.0
3.9,-0.0,-5.0,-0.0
3.91,-0.0,-5.0,-0.0
3.92,-0.0,-5.0,-0.0
3.93,-0.0,-5.0,-0.0
3.94,-0.0,-5.0,-0.0
3.95,-0.0,-5.0,-0.0
3.96,-0.0,-5.0,-0.0
3.97,-0.0,-5.0,-0.0
3.98,-0.0,-5.0,-0.0
3.99,-0.0,-5.0,-0.0
4.0,-0.0,-5.0,-0.0
4.01,-0.0,-5.0,-0.0
4.0200000000000005,-0.0,-5.0,-0.0
4.03,-0.0,-5.0,-0.0
4.04,-0.0,-5.0,-0.0
4.05,-0.0,-5.0,-0.0
4.0600000000000005,-0.0,-5.0,-0.0
4.07,-0.0,-5.0,-0.0
4.08,-0.0,-5.0,-0.0
4.09,-0.0,-5.0,-0.0
4.1,-0.0,-5.0,-0.0
4.11,-0.0,-5.0,-0.0
4.12,-0.0,-5.0,-0.0
4.13,-0.0,-5.0,-0.0
4.14,-0.0,-5.0,-0.0
4.15,-0.0,-5.0,-0.0
4.16,-0.0,-5.0,-0.0
4.17,-0.0,-5.0,-0.0
4.18,-0.0,-5.0,-0.0
4.19,-0.0,-5.0,-0.0
4.2,-0.0,-5.0,-0.0
4.21,-0.0,-5.0,-0.0
4.22,-0.0,-5.0,-0.0
4.23,-0.0,-5.0,-0.0
4.24,-0.0,-5.0,-0.0
4.25,-0.0,-5.0,-0.0
4.26,-0.0,-5.0,-0.0
4.2700000000000005,-0.0,-5.0,-0.0
4.28,-0.0,-5.0,-0.0
4.29,-0.0,-5.0,-0.0
4.3,-0.0,-5.0,-0.0
4.3100000000000005,-0.0,-5.0,-0.0
4.32,-0.0,-5.0,-0.0
4.33,-0.0,-5.0,-0.0
4.34,-0.0,-5.0,-0.0
4.3500000000000005,-0.0,-5.0,-0.0
4.36,-0.0,-5.0,-0.0
4.37,-0.0,-5.0,-0.0
4.38,-0.0,-5.0,-0.0
4.39,-0.0,-5.0,-0.0
4.4,-0.0,-5.0,-0.0
4.41,-0.0,-5.0,-0.0
4.42,-0.0,-5.0,-0.0
4.43,-0.0,-5.0,-0.0
4.44,-0.0,-5.0,-0.0
4.45,-0.0,-5.0,-0.0
4.46,-0.0,-5.0,-0.0
4.47,-0.0,-5.0,-0.0
4.48,-0.0,-5.0,-0.0
4.49,-0.0,-5.0,-0.0
4.5,-0.0,-5.0,-0.0
4.51,-0.0,-5.0,-0.0
4.5200000000000005,-0.0,-5.0,-0.0
4.53,-0.0,-5.0,-0.0
4.54,-0.0,-5.0,-0.0
4.55,-0.0,-5.0,-0.0
4.5600000000000005,-0.0,-5.0,-0.0
4.57,-0.0,-5.0,-0.0
4.58,-0.0,-5.0,-0.0
4.59,-0.0,-5.0,-0.0
4.6000000000000005,-0.0,-5.0,-0.0
4.61,-0.0,-5.0,-0.0
4.62,-0.0,-5.0,-0.0
4.63,-0.0,-5.0,-0.0
4.64,-0.0,-5.0,-0.0
4.65,-0.0,-5.0,-0.0
4.66,-0.0,-5.0,-0.0
4.67,-0.0,-5.0,-0.0
4.68,-0.0,-5.0,-0.0
4.69,-0.0,-5.0,-0.0
4.7,-0.0,-5.0,-0.0
4.71,-0.0,-5.0,-0.0
4.72,-0.0,-5.0,-0.0
4.73,-0.0,-5.0,-0.0
4.74,-0.0,-5.0,-0.0
4.75,-0.0,-5.0,-0.0
4.76,-0.0,-5.0,-0.0
4.7700000000000005,-0.0,-5.0,-0.0
4.78,-0.0,-5.0,-0.0
4.79,-0.0,-5.0,-0.0
4.8,-0.0,-5.0,-0.0
4.8100000000000005,-0.0,-5.0,-0.0
4.82,-0.0,-5.0,-0.0
4.83,-0.0,-5.0,-0.0
4.84,-0.0,-5.0,-0.0
4.8500000000000005,-0.0,-5.0,-0.0
4.86,-0.0,-5.0,-0.0
4.87,-0.0,-5.0,-0.0
4.88,-0.0,-5.0,-0.0
4.89,-0.0,-5.0,-0.0
4.9,-0.0,-5.0,-0.0
4.91,-0.0,-5.0,-0.0
4.92,-0.0,-5.0,-0.0
4.93,-0.0,-5.0,-0.0
4.94,-0.0,-5.0,-0.0
4.95,-0.0,-5.0,-0.0
4.96,-0.0,-5.0,-0.0
4.97,-0.0,-5.0,-0.0
4.98,-0.0,-5.0,-0.0
4.99,-0.0,-5.0,-0.0
5.0,-0.0,-5.0,-0.0
5.01,-0.0,-5.0,-0.0
5.0200000000000005,-0.0,-5.0,-0.0
5.03,-0.0,-5.0,-0.0
5.04,-0.0,-5.0,-0.0
5.05,-0.0,-5.0,-0.0
5.0600000000000005,-0.0,-5.0,-0.0
5.07,-0.0,-5.0,-0.0
5.08,-0.0,-5.0,-0.0
5.09,-0.0,-5.0,-0.0
5.1000000000000005,-0.0,-5.0,-0.0
5.11,-0.0,-5.0,-0.0
5.12,-0.0,-5.0,-0.0
5.13,-0.0,-5.0,-0.0
5.14,-0.0,-5.0,-0.0
5.15,-0.0,-5.0,-0.0
5.16,-0.0,-5.0,-0.0
5.17,-0.0,-5.0,-0.0
5.18,-0.0,-5.0,-0.0
5.19,-0.0,-5.0,-0.0
5.2,-0.0,-5.0,-0.0
5.21,-0.0,-5.0,-0.0
5.22,-0.0,-5.0,-0.0
5.23,-0.0,-5.0,-0.0
5.24,-0.0,-5.0,-0.0
5.25,-0.0,-5.0,-0.0
5.26,-0.0,-5.0,-0.0
5.2700000000000005,-0.0,-5.0,-0.0
5.28,-0.0,-5.0,-0.0
5.29,-0.0,-5.0,-0.0
5.3,-0.0,-5.0,-0.0
5.3100000000000005,-0.0,-5.0,-0.0
5.32,-0.0,-5.0,-0.0
5.33,-0.0,-5.0,-0.0
5.34,-0.0,-5.0,-0.0
5.3500000000000005,-0.0,-5.0,-0.0
5.36,-0.0,-5.0,-0.0
5.37,-0.0,-5.0,-0.0
5.38,-0.0,-5.0,-0.0
5.39,-0.0,-5.0,-0.0
5.4,-0.0,-5.0,-0.0
5.41,-0.0,-5.0,-0.0
5.42,-0.0,-5.0,-0.0
5.43,-0.0,-5.0,-0.0
5.44,-0.0,-5.0,-0.0
5.45,-0.0,-5.0,-0.0
5.46,-0.0,-5.0,-0.0
5.47,-0.0,-5.0,-0.0
5.48,-0.0,-5.0,-0.0
5.49,-0.0,-5.0,-0.0
5.5,-0.0,-5.0,-0.0
5.51,-0.0,-5.0,-0.0
5.5200000000000005,-0.0,-5.0,-0.0
5.53,-0.0,-5.0,-0.0
5.54,-0.0,-5.0,-0.0
5.55,-0.0,-5.0,-0.0
5.5600000000000005,-0.0,-5.0,-0.0
5.57,-0.0,-5.0,-0.0
5.58,-0.0,-5.0,-0.0
5.59,-0.0,-5.0,-0.0
5.6000000000000005,-0.0,-5.0,-0.0
5.61,-0.0,-5.0,-0.0
5.62,-0.0,-5.0,-0.0
5.63,-0.0,-5.0,-0.0
5.64,-0.0,-5.0,-0.0
5.65,-0.0,-5.0,-0.0
5.66,-0.0,-5.0,-0.0
5.67,-0.0,-5.0,-0.0
5.68,-0.0,-5.0,-0.0
5.69,-0.0,-5.0,-0.0
5.7,-0.0,-5.0,-0.0
5.71,-0.0,-5.0,-0.0
5.72,-0.0,-5.0,-0.0
5.73,-0.0,-5.0,-0.0
5.74,-0.0,-5.0,-0.0
5.75,-0.0,-5.0,-0.0
5.76,-0.0,-5.0,-0.0
5.7700000000000005,-0.0,-5.0,-0.0
5.78,-0.0,-5.0,-0.0
5.79,-0.0,-5.0,-0.0
5.8,-0.0,-5.0,-0.0
5.8100000000000005,-0.0,-5.0,-0.0
5.82,-0.0,-5.0,-0.0
5.83,-0.0,-5.0,-0.0
5.84,-0.0,-5.0,-0.0
5.8500000000000005,-0.0,-5.0,-0.0
5.86,-0.0,-5.0,-0.0
5.87,-0.0,-5.0,-0.0
5.88,-0.0,-5.0,-0.0
5.89,-0.0,-5.0,-0.0
5.9,-0.0,-5.0,-0.0
5.91,-0.0,-5.0,-0.0
5.92,-0.0,-5.0,-0.0
5.93,-0.0,-5.0,-0.0
5.94,-0.0,-5.0,-0.0
5.95,-0.0,-5.0,-0.0
5.96,-0.0,-5.0,-0.0
5.97,-0.0,-5.0,-0.0
5.98,-0.0,-5.0,-0.0
5.99,-0.0,-5.0,-0.0
6.0,-0.0,-5.0,-0.0
6.01,-0.0,-5.0,-0.0
6.0200000000000005,-0.0,-5.0,-0.0
6.03,-0.0,-5.0,-0.0
6.04,-0.0,-5.0,-0.0
6.05,-0.0,-5.0,-0.0
6.0600000000000005,-0.0,-5.0,-0.0
6.07,-0.0,-5.0,-0.0
6.08,-0.0,-5.0,-0.0
6.09,-0.0,-5.0,-0.0
6.1000000000000005,-0.0,-5.0,-0.0
6.11,-0.0,-5.0,-0.0
6.12,-0.0,-5.0,-0.0
6.13,-0.0,-5.0,-0.0
6.140000000000001,-0.0,-5.0,-0.0
6.15,-0.0,-5.0,-0.0
6.16,-0.0,-5.0,-0.0
6.17,-0.0,-5.0,-0.0
6.18,-0.0,-5.0,-0.0
6.19,-0.0,-5.0,-0.0
6.2,-0.0,-5.0,-0.0
6.21,-0.0,-5.0,-0.0
6.22,-0.0,-5.0,-0.0
6.23,-0.0,-5.0,-0.0
6.24,-0.0,-5.0,-0.0
6.25,-0.0,-5.0,-0.0
6.26,-0.0,-5.0,-0.0
6.2700000000000005,-0.0,-5.0,-0.0
6.28,-0.0,-5.0,-0.0
6.29,-0.0,-5.0,-0.0
6.3,-0.0,-5.0,-0.0
6.3100000000000005,-0.0,-5.0,-0.0
6.32,-0.0,-5.0,-0.0
6.33,-0.0,-5.0,-0.0
6.34,-0.0,-5.0,-0.0
6.3500000000000005,-0.0,-5.0,-0.0
6.36,-0.0,-5.0,-0.0
6.37,-0.0,-5.0,-0.0
6.38,-0.0,-5.0,-0.0
6.390000000000001,-0.0,-5.0,-0.0
6.4,-0.0,-5.0,-0.0
6.41,-0.0,-5.0,-0.0
6.42,-0.0,-5.0,-0.0
6.43,-0.0,-5.0,-0.0
6.44,-0.0,-5.0,-0.0
6.45,-0.0,-5.0,-0.0
6.46,-0.0,-5.0,-0.0
6.47,-0.0,-5.0,-0.0
6.48,-0.0,-5.0,-0.0
6.49,-0.0,-5.0,-0.0
6.5,-0.0,-5.0,-0.0
6.51,-0.0,-5.0,-0.0
6.5200000000000005,-0.0,-5.0,-0.0
6.53,-0.0,-5.0,-0.0
6.54,-0.0,-5.0,-0.0
6.55,-0.0,-5.0,-0.0
6.5600000000000005,-0.0,-5.0,-0.0
6.57,-0.0,-5.0,-0.0
6.58,-0.0,-5.0,-0.0
6.59,-0.0,-5.0,-0.0
6.6000000000000005,-0.0,-5.0,-0.0
6.61,-0.0,-5.0,-0.0
6.62,-0.0,-5.0,-0.0
6.63,-0.0,-5.0,-0.0
6.640000000000001,-0.0,-5.0,-0.0
6.65,-0.0,-5.0,-0.0
6.66,-0.0,-5.0,-0.0
6.67,-0.0,-5.0,-0.0
6.68,-0.0,-5.0,-0.0
6.69,-0.0,-5.0,-0.0
6.7,-0.0,-5.0,-0.0
6.71,-0.0,-5.0,-0.0
6.72,-0.0,-5.0,-0.0
6.73,-0.0,-5.0,-0.0
6.74,-0.0,-5.0,-0.0
6.75,-0.0,-5.0,-0.0
6.76,-0.0,-5.0,-0.0
6.7700000000000005,-0.0,-5.0,-0.0
6.78,-0.0,-5.0,-0.0
6.79,-0.0,-5.0,-0.0
6.8,-0.0,-5.0,-0.0
6.8100000000000005,-0.0,-5.0,-0.0
6.82,-0.0,-5.0,-0.0
6.83,-0.0,-5.0,-0.0
6.84,-0.0,-5.0,-0.0
6.8500000000000005,-0.0,-5.0,-0.0
6.86,-0.0,-5.0,-0.0
6.87,-0.0,-5.0,-0.0
6.88,-0.0,-5.0,-0.0
6.890000000000001,-0.0,-5.0,-0.0
6.9,-0.0,-5.0,-0.0
6.91,-0.0,-5.0,-0.0
6.92,-0.0,-5.0,-0.0
6.93,-0.0,-5.0,-0.0
6.94,-0.0,-5.0,-0.0
6.95,-0.0,-5.0,-0.0
6.96,-0.0,-5.0,-0.0
6.97,-0.0,-5.0,-0.0
6.98,-0.0,-5.0,-0.0
6.99,-0.0,-5.0,-0.0
7.0,-0.0,-5.0,-0.0
7.01,-0.0,-5.0,-0.0
7.0200000000000005,-0.0,-5.0,-0.0
7.03,-0.0,-5.0,-0.0
7.04,-0.0,-5.0,-0.0
7.05,-0.0,-5.0,-0.0
7.0600000000000005,-0.0,-5.0,-0.0
7.07,-0.0,-5.0,-0.0
7.08,-0.0,-5.0,-0.0
7.09,-0.0,-5.0,-0.0
7.1000000000000005,-0.0,-5.0,-0.0
7.11,-0.0,-5.0,-0.0
7.12,-0.0,-5.0,-0.0
7.13,-0.0,-5.0,-0.0
7.140000000000001,-0.0,-5.0,-0.0
7.15,-0.0,-5.0,-0.0
7.16,-0.0,-5.0,-0.0
7.17,-0.0,-5.0,-0.0
7.18,-0.0,-5.0,-0.0
7.19,-0.0,-5.0,-0.0
7.2,-0.0,-5.0,-0.0
7.21,-0.0,-5.0,-0.0
7.22,-0.0,-5.0,-0.0
7.23,-0.0,-5.0,-0.0
7.24,-0.0,-5.0,-0.0
7.25,-0.0,-5.0,-0.0
7.26,-0.0,-5.0,-0.0
7.2700000000000005,-0.0,-5.0,-0.0
7.28,-0.0,-5.0,-0.0
7.29,-0.0,-5.0,-0.0
7.3,-0.0,-5.0,-0.0
7.3100000000000005,-0.0,-5.0,-0.0
7.32,-0.0,-5.0,-0.0
7.33,-0.0,-5.0,-0.0
7.34,-0.0,-5.0,-0.0
7.3500000000000005,-0.0,-5.0,-0.0
7.36,-0.0,-5.0,-0.0
7.37,-0.0,-5.0,-0.0
7.38,-0.0,-5.0,-0.0
7.390000000000001,-0.0,-5.0,-0.0
7.4,-0.0,-5.0,-0.0
7.41,-0.0,-5.0,-0.0
7.42,-0.0,-5.0,-0.0
7.43,-0.0,-4.8995706206785,-0.0
7.44,-0.0,-4.799014692079416,-0.0
7.45,-0.0,-4.700319446582357,-0.0
7.46,-0.0,-4.603445950042135,-0.0
7.47,-0.0,-4.508356226508785,-0.0
7.48,-0.0,-4.415013230215105,-0.0
7.49,-0.0,-4.323380818524312,-0.0
7.5,-0.0,-4.233423725800681,-0.0
7.51,-0.0,-4.145107538167647,-0.0
7.5200000000000005,-0.0,-4.05859506641941,-0.0
7.53,-0.0,-3.9900146354777597,-0.0
7.54,-0.0,-3.922655156945249,-0.0
7.55,-0.0,-3.856492870168036,-0.0
7.5600000000000005,-0.0,-3.791504542096704,-0.0
7.57,-0.0,-3.7276674535267347,-0.0
7.58,-0.0,-3.6649593857595657,-0.0
7.59,-0.0,-3.60335860766955,-0.0
7.6000000000000005,-0.0,-3.5428438631626893,-0.0
7.61,-0.0,-3.483394359013573,-0.0
7.62,-0.0,-3.4249897530674667,-0.0
7.63,-0.0,-3.3676101427950003,-0.0
7.640000000000001,-0.0,-3.311236054187383,-0.0
7.65,-0.0,-3.2558484309805378,-0.0
7.66,-0.0,-3.201428624196979,-0.0
7.67,-0.0,-3.147958381994687,-0.0
7.68,-0.0,-3.0954198398126467,-0.0
7.69,-0.0,-3.0437955108030774,-0.0
7.7,-0.0,-2.993068276540794,-0.0
7.71,-0.0,-2.94322137800046,-0.0
7.72,-0.0,-2.894238406792864,-0.0
7.73,-0.0,-2.8461032966516515,-0.0
7.74,-0.0,-2.7988003151622998,-0.0
7.75,-0.0,-2.7523140557253787,-0.0
7.76,-0.0,-2.706629429746476,-0.0
7.7700000000000005,-0.0,-2.6617316590454076,-0.0
7.78,-0.0,-2.6176062684776276,-0.0
7.79,-0.0,-2.574239078760998,-0.0
7.8,-0.0,-2.531616199501332,-0.0
7.8100000000000005,-0.0,-2.489724022410342,-0.0
7.82,-0.0,-2.4485492147098893,-0.0
7.83,-0.0,-2.408078712716614,-0.0
7.84,-0.0,-2.368299715601248,-0.0
7.8500000000000005,-0.0,-2.329199679317133,-0.0
7.86,-0.0,-2.2907663106926206,-0.0
7.87,-0.0,-2.25298756168227,-0.0
7.88,-0.0,-2.215851623771879,-0.0
7.890000000000001,-0.0,-2.1793469225326123,-0.0
7.9,-0.0,-2.1434621123196256,-0.0
7.91,-0.0,-2.1081860711107403,-0.0
7.92,-0.0,-2.073507895480903,-0.0
7.930000000000001,-0.0,-2.0394168957082828,-0.0
7.94,-0.0,-2.005902591008026,-0.0
7.95,-0.0,-1.9729547048898002,-0.0
7.96,-0.0,-1.9405631606354163,-0.0
7.97,-0.0,-1.908718076892926,-0.0
7.98,-0.0,-1.877409763383715,-0.0
7.99,-0.0,-1.8466287167192443,-0.0
8.0,-0.0,-1.816365616324185,-0.0
8.01,-0.0,-1.7866113204628162,-0.0
8.02,-0.0,-1.7573568623656526,-0.0
8.03,-0.0,-1.7285934464533697,-0.0
8.040000000000001,-0.0,-1.7003124446551938,-0.0
8.05,-0.0,-1.6725053928190188,-0.0
8.06,-0.0,-1.6451639872105974,-0.0
8.07,-0.0,-1.6182800810992446,-0.0
8.08,-0.0,-1.591845681427573,-0.0
8.09,-0.0,-1.565852945562865,-0.0
8.1,-0.0,-1.540294178127756,-0.0
8.11,-0.0,-1.5151618279079881,-0.0
8.120000000000001,-0.0,-1.4904484848350552,-0.0
8.13,-0.0,-1.4661468770416417,-0.0
8.14,-0.0,-1.442249867987814,-0.0
8.15,-0.0,-1.4187504536559952,-0.0
8.16,-0.0,-1.3956417598128112,-0.0
8.17,-0.0,-1.3729170393359662,-0.0
8.18,-0.0,-1.3505696696043483,-0.0
8.19,-0.0,-1.328593149949638,-0.0
8.2,-0.0,-1.306981099167737,-0.0
8.21,-0.0,-1.285727253088388,-0.0
8.22,-0.0,-1.2648254622014123,-0.0
8.23,-0.0,-1.2442696893380345,-0.0
8.24,-0.0,-1.224054007405811,-0.0
8.25,-0.0,-1.204172597175735,-0.0
8.26,-0.0,-1.184619745120115,-0.0
8.27,-0.0,-1.1653898412998847,-0.0
8.28,-0.0,-1.146477377300036,-0.0
8.290000000000001,-0.0,-1.127876944211905,-0.0
8.3,-0.0,-1.109583230661078,-0.0
8.31,-0.0,-1.09159102087973,-0.0
8.32,-0.0,-1.073895192822232,-0.0
8.33,-0.0,-1.0564907163229098,-0.0
8.34,-0.0,-1.0393726512948593,-0.0
8.35,-0.0,-1.0225361459687647,-0.0
8.36,-0.0,-1.0059764351706912,-0.0
8.370000000000001,-0.0,-0.9896888386378577,-0.0
8.38,-0.0,-0.9736687593714215,-0.0
8.39,-0.0,-0.9579116820253372,-0.0
8.4,-0.0,-0.942413171330378,-0.0
8.41,-0.0,-0.9271688705524359,-0.0
8.42,-0.0,-0.9121744999842377,-0.0
8.43,-0.0,-0.8974258554696485,-0.0
8.44,-0.0,-0.8829188069597456,-0.0
8.45,-0.0,-0.868649297099879,-0.0
8.46,-0.0,-0.8546133398469541,-0.0
8.47,-0.0,-0.8408070191161892,-0.0
8.48,-0.0,-0.8272264874566301,-0.0
8.49,-0.0,-0.8138679647547169,-0.0
8.5,-0.0,-0.8007277369652211,-0.0
8.51,-0.0,-0.7878021548688913,-0.0
8.52,-0.0,-0.77508763285616,-0.0
8.53,-0.0,-0.7625806477362871,-0.0
8.540000000000001,-0.0,-0.7502777375713302,-0.0
8.55,-0.0,-0.738175500534347,-0.0
8.56,-0.0,-0.7262705937912556,-0.0
8.57,-0.0,-0.7145597324057906,-0.0
8.58,-0.0,-0.7030396882670111,-0.0
8.59,-0.0,-0.6917072890388278,-0.0
8.6,-0.0,-0.6805594171310337,-0.0
8.61,-0.0,-0.6695930086913384,-0.0
8.620000000000001,-0.0,-0.6588050526179134,-0.0
8.63,-0.0,-0.6481925895919755,-0.0
8.64,-0.0,-0.6377527111299421,-0.0
8.65,-0.0,-0.6274825586547133,-0.0
8.66,-0.0,-0.6173793225856344,-0.0
8.67,-0.0,-0.6074402414467188,-0.0
8.68,-0.0,-0.5976626009927085,-0.0
8.69,-0.0,-0.588043733352574,-0.0
8.700000000000001,-0.0,-0.5785810161900526,-0.0
8.71,-0.0,-0.5692718718808456,-0.0
8.72,-0.0,-0.5601137667060969,-0.0
8.73,-0.0,-0.5511042100617904,-0.0
8.74,-0.0,-0.5422407536837094,-0.0
8.75,-0.0,-0.5335209908876125,-0.0
8.76,-0.0,-0.5249425558242891,-0.0
8.77,-0.0,-0.5165031227491643,-0.0
8.78,-0.0,-0.5082004053061353,-0.0
8.790000000000001,-0.0,-0.5000321558253226,-0.0
8.8,-0.0,-0.4919961646344365,-0.0
8.81,-0.0,-0.48409025938345945,-0.0
8.82,-0.0,-0.4763123043823536,-0.0
8.83,-0.0,-0.46866019995151503,-0.0
8.84,-0.0,-0.46113188178469555,-0.0
8.85,-0.0,-0.4537253203241264,-0.0
8.86,-0.0,-0.4464385201475805,-0.0
8.870000000000001,-0.0,-0.43926951936711894,-0.0
8.88,-0.0,-0.4322163890392719,-0.0
8.89,-0.0,-0.42527723258641087,-0.0
8.9,-0.0,-0.41845018522907546,-0.0
8.91,-0.0,-0.41173341342902386,-0.0
8.92,-0.0,-0.40512511434278,-0.0
8.93,-0.0,-0.39862351528545725,-0.0
8.94,-0.0,-0.39222687320464483,-0.0
8.950000000000001,-0.0,-0.38593347416414525,-0.0
8.96,-0.0,-0.3797416328373592,-0.0
8.97,-0.0,-0.37364969201011644,-0.0
8.98,-0.0,-0.3676560220927591,-0.0
8.99,-0.0,-0.3617590206412843,-0.0
9.0,-0.0,-0.3559571118873621,-0.0
