# results of the dFBA model 
# the columns are: t and the concentrations in each compounds
# the compounds are: galactose, glucose, thiosulfate, butyrate, Fprau, Styphi,  
# the nominal flux is: -5.0, -5.0, -5.0, -5.0, -5.0, -5.0,  
# the initial concentration are: 50.0, 0.0, 0.0, 69.0, 0.4162624257031923, 0.5712326517427727,  
t,galactose,glucose,thiosulfate,butyrate,Fprau,Styphi
0.0,50.0,0.0,0.0,69.0,0.4162624257031923,0.5712326517427727
0.01,49.951846772667906,0.0,0.0,69.02558110828816,0.416862832695568,0.5712326517427727
0.02,49.903663627559844,0.0,0.0,69.05119911415666,0.4174641057006661,0.5712326517427727
0.03,49.855450521720456,0.0,0.0,69.07685407082566,0.4180662459676026,0.5712326517427727
0.04,49.80720741213343,0.0,0.0,69.10254603159214,0.4186692547472954,0.5712326517427727
0.05,49.75893425572141,0.0,0.0,69.12827504982991,0.41927313329246646,0.5712326517427727
0.06,49.71063100934591,0.0,0.0,69.15404117898979,0.41987788285764477,0.5712326517427727
0.07,49.66229762980728,0.0,0.0,69.17984447259968,0.42048350469916884,0.5712326517427727
0.08,49.61393407384456,0.0,0.0,69.2056849842647,0.42109000007518926,0.5712326517427727
0.09,49.56554029813543,0.0,0.0,69.2315627676673,0.4216973702456714,0.5712326517427727
0.1,49.51711625929613,0.0,0.0,69.25747787656734,0.42230561647239784,0.5712326517427727
0.11,49.46866191388136,0.0,0.0,69.2834303648022,0.4229147400189712,0.5712326517427727
0.12,49.420177218384225,0.0,0.0,69.30942028628697,0.4235247421508168,0.5712326517427727
0.13,49.37166212923611,0.0,0.0,69.33544769501447,0.424135624135185,0.5712326517427727
0.14,49.32311660280666,0.0,0.0,69.3615126450554,0.42474738724115413,0.5712326517427727
0.15,49.27454059540362,0.0,0.0,69.38761519055846,0.4253600327396329,0.5712326517427727
0.16,49.22593406327283,0.0,0.0,69.41375538575045,0.4259735619033633,0.5712326517427727
0.17,49.17729696259809,0.0,0.0,69.43993328493637,0.4265879760069229,0.5712326517427727
0.18,49.12862924950108,0.0,0.0,69.46614894249957,0.4272032763267279,0.5712326517427727
0.19,49.07993088004131,0.0,0.0,69.49240241290184,0.4278194641410354,0.5712326517427727
0.2,49.031201810216004,0.0,0.0,69.5186937506835,0.42843654072994636,0.5712326517427727
0.21,48.982441995960045,0.0,0.0,69.54502301046357,0.429054507375408,0.5712326517427727
0.22,48.93365139314585,0.0,0.0,69.57139024693983,0.4296733653612167,0.5712326517427727
0.23,48.88482995758333,0.0,0.0,69.59779551488896,0.4302931159730205,0.5712326517427727
0.24,48.83597764501979,0.0,0.0,69.62423886916665,0.43091376049832186,0.5712326517427727
0.25,48.78709441113984,0.0,0.0,69.6507203647077,0.4315353002264803,0.5712326517427727
0.26,48.738180211565314,0.0,0.0,69.67724005652617,0.43215773644871497,0.5712326517427727
0.27,48.6892350018552,0.0,0.0,69.70379799971546,0.4327810704581076,0.5712326517427727
0.28,48.64025873750553,0.0,0.0,69.73039424944844,0.433405303549605,0.5712326517427727
0.29,48.59125137394934,0.0,0.0,69.75702886097754,0.4340304370200217,0.5712326517427727
0.3,48.54221286655652,0.0,0.0,69.78370188963491,0.4346564721680428,0.5712326517427727
0.31,48.49314317063381,0.0,0.0,69.81041339083251,0.43528341029422657,0.5712326517427727
0.32,48.444042241424626,0.0,0.0,69.83716342006218,0.43591125270100717,0.5712326517427727
0.33,48.39491003410907,0.0,0.0,69.86395203289587,0.4365400006926973,0.5712326517427727
0.34,48.34574650380378,0.0,0.0,69.89077928498563,0.43716965557549115,0.5712326517427727
0.35000000000000003,48.296551605561866,0.0,0.0,69.9176452320638,0.4378002186574667,0.5712326517427727
0.36,48.24732529437283,0.0,0.0,69.94454992994312,0.43843169124858883,0.5712326517427727
0.37,48.19806752516248,0.0,0.0,69.97149343451682,0.4390640746607118,0.5712326517427727
0.38,48.14877825279284,0.0,0.0,69.99847580175874,0.43969737020758215,0.5712326517427727
0.39,48.09945743206206,0.0,0.0,70.02549708772348,0.44033157920484123,0.5712326517427727
0.4,48.05010501770436,0.0,0.0,70.05255734854647,0.4409667029700281,0.5712326517427727
0.41000000000000003,48.00072096438993,0.0,0.0,70.07965664044411,0.4416027428225822,0.5712326517427727
0.42,47.95130522672481,0.0,0.0,70.1067950197139,0.44223970008384617,0.5712326517427727
0.43,47.90185775925088,0.0,0.0,70.13397254273453,0.44287757607706835,0.5712326517427727
0.44,47.852378516445704,0.0,0.0,70.161189265966,0.4435163721274058,0.5712326517427727
0.45,47.80286745272248,0.0,0.0,70.18844524594978,0.444156089561927,0.5712326517427727
0.46,47.75332452242996,0.0,0.0,70.21574053930885,0.4447967297096145,0.5712326517427727
0.47000000000000003,47.703749679852336,0.0,0.0,70.24307520274792,0.44543829390136774,0.5712326517427727
0.48,47.65414287920919,0.0,0.0,70.27044929305342,0.44608078347000585,0.5712326517427727
0.49,47.60450407465538,0.0,0.0,70.29786286709373,0.4467241997502704,0.5712326517427727
0.5,47.55483322028098,0.0,0.0,70.32531598181926,0.4473685440788281,0.5712326517427727
0.51,47.50513027011118,0.0,0.0,70.35280869426254,0.4480138177942737,0.5712326517427727
0.52,47.455395178106194,0.0,0.0,70.38034106153837,0.4486600222371326,0.5712326517427727
0.53,47.4056278981612,0.0,0.0,70.40791314084395,0.4493071587498639,0.5712326517427727
0.54,47.35582838410622,0.0,0.0,70.43552498945894,0.4499552286768629,0.5712326517427727
0.55,47.30599658970606,0.0,0.0,70.46317666474566,0.4506042333644641,0.5712326517427727
0.56,47.25613246866024,0.0,0.0,70.49086822414915,0.4512541741609439,0.5712326517427727
0.5700000000000001,47.20623597460286,0.0,0.0,70.51859972519732,0.45190505241652335,0.5712326517427727
0.58,47.15630706110256,0.0,0.0,70.54637122550102,0.45255686948337115,0.5712326517427727
0.59,47.10634568166239,0.0,0.0,70.57418278275424,0.4532096267156063,0.5712326517427727
0.6,47.05635178971977,0.0,0.0,70.60203445473415,0.45386332546930086,0.5712326517427727
0.61,47.006325338646384,0.0,0.0,70.6299262993013,0.45451796710248293,0.5712326517427727
0.62,46.956266281748086,0.0,0.0,70.65785837439965,0.45517355297513945,0.5712326517427727
0.63,46.90617457226483,0.0,0.0,70.68583073805678,0.45583008444921885,0.5712326517427727
0.64,46.85605016337058,0.0,0.0,70.71384344838393,0.45648756288863407,0.5712326517427727
0.65,46.80589300817322,0.0,0.0,70.74189656357618,0.45714598965926534,0.5712326517427727
0.66,46.75570305971447,0.0,0.0,70.76999014191253,0.457805366128963,0.5712326517427727
0.67,46.70548027096979,0.0,0.0,70.79812424175607,0.4584656936675503,0.5712326517427727
0.68,46.6552245948483,0.0,0.0,70.82629892155406,0.4591269736468263,0.5712326517427727
0.6900000000000001,46.60493598419272,0.0,0.0,70.85451423983804,0.4597892074405688,0.5712326517427727
0.7000000000000001,46.55461439177924,0.0,0.0,70.882770255224,0.46045239642453695,0.5712326517427727
0.71,46.50425977031746,0.0,0.0,70.91106702641247,0.4611165419764744,0.5712326517427727
0.72,46.45387207245031,0.0,0.0,70.93940461218864,0.4617816454761119,0.5712326517427727
0.73,46.40345125075393,0.0,0.0,70.96778307142252,0.4624477083051704,0.5712326517427727
0.74,46.35299725773763,0.0,0.0,70.99620246306898,0.4631147318473638,0.5712326517427727
0.75,46.30251004584376,0.0,0.0,71.02466284616798,0.4637827174884018,0.5712326517427727
0.76,46.25198956744766,0.0,0.0,71.05316427984461,0.46445166661599274,0.5712326517427727
0.77,46.20143577485754,0.0,0.0,71.08170682330923,0.46512158061984676,0.5712326517427727
0.78,46.150848620314434,0.0,0.0,71.11029053585763,0.4657924608916783,0.5712326517427727
0.79,46.100228055992055,0.0,0.0,71.1389154768711,0.46646430882520923,0.5712326517427727
0.8,46.04957403399677,0.0,0.0,71.16758170581662,0.4671371258161717,0.5712326517427727
0.81,45.998886506367484,0.0,0.0,71.1962892822469,0.4678109132623111,0.5712326517427727
0.8200000000000001,45.94816542507554,0.0,0.0,71.22503826580055,0.46848567256338874,0.5712326517427727
0.8300000000000001,45.897410742024654,0.0,0.0,71.25382871620225,0.46916140512118504,0.5712326517427727
0.84,45.84662240905084,0.0,0.0,71.28266069326277,0.4698381123395023,0.5712326517427727
0.85,45.795800377922276,0.0,0.0,71.31153425687918,0.4705157956241675,0.5712326517427727
0.86,45.744944600339274,0.0,0.0,71.34044946703494,0.4711944563830356,0.5712326517427727
0.87,45.69405502793414,0.0,0.0,71.36940638380003,0.47187409602599195,0.5712326517427727
0.88,45.64313161227113,0.0,0.0,71.39840506733104,0.47255471596495563,0.5712326517427727
0.89,45.59217430484633,0.0,0.0,71.42744557787138,0.47323631761388224,0.5712326517427727
0.9,45.54118305708761,0.0,0.0,71.45652797575133,0.4739189023887668,0.5712326517427727
0.91,45.49015782035448,0.0,0.0,71.48565232138819,0.4746024717076468,0.5712326517427727
0.92,45.43909854593807,0.0,0.0,71.51481867528639,0.47528702699060493,0.5712326517427727
0.93,45.388005185060976,0.0,0.0,71.54402709803766,0.47597256965977225,0.5712326517427727
0.9400000000000001,45.3368776888772,0.0,0.0,71.5732776503211,0.47665910113933113,0.5712326517427727
0.9500000000000001,45.2857160084721,0.0,0.0,71.60257039290335,0.47734662285551804,0.5712326517427727
0.96,45.23452009486224,0.0,0.0,71.63190538663868,0.4780351362366267,0.5712326517427727
0.97,45.18328989899535,0.0,0.0,71.66128269246914,0.4787246427130109,0.5712326517427727
0.98,45.13202537175021,0.0,0.0,71.6907023714247,0.47941514371708766,0.5712326517427727
0.99,45.08072646393657,0.0,0.0,71.72016448462335,0.4801066406833399,0.5712326517427727
1.0,45.02939312629508,0.0,0.0,71.74966909327122,0.4807991350483198,0.5712326517427727
1.01,44.978025309497184,0.0,0.0,71.77921625866274,0.48149262825065137,0.5712326517427727
1.02,44.926622964145025,0.0,0.0,71.80880604218073,0.48218712173103384,0.5712326517427727
1.03,44.87518604077139,0.0,0.0,71.83843850529658,0.48288261693224444,0.5712326517427727
1.04,44.82371448983958,0.0,0.0,71.8681137095703,0.4835791152991413,0.5712326517427727
1.05,44.77220826174337,0.0,0.0,71.89783171665071,0.4842766182786668,0.5712326517427727
1.06,44.72066730680688,0.0,0.0,71.92759258827559,0.48497512731985015,0.5712326517427727
1.07,44.6690915752845,0.0,0.0,71.95739638627171,0.4856746438738107,0.5712326517427727
1.08,44.61748101736081,0.0,0.0,71.98724317255505,0.48637516939376085,0.5712326517427727
1.09,44.56583558315051,0.0,0.0,72.0171330091309,0.4870767053350091,0.5712326517427727
1.1,44.51415522269827,0.0,0.0,72.04706595809397,0.4877792531549629,0.5712326517427727
1.11,44.462439885978725,0.0,0.0,72.07704208162853,0.4884828143131321,0.5712326517427727
1.12,44.41068952289631,0.0,0.0,72.10706144200857,0.48918739027113156,0.5712326517427727
1.1300000000000001,44.358904083285246,0.0,0.0,72.13712410159788,0.48989298249268426,0.5712326517427727
1.1400000000000001,44.30708351690938,0.0,0.0,72.16723012285019,0.49059959244362455,0.5712326517427727
1.1500000000000001,44.25522777346214,0.0,0.0,72.19737956830933,0.491307221591901,0.5712326517427727
1.16,44.203336802566454,0.0,0.0,72.22757250060936,0.4920158714075796,0.5712326517427727
1.17,44.15141055377463,0.0,0.0,72.25780898247464,0.4927255433628465,0.5712326517427727
1.18,44.09944897656829,0.0,0.0,72.28808907672004,0.49343623893201166,0.5712326517427727
1.19,44.04745202035829,0.0,0.0,72.31841284625101,0.49414795959151125,0.5712326517427727
1.2,43.995419634484605,0.0,0.0,72.34878035406373,0.4948607068199111,0.5712326517427727
1.21,43.94335176821626,0.0,0.0,72.37919166324528,0.4955744820979098,0.5712326517427727
1.22,43.891248370751235,0.0,0.0,72.40964683697368,0.4962892869083414,0.5712326517427727
1.23,43.8391093912164,0.0,0.0,72.44014593851813,0.49700512273617903,0.5712326517427727
1.24,43.78693477866737,0.0,0.0,72.47068903123905,0.49772199106853754,0.5712326517427727
1.25,43.7347244820885,0.0,0.0,72.50127617858826,0.49843989339467687,0.5712326517427727
1.26,43.68247845039273,0.0,0.0,72.53190744410911,0.49915883120600496,0.5712326517427727
1.27,43.6301966324215,0.0,0.0,72.5625828914366,0.499878805996081,0.5712326517427727
1.28,43.57787897694472,0.0,0.0,72.59330258429753,0.5005998192606183,0.5712326517427727
1.29,43.525525432660615,0.0,0.0,72.62406658651058,0.5013218724974877,0.5712326517427727
1.3,43.473135948195676,0.0,0.0,72.65487496198651,0.5020449672067205,0.5712326517427727
1.31,43.42071047210456,0.0,0.0,72.68572777472825,0.5027691048905116,0.5712326517427727
1.32,43.36824895287001,0.0,0.0,72.71662508883105,0.5034942870532226,0.5712326517427727
1.33,43.31575133890276,0.0,0.0,72.74756696848263,0.504220515201385,0.5712326517427727
1.34,43.263217578541436,0.0,0.0,72.77855347796326,0.5049477908437032,0.5712326517427727
1.35,43.210647620052505,0.0,0.0,72.80958468164594,0.5056761154910578,0.5712326517427727
1.36,43.158041411630144,0.0,0.0,72.84066064399653,0.5064054906565086,0.5712326517427727
1.37,43.105398901396185,0.0,0.0,72.87178142957386,0.507135917855298,0.5712326517427727
1.3800000000000001,43.05272003739999,0.0,0.0,72.90294710302987,0.5078673986048536,0.5712326517427727
1.3900000000000001,43.00000476761842,0.0,0.0,72.93415772910978,0.508599934424792,0.5712326517427727
1.4000000000000001,42.94725303995569,0.0,0.0,72.96541337265218,0.5093335268369216,0.5712326517427727
1.41,42.89446480224331,0.0,0.0,72.99671409858918,0.5100681773652456,0.5712326517427727
1.42,42.841640002240005,0.0,0.0,73.02805997194656,0.5108038875359656,0.5712326517427727
1.43,42.788778587631604,0.0,0.0,73.05945105784387,0.5115406588774847,0.5712326517427727
1.44,42.73588050603096,0.0,0.0,73.09088742149461,0.5122784929204102,0.5712326517427727
1.45,42.682945704977875,0.0,0.0,73.12236912820633,0.5130173911975572,0.5712326517427727
1.46,42.629974131939,0.0,0.0,73.15389624338077,0.5137573552439518,0.5712326517427727
1.47,42.576965734307755,0.0,0.0,73.18546883251402,0.5144983865968342,0.5712326517427727
1.48,42.52392045940423,0.0,0.0,73.21708696119663,0.5152404867956618,0.5712326517427727
1.49,42.470838254475105,0.0,0.0,73.24875069511376,0.5159836573821124,0.5712326517427727
1.5,42.417719066693564,0.0,0.0,73.28046010004532,0.5167278999000876,0.5712326517427727
1.51,42.36456284315922,0.0,0.0,73.31221524186608,0.5174732158957159,0.5712326517427727
1.52,42.311369530897984,0.0,0.0,73.34401618654586,0.5182196069173559,0.5712326517427727
1.53,42.25813907686203,0.0,0.0,73.37586300014958,0.5189670745155994,0.5712326517427727
1.54,42.20487142792968,0.0,0.0,73.4077557488375,0.5197156202432749,0.5712326517427727
1.55,42.15156653090532,0.0,0.0,73.4396944988653,0.5204652456554505,0.5712326517427727
1.56,42.09822433251931,0.0,0.0,73.47167931658419,0.5212159523094373,0.5712326517427727
1.57,42.0448447794279,0.0,0.0,73.50371026844111,0.5219677417647928,0.5712326517427727
1.58,41.99142781821316,0.0,0.0,73.53578742097886,0.5227206155833238,0.5712326517427727
1.59,41.937973395382855,0.0,0.0,73.56791084083619,0.52347457532909,0.5712326517427727
1.6,41.88448145737039,0.0,0.0,73.60008059474798,0.5242296225684069,0.5712326517427727
1.61,41.83095195053471,0.0,0.0,73.63229674954536,0.5249857588698491,0.5712326517427727
1.62,41.777384821160226,0.0,0.0,73.66455937215586,0.5257429858042539,0.5712326517427727
1.6300000000000001,41.7237800154567,0.0,0.0,73.69686852960355,0.5265013049447244,0.5712326517427727
1.6400000000000001,41.67013747955917,0.0,0.0,73.72922428900917,0.5272607178666323,0.5712326517427727
1.6500000000000001,41.6164571595279,0.0,0.0,73.76162671759026,0.5280212261476221,0.5712326517427727
1.6600000000000001,41.562739001348234,0.0,0.0,73.79407588266135,0.5287828313676136,0.5712326517427727
1.67,41.50898295093055,0.0,0.0,73.82657185163401,0.5295455351088053,0.5712326517427727
1.68,41.455188954110156,0.0,0.0,73.85911469201709,0.5303093389556781,0.5712326517427727
1.69,41.401356956647206,0.0,0.0,73.89170447141679,0.5310742444949981,0.5712326517427727
1.7,41.34748690422663,0.0,0.0,73.92434125753682,0.5318402533158202,0.5712326517427727
1.71,41.293578742458,0.0,0.0,73.95702511817856,0.5326073670094914,0.5712326517427727
1.72,41.239632416875516,0.0,0.0,73.98975612124119,0.5333755871696539,0.5712326517427727
1.73,41.18564787293786,0.0,0.0,74.02253433472178,0.5341449153922486,0.5712326517427727
1.74,41.13162505602811,0.0,0.0,74.05535982671555,0.5349153532755183,0.5712326517427727
1.75,41.07756391145372,0.0,0.0,74.08823266541586,0.535686902420011,0.5712326517427727
1.76,41.023464384446356,0.0,0.0,74.1211529191145,0.5364595644285836,0.5712326517427727
1.77,40.96932642016185,0.0,0.0,74.15412065620171,0.5372333409064044,0.5712326517427727
1.78,40.91514996368009,0.0,0.0,74.18713594516642,0.5380082334609574,0.5712326517427727
1.79,40.86093496000498,0.0,0.0,74.2201988545963,0.538784243702045,0.5712326517427727
1.8,40.8066813540643,0.0,0.0,74.25330945317799,0.5395613732417918,0.5712326517427727
1.81,40.75238909070966,0.0,0.0,74.28646780969719,0.5403396236946473,0.5712326517427727
1.82,40.69805811471639,0.0,0.0,74.31967399303879,0.5411189966773898,0.5712326517427727
1.83,40.643688370783465,0.0,0.0,74.35292807218707,0.5418994938091297,0.5712326517427727
1.84,40.589279803533415,0.0,0.0,74.38623011622579,0.5426811167113128,0.5712326517427727
1.85,40.534832357512244,0.0,0.0,74.41958019433837,0.5434638670077233,0.5712326517427727
1.86,40.48034597718936,0.0,0.0,74.45297837580802,0.5442477463244879,0.5712326517427727
1.87,40.425820606957444,0.0,0.0,74.48642473001786,0.5450327562900786,0.5712326517427727
1.8800000000000001,40.37125619113242,0.0,0.0,74.5199193264511,0.5458188985353163,0.5712326517427727
1.8900000000000001,40.31665267395333,0.0,0.0,74.5534622346912,0.5466061746933741,0.5712326517427727
1.9000000000000001,40.262009999582276,0.0,0.0,74.58705352442192,0.5473945863997809,0.5712326517427727
1.9100000000000001,40.207328112104314,0.0,0.0,74.62069326542759,0.5481841352924244,0.5712326517427727
1.92,40.152606955527375,0.0,0.0,74.65438152759317,0.548974823011555,0.5712326517427727
1.93,40.0978464737822,0.0,0.0,74.68811838090443,0.5497666511997888,0.5712326517427727
1.94,40.04304661072223,0.0,0.0,74.72190389544807,0.5505596215021114,0.5712326517427727
1.95,39.988207310123535,0.0,0.0,74.75573814141188,0.5513537355658806,0.5712326517427727
1.96,39.93332851568472,0.0,0.0,74.78962118908491,0.5521489950408309,0.5712326517427727
1.97,39.878410171026864,0.0,0.0,74.8235531088576,0.5529454015790759,0.5712326517427727
1.98,39.82345221969341,0.0,0.0,74.85753397122187,0.5537429568351124,0.5712326517427727
1.99,39.76845460515008,0.0,0.0,74.89156384677136,0.5545416624658236,0.5712326517427727
2.0,39.71341727078484,0.0,0.0,74.92564280620152,0.5553415201304823,0.5712326517427727
2.0100000000000002,39.65834015990774,0.0,0.0,74.95977092030977,0.556142531490755,0.5712326517427727
2.02,39.603223215750894,0.0,0.0,74.99394825999563,0.5569446982107046,0.5712326517427727
2.0300000000000002,39.548066381468374,0.0,0.0,75.02817489626092,0.5577480219567944,0.5712326517427727
2.04,39.492869600136125,0.0,0.0,75.06245090020984,0.5585525043978913,0.5712326517427727
2.05,39.43763281475188,0.0,0.0,75.09677634304916,0.5593581472052692,0.5712326517427727
2.06,39.38235596823508,0.0,0.0,75.13115129608835,0.560164952052613,0.5712326517427727
2.07,39.3270390034268,0.0,0.0,75.16557583073974,0.5609729206160211,0.5712326517427727
2.08,39.271681863089654,0.0,0.0,75.20005001851868,0.5617820545740101,0.5712326517427727
2.09,39.21628448990774,0.0,0.0,75.23457393104364,0.5625923556075172,0.5712326517427727
2.1,39.16084682648652,0.0,0.0,75.26914764003642,0.5634038253999042,0.5712326517427727
2.11,39.10536881535275,0.0,0.0,75.30377121732225,0.5642164656369612,0.5712326517427727
2.12,39.04985039895441,0.0,0.0,75.33844473482996,0.5650302780069095,0.5712326517427727
2.13,38.994291519660635,0.0,0.0,75.37316826459215,0.5658452642004058,0.5712326517427727
2.14,38.9386921197616,0.0,0.0,75.4079418787453,0.566661425910545,0.5712326517427727
2.15,38.88305214146845,0.0,0.0,75.44276564952993,0.5674787648328644,0.5712326517427727
2.16,38.827371526913225,0.0,0.0,75.47763964929078,0.5682972826653467,0.5712326517427727
2.17,38.7716502181488,0.0,0.0,75.51256395047692,0.5691169811084239,0.5712326517427727
2.18,38.71588815714877,0.0,0.0,75.54753862564192,0.5699378618649804,0.5712326517427727
2.19,38.66008528580738,0.0,0.0,75.58256374744403,0.570759926640357,0.5712326517427727
2.2,38.604241545939445,0.0,0.0,75.61763938864625,0.5715831771423543,0.5712326517427727
2.21,38.54835687928029,0.0,0.0,75.65276562211658,0.5724076150812359,0.5712326517427727
2.22,38.492431227485646,0.0,0.0,75.68794252082807,0.5732332421697326,0.5712326517427727
2.23,38.43646453213159,0.0,0.0,75.72317015785909,0.5740600601230453,0.5712326517427727
2.24,38.38045673471443,0.0,0.0,75.75844860639336,0.5748880706588492,0.5712326517427727
2.25,38.324407776650666,0.0,0.0,75.79377793972017,0.5757172754972967,0.5712326517427727
2.2600000000000002,38.268317599276905,0.0,0.0,75.82915823123456,0.5765476763610214,0.5712326517427727
2.27,38.21218614384977,0.0,0.0,75.86458955443739,0.5773792749751417,0.5712326517427727
2.2800000000000002,38.156013351545816,0.0,0.0,75.90007198293554,0.5782120730672643,0.5712326517427727
2.29,38.099799163461476,0.0,0.0,75.93560559044208,0.5790460723674875,0.5712326517427727
2.3000000000000003,38.04354352061297,0.0,0.0,75.97119045077639,0.5798812746084052,0.5712326517427727
2.31,37.987246363936215,0.0,0.0,76.00682663786432,0.5807176815251105,0.5712326517427727
2.32,37.93090763428678,0.0,0.0,76.04251422573837,0.5815552948551989,0.5712326517427727
2.33,37.87452727243978,0.0,0.0,76.0782532885378,0.5823941163387722,0.5712326517427727
2.34,37.818105219089794,0.0,0.0,76.1140439005088,0.5832341477184424,0.5712326517427727
2.35,37.761641414850835,0.0,0.0,76.14988613600468,0.5840753907393346,0.5712326517427727
2.36,37.70513580025622,0.0,0.0,76.18578006948599,0.5849178471490912,0.5712326517427727
2.37,37.64858831575854,0.0,0.0,76.22172577552064,0.5857615186978754,0.5712326517427727
2.38,37.59199890172954,0.0,0.0,76.25772332878415,0.5866064071383748,0.5712326517427727
2.39,37.535367498460076,0.0,0.0,76.29377280405973,0.5874525142258048,0.5712326517427727
2.4,37.47869404616004,0.0,0.0,76.32987427623843,0.5882998417179128,0.5712326517427727
2.41,37.42197848495826,0.0,0.0,76.36602782031936,0.5891483913749814,0.5712326517427727
2.42,37.36522075490245,0.0,0.0,76.40223351140979,0.5899981649598321,0.5712326517427727
2.43,37.308420795959144,0.0,0.0,76.43849142472531,0.5908491642378293,0.5712326517427727
2.44,37.251578548013576,0.0,0.0,76.47480163559003,0.5917013909768833,0.5712326517427727
2.45,37.19469395086966,0.0,0.0,76.51116421943667,0.5925548469474549,0.5712326517427727
2.46,37.13776694424989,0.0,0.0,76.54757925180677,0.5934095339225581,0.5712326517427727
2.47,37.08079746779527,0.0,0.0,76.58404680835083,0.5942654536777646,0.5712326517427727
2.48,37.02378546106525,0.0,0.0,76.62056696482848,0.595122607991207,0.5712326517427727
2.49,36.96673086353765,0.0,0.0,76.6571397971086,0.5959809986435826,0.5712326517427727
2.5,36.909633614608566,0.0,0.0,76.69376538116951,0.5968406274181571,0.5712326517427727
2.5100000000000002,36.852493653592354,0.0,0.0,76.73044379309913,0.5977014961007686,0.5712326517427727
2.52,36.7953109197215,0.0,0.0,76.76717510909509,0.5985636064798309,0.5712326517427727
2.5300000000000002,36.738085352146584,0.0,0.0,76.80395940546498,0.5994269603463371,0.5712326517427727
2.54,36.6808168899362,0.0,0.0,76.84079675862641,0.600291559493864,0.5712326517427727
2.5500000000000003,36.6235054720769,0.0,0.0,76.87768724510725,0.6011574057185752,0.5712326517427727
2.56,36.5661510374731,0.0,0.0,76.91463094154572,0.6020245008192252,0.5712326517427727
2.57,36.50875352494701,0.0,0.0,76.9516279246906,0.6028928465971627,0.5712326517427727
2.58,36.45131287323862,0.0,0.0,76.98867827140135,0.6037624448563348,0.5712326517427727
2.59,36.39382902100556,0.0,0.0,77.02578205864832,0.6046332974032905,0.5712326517427727
2.6,36.33630190682306,0.0,0.0,77.06293936351285,0.6055054060471847,0.5712326517427727
2.61,36.27873146918392,0.0,0.0,77.10015026318749,0.6063787725997817,0.5712326517427727
2.62,36.221117646498364,0.0,0.0,77.1374148349761,0.6072533988754588,0.5712326517427727
2.63,36.163460377094076,0.0,0.0,77.17473315629407,0.6081292866912107,0.5712326517427727
2.64,36.105759599216036,0.0,0.0,77.21210530466843,0.6090064378666527,0.5712326517427727
2.65,36.04801525102651,0.0,0.0,77.24953135773805,0.6098848542240245,0.5712326517427727
2.66,35.99022727060498,0.0,0.0,77.28701139325378,0.6107645375881945,0.5712326517427727
2.67,35.932395595948066,0.0,0.0,77.32454548907859,0.6116454897866631,0.5712326517427727
2.68,35.87452016496947,0.0,0.0,77.3621337231878,0.6125277126495665,0.5712326517427727
2.69,35.81660091549991,0.0,0.0,77.39977617366917,0.6134112080096809,0.5712326517427727
2.7,35.758637785287064,0.0,0.0,77.43747291872312,0.6142959777024257,0.5712326517427727
2.71,35.700630711995494,0.0,0.0,77.47522403666282,0.6151820235658682,0.5712326517427727
2.72,35.6425796332066,0.0,0.0,77.51302960591444,0.6160693474407263,0.5712326517427727
2.73,35.584484486418546,0.0,0.0,77.55088970501725,0.6169579511703733,0.5712326517427727
2.74,35.526345209046205,0.0,0.0,77.58880441262382,0.6178478366008413,0.5712326517427727
2.75,35.468161738421095,0.0,0.0,77.62677380750013,0.6187390055808248,0.5712326517427727
2.7600000000000002,35.40993401179134,0.0,0.0,77.6647979685258,0.6196314599616851,0.5712326517427727
2.77,35.35166196632157,0.0,0.0,77.70287697469422,0.6205252015974537,0.5712326517427727
2.7800000000000002,35.2933455390929,0.0,0.0,77.74101090511272,0.6214202323448365,0.5712326517427727
2.79,35.23498466710284,0.0,0.0,77.77919983900271,0.6223165540632172,0.5712326517427727
2.8000000000000003,35.17657928726529,0.0,0.0,77.8174438556999,0.6232141686146616,0.5712326517427727
2.81,35.11812933641042,0.0,0.0,77.85574303465442,0.6241130778639213,0.5712326517427727
2.82,35.05963475128465,0.0,0.0,77.894097455431,0.6250132836784376,0.5712326517427727
2.83,35.001095468550574,0.0,0.0,77.9325071977091,0.6259147879283451,0.5712326517427727
2.84,34.94251142478694,0.0,0.0,77.97097234128316,0.6268175924864762,0.5712326517427727
2.85,34.88388255648857,0.0,0.0,78.00949296606267,0.6277216992283644,0.5712326517427727
2.86,34.8252088000663,0.0,0.0,78.0480691520724,0.6286271100322486,0.5712326517427727
2.87,34.76649009184694,0.0,0.0,78.08670097945256,0.6295338267790765,0.5712326517427727
2.88,34.70772636807321,0.0,0.0,78.12538852845891,0.6304418513525093,0.5712326517427727
2.89,34.64891756490371,0.0,0.0,78.16413187946301,0.6313511856389247,0.5712326517427727
2.9,34.590063618412856,0.0,0.0,78.20293111295234,0.6322618315274215,0.5712326517427727
2.91,34.53116446459082,0.0,0.0,78.24178630953045,0.6331737909098234,0.5712326517427727
2.92,34.4722200393435,0.0,0.0,78.28069754991716,0.6340870656806824,0.5712326517427727
2.93,34.413230278492435,0.0,0.0,78.31966491494873,0.6350016577372837,0.5712326517427727
2.94,34.354195117774815,0.0,0.0,78.358688485578,0.6359175689796486,0.5712326517427727
2.95,34.29511449284339,0.0,0.0,78.3977683428746,0.6368348013105393,0.5712326517427727
2.96,34.23598833926642,0.0,0.0,78.43690456802506,0.6377533566354624,0.5712326517427727
2.97,34.176816592527665,0.0,0.0,78.47609724233303,0.6386732368626729,0.5712326517427727
2.98,34.117599188026304,0.0,0.0,78.51534644721943,0.6395944439031782,0.5712326517427727
2.99,34.05833606107691,0.0,0.0,78.55465226422263,0.6405169796707422,0.5712326517427727
3.0,33.9990271469094,0.0,0.0,78.59401477499857,0.641440846081889,0.5712326517427727
3.0100000000000002,33.93967238066899,0.0,0.0,78.63343406132103,0.6423660450559073,0.5712326517427727
3.02,33.880271697416156,0.0,0.0,78.67291020508168,0.643292578514854,0.5712326517427727
3.0300000000000002,33.8208250321266,0.0,0.0,78.71244328829033,0.6442204483835583,0.5712326517427727
3.04,33.761332319691206,0.0,0.0,78.7520333930751,0.6451496565896256,0.5712326517427727
3.0500000000000003,33.70179349491598,0.0,0.0,78.79168060168253,0.6460802050634421,0.5712326517427727
3.06,33.64220849252205,0.0,0.0,78.83138499647782,0.6470120957381778,0.5712326517427727
3.0700000000000003,33.582577247145586,0.0,0.0,78.87114665994497,0.6479453305497912,0.5712326517427727
3.08,33.522899693337806,0.0,0.0,78.91096567468695,0.6488799114370335,0.5712326517427727
3.09,33.4631757655649,0.0,0.0,78.95084212342586,0.6498158403414519,0.5712326517427727
3.1,33.40340539820802,0.0,0.0,78.99077608900312,0.6507531192073943,0.5712326517427727
3.11,33.343588525563256,0.0,0.0,79.03076765437966,0.6516917499820131,0.5712326517427727
3.12,33.28372508184156,0.0,0.0,79.07081690263605,0.6526317346152689,0.5712326517427727
3.13,33.22381500116875,0.0,0.0,79.11092391697271,0.6535730750599352,0.5712326517427727
3.14,33.16385821758549,0.0,0.0,79.15108878071004,0.654515773271602,0.5712326517427727
3.15,33.103854665047216,0.0,0.0,79.19131157728863,0.6554598312086801,0.5712326517427727
3.16,33.04380427742413,0.0,0.0,79.23159239026944,0.656405250832405,0.5712326517427727
3.17,32.98370698850118,0.0,0.0,79.27193130333396,0.657352034106841,0.5712326517427727
3.18,32.923562731978045,0.0,0.0,79.31232840028434,0.6583001829988853,0.5712326517427727
3.19,32.86337144146905,0.0,0.0,79.35278376504364,0.6592496994782722,0.5712326517427727
3.2,32.80313305050321,0.0,0.0,79.39329748165595,0.6602005855175771,0.5712326517427727
3.21,32.74284749252417,0.0,0.0,79.4338696342866,0.6611528430922206,0.5712326517427727
3.22,32.68251470089019,0.0,0.0,79.4745003072223,0.6621064741804724,0.5712326517427727
3.23,32.62213460887412,0.0,0.0,79.51518958487135,0.6630614807634558,0.5712326517427727
3.24,32.56170714966339,0.0,0.0,79.55593755176379,0.6640178648251517,0.5712326517427727
3.25,32.501232256359984,0.0,0.0,79.59674429255158,0.6649756283524024,0.5712326517427727
3.2600000000000002,32.440709861980416,0.0,0.0,79.63760989200878,0.6659347733349162,0.5712326517427727
3.27,32.38013989945573,0.0,0.0,79.67853443503175,0.6668953017652712,0.5712326517427727
3.2800000000000002,32.31952230163145,0.0,0.0,79.71951800663926,0.6678572156389195,0.5712326517427727
3.29,32.258857001267636,0.0,0.0,79.76056069197276,0.6688205169541915,0.5712326517427727
3.3000000000000003,32.19814393103878,0.0,0.0,79.80166257629645,0.6697852077123,0.5712326517427727
3.31,32.13738302353385,0.0,0.0,79.84282374499756,0.670751289917344,0.5712326517427727
3.3200000000000003,32.076574211256286,0.0,0.0,79.88404428358645,0.6717187655763135,0.5712326517427727
3.33,32.015717426623965,0.0,0.0,79.92532427769683,0.6726876366990931,0.5712326517427727
3.34,31.9548126019692,0.0,0.0,79.96666381308593,0.6736579052984667,0.5712326517427727
3.35,31.893859669538735,0.0,0.0,80.00806297563467,0.674629573390121,0.5712326517427727
3.36,31.832858561493744,0.0,0.0,80.04952185134785,0.6756026429926503,0.5712326517427727
3.37,31.771809209909833,0.0,0.0,80.09104052635429,0.6765771161275604,0.5712326517427727
3.38,31.71071154677702,0.0,0.0,80.13261908690708,0.6775529948192732,0.5712326517427727
3.39,31.649565503999746,0.0,0.0,80.17425761938371,0.6785302810951301,0.5712326517427727
3.4,31.588371013396873,0.0,0.0,80.21595621028624,0.6795089769853969,0.5712326517427727
3.41,31.5271280067017,0.0,0.0,80.25771494624152,0.6804890845232678,0.5712326517427727
3.42,31.46583641556194,0.0,0.0,80.29953391400133,0.6814706057448696,0.5712326517427727
3.43,31.404496171539748,0.0,0.0,80.3414132004426,0.6824535426892661,0.5712326517427727
3.44,31.34310720611172,0.0,0.0,80.38335289256754,0.683437897398462,0.5712326517427727
3.45,31.2816694506689,0.0,0.0,80.42535307750389,0.6844236719174074,0.5712326517427727
3.46,31.2201828365168,0.0,0.0,80.46741384250501,0.685410868294002,0.5712326517427727
3.47,31.15864729487539,0.0,0.0,80.50953527495017,0.6863994885790995,0.5712326517427727
3.48,31.097062756879133,0.0,0.0,80.55171746234463,0.6873895348265114,0.5712326517427727
3.49,31.035429153577006,0.0,0.0,80.59396049231987,0.6883810090930118,0.5712326517427727
3.5,30.97374641593249,0.0,0.0,80.63626445263378,0.6893739134383413,0.5712326517427727
3.5100000000000002,30.912014474823604,0.0,0.0,80.67862943117085,0.6903682499252116,0.5712326517427727
3.52,30.850233261042934,0.0,0.0,80.72105551594228,0.6913640206193095,0.5712326517427727
3.5300000000000002,30.788402705297635,0.0,0.0,80.76354279508627,0.6923612275893011,0.5712326517427727
3.54,30.72652273820948,0.0,0.0,80.8060913568681,0.6933598729068366,0.5712326517427727
3.5500000000000003,30.664593290314865,0.0,0.0,80.84870128968039,0.6943599586465543,0.5712326517427727
3.56,30.602614292064853,0.0,0.0,80.89137268204327,0.6953614868860846,0.5712326517427727
3.5700000000000003,30.54058567382519,0.0,0.0,80.9341056226045,0.6963644597060549,0.5712326517427727
3.58,30.478507365876354,0.0,0.0,80.97690020013977,0.6973688791900935,0.5712326517427727
3.59,30.416379298413556,0.0,0.0,81.01975650355274,0.6983747474248342,0.5712326517427727
3.6,30.354201401546828,0.0,0.0,81.06267462187537,0.6993820664999205,0.5712326517427727
3.61,30.291973605301013,0.0,0.0,81.105654644268,0.7003908385080099,0.5712326517427727
3.62,30.22969583961583,0.0,0.0,81.1486966600196,0.7014010655447782,0.5712326517427727
3.63,30.16736803434591,0.0,0.0,81.19180075854788,0.7024127497089241,0.5712326517427727
3.64,30.10499011926084,0.0,0.0,81.23496702939958,0.7034258931021734,0.5712326517427727
3.65,30.042562024045218,0.0,0.0,81.27819556225057,0.7044404978292833,0.5712326517427727
3.66,29.98008367829869,0.0,0.0,81.32148644690608,0.705456565998047,0.5712326517427727
3.67,29.917555011536,0.0,0.0,81.36483977330086,0.7064740997192976,0.5712326517427727
3.68,29.85497595318706,0.0,0.0,81.40825563149939,0.7074931011069133,0.5712326517427727
3.69,29.792346432597,0.0,0.0,81.45173411169604,0.708513572277821,0.5712326517427727
3.7,29.729666379026217,0.0,0.0,81.4952753042153,0.7095355153520009,0.5712326517427727
3.71,29.66693572165043,0.0,0.0,81.5388792995119,0.7105589324524912,0.5712326517427727
3.72,29.604154389560765,0.0,0.0,81.58254618817111,0.7115838257053925,0.5712326517427727
3.73,29.54132231176382,0.0,0.0,81.62627606090878,0.7126101972398716,0.5712326517427727
3.74,29.478439417181704,0.0,0.0,81.67006900857166,0.7136380491881668,0.5712326517427727
3.75,29.415505634652142,0.0,0.0,81.71392512213751,0.7146673836855914,0.5712326517427727
3.7600000000000002,29.352520892928524,0.0,0.0,81.75784449271534,0.715698202870539,0.5712326517427727
3.77,29.289485120680006,0.0,0.0,81.80182721154553,0.7167305088844875,0.5712326517427727
3.7800000000000002,29.226398246491556,0.0,0.0,81.84587337000009,0.7177643038720036,0.5712326517427727
3.79,29.163260198864066,0.0,0.0,81.88998305958283,0.7187995899807473,0.5712326517427727
3.8000000000000003,29.100070906214416,0.0,0.0,81.93415637192955,0.7198363693614762,0.5712326517427727
3.81,29.036830296875582,0.0,0.0,81.97839339880818,0.7208746441680502,0.5712326517427727
3.8200000000000003,28.973538299096703,0.0,0.0,82.02269423211905,0.7219144165574359,0.5712326517427727
3.83,28.910194841043193,0.0,0.0,82.06705896389504,0.7229556886897109,0.5712326517427727
3.84,28.846799850796824,0.0,0.0,82.11148768630176,0.7239984627280687,0.5712326517427727
3.85,28.783353256355838,0.0,0.0,82.15598049163778,0.7250427408388227,0.5712326517427727
3.86,28.719854985635035,0.0,0.0,82.20053747233479,0.7260885251914111,0.5712326517427727
3.87,28.65630496646589,0.0,0.0,82.24515872095779,0.7271358179584012,0.5712326517427727
3.88,28.59270312659665,0.0,0.0,82.28984433020531,0.728184621315494,0.5712326517427727
3.89,28.529049393692468,0.0,0.0,82.33459439290958,0.7292349374415286,0.5712326517427727
3.9,28.465343695335495,0.0,0.0,82.37940900203672,0.7302867685184866,0.5712326517427727
3.91,28.40158595902501,0.0,0.0,82.42428825068696,0.7313401167314973,0.5712326517427727
3.92,28.33777611217754,0.0,0.0,82.4692322320948,0.7323949842688416,0.5712326517427727
3.93,28.273914082126982,0.0,0.0,82.51424103962923,0.7334513733219566,0.5712326517427727
3.94,28.20999979612474,0.0,0.0,82.5593147667939,0.7345092860854403,0.5712326517427727
3.95,28.14603318133986,0.0,0.0,82.60445350722735,0.7355687247570563,0.5712326517427727
3.96,28.08201416485915,0.0,0.0,82.64965735470315,0.7366296915377379,0.5712326517427727
3.97,28.017942673687337,0.0,0.0,82.69492640313017,0.7376921886315934,0.5712326517427727
3.98,27.9538186347472,0.0,0.0,82.74026074655268,0.7387562182459098,0.5712326517427727
3.99,27.88964197487973,0.0,0.0,82.78566047915064,0.739821782591158,0.5712326517427727
4.0,27.82541262084426,0.0,0.0,82.83112569523983,0.7408888838809976,0.5712326517427727
4.01,27.76113049931865,0.0,0.0,82.87665648927208,0.7419575243322806,0.5712326517427727
4.0200000000000005,27.69679553689943,0.0,0.0,82.92225295583545,0.7430277061650568,0.5712326517427727
4.03,27.63240766010196,0.0,0.0,82.96791518965442,0.744099431602578,0.5712326517427727
4.04,27.567966795360608,0.0,0.0,83.01364328559013,0.745172702871303,0.5712326517427727
4.05,27.50347286902891,0.0,0.0,83.05943733864052,0.7462475222009017,0.5712326517427727
4.0600000000000005,27.438925807379775,0.0,0.0,83.10529744394056,0.7473238918242604,0.5712326517427727
4.07,27.37432553660563,0.0,0.0,83.15122369676243,0.7484018139774856,0.5712326517427727
4.08,27.309671982818625,0.0,0.0,83.19721619251574,0.7494812908999094,0.5712326517427727
4.09,27.244965072050828,0.0,0.0,83.24327502674771,0.7505623248340939,0.5712326517427727
4.1,27.180204730254406,0.0,0.0,83.2894002951434,0.7516449180258357,0.5712326517427727
4.11,27.115390883301842,0.0,0.0,83.33559209352583,0.7527290727241706,0.5712326517427727
4.12,27.05052345698612,0.0,0.0,83.3818505178563,0.7538147911813785,0.5712326517427727
4.13,26.985602377020946,0.0,0.0,83.42817566423446,0.754902075652988,0.5712326517427727
4.14,26.92062756904096,0.0,0.0,83.47456762889861,0.7559909283977807,0.5712326517427727
4.15,26.855598958601956,0.0,0.0,83.52102650822586,0.7570813516777967,0.5712326517427727
4.16,26.79051647118111,0.0,0.0,83.56755239873232,0.7581733477583382,0.5712326517427727
4.17,26.72538003217721,0.0,0.0,83.61414539707332,0.7592669189079755,0.5712326517427727
4.18,26.66018956691088,0.0,0.0,83.66080560004357,0.7603620673985505,0.5712326517427727
4.19,26.59494500062483,0.0,0.0,83.70753310457746,0.7614587955051821,0.5712326517427727
4.2,26.529646258484107,0.0,0.0,83.75432800774915,0.762557105506271,0.5712326517427727
4.21,26.46429326557634,0.0,0.0,83.80119040677283,0.7636569996835039,0.5712326517427727
4.22,26.398885946912003,0.0,0.0,83.8481203990029,0.7647584803218587,0.5712326517427727
4.23,26.33342422742467,0.0,0.0,83.89511808193417,0.765861549709609,0.5712326517427727
4.24,26.267908031971288,0.0,0.0,83.94218355320213,0.7669662101383291,0.5712326517427727
4.25,26.202337285332458,0.0,0.0,83.98931691058303,0.7680724639028986,0.5712326517427727
4.26,26.136711912212714,0.0,0.0,84.0365182519942,0.769180313301507,0.5712326517427727
4.2700000000000005,26.071031837240813,0.0,0.0,84.08378767549416,0.7702897606356589,0.5712326517427727
4.28,26.00529698497003,0.0,0.0,84.13112527928293,0.7714008082101783,0.5712326517427727
4.29,25.939507279878445,0.0,0.0,84.1785311617021,0.7725134583332137,0.5712326517427727
4.3,25.873662646369276,0.0,0.0,84.22600542123514,0.773627713316243,0.5712326517427727
4.3100000000000005,25.80776300877117,0.0,0.0,84.27354815650757,0.7747435754740779,0.5712326517427727
4.32,25.741808291338536,0.0,0.0,84.32115946628717,0.7758610471248689,0.5712326517427727
4.33,25.675798418251876,0.0,0.0,84.36883944948417,0.7769801305901104,0.5712326517427727
4.34,25.60973331361812,0.0,0.0,84.41658820515147,0.778100828194645,0.5712326517427727
4.3500000000000005,25.543612901470954,0.0,0.0,84.46440583248483,0.7792231422666687,0.5712326517427727
4.36,25.47743710577119,0.0,0.0,84.51229243082311,0.7803470751377357,0.5712326517427727
4.37,25.411205850407114,0.0,0.0,84.56024809964843,0.7814726291427632,0.5712326517427727
4.38,25.344919059194854,0.0,0.0,84.60827293858644,0.7825998066200359,0.5712326517427727
4.39,25.278576655878755,0.0,0.0,84.65636704740643,0.7837286099112117,0.5712326517427727
4.4,25.212178564131754,0.0,0.0,84.70453052602164,0.7848590413613257,0.5712326517427727
4.41,25.14572470755577,0.0,0.0,84.75276347448941,0.7859911033187954,0.5712326517427727
4.42,25.079215009682123,0.0,0.0,84.80106599301139,0.7871247981354259,0.5712326517427727
4.43,25.012649393971895,0.0,0.0,84.84943818193376,0.7882601281664142,0.5712326517427727
4.44,24.946027783816398,0.0,0.0,84.89788014174746,0.7893970957703544,0.5712326517427727
4.45,24.87935010253756,0.0,0.0,84.94639197308835,0.7905357033092428,0.5712326517427727
4.46,24.812616273388375,0.0,0.0,84.99497377673747,0.7916759531484824,0.5712326517427727
4.47,24.745826219553337,0.0,0.0,85.04362565362118,0.792817847656888,0.5712326517427727
4.48,24.67897986414889,0.0,0.0,85.09234770481146,0.7939613892066912,0.5712326517427727
4.49,24.612077130223895,0.0,0.0,85.14114003152605,0.7951065801735453,0.5712326517427727
4.5,24.5451179407601,0.0,0.0,85.19000273512869,0.79625342293653,0.5712326517427727
4.51,24.478102218672614,0.0,0.0,85.23893591712933,0.7974019198781567,0.5712326517427727
4.5200000000000005,24.4110298868104,0.0,0.0,85.28793967918432,0.7985520733843731,0.5712326517427727
4.53,24.343900867956776,0.0,0.0,85.33701412309665,0.7997038858445685,0.5712326517427727
4.54,24.276715084829917,0.0,0.0,85.38615935081616,0.8008573596515787,0.5712326517427727
4.55,24.20947246008339,0.0,0.0,85.4353754644397,0.8020124972016904,0.5712326517427727
4.5600000000000005,24.142172916306684,0.0,0.0,85.48466256621143,0.8031693008946473,0.5712326517427727
4.57,24.074816376025737,0.0,0.0,85.53402075852294,0.8043277731336539,0.5712326517427727
4.58,24.00740276170351,0.0,0.0,85.58345014391355,0.8054879163253812,0.5712326517427727
4.59,23.939931995740537,0.0,0.0,85.63295082507044,0.8066497328799715,0.5712326517427727
4.6000000000000005,23.872404000475516,0.0,0.0,85.68252290482893,0.8078132252110437,0.5712326517427727
4.61,23.80481869818589,0.0,0.0,85.73216648617266,0.8089783957356976,0.5712326517427727
4.62,23.73717601108845,0.0,0.0,85.78188167223381,0.8101452468745197,0.5712326517427727
4.63,23.669475861339944,0.0,0.0,85.83166856629332,0.8113137810515878,0.5712326517427727
4.64,23.601718171037717,0.0,0.0,85.8815272717811,0.812484000694476,0.5712326517427727
4.65,23.533902862220337,0.0,0.0,85.93145789227623,0.8136559082342602,0.5712326517427727
4.66,23.466029856868246,0.0,0.0,85.9814605315072,0.8148295061055223,0.5712326517427727
4.67,23.398099076904444,0.0,0.0,86.03153529335212,0.8160047967463563,0.5712326517427727
4.68,23.330110444195153,0.0,0.0,86.08168228183894,0.8171817825983726,0.5712326517427727
4.69,23.262063880550514,0.0,0.0,86.13190160114563,0.8183604661067034,0.5712326517427727
4.7,23.193959307725294,0.0,0.0,86.18219335560043,0.8195408497200077,0.5712326517427727
4.71,23.125796647419612,0.0,0.0,86.2325576496821,0.8207229358904763,0.5712326517427727
4.72,23.057575821279674,0.0,0.0,86.28299458802003,0.821906727073837,0.5712326517427727
4.73,22.98929675089853,0.0,0.0,86.3335042753946,0.8230922257293598,0.5712326517427727
4.74,22.92095935781683,0.0,0.0,86.38408681673727,0.8242794343198618,0.5712326517427727
4.75,22.85256356352362,0.0,0.0,86.43474231713085,0.8254683553117124,0.5712326517427727
4.76,22.78410928945714,0.0,0.0,86.48547088180976,0.8266589911748384,0.5712326517427727
4.7700000000000005,22.715596457005635,0.0,0.0,86.53627261616016,0.8278513443827293,0.5712326517427727
4.78,22.647024987508196,0.0,0.0,86.58714762572025,0.8290454174124422,0.5712326517427727
4.79,22.5783948022556,0.0,0.0,86.63809601618044,0.830241212744607,0.5712326517427727
4.8,22.50970582249118,0.0,0.0,86.6891178933836,0.8314387328634318,0.5712326517427727
4.8100000000000005,22.440957969411723,0.0,0.0,86.74021336332524,0.8326379802567077,0.5712326517427727
4.82,22.37215116416836,0.0,0.0,86.79138253215378,0.833838957415814,0.5712326517427727
4.83,22.303285327867496,0.0,0.0,86.84262550617073,0.8350416668357239,0.5712326517427727
4.84,22.234360381571747,0.0,0.0,86.89394239183095,0.8362461110150089,0.5712326517427727
4.8500000000000005,22.165376246300905,0.0,0.0,86.94533329574281,0.8374522924558446,0.5712326517427727
4.86,22.096332843032915,0.0,0.0,86.99679832466849,0.8386602136640157,0.5712326517427727
4.87,22.027230092704883,0.0,0.0,87.04833758552412,0.8398698771489208,0.5712326517427727
4.88,21.958067916214095,0.0,0.0,87.09995118538008,0.8410812854235786,0.5712326517427727
4.89,21.888846234419045,0.0,0.0,87.15163923146116,0.8422944410046321,0.5712326517427727
4.9,21.819564968140526,0.0,0.0,87.20340183114682,0.8435093464123544,0.5712326517427727
4.91,21.7502240381627,0.0,0.0,87.25523909197142,0.8447260041706537,0.5712326517427727
4.92,21.68082336523421,0.0,0.0,87.30715112162439,0.8459444168070787,0.5712326517427727
4.93,21.611362870069325,0.0,0.0,87.3591380279505,0.8471645868528237,0.5712326517427727
4.94,21.54184247334907,0.0,0.0,87.41119991895008,0.848386516842734,0.5712326517427727
4.95,21.47226209572243,0.0,0.0,87.46333690277923,0.8496102093153112,0.5712326517427727
4.96,21.402621657807547,0.0,0.0,87.51554908775007,0.850835666812718,0.5712326517427727
4.97,21.332921080192946,0.0,0.0,87.56783658233093,0.8520628918807843,0.5712326517427727
4.98,21.2631602834388,0.0,0.0,87.62019949514658,0.8532918870690118,0.5712326517427727
4.99,21.193339188078205,0.0,0.0,87.6726379349785,0.8545226549305796,0.5712326517427727
5.0,21.123457714618485,0.0,0.0,87.72515201076504,0.8557551980223493,0.5712326517427727
5.01,21.053515783542544,0.0,0.0,87.77774183160172,0.8569895189048709,0.5712326517427727
5.0200000000000005,20.983513315310212,0.0,0.0,87.83040750674137,0.858225620142387,0.5712326517427727
5.03,20.91345023035965,0.0,0.0,87.88314914559443,0.8594635043028395,0.5712326517427727
5.04,20.843326449108776,0.0,0.0,87.93596685772916,0.8607031739578737,0.5712326517427727
5.05,20.77314189195671,0.0,0.0,87.98886075287184,0.8619446316828444,0.5712326517427727
5.0600000000000005,20.702896479285258,0.0,0.0,88.04183094090703,0.8631878800568211,0.5712326517427727
5.07,20.632590131460436,0.0,0.0,88.09487753187777,0.8644329216625932,0.5712326517427727
5.08,20.562222768834005,0.0,0.0,88.14800063598584,0.8656797590866755,0.5712326517427727
5.09,20.491794311745068,0.0,0.0,88.20120036359195,0.8669283949193134,0.5712326517427727
5.1000000000000005,20.42130468052167,0.0,0.0,88.25447682521602,0.8681788317544885,0.5712326517427727
5.11,20.350753795482447,0.0,0.0,88.30783013153734,0.869431072189924,0.5712326517427727
5.12,20.280141576938323,0.0,0.0,88.3612603933949,0.8706851188270898,0.5712326517427727
5.13,20.209467945194227,0.0,0.0,88.41476772178753,0.8719409742712082,0.5712326517427727
5.14,20.138732820550832,0.0,0.0,88.46835222787413,0.8731986411312592,0.5712326517427727
5.15,20.067936123306374,0.0,0.0,88.522014022974,0.874458122019986,0.5712326517427727
5.16,19.997077773758484,0.0,0.0,88.57575321856696,0.8757194195539001,0.5712326517427727
5.17,19.926157692206047,0.0,0.0,88.62956992629361,0.8769825363532874,0.5712326517427727
5.18,19.855175798951127,0.0,0.0,88.68346425795563,0.8782474750422128,0.5712326517427727
5.19,19.784132014300926,0.0,0.0,88.73743632551593,0.8795142382485265,0.5712326517427727
5.2,19.71302625856977,0.0,0.0,88.7914862410989,0.8807828286038687,0.5712326517427727
5.21,19.64185845208117,0.0,0.0,88.84561411699067,0.8820532487436757,0.5712326517427727
5.22,19.5706285151699,0.0,0.0,88.89982006563935,0.8833255013071849,0.5712326517427727
5.23,19.499336368184128,0.0,0.0,88.9541041996552,0.8845995889374405,0.5712326517427727
5.24,19.4279819314876,0.0,0.0,89.00846663181095,0.8858755142812991,0.5712326517427727
5.25,19.356565125461874,0.0,0.0,89.06290747504195,0.8871532799894348,0.5712326517427727
5.26,19.28508587050858,0.0,0.0,89.11742684244648,0.8884328887163453,0.5712326517427727
5.2700000000000005,19.21354408705178,0.0,0.0,89.17202484728591,0.8897143431203568,0.5712326517427727
5.28,19.141939695540316,0.0,0.0,89.22670160298503,0.89099764586363,0.5712326517427727
5.29,19.070272616450268,0.0,0.0,89.28145722313218,0.8922827996121653,0.5712326517427727
5.3,18.99854277028742,0.0,0.0,89.33629182147958,0.8935698070358085,0.5712326517427727
5.3100000000000005,18.926750077589823,0.0,0.0,89.39120551194348,0.8948586708082564,0.5712326517427727
5.32,18.854894458930392,0.0,0.0,89.44619840860447,0.8961493936070623,0.5712326517427727
5.33,18.78297583491956,0.0,0.0,89.50127062570769,0.8974419781136413,0.5712326517427727
5.34,18.710994126208014,0.0,0.0,89.55642227766303,0.8987364270132765,0.5712326517427727
5.3500000000000005,18.638949253489443,0.0,0.0,89.61165347904544,0.9000327429951238,0.5712326517427727
5.36,18.566841137503417,0.0,0.0,89.66696434459512,0.9013309287522181,0.5712326517427727
5.37,18.494669699038283,0.0,0.0,89.72235498921775,0.9026309869814786,0.5712326517427727
5.38,18.42243485893415,0.0,0.0,89.77782552798477,0.9039329203837144,0.5712326517427727
5.39,18.350136538085923,0.0,0.0,89.8333760761336,0.9052367316636304,0.5712326517427727
5.4,18.277774657446436,0.0,0.0,89.88900674906785,0.9065424235298325,0.5712326517427727
5.41,18.205349138029618,0.0,0.0,89.94471766235759,0.9078499986948335,0.5712326517427727
5.42,18.132859900913772,0.0,0.0,90.00050893173962,0.9091594598750586,0.5712326517427727
5.43,18.060306867244904,0.0,0.0,90.05638067311763,0.9104708097908514,0.5712326517427727
5.44,17.98768995824014,0.0,0.0,90.11233300256252,0.9117840511664788,0.5712326517427727
5.45,17.915009095191227,0.0,0.0,90.16836603631259,0.9130991867301373,0.5712326517427727
5.46,17.842264199468104,0.0,0.0,90.2244798907738,0.9144162192139587,0.5712326517427727
5.47,17.769455192522575,0.0,0.0,90.28067468252002,0.9157351513540153,0.5712326517427727
5.48,17.69658199589204,0.0,0.0,90.33695052829326,0.9170559858903259,0.5712326517427727
5.49,17.623644531203347,0.0,0.0,90.3933075450039,0.9183787255668615,0.5712326517427727
5.5,17.55064272017672,0.0,0.0,90.44974584973099,0.919703373131551,0.5712326517427727
5.51,17.47757648462979,0.0,0.0,90.50626555972241,0.9210299313362867,0.5712326517427727
5.5200000000000005,17.40444574648169,0.0,0.0,90.56286679239517,0.9223584029369303,0.5712326517427727
5.53,17.331250427757308,0.0,0.0,90.61954966533564,0.9236887906933182,0.5712326517427727
5.54,17.257990450591574,0.0,0.0,90.67631429629981,0.9250210973692679,0.5712326517427727
5.55,17.184665737233917,0.0,0.0,90.73316080321348,0.9263553257325831,0.5712326517427727
5.5600000000000005,17.111276210052782,0.0,0.0,90.79008930417258,0.9276914785550598,0.5712326517427727
5.57,17.03782179154028,0.0,0.0,90.84709991744337,0.9290295586124921,0.5712326517427727
5.58,16.964302404316953,0.0,0.0,90.90419276146268,0.9303695686846778,0.5712326517427727
5.59,16.890717971136638,0.0,0.0,90.96136795483818,0.9317115115554239,0.5712326517427727
5.6000000000000005,16.817068414891473,0.0,0.0,91.01862561634863,0.933055390012553,0.5712326517427727
5.61,16.743353658617018,0.0,0.0,91.07596586494408,0.9344012068479088,0.5712326517427727
5.62,16.669573625497502,0.0,0.0,91.13338881974619,0.9357489648573618,0.5712326517427727
5.63,16.59572823887121,0.0,0.0,91.1908946000484,0.9370986668408152,0.5712326517427727
5.64,16.521817422235987,0.0,0.0,91.24848332531624,0.9384503156022107,0.5712326517427727
5.65,16.4478410992549,0.0,0.0,91.30615511518756,0.9398039139495344,0.5712326517427727
5.66,16.37379919376204,0.0,0.0,91.36391008947277,0.9411594646948226,0.5712326517427727
5.67,16.299691629768457,0.0,0.0,91.42174836815506,0.9425169706541673,0.5712326517427727
5.68,16.225518331468272,0.0,0.0,91.47967007139073,0.9438764346477228,0.5712326517427727
5.69,16.15127922324492,0.0,0.0,91.53767531950935,0.9452378594997108,0.5712326517427727
5.7,16.076974229677575,0.0,0.0,91.59576423301407,0.9466012480384269,0.5712326517427727
5.71,16.002603275547717,0.0,0.0,91.65393693258183,0.947966603096246,0.5712326517427727
5.72,15.928166285845904,0.0,0.0,91.71219353906368,0.9493339275096282,0.5712326517427727
5.73,15.853663185778684,0.0,0.0,91.77053417348493,0.950703224119125,0.5712326517427727
5.74,15.779093900775717,0.0,0.0,91.82895895704549,0.9520744957693851,0.5712326517427727
5.75,15.70445835649707,0.0,0.0,91.88746801112005,0.9534477453091601,0.5712326517427727
5.76,15.629756478840706,0.0,0.0,91.9460614572584,0.9548229755913107,0.5712326517427727
5.7700000000000005,15.554988193950177,0.0,0.0,92.00473941718563,0.9562001894728125,0.5712326517427727
5.78,15.480153428222515,0.0,0.0,92.06350201280245,0.9575793898147618,0.5712326517427727
5.79,15.405252108316349,0.0,0.0,92.12234936618532,0.9589605794823818,0.5712326517427727
5.8,15.33028416116022,0.0,0.0,92.18128159958682,0.9603437613450283,0.5712326517427727
5.8100000000000005,15.255249513961141,0.0,0.0,92.2402988354359,0.961728938276196,0.5712326517427727
5.82,15.180148094213378,0.0,0.0,92.29940119633802,0.9631161131535241,0.5712326517427727
5.83,15.104979829707466,0.0,0.0,92.35858880507556,0.9645052888588025,0.5712326517427727
5.84,15.029744648539497,0.0,0.0,92.41786178460794,0.9658964682779777,0.5712326517427727
5.8500000000000005,14.95444247912064,0.0,0.0,92.47722025807197,0.9672896543011588,0.5712326517427727
5.86,14.879073250186929,0.0,0.0,92.53666434878205,0.9686848498226235,0.5712326517427727
5.87,14.803636890809331,0.0,0.0,92.59619418023047,0.9700820577408242,0.5712326517427727
5.88,14.728133330404095,0.0,0.0,92.6558098760876,0.971481280958394,0.5712326517427727
5.89,14.652562498743386,0.0,0.0,92.71551156020223,0.9728825223821527,0.5712326517427727
5.9,14.576924325966234,0.0,0.0,92.77529935660176,0.9742857849231126,0.5712326517427727
5.91,14.501218742589769,0.0,0.0,92.83517338949251,0.975691071496485,0.5712326517427727
5.92,14.4254456795208,0.0,0.0,92.89513378325994,0.977098385021686,0.5712326517427727
5.93,14.349605068067724,0.0,0.0,92.9551806624689,0.9785077284223426,0.5712326517427727
5.94,14.273696839952766,0.0,0.0,93.01531415186395,0.9799191046262985,0.5712326517427727
5.95,14.197720927324582,0.0,0.0,93.07553437636953,0.9813325165656209,0.5712326517427727
5.96,14.121677262771232,0.0,0.0,93.13584146109032,0.982747967176606,0.5712326517427727
5.97,14.045565779333536,0.0,0.0,93.19623553131142,0.984165459399785,0.5712326517427727
5.98,13.969386410518808,0.0,0.0,93.25671671249862,0.9855849961799306,0.5712326517427727
5.99,13.893139090315021,0.0,0.0,93.3172851302987,0.987006580466063,0.5712326517427727
6.0,13.816823753205371,0.0,0.0,93.37794091053969,0.9884302152114562,0.5712326517427727
6.01,13.740440334183296,0.0,0.0,93.43868417923107,0.9898559033736436,0.5712326517427727
6.0200000000000005,13.663988768767931,0.0,0.0,93.49951506256411,0.9912836479144245,0.5712326517427727
6.03,13.58746899302005,0.0,0.0,93.56043368691208,0.9927134517998704,0.5712326517427727
6.04,13.510880943558476,0.0,0.0,93.62144017883051,0.9941453180003309,0.5712326517427727
6.05,13.43422455757701,0.0,0.0,93.6825346650575,0.99557924949044,0.5712326517427727
6.0600000000000005,13.357499772861868,0.0,0.0,93.74371727251395,0.9970152492491222,0.5712326517427727
6.07,13.280706527809661,0.0,0.0,93.80498812830379,0.9984533202595988,0.5712326517427727
6.08,13.203844761445955,0.0,0.0,93.86634735971434,0.9998934655093938,0.5712326517427727
6.09,13.126914413444382,0.0,0.0,93.92779509421648,1.0013356879903408,0.5712326517427727
6.1000000000000005,13.049915424146374,0.0,0.0,93.98933145946495,1.0027799906985881,0.5712326517427727
6.11,12.972847734581514,0.0,0.0,94.05095658329863,1.0042263766346062,0.5712326517427727
6.12,12.895711286488558,0.0,0.0,94.11267059374077,1.0056748488031932,0.5712326517427727
6.13,12.818506022337099,0.0,0.0,94.17447361899931,1.007125410213481,0.5712326517427727
6.140000000000001,12.741231885349954,0.0,0.0,94.23636578746711,1.008578063878942,0.5712326517427727
6.15,12.663888819526269,0.0,0.0,94.29834722772218,1.0100328128173954,0.5712326517427727
6.16,12.586476769665392,0.0,0.0,94.36041806852803,1.0114896600510126,0.5712326517427727
6.17,12.50899568139151,0.0,0.0,94.4225784388339,1.0129486086063246,0.5712326517427727
6.18,12.431445501179134,0.0,0.0,94.48482846777496,1.014409661514228,0.5712326517427727
6.19,12.353826176379393,0.0,0.0,94.54716828467272,1.0158728218099904,0.5712326517427727
6.2,12.276137655247247,0.0,0.0,94.60959801903519,1.0173380925332578,0.5712326517427727
6.21,12.198379886969597,0.0,0.0,94.67211780055716,1.0188054767280608,0.5712326517427727
6.22,12.120552821694362,0.0,0.0,94.7347277591205,1.02027497744282,0.5712326517427727
6.23,12.042656410560538,0.0,0.0,94.79742802479444,1.0217465977303533,0.5712326517427727
6.24,11.964690605729302,0.0,0.0,94.8602187278358,1.0232203406478821,0.5712326517427727
6.25,11.886655360416189,0.0,0.0,94.92309999868927,1.0246962092570373,0.5712326517427727
6.26,11.808550628924396,0.0,0.0,94.98607196798771,1.0261742066238655,0.5712326517427727
6.2700000000000005,11.730376366679243,0.0,0.0,95.0491347665524,1.0276543358188361,0.5712326517427727
6.28,11.652132530263874,0.0,0.0,95.1122885253933,1.0291365999168474,0.5712326517427727
6.29,11.573819077456204,0.0,0.0,95.17553337570932,1.0306210019972322,0.5712326517427727
6.3,11.495435967267213,0.0,0.0,95.23886944888866,1.0321075451437656,0.5712326517427727
6.3100000000000005,11.4169831599806,0.0,0.0,95.302296876509,1.0335962324446701,0.5712326517427727
6.32,11.338460617193897,0.0,0.0,95.3658157903378,1.035087066992623,0.5712326517427727
6.33,11.259868301861076,0.0,0.0,95.42942632233259,1.0365800518847623,0.5712326517427727
6.34,11.181206178336732,0.0,0.0,95.49312860464121,1.038075190222693,0.5712326517427727
6.3500000000000005,11.102474212421901,0.0,0.0,95.55692276960214,1.039572485112494,0.5712326517427727
6.36,11.023672371411593,0.0,0.0,95.62080894974471,1.0410719396647239,0.5712326517427727
6.37,10.944800624144122,0.0,0.0,95.68478727778944,1.0425735569944288,0.5712326517427727
6.38,10.865858941052295,0.0,0.0,95.74885788664825,1.044077340221147,0.5712326517427727
6.390000000000001,10.786847294216564,0.0,0.0,95.81302090942481,1.0455832924689168,0.5712326517427727
6.4,10.707765657420229,0.0,0.0,95.87727647941472,1.0470914168662824,0.5712326517427727
6.41,10.628614006206769,0.0,0.0,95.94162473010589,1.0486017165463006,0.5712326517427727
6.42,10.54939231793943,0.0,0.0,96.00606579517874,1.0501141946465473,0.5712326517427727
6.43,10.470100571863146,0.0,0.0,96.07059980850654,1.0516288543091237,0.5712326517427727
6.44,10.39073874916892,0.0,0.0,96.13522690415563,1.0531456986806633,0.5712326517427727
6.45,10.311306833060788,0.0,0.0,96.19994721638572,1.0546647309123383,0.5712326517427727
6.46,10.231804808825487,0.0,0.0,96.26476087965018,1.0561859541598657,0.5712326517427727
6.47,10.152232663904918,0.0,0.0,96.32966802859633,1.0577093715835146,0.5712326517427727
6.48,10.07259038797163,0.0,0.0,96.39466879806568,1.0592349863481125,0.5712326517427727
6.49,9.992877973007374,0.0,0.0,96.45976332309424,1.0607628016230515,0.5712326517427727
6.5,9.91309541338495,0.0,0.0,96.52495173891278,1.062292820582295,0.5712326517427727
6.51,9.833242705953483,0.0,0.0,96.59023418094715,1.0638250464043848,0.5712326517427727
6.5200000000000005,9.753319850127303,0.0,0.0,96.65561078481852,1.0653594822724473,0.5712326517427727
6.53,9.673326847978627,0.0,0.0,96.72108168634367,1.0668961313741998,0.5712326517427727
6.54,9.593263704334209,0.0,0.0,96.78664702153529,1.0684349969019582,0.5712326517427727
6.55,9.513130426876202,0.0,0.0,96.85230692660225,1.0699760820526423,0.5712326517427727
6.5600000000000005,9.432927026247421,0.0,0.0,96.91806153794988,1.071519390027783,0.5712326517427727
6.57,9.352653516161258,0.0,0.0,96.98391099218026,1.0730649240335297,0.5712326517427727
6.58,9.27230991351648,0.0,0.0,97.04985542609249,1.0746126872806556,0.5712326517427727
6.59,9.191896238517192,0.0,0.0,97.11589497668302,1.0761626829845654,0.5712326517427727
6.6000000000000005,9.111412514798234,0.0,0.0,97.18202978114587,1.0777149143653013,0.5712326517427727
6.61,9.030858769556298,0.0,0.0,97.24825997687294,1.0792693846475505,0.5712326517427727
6.62,8.950235033687111,0.0,0.0,97.31458570145433,1.080826097060651,0.5712326517427727
6.63,8.86954134192899,0.0,0.0,97.38100709267857,1.0823850548385987,0.5712326517427727
6.640000000000001,8.788777733013145,0.0,0.0,97.44752428853295,1.0839462612200546,0.5712326517427727
6.65,8.707944249821098,0.0,0.0,97.51413742720378,1.0855097194483505,0.5712326517427727
6.66,8.627040939549653,0.0,0.0,97.58084664707668,1.0870754327714967,0.5712326517427727
6.67,8.546067853883828,0.0,0.0,97.6476520867369,1.088643404442188,0.5712326517427727
6.68,8.465025049178212,0.0,0.0,97.71455388496956,1.0902136377178113,0.5712326517427727
6.69,8.383912586647265,0.0,0.0,97.78155218075996,1.0917861358604515,0.5712326517427727
6.7,8.302730532565075,0.0,0.0,97.84864711329388,1.0933609021368986,0.5712326517427727
6.71,8.22147895847515,0.0,0.0,97.91583882195786,1.094937939818655,0.5712326517427727
6.72,8.14015794141084,0.0,0.0,97.98312744633948,1.0965172521819413,0.5712326517427727
6.73,8.05876756412707,0.0,0.0,98.05051312622764,1.098098842507704,0.5712326517427727
6.74,7.977307915344043,0.0,0.0,98.11799600161291,1.0996827140816219,0.5712326517427727
6.75,7.895779090003697,0.0,0.0,98.18557621268775,1.1012688701941127,0.5712326517427727
6.76,7.814181189539709,0.0,0.0,98.25325389984683,1.1028573141403404,0.5712326517427727
6.7700000000000005,7.732514322161908,0.0,0.0,98.32102920368733,1.1044480492202218,0.5712326517427727
6.78,7.650778603156029,0.0,0.0,98.38890226500924,1.1060410787384334,0.5712326517427727
6.79,7.568974155199817,0.0,0.0,98.45687322481558,1.1076364060044184,0.5712326517427727
6.8,7.487101108696554,0.0,0.0,98.52494222431282,1.1092340343323934,0.5712326517427727
6.8100000000000005,7.4051596021271635,0.0,0.0,98.59310940491108,1.1108339670413552,0.5712326517427727
6.82,7.323149782422156,0.0,0.0,98.6613749082244,1.112436207455088,0.5712326517427727
6.83,7.2410718053547685,0.0,0.0,98.72973887607115,1.1140407589021701,0.5712326517427727
6.84,7.158925835956749,0.0,0.0,98.79820145047422,1.115647624715981,0.5712326517427727
6.8500000000000005,7.076712048958376,0.0,0.0,98.86676277366135,1.1172568082347079,0.5712326517427727
6.86,6.99443062925442,0.0,0.0,98.93542298806543,1.118868312801353,0.5712326517427727
6.87,6.912081772397897,0.0,0.0,99.00418223632478,1.1204821417637407,0.5712326517427727
6.88,6.829665685123624,0.0,0.0,99.07304066128349,1.1220982984745238,0.5712326517427727
6.890000000000001,6.747182585903748,0.0,0.0,99.14199840599166,1.1237167862911912,0.5712326517427727
6.9,6.664632705537637,0.0,0.0,99.21105561370571,1.1253376085760742,0.5712326517427727
6.91,6.582016287778672,0.0,0.0,99.28021242788873,1.1269607686963543,0.5712326517427727
6.92,6.49933359000077,0.0,0.0,99.3494689922107,1.1285862700240694,0.5712326517427727
6.93,6.416584883907673,0.0,0.0,99.41882545054885,1.1302141159361212,0.5712326517427727
6.94,6.333770456288335,0.0,0.0,99.48828194698793,1.1318443098142823,0.5712326517427727
6.95,6.250890609822037,0.0,0.0,99.5578386258205,1.133476855045203,0.5712326517427727
6.96,6.1679456639372,0.0,0.0,99.62749563154725,1.1351117550204184,0.5712326517427727
6.97,6.0849359557282385,0.0,0.0,99.6972531088773,1.1367490131363553,0.5712326517427727
6.98,6.001861840935222,0.0,0.0,99.76711120272851,1.13838863279434,0.5712326517427727
6.99,5.918723694991538,0.0,0.0,99.83707005822774,1.140030617400604,0.5712326517427727
7.0,5.835521914145322,0.0,0.0,99.90712982071118,1.1416749703662927,0.5712326517427727
7.01,5.7522569166609205,0.0,0.0,99.97729063572467,1.143321695107471,0.5712326517427727
7.0200000000000005,5.6689291441073415,0.0,0.0,100.04755264902396,1.144970795045131,0.5712326517427727
7.03,5.585539062741337,0.0,0.0,100.11791600657504,1.1466222736052,0.5712326517427727
7.04,5.502087164993542,0.0,0.0,100.18838085455445,1.148276134218546,0.5712326517427727
7.05,5.418573971067013,0.0,0.0,100.25894733934956,1.1499323803209855,0.5712326517427727
7.0600000000000005,5.33500003065848,0.0,0.0,100.32961560755889,1.1515910153532916,0.5712326517427727
7.07,5.251365924813759,0.0,0.0,100.4003858059924,1.1532520427611994,0.5712326517427727
7.08,5.167672267930031,0.0,0.0,100.47125808167182,1.1549154659954146,0.5712326517427727
7.09,5.083919709919122,0.0,0.0,100.54223258183093,1.1565812885116198,0.5712326517427727
7.1000000000000005,5.000108938547506,0.0,0.0,100.61330945391589,1.158249513770482,0.5712326517427727
7.11,4.916240681970605,0.0,0.0,100.68448884558552,1.15992014523766,0.5712326517427727
7.12,4.832315711480984,0.0,0.0,100.75577090471162,1.1615931863838111,0.5712326517427727
7.13,4.748334844492414,0.0,0.0,100.82715577937928,1.1632686406845991,0.5712326517427727
7.140000000000001,4.664298947784429,0.0,0.0,100.89864361788719,1.1649465116207005,0.5712326517427727
7.15,4.5802089410350515,0.0,0.0,100.97023456874793,1.1666268026778124,0.5712326517427727
7.16,4.496065800672832,0.0,0.0,101.0419287806883,1.1683095173466598,0.5712326517427727
7.17,4.411870564083357,0.0,0.0,101.1137264026496,1.1699946591230022,0.5712326517427727
7.18,4.3276243342099425,0.0,0.0,101.18562758378802,1.1716822315076416,0.5712326517427727
7.19,4.2437117536177,0.0,0.0,101.25714228959157,1.1733607330384768,0.5712326517427727
7.2,4.160889939582466,0.0,0.0,101.32730322059368,1.1750074605019911,0.5712326517427727
7.21,4.079303862335751,0.0,0.0,101.39612644713958,1.1766227910807345,0.5712326517427727
7.22,4.0251113063197685,0.0,0.0,101.46363051404522,1.178207160034862,0.5712326517427727
7.23,3.971615487004451,0.0,0.0,101.53026709154999,1.179771168389432,0.5712326517427727
7.24,3.9188081000898083,0.0,0.0,101.59604650813156,1.181315058561237,0.5712326517427727
7.25,3.8666809212172506,0.0,0.0,101.66097899317225,1.1828390706412297,0.5712326517427727
7.26,3.815225805798327,0.0,0.0,101.72507467715896,1.1843434423992167,0.5712326517427727
7.2700000000000005,3.7644346888205833,0.0,0.0,101.78834359191197,1.1858284092892288,0.5712326517427727
7.28,3.7142995846315427,0.0,0.0,101.8507956708414,1.1872942044555386,0.5712326517427727
7.29,3.6648125867017702,0.0,0.0,101.91244074922996,1.1887410587392977,0.5712326517427727
7.3,3.6159658673679593,0.0,0.0,101.97328856454088,1.1901692006857656,0.5712326517427727
7.3100000000000005,3.5677516775569433,0.0,0.0,102.03334875675007,1.191578856552103,0.5712326517427727
7.32,3.5201623464915093,0.0,0.0,102.09263086870105,1.1929702503157047,0.5712326517427727
7.33,3.4731902813788613,0.0,0.0,102.15114434648196,1.1943436036830462,0.5712326517427727
7.34,3.426827967082557,0.0,0.0,102.20889853982332,1.195699136099021,0.5712326517427727
7.3500000000000005,3.3810679657786964,0.0,0.0,102.26590270251577,1.1970370647567448,0.5712326517427727
7.36,3.3359029165971505,0.0,0.0,102.32216599284668,1.1983576046078024,0.5712326517427727
7.37,3.2913255352485544,0.0,0.0,102.37769747405477,1.1996609683729191,0.5712326517427727
7.38,3.247328613637788,0.0,0.0,102.43250611480187,1.200947366553032,0.5712326517427727
7.390000000000001,3.2039050194646386,0.0,0.0,102.48660078966078,1.202217007440742,0.5712326517427727
7.4,3.161047695812311,0.0,0.0,102.53999027961872,1.2034700971321275,0.5712326517427727
7.41,3.118749660724437,0.0,0.0,102.5926832725951,1.2047068395389005,0.5712326517427727
7.42,3.0770040067712086,0.0,0.0,102.64468836397329,1.2059274364008845,0.5712326517427727
7.43,3.0358039006052326,0.0,0.0,102.69601405714532,1.2071320872988005,0.5712326517427727
7.44,2.995142582507702,0.0,0.0,102.7466687640689,1.2083209896673401,0.5712326517427727
7.45,2.955013365925437,0.0,0.0,102.79666080583601,1.2094943388085109,0.5712326517427727
7.46,2.9154096369993447,0.0,0.0,102.84599841325242,1.2106523279052381,0.5712326517427727
7.47,2.8763248540848227,0.0,0.0,102.89468972742742,1.2117951480352074,0.5712326517427727
7.48,2.837752547264615,0.0,0.0,102.94274280037325,1.212922988184931,0.5712326517427727
7.49,2.799686317854604,0.0,0.0,102.9901655956134,1.2140360352640274,0.5712326517427727
7.5,2.7621198379030165,0.0,0.0,103.03696598879937,1.215134474119696,0.5712326517427727
7.51,2.725046849683498,0.0,0.0,103.0831517683353,1.2162184875513786,0.5712326517427727
7.5200000000000005,2.6884611651824932,0.0,0.0,103.1287306360098,1.2172882563255878,0.5712326517427727
7.53,2.652356665581355,0.0,0.0,103.1737102076346,1.2183439591908967,0.5712326517427727
7.54,2.616727300733595,0.0,0.0,103.21809801368933,1.2193857728930735,0.5712326517427727
7.55,2.5815670886376654,0.0,0.0,103.26190149997217,1.2204138721903515,0.5712326517427727
7.5600000000000005,2.5468701149056536,0.0,0.0,103.30512802825564,1.2214284298688212,0.5712326517427727
7.57,2.512630532228252,0.0,0.0,103.34778487694726,1.2224296167579372,0.5712326517427727
7.58,2.47884255983636,0.0,0.0,103.38987924175454,1.2234176017461247,0.5712326517427727
7.59,2.4455004829596527,0.0,0.0,103.4314182363539,1.224392551796481,0.5712326517427727
7.6000000000000005,2.4125986522824436,0.0,0.0,103.47240889306315,1.2253546319625577,0.5712326517427727
7.61,2.3801314833971605,0.0,0.0,103.51285816351698,1.2263040054042165,0.5712326517427727
7.62,2.3480934562557274,0.0,0.0,103.5527729193454,1.2272408334035507,0.5712326517427727
7.63,2.3164791146191495,0.0,0.0,103.59215995285433,1.228165275380861,0.5712326517427727
7.640000000000001,2.2852830655055834,0.0,0.0,103.63102597770838,1.2290774889106795,0.5712326517427727
7.65,2.254499978637153,0.0,0.0,103.66937762961523,1.229977629737834,0.5712326517427727
7.66,2.224124585885778,0.0,0.0,103.70722146701145,1.2308658517935427,0.5712326517427727
7.67,2.1941516807182544,0.0,0.0,103.74456397174927,1.2317423072115352,0.5712326517427727
7.68,2.1645761176408365,0.0,0.0,103.78141154978422,1.2326071463441903,0.5712326517427727
7.69,2.135392811643538,0.0,0.0,103.81777053186312,1.2334605177786848,0.5712326517427727
7.7,2.1065967376443804,0.0,0.0,103.85364717421233,1.234302568353147,0.5712326517427727
7.71,2.078182929933793,0.0,0.0,103.88904765922588,1.235133443172807,0.5712326517427727
7.72,2.050146481619372,0.0,0.0,103.92397809615332,1.235953285626141,0.5712326517427727
7.73,2.02248254407119,0.0,0.0,103.95844452178692,1.2367622374010014,0.5712326517427727
7.74,1.9951863263678404,0.0,0.0,103.99245290114807,1.2375604385007266,0.5712326517427727
7.75,1.968253094743397,0.0,0.0,104.02600912817273,1.2383480272602283,0.5712326517427727
7.76,1.9416781720354566,0.0,0.0,104.0591190263955,1.239125140362048,0.5712326517427727
7.7700000000000005,1.9154569371344305,0.0,0.0,104.09178834963234,1.2398919128523804,0.5712326517427727
7.78,1.8895848244342384,0.0,0.0,104.12402278266153,1.2406484781570566,0.5712326517427727
7.79,1.8640573232845534,0.0,0.0,104.1558279419029,1.2413949680974856,0.5712326517427727
7.8,1.8388699774447432,0.0,0.0,104.18720937609497,1.2421315129065476,0.5712326517427727
7.8100000000000005,1.8140183845396383,0.0,0.0,104.21817256696991,1.2428582412444351,0.5712326517427727
7.82,1.7894981955172644,0.0,0.0,104.24872292992615,1.2435752802144404,0.5712326517427727
7.83,1.7653051141086538,0.0,0.0,104.27886581469845,1.2442827553786826,0.5712326517427727
7.84,1.7414348962898611,0.0,0.0,104.30860650602536,1.2449807907737724,0.5712326517427727
7.8500000000000005,1.717883349746292,0.0,0.0,104.33795022431381,1.2456695089264118,0.5712326517427727
7.86,1.6946463333394495,0.0,0.0,104.36690212630086,1.2463490308689242,0.5712326517427727
7.87,1.6717197565762052,0.0,0.0,104.3954673057122,1.2470194761547126,0.5712326517427727
7.88,1.649099579080688,0.0,0.0,104.42365079391772,1.2476809628736427,0.5712326517427727
7.890000000000001,1.6267818100688802,0.0,0.0,104.4514575605835,1.2483336076673488,0.5712326517427727
7.9,1.604762507826013,0.0,0.0,104.47889251432063,1.2489775257444595,0.5712326517427727
7.91,1.5830377791868377,0.0,0.0,104.50596050333031,1.249612830895741,0.5712326517427727
7.92,1.5616037790188546,0.0,0.0,104.53266631604545,1.2502396355091543,0.5712326517427727
7.930000000000001,1.5404567097085728,0.0,0.0,104.55901468176853,1.2508580505848266,0.5712326517427727
7.94,1.5195928206508669,0.0,0.0,104.58501027130563,1.2514681857499332,0.5712326517427727
7.95,1.4990084077414978,0.0,0.0,104.61065769759666,1.252070149273488,0.5712326517427727
7.96,1.4786998128728621,0.0,0.0,104.63596151634152,1.2526640480810407,0.5712326517427727
7.97,1.458663423433023,0.0,0.0,104.66092622662227,1.2532499877692804,0.5712326517427727
7.98,1.4388956718080799,0.0,0.0,104.68555627152124,1.253828072620542,0.5712326517427727
7.99,1.4193930348879258,0.0,0.0,104.70985603873491,1.2543984056172144,0.5712326517427727
8.0,1.400152033575442,0.0,0.0,104.73382986118361,1.254961088456051,0.5712326517427727
8.01,1.3811692322991715,0.0,0.0,104.75748201761688,1.255516221562378,0.5712326517427727
8.02,1.3624412385295146,0.0,0.0,104.78081673321454,1.256063904104202,0.5712326517427727
8.03,1.3439647022984833,0.0,0.0,104.80383818018336,1.2566042340062136,0.5712326517427727
8.040000000000001,1.3257363157230504,0.0,0.0,104.8265504783493,1.2571373079636878,0.5712326517427727
8.05,1.3077528125321258,0.0,0.0,104.84895769574524,1.25766322145628,0.5712326517427727
8.06,1.2900109675971885,0.0,0.0,104.87106384919426,1.2581820687617136,0.5712326517427727
8.07,1.2725075964666026,0.0,0.0,104.89287290488834,1.2586939429693644,0.5712326517427727
8.08,1.2552395549036424,0.0,0.0,104.91438877896246,1.2591989359937348,0.5712326517427727
8.09,1.2382037384282467,0.0,0.0,104.93561533806418,1.2596971385878204,0.5712326517427727
8.1,1.221397081862525,0.0,0.0,104.95655639991844,1.2601886403563691,0.5712326517427727
8.11,1.2048165588800317,0.0,0.0,104.97721573388786,1.26067352976903,0.5712326517427727
8.120000000000001,1.1884591815588228,0.0,0.0,104.99759706152824,1.261151894173392,0.5712326517427727
8.13,1.1723219999383117,0.0,0.0,105.01770405713945,1.261623819807913,0.5712326517427727
8.14,1.156402101579933,0.0,0.0,105.0375403483116,1.2620893918147391,0.5712326517427727
8.15,1.1406966111316252,0.0,0.0,105.05710951646638,1.2625486942524111,0.5712326517427727
8.16,1.125202689896139,0.0,0.0,105.07641509739383,1.263001810108462,0.5712326517427727
8.17,1.1099175354031794,0.0,0.0,105.09546058178428,1.2634488213119013,0.5712326517427727
8.18,1.0948383809853837,0.0,0.0,105.1142494157555,1.2638898087455899,0.5712326517427727
8.19,1.0799624953581393,0.0,0.0,105.13278500137518,1.2643248522585009,0.5712326517427727
8.2,1.0652871822032421,0.0,0.0,105.15107069717865,1.2647540306778713,0.5712326517427727
8.21,1.0508097797563964,0.0,0.0,105.16910981868176,1.2651774218212406,0.5712326517427727
8.22,1.0365276603985523,0.0,0.0,105.1869056388891,1.2655951025083785,0.5712326517427727
8.23,1.022438230251079,0.0,0.0,105.20446138879741,1.2660071485731,0.5712326517427727
8.24,1.0085389287747708,0.0,0.0,105.2217802578943,1.2664136348749706,0.5712326517427727
8.25,0.9948272283726781,0.0,0.0,105.23886539465212,1.2668146353108996,0.5712326517427727
8.26,0.9813006339967559,0.0,0.0,105.25571990701728,1.2672102228266213,0.5712326517427727
8.27,0.9679566827583255,0.0,0.0,105.27234686289464,1.2676004694280676,0.5712326517427727
8.28,0.9547929435423357,0.0,0.0,105.28874929062732,1.2679854461926277,0.5712326517427727
8.290000000000001,0.9418070166254174,0.0,0.0,105.30493017947181,1.2683652232802989,0.5712326517427727
8.3,0.9289965332977174,0.0,0.0,105.3208924800683,1.2687398699447268,0.5712326517427727
8.31,0.9163591554885003,0.0,0.0,105.33663910490641,1.269109454544136,0.5712326517427727
8.32,0.9038925753955072,0.0,0.0,105.35217292878632,1.2694740445521515,0.5712326517427727
8.33,0.8915945151180529,0.0,0.0,105.36749678927507,1.2698337065685112,0.5712326517427727
8.34,0.8794627262938528,0.0,0.0,105.38261348715845,1.27018850632967,0.5712326517427727
8.35,0.8674949897395582,0.0,0.0,105.39752578688817,1.2705385087192953,0.5712326517427727
8.36,0.8556891150949866,0.0,0.0,105.41223641702442,1.270883777778656,0.5712326517427727
8.370000000000001,0.8440429404710308,0.0,0.0,105.42674807067397,1.2712243767169027,0.5712326517427727
8.38,0.8325543321012263,0.0,0.0,105.44106340592367,1.271560367921244,0.5712326517427727
8.39,0.8212211839969613,0.0,0.0,105.45518504626942,1.2718918129670131,0.5712326517427727
8.4,0.8100414176063081,0.0,0.0,105.46911558104064,1.2722187726276328,0.5712326517427727
8.41,0.7990129814764579,0.0,0.0,105.48285756582032,1.272541306884472,0.5712326517427727
8.42,0.7881338509197381,0.0,0.0,105.4964135228606,1.2728594749366002,0.5712326517427727
8.43,0.7774020276831918,0.0,0.0,105.50978594149387,1.2731733352104377,0.5712326517427727
8.44,0.7668155396216985,0.0,0.0,105.52297727853956,1.2734829453693015,0.5712326517427727
8.45,0.7563724403746127,0.0,0.0,105.53598995870648,1.27378836232285,0.5712326517427727
8.46,0.7460708090459013,0.0,0.0,105.54882637499092,1.2740896422364258,0.5712326517427727
8.47,0.7359087498877549,0.0,0.0,105.56148888907035,1.2743868405402952,0.5712326517427727
8.48,0.7258843919876512,0.0,0.0,105.57397983169281,1.27468001193879,0.5712326517427727
8.49,0.7159958889588467,0.0,0.0,105.58630150306216,1.2749692104193473,0.5712326517427727
8.5,0.7062414186342738,0.0,0.0,105.59845617321898,1.2752544892614508,0.5712326517427727
8.51,0.6966191827638192,0.0,0.0,105.61044608241734,1.2755359010454734,0.5712326517427727
8.52,0.6871274067149588,0.0,0.0,105.62227344149738,1.2758134976614215,0.5712326517427727
8.53,0.6777643391767257,0.0,0.0,105.63394043225374,1.2760873303175828,0.5712326517427727
8.540000000000001,0.668528251866986,0.0,0.0,105.64544920779989,1.276357449549078,0.5712326517427727
8.55,0.6594174392429967,0.0,0.0,105.65680189292839,1.2766239052263149,0.5712326517427727
8.56,0.6504302182152227,0.0,0.0,105.66800058446708,1.2768867465633498,0.5712326517427727
8.57,0.6415649278643856,0.0,0.0,105.6790473516313,1.2771460221261528,0.5712326517427727
8.58,0.6328199291617187,0.0,0.0,105.68994423637201,1.277401779840781,0.5712326517427727
8.59,0.6241936046924044,0.0,0.0,105.70069325372015,1.2776540670014578,0.5712326517427727
8.6,0.615684358382166,0.0,0.0,105.71129639212684,1.2779029302785603,0.5712326517427727
8.61,0.6072906152269895,0.0,0.0,105.72175561379993,1.2781484157265164,0.5712326517427727
8.620000000000001,0.5990108210259485,0.0,0.0,105.73207285503652,1.2783905687916102,0.5712326517427727
8.63,0.590843442117106,0.0,0.0,105.74225002655173,1.2786294343196984,0.5712326517427727
8.64,0.5827869651164677,0.0,0.0,105.75228901380365,1.2788650565638375,0.5712326517427727
8.65,0.5748398966599583,0.0,0.0,105.76219167731453,1.2790974791918217,0.5712326517427727
8.66,0.567000763148398,0.0,0.0,105.77195985298833,1.2793267452936354,0.5712326517427727
8.67,0.559268110495449,0.0,0.0,105.78159535242439,1.2795528973888173,0.5712326517427727
8.68,0.5516405038785077,0.0,0.0,105.79109996322764,1.2797759774337392,0.5712326517427727
8.69,0.5441165274925156,0.0,0.0,105.80047544931503,1.2799960268287998,0.5712326517427727
8.700000000000001,0.536694784306662,0.0,0.0,105.80972355121847,1.2802130864255332,0.5712326517427727
8.71,0.5293738958239526,0.0,0.0,105.81884598638412,1.2804271965336353,0.5712326517427727
8.72,0.5221525018436166,0.0,0.0,105.82784444946824,1.280638396927906,0.5712326517427727
8.73,0.5150292602263273,0.0,0.0,105.83672061262945,1.2808467268551096,0.5712326517427727
8.74,0.5080028466622073,0.0,0.0,105.84547612581758,1.2810522250407541,0.5712326517427727
8.75,0.501071954441594,0.0,0.0,105.8541126170591,1.2812549296957905,0.5712326517427727
8.76,0.49423529422853907,0.0,0.0,105.8626316927391,1.2814548785232311,0.5712326517427727
8.77,0.48749159383701307,0.0,0.0,105.87103493787994,1.2816521087246897,0.5712326517427727
8.78,0.48083959800979165,0.0,0.0,105.87932391641657,1.281846657006843,0.5712326517427727
8.790000000000001,0.47427806819999574,0.0,0.0,105.8875001714685,1.2820385595878154,0.5712326517427727
8.8,0.4678057823552597,0.0,0.0,105.89556522560862,1.2822278522034858,0.5712326517427727
8.81,0.4614215347045016,0.0,0.0,105.9035205811286,1.2824145701137195,0.5712326517427727
8.82,0.4551241355472695,0.0,0.0,105.91136772030126,1.2825987481085244,0.5712326517427727
8.83,0.4489124110456379,0.0,0.0,105.91910810563964,1.2827804205141329,0.5712326517427727
8.84,0.4427852030186282,0.0,0.0,105.92674318015303,1.2829596211990097,0.5712326517427727
8.85,0.43674136873912806,0.0,0.0,105.93427436759984,1.2831363835797878,0.5712326517427727
8.86,0.4307797807332837,0.0,0.0,105.94170307273738,1.2833107406271305,0.5712326517427727
8.870000000000001,0.42489932658233986,0.0,0.0,105.94903068156863,1.2834827248715235,0.5712326517427727
8.88,0.4190989087269014,0.0,0.0,105.95625856158595,1.2836523684089955,0.5712326517427727
8.89,0.41337744427359274,0.0,0.0,105.96338806201192,1.2838197029067693,0.5712326517427727
8.9,0.4077338648040882,0.0,0.0,105.97042051403704,1.2839847596088427,0.5712326517427727
8.91,0.40216711618648987,0.0,0.0,105.97735723105471,1.2841475693415025,0.5712326517427727
8.92,0.39667615838902764,0.0,0.0,105.98419950889316,1.2843081625187684,0.5712326517427727
8.93,0.3912599652960558,0.0,0.0,105.99094862604463,1.2844665691477724,0.5712326517427727
8.94,0.3859175245263232,0.0,0.0,105.99760584389169,1.284622818834069,0.5712326517427727
8.950000000000001,0.3806478372534917,0.0,0.0,106.00417240693073,1.2847769407868828,0.5712326517427727
8.96,0.37544991802887845,0.0,0.0,106.01064954299271,1.284928963824289,0.5712326517427727
8.97,0.3703227946063984,0.0,0.0,106.01703846346118,1.2850789163783296,0.5712326517427727
8.98,0.36526550776968325,0.0,0.0,106.02334036348756,1.2852268265000677,0.5712326517427727
8.99,0.3602771111613523,0.0,0.0,106.02955642220381,1.285372721864577,0.5712326517427727
9.0,0.3553566711144124,0.0,0.0,106.03568780293234,1.2855166297758707,0.5712326517427727
