# uptake constraint 
# the columns are: t and the constraint for each substrate metabolites
# the compounds are: galactose, glucose, thiosulfate, butyrate, Fprau, Styphi,  
# the nominal flux is: -5.0, -5.0, -5.0, -5.0, -5.0, -5.0,  
# the initial concentration are: 59.0, 96.0, 0.0, 80.0, 0.7992447165120666, 0.7639233900065879,  

t,galactose,glucose,thiosulfate
0.0,-5.0,-5.0,-0.0
0.01,-5.0,-5.0,-0.0
0.02,-5.0,-5.0,-0.0
0.03,-5.0,-5.0,-0.0
0.04,-5.0,-5.0,-0.0
0.05,-5.0,-5.0,-0.0
0.06,-5.0,-5.0,-0.0
0.07,-5.0,-5.0,-0.0
0.08,-5.0,-5.0,-0.0
0.09,-5.0,-5.0,-0.0
0.1,-5.0,-5.0,-0.0
0.11,-5.0,-5.0,-0.0
0.12,-5.0,-5.0,-0.0
0.13,-5.0,-5.0,-0.0
0.14,-5.0,-5.0,-0.0
0.15,-5.0,-5.0,-0.0
0.16,-5.0,-5.0,-0.0
0.17,-5.0,-5.0,-0.0
0.18,-5.0,-5.0,-0.0
0.19,-5.0,-5.0,-0.0
0.2,-5.0,-5.0,-0.0
0.21,-5.0,-5.0,-0.0
0.22,-5.0,-5.0,-0.0
0.23,-5.0,-5.0,-0.0
0.24,-5.0,-5.0,-0.0
0.25,-5.0,-5.0,-0.0
0.26,-5.0,-5.0,-0.0
0.27,-5.0,-5.0,-0.0
0.28,-5.0,-5.0,-0.0
0.29,-5.0,-5.0,-0.0
0.3,-5.0,-5.0,-0.0
0.31,-5.0,-5.0,-0.0
0.32,-5.0,-5.0,-0.0
0.33,-5.0,-5.0,-0.0
0.34,-5.0,-5.0,-0.0
0.35000000000000003,-5.0,-5.0,-0.0
0.36,-5.0,-5.0,-0.0
0.37,-5.0,-5.0,-0.0
0.38,-5.0,-5.0,-0.0
0.39,-5.0,-5.0,-0.0
0.4,-5.0,-5.0,-0.0
0.41000000000000003,-5.0,-5.0,-0.0
0.42,-5.0,-5.0,-0.0
0.43,-5.0,-5.0,-0.0
0.44,-5.0,-5.0,-0.0
0.45,-5.0,-5.0,-0.0
0.46,-5.0,-5.0,-0.0
0.47000000000000003,-5.0,-5.0,-0.0
0.48,-5.0,-5.0,-0.0
0.49,-5.0,-5.0,-0.0
0.5,-5.0,-5.0,-0.0
0.51,-5.0,-5.0,-0.0
0.52,-5.0,-5.0,-0.0
0.53,-5.0,-5.0,-0.0
0.54,-5.0,-5.0,-0.0
0.55,-5.0,-5.0,-0.0
0.56,-5.0,-5.0,-0.0
0.5700000000000001,-5.0,-5.0,-0.0
0.58,-5.0,-5.0,-0.0
0.59,-5.0,-5.0,-0.0
0.6,-5.0,-5.0,-0.0
0.61,-5.0,-5.0,-0.0
0.62,-5.0,-5.0,-0.0
0.63,-5.0,-5.0,-0.0
0.64,-5.0,-5.0,-0.0
0.65,-5.0,-5.0,-0.0
0.66,-5.0,-5.0,-0.0
0.67,-5.0,-5.0,-0.0
0.68,-5.0,-5.0,-0.0
0.6900000000000001,-5.0,-5.0,-0.0
0.7000000000000001,-5.0,-5.0,-0.0
0.71,-5.0,-5.0,-0.0
0.72,-5.0,-5.0,-0.0
0.73,-5.0,-5.0,-0.0
0.74,-5.0,-5.0,-0.0
0.75,-5.0,-5.0,-0.0
0.76,-5.0,-5.0,-0.0
0.77,-5.0,-5.0,-0.0
0.78,-5.0,-5.0,-0.0
0.79,-5.0,-5.0,-0.0
0.8,-5.0,-5.0,-0.0
0.81,-5.0,-5.0,-0.0
0.8200000000000001,-5.0,-5.0,-0.0
0.8300000000000001,-5.0,-5.0,-0.0
0.84,-5.0,-5.0,-0.0
0.85,-5.0,-5.0,-0.0
0.86,-5.0,-5.0,-0.0
0.87,-5.0,-5.0,-0.0
0.88,-5.0,-5.0,-0.0
0.89,-5.0,-5.0,-0.0
0.9,-5.0,-5.0,-0.0
0.91,-5.0,-5.0,-0.0
0.92,-5.0,-5.0,-0.0
0.93,-5.0,-5.0,-0.0
0.9400000000000001,-5.0,-5.0,-0.0
0.9500000000000001,-5.0,-5.0,-0.0
0.96,-5.0,-5.0,-0.0
0.97,-5.0,-5.0,-0.0
0.98,-5.0,-5.0,-0.0
0.99,-5.0,-5.0,-0.0
1.0,-5.0,-5.0,-0.0
1.01,-5.0,-5.0,-0.0
1.02,-5.0,-5.0,-0.0
1.03,-5.0,-5.0,-0.0
1.04,-5.0,-5.0,-0.0
1.05,-5.0,-5.0,-0.0
1.06,-5.0,-5.0,-0.0
1.07,-5.0,-5.0,-0.0
1.08,-5.0,-5.0,-0.0
1.09,-5.0,-5.0,-0.0
1.1,-5.0,-5.0,-0.0
1.11,-5.0,-5.0,-0.0
1.12,-5.0,-5.0,-0.0
1.1300000000000001,-5.0,-5.0,-0.0
1.1400000000000001,-5.0,-5.0,-0.0
1.1500000000000001,-5.0,-5.0,-0.0
1.16,-5.0,-5.0,-0.0
1.17,-5.0,-5.0,-0.0
1.18,-5.0,-5.0,-0.0
1.19,-5.0,-5.0,-0.0
1.2,-5.0,-5.0,-0.0
1.21,-5.0,-5.0,-0.0
1.22,-5.0,-5.0,-0.0
1.23,-5.0,-5.0,-0.0
1.24,-5.0,-5.0,-0.0
1.25,-5.0,-5.0,-0.0
1.26,-5.0,-5.0,-0.0
1.27,-5.0,-5.0,-0.0
1.28,-5.0,-5.0,-0.0
1.29,-5.0,-5.0,-0.0
1.3,-5.0,-5.0,-0.0
1.31,-5.0,-5.0,-0.0
1.32,-5.0,-5.0,-0.0
1.33,-5.0,-5.0,-0.0
1.34,-5.0,-5.0,-0.0
1.35,-5.0,-5.0,-0.0
1.36,-5.0,-5.0,-0.0
1.37,-5.0,-5.0,-0.0
1.3800000000000001,-5.0,-5.0,-0.0
1.3900000000000001,-5.0,-5.0,-0.0
1.4000000000000001,-5.0,-5.0,-0.0
1.41,-5.0,-5.0,-0.0
1.42,-5.0,-5.0,-0.0
1.43,-5.0,-5.0,-0.0
1.44,-5.0,-5.0,-0.0
1.45,-5.0,-5.0,-0.0
1.46,-5.0,-5.0,-0.0
1.47,-5.0,-5.0,-0.0
1.48,-5.0,-5.0,-0.0
1.49,-5.0,-5.0,-0.0
1.5,-5.0,-5.0,-0.0
1.51,-5.0,-5.0,-0.0
1.52,-5.0,-5.0,-0.0
1.53,-5.0,-5.0,-0.0
1.54,-5.0,-5.0,-0.0
1.55,-5.0,-5.0,-0.0
1.56,-5.0,-5.0,-0.0
1.57,-5.0,-5.0,-0.0
1.58,-5.0,-5.0,-0.0
1.59,-5.0,-5.0,-0.0
1.6,-5.0,-5.0,-0.0
1.61,-5.0,-5.0,-0.0
1.62,-5.0,-5.0,-0.0
1.6300000000000001,-5.0,-5.0,-0.0
1.6400000000000001,-5.0,-5.0,-0.0
1.6500000000000001,-5.0,-5.0,-0.0
1.6600000000000001,-5.0,-5.0,-0.0
1.67,-5.0,-5.0,-0.0
1.68,-5.0,-5.0,-0.0
1.69,-5.0,-5.0,-0.0
1.7,-5.0,-5.0,-0.0
1.71,-5.0,-5.0,-0.0
1.72,-5.0,-5.0,-0.0
1.73,-5.0,-5.0,-0.0
1.74,-5.0,-5.0,-0.0
1.75,-5.0,-5.0,-0.0
1.76,-5.0,-5.0,-0.0
1.77,-5.0,-5.0,-0.0
1.78,-5.0,-5.0,-0.0
1.79,-5.0,-5.0,-0.0
1.8,-5.0,-5.0,-0.0
1.81,-5.0,-5.0,-0.0
1.82,-5.0,-5.0,-0.0
1.83,-5.0,-5.0,-0.0
1.84,-5.0,-5.0,-0.0
1.85,-5.0,-5.0,-0.0
1.86,-5.0,-5.0,-0.0
1.87,-5.0,-5.0,-0.0
1.8800000000000001,-5.0,-5.0,-0.0
1.8900000000000001,-5.0,-5.0,-0.0
1.9000000000000001,-5.0,-5.0,-0.0
1.9100000000000001,-5.0,-5.0,-0.0
1.92,-5.0,-5.0,-0.0
1.93,-5.0,-5.0,-0.0
1.94,-5.0,-5.0,-0.0
1.95,-5.0,-5.0,-0.0
1.96,-5.0,-5.0,-0.0
1.97,-5.0,-5.0,-0.0
1.98,-5.0,-5.0,-0.0
1.99,-5.0,-5.0,-0.0
2.0,-5.0,-5.0,-0.0
2.0100000000000002,-5.0,-5.0,-0.0
2.02,-5.0,-5.0,-0.0
2.0300000000000002,-5.0,-5.0,-0.0
2.04,-5.0,-5.0,-0.0
2.05,-5.0,-5.0,-0.0
2.06,-5.0,-5.0,-0.0
2.07,-5.0,-5.0,-0.0
2.08,-5.0,-5.0,-0.0
2.09,-5.0,-5.0,-0.0
2.1,-5.0,-5.0,-0.0
2.11,-5.0,-5.0,-0.0
2.12,-5.0,-5.0,-0.0
2.13,-5.0,-5.0,-0.0
2.14,-5.0,-5.0,-0.0
2.15,-5.0,-5.0,-0.0
2.16,-5.0,-5.0,-0.0
2.17,-5.0,-5.0,-0.0
2.18,-5.0,-5.0,-0.0
2.19,-5.0,-5.0,-0.0
2.2,-5.0,-5.0,-0.0
2.21,-5.0,-5.0,-0.0
2.22,-5.0,-5.0,-0.0
2.23,-5.0,-5.0,-0.0
2.24,-5.0,-5.0,-0.0
2.25,-5.0,-5.0,-0.0
2.2600000000000002,-5.0,-5.0,-0.0
2.27,-5.0,-5.0,-0.0
2.2800000000000002,-5.0,-5.0,-0.0
2.29,-5.0,-5.0,-0.0
2.3000000000000003,-5.0,-5.0,-0.0
2.31,-5.0,-5.0,-0.0
2.32,-5.0,-5.0,-0.0
2.33,-5.0,-5.0,-0.0
2.34,-5.0,-5.0,-0.0
2.35,-5.0,-5.0,-0.0
2.36,-5.0,-5.0,-0.0
2.37,-5.0,-5.0,-0.0
2.38,-5.0,-5.0,-0.0
2.39,-5.0,-5.0,-0.0
2.4,-5.0,-5.0,-0.0
2.41,-5.0,-5.0,-0.0
2.42,-5.0,-5.0,-0.0
2.43,-5.0,-5.0,-0.0
2.44,-5.0,-5.0,-0.0
2.45,-5.0,-5.0,-0.0
2.46,-5.0,-5.0,-0.0
2.47,-5.0,-5.0,-0.0
2.48,-5.0,-5.0,-0.0
2.49,-5.0,-5.0,-0.0
2.5,-5.0,-5.0,-0.0
2.5100000000000002,-5.0,-5.0,-0.0
2.52,-5.0,-5.0,-0.0
2.5300000000000002,-5.0,-5.0,-0.0
2.54,-5.0,-5.0,-0.0
2.5500000000000003,-5.0,-5.0,-0.0
2.56,-5.0,-5.0,-0.0
2.57,-5.0,-5.0,-0.0
2.58,-5.0,-5.0,-0.0
2.59,-5.0,-5.0,-0.0
2.6,-5.0,-5.0,-0.0
2.61,-5.0,-5.0,-0.0
2.62,-5.0,-5.0,-0.0
2.63,-5.0,-5.0,-0.0
2.64,-5.0,-5.0,-0.0
2.65,-5.0,-5.0,-0.0
2.66,-5.0,-5.0,-0.0
2.67,-5.0,-5.0,-0.0
2.68,-5.0,-5.0,-0.0
2.69,-5.0,-5.0,-0.0
2.7,-5.0,-5.0,-0.0
2.71,-5.0,-5.0,-0.0
2.72,-5.0,-5.0,-0.0
2.73,-5.0,-5.0,-0.0
2.74,-5.0,-5.0,-0.0
2.75,-5.0,-5.0,-0.0
2.7600000000000002,-5.0,-5.0,-0.0
2.77,-5.0,-5.0,-0.0
2.7800000000000002,-5.0,-5.0,-0.0
2.79,-5.0,-5.0,-0.0
2.8000000000000003,-5.0,-5.0,-0.0
2.81,-5.0,-5.0,-0.0
2.82,-5.0,-5.0,-0.0
2.83,-5.0,-5.0,-0.0
2.84,-5.0,-5.0,-0.0
2.85,-5.0,-5.0,-0.0
2.86,-5.0,-5.0,-0.0
2.87,-5.0,-5.0,-0.0
2.88,-5.0,-5.0,-0.0
2.89,-5.0,-5.0,-0.0
2.9,-5.0,-5.0,-0.0
2.91,-5.0,-5.0,-0.0
2.92,-5.0,-5.0,-0.0
2.93,-5.0,-5.0,-0.0
2.94,-5.0,-5.0,-0.0
2.95,-5.0,-5.0,-0.0
2.96,-5.0,-5.0,-0.0
2.97,-5.0,-5.0,-0.0
2.98,-5.0,-5.0,-0.0
2.99,-5.0,-5.0,-0.0
3.0,-5.0,-5.0,-0.0
3.0100000000000002,-5.0,-5.0,-0.0
3.02,-5.0,-5.0,-0.0
3.0300000000000002,-5.0,-5.0,-0.0
3.04,-5.0,-5.0,-0.0
3.0500000000000003,-5.0,-5.0,-0.0
3.06,-5.0,-5.0,-0.0
3.0700000000000003,-5.0,-5.0,-0.0
3.08,-5.0,-5.0,-0.0
3.09,-5.0,-5.0,-0.0
3.1,-5.0,-5.0,-0.0
3.11,-5.0,-5.0,-0.0
3.12,-5.0,-5.0,-0.0
3.13,-5.0,-5.0,-0.0
3.14,-5.0,-5.0,-0.0
3.15,-5.0,-5.0,-0.0
3.16,-5.0,-5.0,-0.0
3.17,-5.0,-5.0,-0.0
3.18,-5.0,-5.0,-0.0
3.19,-5.0,-5.0,-0.0
3.2,-5.0,-5.0,-0.0
3.21,-5.0,-5.0,-0.0
3.22,-5.0,-5.0,-0.0
3.23,-5.0,-5.0,-0.0
3.24,-5.0,-5.0,-0.0
3.25,-5.0,-5.0,-0.0
3.2600000000000002,-5.0,-5.0,-0.0
3.27,-5.0,-5.0,-0.0
3.2800000000000002,-5.0,-5.0,-0.0
3.29,-5.0,-5.0,-0.0
3.3000000000000003,-5.0,-5.0,-0.0
3.31,-5.0,-5.0,-0.0
3.3200000000000003,-5.0,-5.0,-0.0
3.33,-5.0,-5.0,-0.0
3.34,-5.0,-5.0,-0.0
3.35,-5.0,-5.0,-0.0
3.36,-5.0,-5.0,-0.0
3.37,-5.0,-5.0,-0.0
3.38,-5.0,-5.0,-0.0
3.39,-5.0,-5.0,-0.0
3.4,-5.0,-5.0,-0.0
3.41,-5.0,-5.0,-0.0
3.42,-5.0,-5.0,-0.0
3.43,-5.0,-5.0,-0.0
3.44,-5.0,-5.0,-0.0
3.45,-5.0,-5.0,-0.0
3.46,-5.0,-5.0,-0.0
3.47,-5.0,-5.0,-0.0
3.48,-5.0,-5.0,-0.0
3.49,-5.0,-5.0,-0.0
3.5,-5.0,-5.0,-0.0
3.5100000000000002,-5.0,-5.0,-0.0
3.52,-5.0,-5.0,-0.0
3.5300000000000002,-5.0,-5.0,-0.0
3.54,-5.0,-5.0,-0.0
3.5500000000000003,-5.0,-5.0,-0.0
3.56,-5.0,-5.0,-0.0
3.5700000000000003,-5.0,-5.0,-0.0
3.58,-5.0,-5.0,-0.0
3.59,-5.0,-5.0,-0.0
3.6,-5.0,-5.0,-0.0
3.61,-5.0,-5.0,-0.0
3.62,-5.0,-5.0,-0.0
3.63,-5.0,-5.0,-0.0
3.64,-5.0,-5.0,-0.0
3.65,-5.0,-5.0,-0.0
3.66,-5.0,-5.0,-0.0
3.67,-5.0,-5.0,-0.0
3.68,-5.0,-5.0,-0.0
3.69,-5.0,-5.0,-0.0
3.7,-5.0,-5.0,-0.0
3.71,-5.0,-5.0,-0.0
3.72,-5.0,-5.0,-0.0
3.73,-5.0,-5.0,-0.0
3.74,-5.0,-5.0,-0.0
3.75,-5.0,-5.0,-0.0
3.7600000000000002,-5.0,-5.0,-0.0
3.77,-5.0,-5.0,-0.0
3.7800000000000002,-5.0,-5.0,-0.0
3.79,-5.0,-5.0,-0.0
3.8000000000000003,-5.0,-5.0,-0.0
3.81,-5.0,-5.0,-0.0
3.8200000000000003,-5.0,-5.0,-0.0
3.83,-5.0,-5.0,-0.0
3.84,-5.0,-5.0,-0.0
3.85,-5.0,-5.0,-0.0
3.86,-5.0,-5.0,-0.0
3.87,-5.0,-5.0,-0.0
3.88,-5.0,-5.0,-0.0
3.89,-5.0,-5.0,-0.0
3.9,-5.0,-5.0,-0.0
3.91,-5.0,-5.0,-0.0
3.92,-5.0,-5.0,-0.0
3.93,-5.0,-5.0,-0.0
3.94,-5.0,-5.0,-0.0
3.95,-5.0,-5.0,-0.0
3.96,-5.0,-5.0,-0.0
3.97,-5.0,-5.0,-0.0
3.98,-5.0,-5.0,-0.0
3.99,-5.0,-5.0,-0.0
4.0,-5.0,-5.0,-0.0
4.01,-5.0,-5.0,-0.0
4.0200000000000005,-5.0,-5.0,-0.0
4.03,-5.0,-5.0,-0.0
4.04,-5.0,-5.0,-0.0
4.05,-5.0,-5.0,-0.0
4.0600000000000005,-5.0,-5.0,-0.0
4.07,-5.0,-5.0,-0.0
4.08,-5.0,-5.0,-0.0
4.09,-5.0,-5.0,-0.0
4.1,-5.0,-5.0,-0.0
4.11,-5.0,-5.0,-0.0
4.12,-5.0,-5.0,-0.0
4.13,-5.0,-5.0,-0.0
4.14,-5.0,-5.0,-0.0
4.15,-5.0,-5.0,-0.0
4.16,-5.0,-5.0,-0.0
4.17,-5.0,-5.0,-0.0
4.18,-5.0,-5.0,-0.0
4.19,-5.0,-5.0,-0.0
4.2,-5.0,-5.0,-0.0
4.21,-5.0,-5.0,-0.0
4.22,-5.0,-5.0,-0.0
4.23,-5.0,-5.0,-0.0
4.24,-5.0,-5.0,-0.0
4.25,-5.0,-5.0,-0.0
4.26,-5.0,-5.0,-0.0
4.2700000000000005,-5.0,-5.0,-0.0
4.28,-5.0,-5.0,-0.0
4.29,-5.0,-5.0,-0.0
4.3,-5.0,-5.0,-0.0
4.3100000000000005,-5.0,-5.0,-0.0
4.32,-5.0,-5.0,-0.0
4.33,-5.0,-5.0,-0.0
4.34,-5.0,-5.0,-0.0
4.3500000000000005,-5.0,-5.0,-0.0
4.36,-5.0,-5.0,-0.0
4.37,-5.0,-5.0,-0.0
4.38,-5.0,-5.0,-0.0
4.39,-5.0,-5.0,-0.0
4.4,-5.0,-5.0,-0.0
4.41,-5.0,-5.0,-0.0
4.42,-5.0,-5.0,-0.0
4.43,-5.0,-5.0,-0.0
4.44,-5.0,-5.0,-0.0
4.45,-5.0,-5.0,-0.0
4.46,-5.0,-5.0,-0.0
4.47,-5.0,-5.0,-0.0
4.48,-5.0,-5.0,-0.0
4.49,-5.0,-5.0,-0.0
4.5,-5.0,-5.0,-0.0
4.51,-5.0,-5.0,-0.0
4.5200000000000005,-5.0,-5.0,-0.0
4.53,-5.0,-5.0,-0.0
4.54,-5.0,-5.0,-0.0
4.55,-5.0,-5.0,-0.0
4.5600000000000005,-5.0,-5.0,-0.0
4.57,-5.0,-5.0,-0.0
4.58,-5.0,-5.0,-0.0
4.59,-5.0,-5.0,-0.0
4.6000000000000005,-5.0,-5.0,-0.0
4.61,-5.0,-5.0,-0.0
4.62,-5.0,-5.0,-0.0
4.63,-5.0,-5.0,-0.0
4.64,-5.0,-5.0,-0.0
4.65,-5.0,-5.0,-0.0
4.66,-5.0,-5.0,-0.0
4.67,-5.0,-5.0,-0.0
4.68,-5.0,-5.0,-0.0
4.69,-5.0,-5.0,-0.0
4.7,-5.0,-5.0,-0.0
4.71,-5.0,-5.0,-0.0
4.72,-5.0,-5.0,-0.0
4.73,-5.0,-5.0,-0.0
4.74,-5.0,-5.0,-0.0
4.75,-5.0,-5.0,-0.0
4.76,-4.951387633737303,-5.0,-0.0
4.7700000000000005,-4.855729638956626,-5.0,-0.0
4.78,-4.761980165330361,-5.0,-0.0
4.79,-4.670098475648399,-5.0,-0.0
4.8,-4.580044807531658,-5.0,-0.0
4.8100000000000005,-4.491780346232481,-5.0,-0.0
4.82,-4.405267198326827,-5.0,-0.0
4.83,-4.320468366264651,-5.0,-0.0
4.84,-4.23734772374632,-5.0,-0.0
4.8500000000000005,-4.155869991894199,-5.0,-0.0
4.86,-4.076000716189866,-5.0,-0.0
4.87,-3.997706244148651,-5.0,-0.0
4.88,-3.9209537037043174,-5.0,-0.0
4.89,-3.8457109822778692,-5.0,-0.0
4.9,-3.7719467065055134,-5.0,-0.0
4.91,-3.699630222601828,-5.0,-0.0
4.92,-3.6287315773351634,-5.0,-0.0
4.93,-3.5592214995932405,-5.0,-0.0
4.94,-3.491071382517787,-5.0,-0.0
4.95,-3.4242532661879137,-5.0,-0.0
4.96,-3.3587398208327435,-5.0,-0.0
4.97,-3.2945043305545814,-5.0,-0.0
4.98,-3.231520677544655,-5.0,-0.0
4.99,-3.1697633267741723,-5.0,-0.0
5.0,-3.1092073111441194,-5.0,-0.0
5.01,-3.049828217077867,-5.0,-0.0
5.0200000000000005,-2.991602170541296,-5.0,-0.0
5.03,-2.9345058234757166,-5.0,-0.0
5.04,-2.878516340629456,-5.0,-0.0
5.05,-2.8236113867745227,-5.0,-0.0
5.0600000000000005,-2.769769114295278,-5.0,-0.0
5.07,-2.7169681511365416,-5.0,-0.0
5.08,-2.6651875890990575,-5.0,-0.0
5.09,-2.614406972470677,-5.0,-0.0
5.1000000000000005,-2.564606286982083,-5.0,-0.0
5.11,-2.515765949076283,-5.0,-0.0
5.12,-2.467866795481513,-5.0,-0.0
5.13,-2.4208900730775755,-5.0,-0.0
5.14,-2.3748174290460136,-5.0,-0.0
5.15,-2.329630901294872,-5.0,-0.0
5.16,-2.28531290914914,-5.0,-0.0
5.17,-2.241846244298308,-5.0,-0.0
5.18,-2.1992140619927634,-5.0,-0.0
5.19,-2.157399872481079,-5.0,-0.0
5.2,-2.1163875326805135,-5.0,-0.0
5.21,-2.0761612380733383,-5.0,-0.0
5.22,-2.0367055148218616,-5.0,-0.0
5.23,-1.9980052120952785,-5.0,-0.0
5.24,-1.9600454946017287,-5.0,-0.0
5.25,-1.9228118353191705,-5.0,-0.0
5.26,-1.8862900084189116,-5.0,-0.0
5.2700000000000005,-1.8504660823758514,-5.0,-0.0
5.28,-1.8153264132597062,-5.0,-0.0
5.29,-1.7808576382016814,-5.0,-0.0
5.3,-1.7470466690312496,-5.0,-0.0
5.3100000000000005,-1.7138806860778906,-5.0,-0.0
5.32,-1.6813471321328046,-5.0,-0.0
5.33,-1.6494337065658105,-5.0,-0.0
5.34,-1.61812835959278,-5.0,-0.0
5.3500000000000005,-1.5874192866891355,-5.0,-0.0
5.36,-1.557294923145082,-5.0,-0.0
5.37,-1.5277439387583964,-5.0,-0.0
5.38,-1.4987552326607347,-5.0,-0.0
5.39,-1.470317928273556,-5.0,-0.0
5.4,-1.442421368389891,-5.0,-0.0
5.41,-1.4150551103783153,-5.0,-0.0
5.42,-1.3882089215055957,-5.0,-0.0
5.43,-1.3618727743746102,-5.0,-0.0
5.44,-1.3360368424742446,-5.0,-0.0
5.45,-1.3106914958380802,-5.0,-0.0
5.46,-1.2858272968087898,-5.0,-0.0
5.47,-1.2614349959052629,-5.0,-0.0
5.48,-1.2375055277895766,-5.0,-0.0
5.49,-1.2140300073310168,-5.0,-0.0
5.5,-1.1909997257644567,-5.0,-0.0
5.51,-1.1684061469404665,-5.0,-0.0
5.5200000000000005,-1.14624090366464,-5.0,-0.0
5.53,-1.1244957941236684,-4.895365671794891,-0.0
5.54,-1.1032018531304522,-4.791875196569255,-0.0
5.55,-1.082348686382388,-4.69052859619895,-0.0
5.5600000000000005,-1.06192580269478,-4.591274780771678,-0.0
5.57,-1.0419230104231014,-4.49406412086193,-0.0
5.58,-1.0223304071110848,-4.398848397033317,-0.0
5.59,-1.0031383695622036,-4.30558075140789,-0.0
5.6000000000000005,-0.9843375443146691,-4.21421564120536,-0.0
5.61,-0.9659188385011053,-4.124708794160273,-0.0
5.62,-0.9476692955060255,-4.037194875797141,-0.0
5.63,-0.9275940133730739,-3.9618887706699466,-0.0
5.64,-0.9103152404584561,-3.8880886216883384,-0.0
5.65,-0.8933806106417158,-3.8157583578669705,-0.0
5.66,-0.8767824619688167,-3.7448652538872005,-0.0
5.67,-0.8605133322132562,-3.6753774374956953,-0.0
5.68,-0.8445659526351443,-3.607263862848549,-0.0
5.69,-0.8289332419715945,-3.540494284843371,-0.0
5.7,-0.8136083006485384,-3.4750392343971015,-0.0
5.71,-0.7985844052045471,-3.4108699946293495,-0.0
5.72,-0.7838550029176982,-3.3479585779129546,-0.0
5.73,-0.7694137066269482,-3.28627770375532,-0.0
5.74,-0.7552542897398787,-3.22580077747577,-0.0
5.75,-0.7413706814190648,-3.1665018696458325,-0.0
5.76,-0.7277569619396801,-3.1083556962608903,-0.0
5.7700000000000005,-0.7144073582112906,-3.0513375996131193,-0.0
5.78,-0.7013162394571277,-2.9954235298370304,-0.0
5.79,-0.6884781130444246,-2.940590027100233,-0.0
5.8,-0.6758876204597111,-2.8868142044133327,-0.0
5.8100000000000005,-0.663539533423225,-2.8340737310340236,-0.0
5.82,-0.6514287501368782,-2.782346816441597,-0.0
5.83,-0.6395502916604514,-2.731612194859152,-0.0
5.84,-0.6278992984109463,-2.6818491103018127,-0.0
5.8500000000000005,-0.6164710267802371,-2.6330373021302327,-0.0
5.86,-0.6052608458663904,-2.585156991089582,-0.0
5.87,-0.5942642343142184,-2.5381888658150964,-0.0
5.88,-0.5834767772608329,-2.4921140697860897,-0.0
5.89,-0.5728941633821487,-2.4469141887111436,-0.0
5.9,-0.5625121820364618,-2.402571238327915,-0.0
5.91,-0.5523267205014001,-2.3590676526017513,-0.0
5.92,-0.5423337613006974,-2.3163862723079536,-0.0
5.93,-0.5325293796174011,-2.274510333983208,-0.0
5.94,-0.5229097407902616,-2.233423459232308,-0.0
5.95,-0.5134710978901981,-2.1931096443768796,-0.0
5.96,-0.504209789373858,-2.1535532504334007,-0.0
5.97,-0.49512223681142065,-2.114738993408315,-0.0
5.98,-0.4862049426859102,-2.076651934898579,-0.0
5.99,-0.47745448826139897,-2.0392774729864516,-0.0
6.0,-0.4688675315175916,-2.0026013334177972,-0.0
6.01,-0.4604408051483813,-1.9666095610536356,-0.0
6.0200000000000005,-0.4521711146220741,-1.9312885115850738,-0.0
6.03,-0.44405533630106403,-1.896624843502166,-0.0
6.04,-0.43609041561883854,-1.8626055103076402,-0.0
6.05,-0.42827336531227694,-1.8292177529667868,-0.0
6.0600000000000005,-0.42060126370728596,-1.7964490925851597,-0.0
6.07,-0.413071253055898,-1.7642873233060814,-0.0
6.08,-0.40568053792302905,-1.7327205054202517,-0.0
6.09,-0.3984263836211677,-1.7017369586800766,-0.0
6.1000000000000005,-0.3913061146913346,-1.6713252558116254,-0.0
6.11,-0.3843171134287154,-1.6414742162173968,-0.0
6.12,-0.37745681845143597,-1.6121728998633473,-0.0
6.13,-0.3707227233110054,-1.5834106013438933,-0.0
6.140000000000001,-0.36411237514301237,-1.5551768441188376,-0.0
6.15,-0.3576233733567115,-1.5274613749164048,-0.0
6.16,-0.35125336836219523,-1.5002541582968045,-0.0
6.17,-0.3450000603338882,-1.4735453713709392,-0.0
6.18,-0.33886119800915787,-1.4473253986690928,-0.0
6.19,-0.3328345775208739,-1.4215848271546252,-0.0
6.2,-0.3269180412627985,-1.3963144413778867,-0.0
6.21,-0.321109476786728,-1.3715052187657522,-0.0
6.22,-0.3154068157303492,-1.347148325042337,-0.0
6.23,-0.3098080327748105,-1.3232351097766348,-0.0
6.24,-0.304311144631047,-1.2997571020529624,-0.0
6.25,-0.29891420905393307,-1.276706006260263,-0.0
6.26,-0.2936153238833697,-1.2540736979964529,-0.0
6.2700000000000005,-0.2884126261114485,-1.231852220084139,-0.0
6.28,-0.28330429097486304,-1.2100337786941808,-0.0
6.29,-0.27828853107177065,-1.188610739573675,-0.0
6.3,-0.2733635955023349,-1.1675756243750899,-0.0
6.3100000000000005,-0.268527769032208,-1.146921107083376,-0.0
6.32,-0.2637793712782377,-1.126640010538003,-0.0
6.33,-0.2591167559157107,-1.10672530304698,-0.0
6.34,-0.25453830990646625,-1.087170095090017,-0.0
6.3500000000000005,-0.25004245274723974,-1.0679676361080919,-0.0
6.36,-0.24562763573761787,-1.0491113113767803,-0.0
6.37,-0.24129234126700772,-1.0305946389607954,-0.0
6.38,-0.23703508212004415,-1.0124112667472847,-0.0
6.390000000000001,-0.2328544007998797,-0.9945549695555007,-0.0
6.4,-0.22874886886881987,-0.9770196463205598,-0.0
6.41,-0.22471708630578563,-0.9597993173490706,-0.0
6.42,-0.220757680880103,-0.9428881216444984,-0.0
6.43,-0.21686930754113598,-0.9262803143001987,-0.0
6.44,-0.21305064782329625,-0.9099702639581273,-0.0
6.45,-0.20930040926597834,-0.8939524503312994,-0.0
6.46,-0.2056173248479847,-0.8782214617881364,-0.0
6.47,-0.20200015243601924,-0.8627719929969021,-0.0
6.48,-0.19844767424684231,-0.8475988426284883,-0.0
6.49,-0.19495869632269372,-0.8326969111158707,-0.0
6.5,-0.19153204801960322,-0.818061198468608,-0.0
6.51,-0.1881665815082203,-0.8036868021408139,-0.0
6.5200000000000005,-0.1848611712868081,-0.789568914951083,-0.0
6.53,-0.18161471370605636,-0.7757028230528987,-0.0
6.54,-0.17842612650538167,-0.7620839039541032,-0.0
6.55,-0.17529434836039154,-0.7487076245840513,-0.0
6.5600000000000005,-0.17221833844120177,-0.7355695394071197,-0.0
6.57,-0.16919707598130468,-0.7226652885812805,-0.0
6.58,-0.1662295598566966,-0.7099905961604939,-0.0
6.59,-0.16331480817498156,-0.6975412683397099,-0.0
6.6000000000000005,-0.16045185787417804,-0.6853131917413138,-0.0
6.61,-0.15763976433096327,-0.6733023317418809,-0.0
6.62,-0.1548776009780986,-0.6615047308381447,-0.0
6.63,-0.15216445893078723,-0.6499165070511158,-0.0
6.640000000000001,-0.14949944662172357,-0.6385338523673258,-0.0
6.65,-0.14688168944460087,-0.627353031216196,-0.0
6.66,-0.14431032940585084,-0.6163703789825664,-0.0
6.67,-0.1417845247843965,-0.6055823005534515,-0.0
6.68,-0.13930344979920517,-0.5949852688981101,-0.0
6.69,-0.13686629428443658,-0.5845758236805563,-0.0
6.7,-0.1344722633719857,-0.574350569903653,-0.0
6.71,-0.13212057718122724,-0.5643061765839666,-0.0
6.72,-0.12981047051577374,-0.5544393754565762,-0.0
6.73,-0.1275411925670656,-0.5447469597090634,-0.0
6.74,-0.12531200662461586,-0.5352257827439263,-0.0
6.75,-0.12312218979273923,-0.525872756968687,-0.0
6.76,-0.12097103271359798,-0.5166848526129814,-0.0
6.7700000000000005,-0.11885783929640456,-0.5076590965719437,-0.0
6.78,-0.11678192645262367,-0.4987925712752166,-0.0
6.79,-0.11474262383702181,-0.49008241358093524,-0.0
6.8,-0.1127392735944173,-0.48152581369406044,-0.0
6.8100000000000005,-0.11077123011198683,-0.47312001410844434,-0.0
6.82,-0.10883785977699018,-0.4648623085720364,-0.0
6.83,-0.1069385407397773,-0.45675004107465345,-0.0
6.84,-0.10507266268194743,-0.4487806048577528,-0.0
6.8500000000000005,-0.103239626589532,-0.4409514414456636,-0.0
6.86,-0.10143884453107804,-0.4332600396977493,-0.0
6.87,-0.09966973944051188,-0.42570393488098596,-0.0
6.88,-0.09793174490466568,-0.4182807077624584,-0.0
6.890000000000001,-0.096224304955354,-0.4109879837212884,-0.0
6.9,-0.09454687386588953,-0.40382343187952374,-0.0
6.91,-0.09289891595193074,-0.3967847642515298,-0.0
6.92,-0.0912799053765572,-0.38986973491143795,-0.0
6.93,-0.08968932595947118,-0.3830761391782178,-0.0
6.94,-0.08812667099022697,-0.3764018128179525,-0.0
6.95,-0.08659144304539165,-0.3698446312629057,-0.0
6.96,-0.08508315380954448,-0.36340250884698416,-0.0
6.97,-0.08360132390002391,-0.3570733980572067,-0.0
6.98,-0.08214548269533396,-0.3508552888008031,-0.0
6.99,-0.08071516816712423,-0.3447462076875758,-0.0
7.0,-0.07930992671565973,-0.338744217327168,-0.0
7.01,-0.07792931300869932,-0.33284741564089027,-0.0
7.0200000000000005,-0.07657288982370382,-0.32705393518776815,-0.0
7.03,-0.0752402278932963,-0.32136194250448064,-0.0
7.04,-0.07393090575389996,-0.31576963745887054,-0.0
7.05,-0.0726445095974802,-0.31027525261671374,-0.0
7.0600000000000005,-0.0713806331263203,-0.3048770526214445,-0.0
7.07,-0.07013887741076097,-0.2995733335865405,-0.0
7.08,-0.06891885074983647,-0.2943624225002799,-0.0
7.09,-0.06772016853474196,-0.28924267664259,-0.0
7.1000000000000005,-0.06654245311506758,-0.284212483013714,-0.0
7.11,-0.06538533366773738,-0.2792702577744298,-0.0
7.12,-0.06424844606859227,-0.27441444569756235,-0.0
7.13,-0.06313143276655749,-0.2696435196305345,-0.0
7.140000000000001,-0.06203394266033754,-0.26495597996871334,-0.0
7.15,-0.06095563097758195,-0.2603503541393093,-0.0
7.16,-0.05989615915646722,-0.2558251960955958,-0.0
7.17,-0.05885519472964164,-0.25137908582122037,-0.0
7.18,-0.05783241121048088,-0.2470106288443861,-0.0
7.19,-0.0568274879816036,-0.24271845576168533,-0.0
7.2,-0.05584011018559764,-0.23850122177137545,-0.0
7.21,-0.05486996861790852,-0.23435760621589025,-0.0
7.22,-0.05391675962184329,-0.2302863121333857,-0.0
7.23,-0.05298018498564365,-0.2262860658181249,-0.0
7.24,-0.05205995184158382,-0.22235561638950985,-0.0
7.25,-0.051155772567049285,-0.21849373536957475,-0.0
7.26,-0.05026736468755399,-0.21469921626875835,-0.0
7.2700000000000005,-0.049394450781654234,-0.2109708741797771,-0.0
7.28,-0.048536758387718947,-0.20730754537942772,-0.0
7.29,-0.04769401991251646,-0.20370808693814807,-0.0
7.3,-0.04686597254157952,-0.2001713763371727,-0.0
7.3100000000000005,-0.04605235815131046,-0.19669631109312175,-0.0
7.32,-0.04525292322279004,-0.1932818083898658,-0.0
7.33,-0.044467418757253845,-0.1899268047175132,-0.0
7.34,-0.043695600193201206,-0.18663025551837034,-0.0
7.3500000000000005,-0.04293722732510252,-0.18339113483972866,-0.0
7.36,-0.042192064223671284,-0.18020843499333514,-0.0
7.37,-0.041459879157668446,-0.17708116622140727,-0.0
7.38,-0.040740444517207035,-0.17400835636905576,-0.0
7.390000000000001,-0.04003353673852594,-0.1709890505629828,-0.0
7.4,-0.039338936230202494,-0.16802231089632488,-0.0
7.41,-0.03865642730077399,-0.16510721611951415,-0.0
7.42,-0.03798579808773929,-0.1622428613370337,-0.0
7.43,-0.03732684048791196,-0.15942835770994582,-0.0
7.44,-0.03667935008909744,-0.15666283216407523,-0.0
7.45,-0.03604312610306689,-0.15394542710373066,-0.0
7.46,-0.0354179712998015,-0.15127530013085275,-0.0
7.47,-0.0348036919429813,-0.14865162376947733,-0.0
7.48,-0.03420009772669311,-0.14607358519540592,-0.0
7.49,-0.033607001713333036,-0.1435403859709783,-0.0
7.5,-0.03302422027267933,-0.1410512417848438,-0.0
7.51,-0.032451573022111976,-0.13860538219663043,-0.0
7.5200000000000005,-0.03188888276795586,-0.13620205038641323,-0.0
7.53,-0.031335975447925116,-0.1338405029088855,-0.0
7.54,-0.030792680074646427,-0.13152000945213865,-0.0
7.55,-0.030258828680239727,-0.1292398526009584,-0.0
7.5600000000000005,-0.029734256261935255,-0.1269993276045473,-0.0
7.57,-0.029218800728706258,-0.12479774214858522,-0.0
7.58,-0.028712302848897187,-0.12263441613154177,-0.0
7.59,-0.02821460619882763,-0.12050868144515635,-0.0
7.6000000000000005,-0.027725557112352677,-0.11841988175900287,-0.0
7.61,-0.02724500463136073,-0.11636737230905903,-0.0
7.62,-0.026772800457190472,-0.11435051969020087,-0.0
7.63,-0.026308798902948655,-0.11236870165254532,-0.0
7.640000000000001,-0.025852856846711226,-0.11042130690156529,-0.0
7.65,-0.02540483368559034,-0.1085077349019032,-0.0
7.66,-0.024964591290650325,-0.10662739568481061,-0.0
7.67,-0.024531993962656116,-0.10477970965914332,-0.0
7.68,-0.024106908388637806,-0.10296410742584218,-0.0
7.69,-0.023689203599255478,-0.10118002959583217,-0.0
7.7,-0.02327875092694877,-0.09942692661127316,-0.0
7.71,-0.022875423964855982,-0.09770425857009732,-0.0
7.72,-0.02247909852648774,-0.09601149505376956,-0.0
7.73,-0.02208965260614074,-0.0943481149582089,-0.0
7.74,-0.021706966340037166,-0.09271360632780924,-0.0
7.75,-0.021330921968175966,-0.09110746619250058,-0.0
7.76,-0.020961403796882102,-0.08952920040779155,-0.0
7.7700000000000005,-0.020598298162040556,-0.0879783234977364,-0.0
7.78,-0.020241493393001807,-0.08645435850077006,-0.0
7.79,-0.01989087977714605,-0.08495683681835679,-0.0
7.8,-0.01954634952509348,-0.08348529806639832,-0.0
7.8100000000000005,-0.01920779673654838,-0.08203928992934886,-0.0
7.82,-0.01887511736676486,-0.08061836801698549,-0.0
7.83,-0.0185482091936225,-0.07922209572378343,-0.0
7.84,-0.01822697178530028,-0.07785004409084663,-0.0
7.8500000000000005,-0.01791130646853741,-0.07650179167034529,-0.0
7.86,-0.01760111629746998,-0.07517692439241261,-0.0
7.87,-0.017296306023032573,-0.07387503543445458,-0.0
7.88,-0.016996782062914082,-0.07259572509282695,-0.0
7.890000000000001,-0.016702452472057344,-0.07133860065683495,-0.0
7.9,-0.01641322691369234,-0.07010327628501174,-0.0
7.91,-0.016129016630892876,-0.06888937288363299,-0.0
7.92,-0.015849734418646972,-0.06769651798742543,-0.0
7.930000000000001,-0.0155752945964313,-0.06652434564242816,-0.0
7.94,-0.015305612981280171,-0.06537249629096663,-0.0
7.95,-0.015040606861339914,-0.06424061665869926,-0.0
7.96,-0.01478019496989948,-0.06312835964369864,-0.0
7.97,-0.014524297459888456,-0.06203538420752869,-0.0
7.98,-0.014272835878833705,-0.06096135526828085,-0.0
7.99,-0.014025733144266158,-0.05990594359553296,-0.0
8.0,-0.01378291351956931,-0.05886882570719465,-0.0
8.01,-0.013544302590261282,-0.057849683768204596,-0.0
8.02,-0.013309827240702352,-0.05684820549104499,-0.0
8.03,-0.013079415631220108,-0.05586408403803972,-0.0
8.040000000000001,-0.01285299717564444,-0.054897017925403135,-0.0
8.05,-0.012630502519244842,-0.05394671092900696,-0.0
8.06,-0.012411863517062539,-0.053012871991833736,-0.0
8.07,-0.012197013212630203,-0.05209521513308563,-0.0
8.08,-0.011985885817072071,-0.05119345935891794,-0.0
8.09,-0.01177841668857746,-0.05030732857476756,-0.0
8.1,-0.011574542312240838,-0.04943655149924698,-0.0
8.11,-0.011374200280261683,-0.048580861579575,-0.0
8.120000000000001,-0.011177329272497535,-0.047739996908516,-0.0
8.13,-0.010983869037363751,-0.04691370014279999,-0.0
8.14,-0.010793760373073618,-0.04610171842299644,-0.0
8.15,-0.010606945109212593,-0.04530380329481519,-0.0
8.16,-0.010423366088640536,-0.04451971063180821,-0.0
8.17,-0.01024296714971597,-0.04374920055944689,-0.0
8.18,-0.010065693108836463,-0.04299203738054944,-0.0
8.19,-0.009891489743289385,-0.04224798950203397,-0.0
8.2,-0.009720303774407335,-0.041516829362972935,-0.0
8.21,-0.009552082851022775,-0.040798333363925375,-0.0
8.22,-0.009386775533216325,-0.040092281797523624,-0.0
8.23,-0.009224331276353448,-0.039398458780291606,-0.0
8.24,-0.009064700415404263,-0.03871665218567252,-0.0
8.25,-0.00890783414954135,-0.03804665357824377,-0.0
8.26,-0.008753684527010476,-0.03738825814909771,-0.0
8.27,-0.00860220443026935,-0.036741264652367066,-0.0
8.28,-0.00845334756138951,-0.036105475342874255,-0.0
8.290000000000001,-0.008307068427716571,-0.035480695914884286,-0.0
8.3,-0.008163322327784212,-0.034866735441941306,-0.0
8.31,-0.008022065337477265,-0.034263406317769134,-0.0
8.32,-0.007883254296439433,-0.033670524198216686,-0.0
8.33,-0.0077468467947212245,-0.03308790794422934,-0.0
8.34,-0.0076128011596637455,-0.03251537956582771,-0.0
8.35,-0.0074810764430141416,-0.03195276416707583,-0.0
8.36,-0.00735163240826848,-0.03139988989202078,-0.0
8.370000000000001,-0.007224429518237997,-0.030856587871586277,-0.0
8.38,-0.00709942892283469,-0.03032269217140323,-0.0
8.39,-0.0069765924470723125,-0.029798039740560188,-0.0
8.4,-0.0068558825792789015,-0.02928247036125737,-0.0
8.41,-0.0067372624595170415,-0.0287758265993479,-0.0
8.42,-0.006620695868208136,-0.028277953755750443,-0.0
8.43,-0.0065061472149570265,-0.02778869981871753,-0.0
8.44,-0.006393581527573388,-0.027307915416944332,-0.0
8.45,-0.006282964441286349,-0.02683545377350271,-0.0
8.46,-0.006174262188148886,-0.026371170660585915,-0.0
8.47,-0.006067441586628632,-0.02591492435504934,-0.0
8.48,-0.005962470031381697,-0.02546657559473309,-0.0
8.49,-0.005859315483206314,-0.025025987535552494,-0.0
8.5,-0.005757946459173021,-0.0245930257093427,-0.0
8.51,-0.005658332022928288,-0.024167557982444066,-0.0
8.52,-0.005560441775168464,-0.023749454515014982,-0.0
8.53,-0.005464245844281012,-0.023338587721059227,-0.0
8.540000000000001,-0.00536971487715005,-0.022934832229155152,-0.0
8.55,-0.005276820030123295,-0.022538064843874085,-0.0
8.56,-0.0051855329601374935,-0.022148164507875854,-0.0
8.57,-0.005095825815999553,-0.021765012264669176,-0.0
8.58,-0.005007671229820596,-0.02138849122202528,-0.0
8.59,-0.004921042308600213,-0.021018486516033018,-0.0
8.6,-0.004835912625958251,-0.02065488527578414,-0.0
8.61,-0.004752256214011511,-0.02029757658867748,-0.0
8.620000000000001,-0.0046700475553927935,-0.01994645146633116,-0.0
8.63,-0.004589261575409754,-0.0196014028110919,-0.0
8.64,-0.004509873634341098,-0.019262325383130947,-0.0
8.65,-0.004431859519867668,-0.01892911576811618,-0.0
8.66,-0.004355195439636051,-0.018601672345450168,-0.0
8.67,-0.004279858013952342,-0.018279895257064176,-0.0
8.68,-0.004205824268603766,-0.01796368637675827,-0.0
8.69,-0.004133071627805898,-0.01765294928007788,-0.0
8.700000000000001,-0.004061577907273245,-0.017347589214717248,-0.0
8.71,-0.003991321307411034,-0.01704751307144055,-0.0
8.72,-0.003922280406626035,-0.016752629355511466,-0.0
8.73,-0.0038544341547543316,-0.016462848158622218,-0.0
8.74,-0.003787761866603972,-0.01617808113131332,-0.0
8.75,-0.0037222432156104653,-0.01589824145587525,-0.0
8.76,-0.003657858227603135,-0.015623243819723664,-0.0
8.77,-0.003594587274680376,-0.015353004389239706,-0.0
8.78,-0.0035324110691918867,-0.015087440784067282,-0.0
8.790000000000001,-0.0034713106578259977,-0.014826472051859142,-0.0
8.8,-0.0034112674158002345,-0.014570018643463961,-0.0
8.81,-0.0033522630411533067,-0.014318002388546582,-0.0
8.82,-0.0032942795491367285,-0.014070346471633802,-0.0
8.83,-0.003237299266704314,-0.013826975408578236,-0.0
8.84,-0.003181304827097832,-0.01358781502343283,-0.0
8.85,-0.0031262791645271233,-0.013352792425728888,-0.0
8.86,-0.0030722055089430164,-0.013121835988150433,-0.0
8.870000000000001,-0.00301906738090141,-0.012894875324597953,-0.0
8.88,-0.0029668485865169255,-0.012671841268634717,-0.0
8.89,-0.002915533212504544,-0.012452665852308895,-0.0
8.9,-0.0028651056213076865,-0.012237282285344877,-0.0
8.91,-0.002815550446311224,-0.01202562493469733,-0.0
8.92,-0.002766852587137915,-0.011817629304461627,-0.0
8.93,-0.0027189972050268123,-0.011613232016134324,-0.0
8.94,-0.002671969718292198,-0.011412370789217625,-0.0
8.950000000000001,-0.002625755797861631,-0.01121498442216174,-0.0
8.96,-0.0025803413628917252,-0.011021012773639226,-0.0
8.97,-0.0025357125764602887,-0.010830396744145487,-0.0
8.98,-0.0024918558413334806,-0.010643078257919701,-0.0
8.99,-0.0024487577958066872,-0.010459000245180577,-0.0
9.0,-0.002406405309617802,-0.010278106624671393,-0.0
