# results of the FBA model for the bactery Styphi
# the columns are: t and the metabolic fluxes 
# the compounds are: galactose, glucose, thiosulfate, butyrate, Fprau, Styphi,  
# the nominal flux is: -5.0, -5.0, -5.0, -5.0, -5.0, -5.0,  
# the initial concentration are: 0.0, 0.0, 17.0, 85.0, 0.8020258802735936, 0.9795706805865927,  

t,galactose,glucose,thiosulfate,butyrate,Fprau,Styphi
0.0,0.0,0.0,-5.0,0.0,0.0,0.37343612587843483
0.01,0.0,0.0,-5.0,0.0,0.0,0.37343612587843517
0.02,0.0,0.0,-5.0,0.0,0.0,0.37343612587843517
0.03,0.0,0.0,-5.0,0.0,0.0,0.37343612587843483
0.04,0.0,0.0,-5.0,0.0,0.0,0.37343612587844555
0.05,0.0,0.0,-5.0,0.0,0.0,0.37343612587844555
0.06,0.0,0.0,-5.0,0.0,0.0,0.37343612587844566
0.07,0.0,0.0,-5.0,0.0,0.0,0.37343612587844555
0.08,0.0,0.0,-5.0,0.0,0.0,0.37343612587844566
0.09,0.0,0.0,-5.0,0.0,0.0,0.37343612587844566
0.1,0.0,0.0,-5.0,0.0,0.0,0.37343612587844566
0.11,0.0,0.0,-5.0,0.0,0.0,0.37343612587844555
0.12,0.0,0.0,-5.0,0.0,0.0,0.37343612587844616
0.13,0.0,0.0,-5.0,0.0,0.0,0.3734361258784458
0.14,0.0,0.0,-5.0,0.0,0.0,0.37343612587844577
0.15,0.0,0.0,-5.0,0.0,0.0,0.3734361258784458
0.16,0.0,0.0,-5.0,0.0,0.0,0.3734361258784458
0.17,0.0,0.0,-5.0,0.0,0.0,0.37343612587844616
0.18,0.0,0.0,-5.0,0.0,0.0,0.37343612587844605
0.19,0.0,0.0,-5.0,0.0,0.0,0.3734361258784458
0.2,0.0,0.0,-5.0,0.0,0.0,0.37343612587844327
0.21,0.0,0.0,-5.0,0.0,0.0,0.373436125878443
0.22,0.0,0.0,-5.0,0.0,0.0,0.37343612587844316
0.23,0.0,0.0,-5.0,0.0,0.0,0.37343612587844316
0.24,0.0,0.0,-5.0,0.0,0.0,0.37343612587844327
0.25,0.0,0.0,-5.0,0.0,0.0,0.37343612587844316
0.26,0.0,0.0,-5.0,0.0,0.0,0.3734361258784431
0.27,0.0,0.0,-5.0,0.0,0.0,0.3734361258784431
0.28,0.0,0.0,-5.0,0.0,0.0,0.3734361258784442
0.29,0.0,0.0,-5.0,0.0,0.0,0.3734361258784442
0.3,0.0,0.0,-5.0,0.0,0.0,0.37343612587844427
0.31,0.0,0.0,-5.0,0.0,0.0,0.37343612587844427
0.32,0.0,0.0,-5.0,0.0,0.0,0.37343612587844427
0.33,0.0,0.0,-5.0,0.0,0.0,0.37343612587844427
0.34,0.0,0.0,-5.0,0.0,0.0,0.37343612587844427
0.35000000000000003,0.0,0.0,-5.0,0.0,0.0,0.37343612587844427
0.36,0.0,0.0,-5.0,0.0,0.0,0.37343612587844427
0.37,0.0,0.0,-5.0,0.0,0.0,0.3734361258784436
0.38,0.0,0.0,-5.0,0.0,0.0,0.3734361258784437
0.39,0.0,0.0,-5.0,0.0,0.0,0.3734361258784436
0.4,0.0,0.0,-5.0,0.0,0.0,0.3734361258784437
0.41000000000000003,0.0,0.0,-5.0,0.0,0.0,0.3734361258784435
0.42,0.0,0.0,-5.0,0.0,0.0,0.37343612587844394
0.43,0.0,0.0,-5.0,0.0,0.0,0.3734361258784436
0.44,0.0,0.0,-5.0,0.0,0.0,0.37343612587844355
0.45,0.0,0.0,-5.0,0.0,0.0,0.37343612587844555
0.46,0.0,0.0,-5.0,0.0,0.0,0.37343612587844566
0.47000000000000003,0.0,0.0,-5.0,0.0,0.0,0.37343612587844566
0.48,0.0,0.0,-5.0,0.0,0.0,0.37343612587844555
0.49,0.0,0.0,-5.0,0.0,0.0,0.37343612587844555
0.5,0.0,0.0,-5.0,0.0,0.0,0.37343612587844555
0.51,0.0,0.0,-5.0,0.0,0.0,0.37343612587844555
0.52,0.0,0.0,-5.0,0.0,0.0,0.37343612587844555
0.53,0.0,0.0,-5.0,0.0,0.0,0.3734361258784435
0.54,0.0,0.0,-5.0,0.0,0.0,0.3734361258784435
0.55,0.0,0.0,-5.0,0.0,0.0,0.3734361258784435
0.56,0.0,0.0,-5.0,0.0,0.0,0.3734361258784435
0.5700000000000001,0.0,0.0,-5.0,0.0,0.0,0.3734361258784435
0.58,0.0,0.0,-5.0,0.0,0.0,0.3734361258784435
0.59,0.0,0.0,-5.0,0.0,0.0,0.3734361258784435
0.6,0.0,0.0,-5.0,0.0,0.0,0.3734361258784435
0.61,0.0,0.0,-5.0,0.0,0.0,0.3734361258784435
0.62,0.0,0.0,-5.0,0.0,0.0,0.37343612587844455
0.63,0.0,0.0,-5.0,0.0,0.0,0.37343612587844455
0.64,0.0,0.0,-5.0,0.0,0.0,0.3734361258784448
0.65,0.0,0.0,-5.0,0.0,0.0,0.3734361258784446
0.66,0.0,0.0,-5.0,0.0,0.0,0.3734361258784446
0.67,0.0,0.0,-5.0,0.0,0.0,0.3734361258784446
0.68,0.0,0.0,-5.0,0.0,0.0,0.3734361258784446
0.6900000000000001,0.0,0.0,-5.0,0.0,0.0,0.3734361258784447
0.7000000000000001,0.0,0.0,-5.0,0.0,0.0,0.3734361258784419
0.71,0.0,0.0,-5.0,0.0,0.0,0.3734361258784419
0.72,0.0,0.0,-5.0,0.0,0.0,0.3734361258784411
0.73,0.0,0.0,-5.0,0.0,0.0,0.3734361258784409
0.74,0.0,0.0,-5.0,0.0,0.0,0.37343612587844127
0.75,0.0,0.0,-5.0,0.0,0.0,0.3734361258784417
0.76,0.0,0.0,-5.0,0.0,0.0,0.3734361258784411
0.77,0.0,0.0,-5.0,0.0,0.0,0.37343612587844127
0.78,0.0,0.0,-5.0,0.0,0.0,0.3734361258784442
0.79,0.0,0.0,-5.0,0.0,0.0,0.3734361258784442
0.8,0.0,0.0,-5.0,0.0,0.0,0.3734361258784442
0.81,0.0,0.0,-5.0,0.0,0.0,0.37343612587844427
0.8200000000000001,0.0,0.0,-5.0,0.0,0.0,0.3734361258784442
0.8300000000000001,0.0,0.0,-5.0,0.0,0.0,0.3734361258784442
0.84,0.0,0.0,-5.0,0.0,0.0,0.37343612587844427
0.85,0.0,0.0,-5.0,0.0,0.0,0.37343612587844427
0.86,0.0,0.0,-5.0,0.0,0.0,0.37343612587844427
0.87,0.0,0.0,-5.0,0.0,0.0,0.3734361258784437
0.88,0.0,0.0,-5.0,0.0,0.0,0.3734361258784437
0.89,0.0,0.0,-5.0,0.0,0.0,0.3734361258784437
0.9,0.0,0.0,-5.0,0.0,0.0,0.3734361258784437
0.91,0.0,0.0,-5.0,0.0,0.0,0.3734361258784437
0.92,0.0,0.0,-5.0,0.0,0.0,0.37343612587844355
0.93,0.0,0.0,-5.0,0.0,0.0,0.3734361258784437
0.9400000000000001,0.0,0.0,-5.0,0.0,0.0,0.3734361258784437
0.9500000000000001,0.0,0.0,-5.0,0.0,0.0,0.3734361258784435
0.96,0.0,0.0,-5.0,0.0,0.0,0.3734361258784435
0.97,0.0,0.0,-5.0,0.0,0.0,0.3734361258784435
0.98,0.0,0.0,-5.0,0.0,0.0,0.3734361258784435
0.99,0.0,0.0,-5.0,0.0,0.0,0.3734361258784435
1.0,0.0,0.0,-5.0,0.0,0.0,0.3734361258784435
1.01,0.0,0.0,-5.0,0.0,0.0,0.3734361258784435
1.02,0.0,0.0,-5.0,0.0,0.0,0.3734361258784435
1.03,0.0,0.0,-5.0,0.0,0.0,0.3734361258784435
1.04,0.0,0.0,-5.0,0.0,0.0,0.37343612587844455
1.05,0.0,0.0,-5.0,0.0,0.0,0.37343612587844455
1.06,0.0,0.0,-5.0,0.0,0.0,0.3734361258784448
1.07,0.0,0.0,-5.0,0.0,0.0,0.3734361258784446
1.08,0.0,0.0,-5.0,0.0,0.0,0.3734361258784446
1.09,0.0,0.0,-5.0,0.0,0.0,0.3734361258784446
1.1,0.0,0.0,-5.0,0.0,0.0,0.3734361258784446
1.11,0.0,0.0,-5.0,0.0,0.0,0.3734361258784447
1.12,0.0,0.0,-5.0,0.0,0.0,0.3734361258784419
1.1300000000000001,0.0,0.0,-5.0,0.0,0.0,0.3734361258784419
1.1400000000000001,0.0,0.0,-5.0,0.0,0.0,0.3734361258784411
1.1500000000000001,0.0,0.0,-5.0,0.0,0.0,0.3734361258784409
1.16,0.0,0.0,-5.0,0.0,0.0,0.37343612587844127
1.17,0.0,0.0,-5.0,0.0,0.0,0.3734361258784417
1.18,0.0,0.0,-5.0,0.0,0.0,0.3734361258784411
1.19,0.0,0.0,-5.0,0.0,0.0,0.37343612587844127
1.2,0.0,0.0,-5.0,0.0,0.0,0.3734361258784442
1.21,0.0,0.0,-5.0,0.0,0.0,0.3734361258784442
1.22,0.0,0.0,-5.0,0.0,0.0,0.3734361258784442
1.23,0.0,0.0,-5.0,0.0,0.0,0.37343612587844427
1.24,0.0,0.0,-5.0,0.0,0.0,0.3734361258784442
1.25,0.0,0.0,-5.0,0.0,0.0,0.3734361258784442
1.26,0.0,0.0,-5.0,0.0,0.0,0.37343612587844427
1.27,0.0,0.0,-5.0,0.0,0.0,0.37343612587844427
1.28,0.0,0.0,-5.0,0.0,0.0,0.37343612587844427
1.29,0.0,0.0,-5.0,0.0,0.0,0.3734361258784437
1.3,0.0,0.0,-5.0,0.0,0.0,0.3734361258784437
1.31,0.0,0.0,-5.0,0.0,0.0,0.3734361258784437
1.32,0.0,0.0,-5.0,0.0,0.0,0.3734361258784437
1.33,0.0,0.0,-5.0,0.0,0.0,0.3734361258784437
1.34,0.0,0.0,-5.0,0.0,0.0,0.37343612587844355
1.35,0.0,0.0,-5.0,0.0,0.0,0.3734361258784437
1.36,0.0,0.0,-5.0,0.0,0.0,0.3734361258784437
1.37,0.0,0.0,-5.0,0.0,0.0,0.3734361258784435
1.3800000000000001,0.0,0.0,-5.0,0.0,0.0,0.3734361258784435
1.3900000000000001,0.0,0.0,-5.0,0.0,0.0,0.3734361258784435
1.4000000000000001,0.0,0.0,-5.0,0.0,0.0,0.3734361258784435
1.41,0.0,0.0,-5.0,0.0,0.0,0.3734361258784435
1.42,0.0,0.0,-5.0,0.0,0.0,0.3734361258784435
1.43,0.0,0.0,-5.0,0.0,0.0,0.3734361258784435
1.44,0.0,0.0,-5.0,0.0,0.0,0.3734361258784435
1.45,0.0,0.0,-5.0,0.0,0.0,0.3734361258784435
1.46,0.0,0.0,-5.0,0.0,0.0,0.37343612587844455
1.47,0.0,0.0,-5.0,0.0,0.0,0.37343612587844455
1.48,0.0,0.0,-5.0,0.0,0.0,0.3734361258784448
1.49,0.0,0.0,-5.0,0.0,0.0,0.3734361258784446
1.5,0.0,0.0,-5.0,0.0,0.0,0.3734361258784446
1.51,0.0,0.0,-5.0,0.0,0.0,0.3734361258784446
1.52,0.0,0.0,-5.0,0.0,0.0,0.3734361258784446
1.53,0.0,0.0,-5.0,0.0,0.0,0.3734361258784447
1.54,0.0,0.0,-5.0,0.0,0.0,0.3734361258784419
1.55,0.0,0.0,-5.0,0.0,0.0,0.3734361258784419
1.56,0.0,0.0,-5.0,0.0,0.0,0.3734361258784411
1.57,0.0,0.0,-5.0,0.0,0.0,0.3734361258784409
1.58,0.0,0.0,-5.0,0.0,0.0,0.37343612587844127
1.59,0.0,0.0,-5.0,0.0,0.0,0.3734361258784417
1.6,0.0,0.0,-5.0,0.0,0.0,0.3734361258784411
1.61,0.0,0.0,-5.0,0.0,0.0,0.37343612587844127
1.62,0.0,0.0,-5.0,0.0,0.0,0.3734361258784442
1.6300000000000001,0.0,0.0,-5.0,0.0,0.0,0.3734361258784442
1.6400000000000001,0.0,0.0,-5.0,0.0,0.0,0.3734361258784442
1.6500000000000001,0.0,0.0,-5.0,0.0,0.0,0.37343612587844427
1.6600000000000001,0.0,0.0,-5.0,0.0,0.0,0.3734361258784442
1.67,0.0,0.0,-5.0,0.0,0.0,0.3734361258784442
1.68,0.0,0.0,-5.0,0.0,0.0,0.37343612587844427
1.69,0.0,0.0,-5.0,0.0,0.0,0.37343612587844427
1.7,0.0,0.0,-5.0,0.0,0.0,0.37343612587844427
1.71,0.0,0.0,-5.0,0.0,0.0,0.3734361258784437
1.72,0.0,0.0,-5.0,0.0,0.0,0.3734361258784437
1.73,0.0,0.0,-5.0,0.0,0.0,0.3734361258784437
1.74,0.0,0.0,-5.0,0.0,0.0,0.3734361258784437
1.75,0.0,0.0,-5.0,0.0,0.0,0.3734361258784437
1.76,0.0,0.0,-5.0,0.0,0.0,0.37343612587844355
1.77,0.0,0.0,-5.0,0.0,0.0,0.3734361258784437
1.78,0.0,0.0,-4.993394061339462,0.0,0.0,0.37338154006108737
1.79,0.0,0.0,-4.877273534824896,0.0,0.0,0.37242201951791537
1.8,0.0,0.0,-4.763898911881146,0.0,0.0,0.37148518876926073
1.81,0.0,0.0,-4.653203168720103,0.0,0.0,0.37057049398796116
1.82,0.0,0.0,-4.545121013509948,0.0,0.0,0.3696773956582586
1.83,0.0,0.0,-4.439588837245739,0.0,0.0,0.36880536816983367
1.84,0.0,0.0,-4.336544666209056,0.0,0.0,0.36795389942497453
1.85,0.0,0.0,-4.235928115956828,0.0,0.0,0.36712249045837864
1.86,0.0,0.0,-4.137680346782145,0.0,0.0,0.3663106550691204
1.87,0.0,0.0,-4.041744020592289,0.0,0.0,0.3655179194643261
1.8800000000000001,0.0,0.0,-3.9480632591515907,0.0,0.0,0.36474382191413135
1.8900000000000001,0.0,0.0,-3.8565836036389607,0.0,0.0,0.36398791241749723
1.9000000000000001,0.0,0.0,-3.7672519754720706,0.0,0.0,0.36324975237849416
1.9100000000000001,0.0,0.0,-3.680016638352199,0.0,0.0,0.36252891429267564
1.92,0.0,0.0,-3.594827161485669,0.0,0.0,0.3618249814431707
1.93,0.0,0.0,-3.511634383939673,0.0,0.0,0.3611375476061497
1.94,0.0,0.0,-3.430390380092011,0.0,0.0,0.3604662167653313
1.95,0.0,0.0,-3.3510484261359523,0.0,0.0,0.35981060283520805
1.96,0.0,0.0,-3.273562967603011,0.0,0.0,0.3591703293926814
1.97,0.0,0.0,-3.1978895878679654,0.0,0.0,0.3585450294168161
1.98,0.0,0.0,-3.12398497760187,0.0,0.0,0.3579343450364247
1.99,0.0,0.0,-3.051806905140222,0.0,0.0,0.3573379272852122
2.0,0.0,0.0,-2.98131418773473,0.0,0.0,0.35675543586422764
2.0100000000000002,0.0,0.0,-2.91246666365842,0.0,0.0,0.35618653891137525
2.02,0.0,0.0,-2.845225165134992,0.0,0.0,0.3556309127777075
2.0300000000000002,0.0,0.0,-2.7795514920644995,0.0,0.0,0.3550882418103243
2.04,0.0,0.0,-2.7154083865185172,0.0,0.0,0.3545582181416287
2.05,0.0,0.0,-2.6527595079790025,0.0,0.0,0.3540405414847132
2.06,0.0,0.0,-2.591569409296065,0.0,0.0,0.35353491893470185
2.07,0.0,0.0,-2.5318035133408037,0.0,0.0,0.3529719863900146
2.08,0.0,0.0,-2.4734297929248172,0.0,0.0,0.352405905232726
2.09,0.0,0.0,-2.416415578341097,0.0,0.0,0.3518530079299068
2.1,0.0,0.0,-2.3607285861870055,0.0,0.0,0.351312981412157
2.11,0.0,0.0,-2.3063373279511703,0.0,0.0,0.35078552031854826
2.12,0.0,0.0,-2.2532110891601222,0.0,0.0,0.350270326794425
2.13,0.0,0.0,-2.2013199091292495,0.0,0.0,0.34976711029502056
2.14,0.0,0.0,-2.1506345612980686,0.0,0.0,0.3492755873947605
2.15,0.0,0.0,-2.1011265341305854,0.0,0.0,0.34879548160204316
2.16,0.0,0.0,-2.0527680125622396,0.0,0.0,0.34832652317933077
2.17,0.0,0.0,-2.0055318599756378,0.0,0.0,0.34786844896833935
2.18,0.0,0.0,-1.9593916006879395,0.0,0.0,0.3474210022202305
2.19,0.0,0.0,-1.914321402933408,0.0,0.0,0.3469839324305665
2.2,0.0,0.0,-1.8702960623252498,0.0,0.0,0.3465569951789405
2.21,0.0,0.0,-1.827290985781451,0.0,0.0,0.34613995197309744
2.22,0.0,0.0,-1.7852821758998842,0.0,0.0,0.3457325700974122
2.23,0.0,0.0,-1.7442462157684988,0.0,0.0,0.3453346224655676
2.24,0.0,0.0,-1.7041602541969205,0.0,0.0,0.34494588747736
2.25,0.0,0.0,-1.6650019913562832,0.0,0.0,0.34456614887943227
2.2600000000000002,0.0,0.0,-1.6267496648145916,0.0,0.0,0.34419519562986367
2.27,0.0,0.0,-1.5893820359553625,0.0,0.0,0.34383282176643926
2.2800000000000002,0.0,0.0,-1.5528783767677374,0.0,0.0,0.34347882627856013
2.29,0.0,0.0,-1.517218456996667,0.0,0.0,0.3431330129826249
2.3000000000000003,0.0,0.0,-1.4823825316421761,0.0,0.0,0.34279519040083173
2.31,0.0,0.0,-1.4483513287971066,0.0,0.0,0.3424651716431948
2.32,0.0,0.0,-1.4151060378130884,0.0,0.0,0.3421427742927982
2.33,0.0,0.0,-1.3826282977848687,0.0,0.0,0.3418278202941456
2.34,0.0,0.0,-1.350900186343446,0.0,0.0,0.341520135844442
2.35,0.0,0.0,-1.3199042087487998,0.0,0.0,0.3412195512878403
2.36,0.0,0.0,-1.2896232872733133,0.0,0.0,0.3409259010125078
2.37,0.0,0.0,-1.2600407508672882,0.0,0.0,0.3406390233503528
2.38,0.0,0.0,-1.2311403250982462,0.0,0.0,0.3403587604795099
2.39,0.0,0.0,-1.2029061223559878,0.0,0.0,0.34008495832933694
2.4,0.0,0.0,-1.175322632315642,0.0,0.0,0.3398174664879219
2.41,0.0,0.0,-1.148374712651212,0.0,0.0,0.33955613811205354
2.42,0.0,0.0,-1.122047579992355,0.0,0.0,0.33930082983946713
2.43,0.0,0.0,-1.0963268011173848,0.0,0.0,0.33905140170351256
2.44,0.0,0.0,-1.0711982843757069,0.0,0.0,0.33880771704993656
2.45,0.0,0.0,-1.046648271333125,0.0,0.0,0.3385696424558178
2.46,0.0,0.0,-1.0226633286336644,0.0,0.0,0.338337047650757
2.47,0.0,0.0,-0.999230340071763,0.0,0.0,0.3381098054398908
2.48,0.0,0.0,-0.9763364988688856,0.0,0.0,0.3378877916290407
2.49,0.0,0.0,-0.953969300148796,0.0,0.0,0.3376708849517463
2.5,0.0,0.0,-0.932116533605913,0.0,0.0,0.3374589669981469
2.5100000000000002,0.0,0.0,-0.91076627636135,0.0,0.0,0.3372519221457152
2.52,0.0,0.0,-0.8899068860014079,0.0,0.0,0.3370496374917444
2.5300000000000002,0.0,0.0,-0.8695269937934557,0.0,0.0,0.3368520027875602
2.54,0.0,0.0,-0.8496154980742879,0.0,0.0,0.33665891037440315
2.5500000000000003,0.0,0.0,-0.830161557806209,0.0,0.0,0.3364702551209376
2.56,0.0,0.0,-0.8111545862962297,0.0,0.0,0.33628593436234555
2.57,0.0,0.0,-0.7925842450739129,0.0,0.0,0.3361058478409556
2.58,0.0,0.0,-0.7744404379235379,0.0,0.0,0.3359298976483651
2.59,0.0,0.0,-0.756713305066385,0.0,0.0,0.3357579881690378
2.6,0.0,0.0,-0.7393932174890699,0.0,0.0,0.33559002602528004
2.61,0.0,0.0,-0.7224707714139809,0.0,0.0,0.33542592002363886
2.62,0.0,0.0,-0.7059367829079896,0.0,0.0,0.3352655811026087
2.63,0.0,0.0,-0.6897822826257234,0.0,0.0,0.33510892228165173
2.64,0.0,0.0,-0.6739985106837937,0.0,0.0,0.33495585861150007
2.65,0.0,0.0,-0.6585769116624862,0.0,0.0,0.3348063071256775
2.66,0.0,0.0,-0.6435091297315197,0.0,0.0,0.3346601867932335
2.67,0.0,0.0,-0.6287870038965808,0.0,0.0,0.33451741847264155
2.68,0.0,0.0,-0.6144025633634391,0.0,0.0,0.33437792486685586
2.69,0.0,0.0,-0.6003480230165397,0.0,0.0,0.334241630479448
2.7,0.0,0.0,-0.5866157790090606,0.0,0.0,0.3341084615718558
2.71,0.0,0.0,-0.5731984044615116,0.0,0.0,0.3339783461216572
2.72,0.0,0.0,-0.5600886452660307,0.0,0.0,0.3338512137818949
2.73,0.0,0.0,-0.5472794159936236,0.0,0.0,0.33372699584137466
2.74,0.0,0.0,-0.5347637959016622,0.0,0.0,0.3336056251859608
2.75,0.0,0.0,-0.5225350250390423,0.0,0.0,0.3334870362607946
2.7600000000000002,0.0,0.0,-0.5105865004464686,0.0,0.0,0.33337116503344877
2.77,0.0,0.0,-0.49891177244941065,0.0,0.0,0.33325794895798844
2.7800000000000002,0.0,0.0,-0.4875045410413414,0.0,0.0,0.3331473269398787
2.79,0.0,0.0,-0.476358652354936,0.0,0.0,0.333039239301791
2.8000000000000003,0.0,0.0,-0.46546809521897653,0.0,0.0,0.3329336277501603
2.81,0.0,0.0,-0.4548269977987674,0.0,0.0,0.33283043534269907
2.82,0.0,0.0,-0.44442962431793126,0.0,0.0,0.33268378079089467
2.83,0.0,0.0,-0.4342705702069295,0.0,0.0,0.3325068809599698
2.84,0.0,0.0,-0.4243444863710279,0.0,0.0,0.3323340378455293
2.85,0.0,0.0,-0.4146459964632944,0.0,0.0,0.33216515782913003
2.86,0.0,0.0,-0.40516984973629877,0.0,0.0,0.3320001494793842
2.87,0.0,0.0,-0.3959109180390295,0.0,0.0,0.33183892349969785
2.88,0.0,0.0,-0.38686419288870594,0.0,0.0,0.33168139267723723
2.89,0.0,0.0,-0.3780247826154793,0.0,0.0,0.3315274718332571
2.9,0.0,0.0,-0.36938790957807816,0.0,0.0,0.3313770777745833
2.91,0.0,0.0,-0.36094890744851055,0.0,0.0,0.33123012924634865
2.92,0.0,0.0,-0.35270321856399106,0.0,0.0,0.3310865468858615
2.93,0.0,0.0,-0.3446463913443148,0.0,0.0,0.3309462531776753
2.94,0.0,0.0,-0.3367740777729512,0.0,0.0,0.3308091724096682
2.95,0.0,0.0,-0.32908203094018335,0.0,0.0,0.33067523063031373
2.96,0.0,0.0,-0.3215661026466632,0.0,0.0,0.3305443556069303
2.97,0.0,0.0,-0.3142222410658044,0.0,0.0,0.330416476784966
2.98,0.0,0.0,-0.30704648846347643,0.0,0.0,0.33029152524831623
2.99,0.0,0.0,-0.3000349789735096,0.0,0.0,0.33016943368056106
3.0,0.0,0.0,-0.2931839364275622,0.0,0.0,0.33005013632720476
3.0100000000000002,0.0,0.0,-0.28648967223794297,0.0,0.0,0.32993356895879244
3.02,0.0,0.0,-0.2799485833320209,0.0,0.0,0.329819668834939
3.0300000000000002,0.0,0.0,-0.2735571501368941,0.0,0.0,0.3297083746692373
3.04,0.0,0.0,-0.2673119346130259,0.0,0.0,0.3295996265950358
3.0500000000000003,0.0,0.0,-0.26120957833559294,0.0,0.0,0.32949336613201624
3.06,0.0,0.0,-0.25524680062232535,0.0,0.0,0.32938953615357397
3.0700000000000003,0.0,0.0,-0.24942039670665211,0.0,0.0,0.3292880808550509
3.08,0.0,0.0,-0.24372723595499893,0.0,0.0,0.3291889457226499
3.09,0.0,0.0,-0.23816426012711597,0.0,0.0,0.3290920775031562
3.1,0.0,0.0,-0.2327284816783463,0.0,0.0,0.32899742417441397
3.11,0.0,0.0,-0.22741698210277247,0.0,0.0,0.3289049349163991
3.12,0.0,0.0,-0.22222691031621114,0.0,0.0,0.3288145600831212
3.13,0.0,0.0,-0.21715548107805088,0.0,0.0,0.32872625117513116
3.14,0.0,0.0,-0.21219997345095737,0.0,0.0,0.3286399608126836
3.15,0.0,0.0,-0.20735772929749596,0.0,0.0,0.3285556427095693
3.16,0.0,0.0,-0.2026261518127473,0.0,0.0,0.3284732516475771
3.17,0.0,0.0,-0.19800270409201617,0.0,0.0,0.32839274345152647
3.18,0.0,0.0,-0.19348490773275934,0.0,0.0,0.3283140749649385
3.19,0.0,0.0,-0.18907034146987928,0.0,0.0,0.3282372040262694
3.2,0.0,0.0,-0.18475663984355528,0.0,0.0,0.32816208944571795
3.21,0.0,0.0,-0.18054149189880495,0.0,0.0,0.3280886909825737
3.22,0.0,0.0,-0.17642263991598992,0.0,0.0,0.3280169693231129
3.23,0.0,0.0,-0.17239787817150126,0.0,0.0,0.3279468860590287
3.24,0.0,0.0,-0.16846505172787957,0.0,0.0,0.3278784036663418
3.25,0.0,0.0,-0.16462205525264464,0.0,0.0,0.3278067346669892
3.2600000000000002,0.0,0.0,-0.16086683948264824,0.0,0.0,0.32770907858702375
3.27,0.0,0.0,-0.1571974374542428,0.0,0.0,0.32761365413210736
3.2800000000000002,0.0,0.0,-0.1536118812616791,0.0,0.0,0.3275204101259783
3.29,0.0,0.0,-0.15010824843896126,0.0,0.0,0.32742929657403286
3.3000000000000003,0.0,0.0,-0.14668466089660626,0.0,0.0,0.32734026463571353
3.31,0.0,0.0,-0.14333928388391165,0.0,0.0,0.3272532665974887
3.3200000000000003,0.0,0.0,-0.14007032497609148,0.0,0.0,0.3271682558465555
3.33,0.0,0.0,-0.13687603308565766,0.0,0.0,0.3270851868450909
3.34,0.0,0.0,-0.13375469749744076,0.0,0.0,0.3270040151051718
3.35,0.0,0.0,-0.13070464692666076,0.0,0.0,0.32692469716428885
3.36,0.0,0.0,-0.1277242485994733,0.0,0.0,0.3268471905614182
3.37,0.0,0.0,-0.12481190735543372,0.0,0.0,0.3267714538136912
3.38,0.0,0.0,-0.12196606477133415,0.0,0.0,0.32669744639361536
3.39,0.0,0.0,-0.11918519830588507,0.0,0.0,0.32662512870681404
3.4,0.0,0.0,-0.11646782046472572,0.0,0.0,0.32655446207032085
3.41,0.0,0.0,-0.11381247798526174,0.0,0.0,0.3264854086913956
3.42,0.0,0.0,-0.11121775104084138,0.0,0.0,0.3264179316467959
3.43,0.0,0.0,-0.10868225246379483,0.0,0.0,0.3263519948626066
3.44,0.0,0.0,-0.10620462698687315,0.0,0.0,0.3262875630944917
3.45,0.0,0.0,-0.1037835505026359,0.0,0.0,0.3262246019084423
3.46,0.0,0.0,-0.10141772934034769,0.0,0.0,0.32616307766196284
3.47,0.0,0.0,-0.09910589955995625,0.0,0.0,0.32610295748572193
3.48,0.0,0.0,-0.09684682626273425,0.0,0.0,0.3260442092656256
3.49,0.0,0.0,-0.09463930291817949,0.0,0.0,0.3259868016252958
3.5,0.0,0.0,-0.09248215070677736,0.0,0.0,0.32593070390900875
3.5100000000000002,0.0,0.0,-0.09037421787824008,0.0,0.0,0.3258758861649754
3.52,0.0,0.0,-0.08831437912484727,0.0,0.0,0.3258223191290603
3.5300000000000002,0.0,0.0,-0.08630153496952153,0.0,0.0,0.32576997420886533
3.54,0.0,0.0,-0.08433461116828277,0.0,0.0,0.32571882346819014
3.5500000000000003,0.0,0.0,-0.08241255812673326,0.0,0.0,0.3256688396118611
3.56,0.0,0.0,-0.08053435033023494,0.0,0.0,0.32561999597090474
3.5700000000000003,0.0,0.0,-0.07869898578744873,0.0,0.0,0.3255722664880904
3.58,0.0,0.0,-0.07690548548691398,0.0,0.0,0.3255256257037775
3.59,0.0,0.0,-0.07515289286635445,0.0,0.0,0.32548004874213665
3.6,0.0,0.0,-0.07344027329440506,0.0,0.0,0.32543551129765286
3.61,0.0,0.0,-0.07176671356446121,0.0,0.0,0.3253919896219811
3.62,0.0,0.0,-0.07013132140036013,0.0,0.0,0.32534946051107444
3.63,0.0,0.0,-0.06853322497361097,0.0,0.0,0.32530790129263965
3.64,0.0,0.0,-0.06697157243189733,0.0,0.0,0.3252672898138774
3.65,0.0,0.0,-0.06544553143858281,0.0,0.0,0.3252276044294995
3.66,0.0,0.0,-0.06395428872295719,0.0,0.0,0.3251888239900233
3.67,0.0,0.0,-0.06249704964096681,0.0,0.0,0.3251509278303771
3.68,0.0,0.0,-0.06107303774617961,0.0,0.0,0.3251138957587218
3.69,0.0,0.0,-0.059681494370741134,0.0,0.0,0.32507770804555763
3.7,0.0,0.0,-0.058321678216084125,0.0,0.0,0.3250423454130816
3.71,0.0,0.0,-0.05699286495315983,0.0,0.0,0.32500778902478883
3.72,0.0,0.0,-0.055694346831965155,0.0,0.0,0.32497402047532326
3.73,0.0,0.0,-0.05442543230014525,0.0,0.0,0.32494102178055206
3.74,0.0,0.0,-0.05318544563045657,0.0,0.0,0.3249087753678837
3.75,0.0,0.0,-0.05197372655688056,0.0,0.0,0.3248772640668027
3.7600000000000002,0.0,0.0,-0.050789629919183565,0.0,0.0,0.324846471099629
3.77,0.0,0.0,-0.04963252531572323,0.0,0.0,0.3248163800724785
3.7800000000000002,0.0,0.0,-0.048501796764306764,0.0,0.0,0.3247869749664485
3.79,0.0,0.0,-0.047396842370911116,0.0,0.0,0.3247582401290336
3.8000000000000003,0.0,0.0,-0.046317074006079685,0.0,0.0,0.32473016026565205
3.81,0.0,0.0,-0.045261916988814765,0.0,0.0,0.32470272043146725
3.8200000000000003,0.0,0.0,-0.04423080977778928,0.0,0.0,0.32467590602334157
3.83,0.0,0.0,-0.0432232036697057,0.0,0.0,0.32464970277200045
3.84,0.0,0.0,-0.04223856250463403,0.0,0.0,0.3246240967343566
3.85,0.0,0.0,-0.041276362378165114,0.0,0.0,0.32459907428605084
3.86,0.0,0.0,-0.04033609136021912,0.0,0.0,0.32457462211410104
3.87,0.0,0.0,-0.03941724922035322,0.0,0.0,0.324550514124102
3.88,0.0,0.0,-0.038519347241229795,0.0,0.0,0.32452605555151715
3.89,0.0,0.0,-0.03764190812310807,0.0,0.0,0.32450215438094865
3.9,0.0,0.0,-0.036784465111478946,0.0,0.0,0.3244787978981427
3.91,0.0,0.0,-0.035946562117042155,0.0,0.0,0.3244559736793654
3.92,0.0,0.0,-0.035127753471171023,0.0,0.0,0.3244336695847545
3.93,0.0,0.0,-0.034327603687021827,0.0,0.0,0.32441187375176855
3.94,0.0,0.0,-0.03354568722615557,0.0,0.0,0.32439057458887566
3.95,0.0,0.0,-0.03278158827054352,0.0,0.0,0.3243697607693278
3.96,0.0,0.0,-0.03203490049983063,0.0,0.0,0.3243494212250763
3.97,0.0,0.0,-0.03130522687373423,0.0,0.0,0.32432954514087103
3.98,0.0,0.0,-0.030592179419458063,0.0,0.0,0.3243101219484511
3.99,0.0,0.0,-0.029895379024004867,0.0,0.0,0.3242911413208885
4.0,0.0,0.0,-0.029214455231273227,0.0,0.0,0.32427259316708684
4.01,0.0,0.0,-0.028549046043827284,0.0,0.0,0.32425446762633836
4.0200000000000005,0.0,0.0,-0.02789879772923058,0.0,0.0,0.324236755063086
4.03,0.0,0.0,-0.02726336463083778,0.0,0.0,0.32421944606174485
4.04,0.0,0.0,-0.026642408982940534,0.0,0.0,0.3242025314216888
4.05,0.0,0.0,-0.026035600730166402,0.0,0.0,0.3241860021522995
4.0600000000000005,0.0,0.0,-0.02544261735103188,0.0,0.0,0.3241698494682056
4.07,0.0,0.0,-0.024863143685553125,0.0,0.0,0.3241540647845312
4.08,0.0,0.0,-0.02429687176682014,0.0,0.0,0.32413863971236684
4.09,0.0,0.0,-0.023743500656442446,0.0,0.0,0.32412356605423626
4.1,0.0,0.0,-0.023202736283776476,0.0,0.0,0.32410883579974903
4.11,0.0,0.0,-0.022674291288846973,0.0,0.0,0.32409444112130326
4.12,0.0,0.0,-0.022157884868876748,0.0,0.0,0.3240803743699205
4.13,0.0,0.0,-0.0216532426283413,0.0,0.0,0.324066628071152
4.14,0.0,0.0,-0.021160096432466562,0.0,0.0,0.32405319492108814
4.15,0.0,0.0,-0.020678184264090117,0.0,0.0,0.32404006778246586
4.16,0.0,0.0,-0.02020725008380804,0.0,0.0,0.32402723968085184
4.17,0.0,0.0,-0.019747043693331377,0.0,0.0,0.32376979707387327
4.18,0.0,0.0,-0.0192973677098931,0.0,0.0,0.3163969718465296
4.19,0.0,0.0,-0.018859317640948704,0.0,0.0,0.30921476350522387
4.2,0.0,0.0,-0.01843253099185483,0.0,0.0,0.3022172286379536
4.21,0.0,0.0,-0.018016659366912127,0.0,0.0,0.29539865499687223
4.22,0.0,0.0,-0.01761136779260246,0.0,0.0,0.2887535504025673
4.23,0.0,0.0,-0.017216334079588627,0.0,0.0,0.2822766322832274
4.24,0.0,0.0,-0.016831248220908264,0.0,0.0,0.2759628178076958
4.25,0.0,0.0,-0.01645581182398589,0.0,0.0,0.26980721457242335
4.26,0.0,0.0,-0.01608973757426386,0.0,0.0,0.26380511180771266
4.2700000000000005,0.0,0.0,-0.015732748728414677,0.0,0.0,0.2579519720682442
4.28,0.0,0.0,-0.015384578635246069,0.0,0.0,0.2522434233780037
4.29,0.0,0.0,-0.015044970282546501,0.0,0.0,0.24667525180023994
4.3,0.0,0.0,-0.014713675868244602,0.0,0.0,0.2412433944064652
4.3100000000000005,0.0,0.0,-0.014390456394371285,0.0,0.0,0.23594393261910898
4.32,0.0,0.0,-0.014075081282419867,0.0,0.0,0.2307730859048212
4.33,0.0,0.0,-0.013767328008797524,0.0,0.0,0.22572720579752883
4.34,0.0,0.0,-0.013466981759151689,0.0,0.0,0.22080277023090672
4.3500000000000005,0.0,0.0,-0.01317383510043855,0.0,0.0,0.2159963781613429
4.36,0.0,0.0,-0.012887687669677838,0.0,0.0,0.21130474446523867
4.37,0.0,0.0,-0.012608345878409194,0.0,0.0,0.20672469509284744
4.38,0.0,0.0,-0.012335622631931428,0.0,0.0,0.20225316246551073
4.39,0.0,0.0,-0.012069337062466682,0.0,0.0,0.197887181099979
4.4,0.0,0.0,-0.011809314275448258,0.0,0.0,0.19362388344919296
4.41,0.0,0.0,-0.01155538510818275,0.0,0.0,0.18946049594504688
4.42,0.0,0.0,-0.011307385900186021,0.0,0.0,0.18539433523287063
4.43,0.0,0.0,-0.011065158274537223,0.0,0.0,0.1814228045865495
4.44,0.0,0.0,-0.010828548929637024,0.0,0.0,0.1775433904942756
4.45,0.0,0.0,-0.010597409440794864,0.0,0.0,0.17375365940540502
4.46,0.0,0.0,-0.0103715960711062,0.0,0.0,0.17005125462951026
4.47,0.0,0.0,-0.01015096959111423,0.0,0.0,0.16643389337961734
4.48,0.0,0.0,-0.009935395106781753,0.0,0.0,0.16289936395178994
4.49,0.0,0.0,-0.009724741895327883,0.0,0.0,0.1594455230333586
4.5,0.0,0.0,-0.009518883248511481,0.0,0.0,0.15607029313365992
4.51,0.0,0.0,-0.009317696322968262,0.0,0.0,0.15277166012965263
4.5200000000000005,0.0,0.0,-0.009121061997232298,0.0,0.0,0.14954767092251683
4.53,0.0,0.0,-0.008928864735094234,0.0,0.0,0.14639643119635662
4.54,0.0,0.0,-0.00874099245496952,0.0,0.0,0.1433161032770331
4.55,0.0,0.0,-0.008557336404968642,0.0,0.0,0.14030490408372034
4.5600000000000005,0.0,0.0,-0.008377791043379547,0.0,0.0,0.13736110316900454
4.57,0.0,0.0,-0.008202253924289136,0.0,0.0,0.1344830208439013
4.58,0.0,0.0,-0.00803062558808622,0.0,0.0,0.1316690263823468
4.59,0.0,0.0,-0.007862809456603191,0.0,0.0,0.12891753630216207
4.6000000000000005,0.0,0.0,-0.007698711732667231,0.0,0.0,0.12622701271773837
4.61,0.0,0.0,-0.00753824130384485,0.0,0.0,0.12359596176231652
4.62,0.0,0.0,-0.007381309650175496,0.0,0.0,0.121022932074858
4.63,0.0,0.0,-0.0072278307557013905,0.0,0.0,0.11850651334952408
4.64,0.0,0.0,-0.007077721023611282,0.0,0.0,0.11604533494471582
4.65,0.0,0.0,-0.006930899194825744,0.0,0.0,0.11363806454768446
4.66,0.0,0.0,-0.0067872862698610936,0.0,0.0,0.11128340689388568
4.67,0.0,0.0,-0.006646805433817653,0.0,0.0,0.1089801025367263
4.68,0.0,0.0,-0.006509381984346455,0.0,0.0,0.10672692666702398
4.69,0.0,0.0,-0.006374943262456131,0.0,0.0,0.10452268797782953
4.7,0.0,0.0,-0.006243418586029165,0.0,0.0,0.1023662275750698
4.71,0.0,0.0,-0.0061147391859234,0.0,0.0,0.1002564179292825
4.72,0.0,0.0,-0.005988838144541289,0.0,0.0,0.09819216186889397
4.73,0.0,0.0,-0.005865650336755385,0.0,0.0,0.09617239161113691
4.74,0.0,0.0,-0.005745112373084356,0.0,0.0,0.09419606783108592
4.75,0.0,0.0,-0.005627162545019144,0.0,0.0,0.09226217876439671
4.76,0.0,0.0,-0.005511740772404107,0.0,0.0,0.09036973934522388
4.7700000000000005,0.0,0.0,-0.005398788552782646,0.0,0.0,0.08851779037537265
4.78,0.0,0.0,-0.005288248912621474,0.0,0.0,0.08670539772466211
4.79,0.0,0.0,-0.005180066360331906,0.0,0.0,0.08493165156055746
4.8,0.0,0.0,-0.005074186841010608,0.0,0.0,0.08319566560656579
4.8100000000000005,0.0,0.0,-0.004970557692826044,0.0,0.0,0.0814965764264426
4.82,0.0,0.0,-0.004869127604980541,0.0,0.0,0.07983354273545605
4.83,0.0,0.0,-0.0047698465771811955,0.0,0.0,0.0782057447358334
4.84,0.0,0.0,-0.004672665880556147,0.0,0.0,0.07661238347560222
4.8500000000000005,0.0,0.0,-0.0045775380199558095,0.0,0.0,0.07505268023079706
4.86,0.0,0.0,-0.004484416697581444,0.0,0.0,0.07352587590928379
4.87,0.0,0.0,-0.004393256777886296,0.0,0.0,0.07203123047471816
4.88,0.0,0.0,-0.004304014253697074,0.0,0.0,0.07056802239180432
4.89,0.0,0.0,-0.004216646213505943,0.0,0.0,0.06913554808917566
4.9,0.0,0.0,-0.004131110809885633,0.0,0.0,0.06773312144226834
4.91,0.0,0.0,-0.004047367228982356,0.0,0.0,0.06636007327282507
4.92,0.0,0.0,-0.003965375661043392,0.0,0.0,0.06501575086559526
4.93,0.0,0.0,-0.0038850972719381553,0.0,0.0,0.06369951750152826
4.94,0.0,0.0,-0.0038064941756334133,0.0,0.0,0.06241075200659964
4.95,0.0,0.0,-0.003729529407585137,0.0,0.0,0.061148848315076956
4.96,0.0,0.0,-0.0036541668990111727,0.0,0.0,0.0599132150482857
4.97,0.0,0.0,-0.0035803714520104427,0.0,0.0,0.05870327510631854
4.98,0.0,0.0,-0.00350810871549603,0.0,0.0,0.057518465273516645
4.99,0.0,0.0,-0.003437345161910862,0.0,0.0,0.056358235836636156
5.0,0.0,0.0,-0.003368048064696119,0.0,0.0,0.055222050215570695
5.01,0.0,0.0,-0.003300185476483792,0.0,0.0,0.054109384605656806
5.0200000000000005,0.0,0.0,-0.0032337262079860773,0.0,0.0,0.05301972763171379
5.03,0.0,0.0,-0.00316863980755546,0.0,0.0,0.05195258001273149
5.04,0.0,0.0,-0.003104896541390473,0.0,0.0,0.0509074542373857
5.05,0.0,0.0,-0.0030424673743631916,0.0,0.0,0.04988387424968971
5.0600000000000005,0.0,0.0,-0.0029813239514455475,0.0,0.0,0.0488813751446427
5.07,0.0,0.0,-0.0029214385797124926,0.0,0.0,0.04789950287277368
5.08,0.0,0.0,-0.0028627842109010234,0.0,0.0,0.046937813954571216
5.09,0.0,0.0,-0.0028053344245048883,0.0,0.0,0.045995875202973845
5.1000000000000005,0.0,0.0,-0.0027490634113857037,0.0,0.0,0.04507326345506112
5.11,0.0,0.0,-0.002693945957881953,0.0,0.0,0.044169565310981034
5.12,0.0,0.0,-0.00263995743039816,0.0,0.0,0.04328437688179022
5.13,0.0,0.0,-0.0025870737604571955,0.0,0.0,0.04241730354406809
5.14,0.0,0.0,-0.002535271430199429,0.0,0.0,0.041567959702223885
5.15,0.0,0.0,-0.0024845274583130523,0.0,0.0,0.040735968557902034
5.16,0.0,0.0,-0.00243481938638057,0.0,0.0,0.03992096188585456
5.17,0.0,0.0,-0.0023861252656270323,0.0,0.0,0.03912257981716184
5.18,0.0,0.0,-0.002338423644056168,0.0,0.0,0.038340470627743754
5.19,0.0,0.0,-0.002291693553961132,0.0,0.0,0.03757429053405031
5.2,0.0,0.0,-0.0022459144997971038,0.0,0.0,0.03682370349388568
5.21,0.0,0.0,-0.0022010664464034687,0.0,0.0,0.03608838101364472
5.22,0.0,0.0,-0.0021571298075638017,0.0,0.0,0.0353680019603388
5.23,0.0,0.0,-0.0021140854348923378,0.0,0.0,0.03466225237976176
5.24,0.0,0.0,-0.0020719146070360297,0.0,0.0,0.03397082531908167
5.25,0.0,0.0,-0.0020305990191817427,0.0,0.0,0.033293420655202854
5.26,0.0,0.0,-0.001990120772858509,0.0,0.0,0.03262974492728338
5.2700000000000005,0.0,0.0,-0.00195046236602517,0.0,0.0,0.031979511174186646
5.28,0.0,0.0,-0.001911606683434094,0.0,0.0,0.031342438776765916
5.29,0.0,0.0,-0.0018735369872619975,0.0,0.0,0.030718253303938032
5.3,0.0,0.0,-0.0018362369079992595,0.0,0.0,0.03010668636354517
5.3100000000000005,0.0,0.0,-0.0017996904355894142,0.0,0.0,0.029507475456905533
5.32,0.0,0.0,-0.001763881910810838,0.0,0.0,0.028920363837495522
5.33,0.0,0.0,-0.0017287960168929242,0.0,0.0,0.028345100373720896
5.34,0.0,0.0,-0.0016944177713593346,0.0,0.0,0.027781439415023545
5.3500000000000005,0.0,0.0,-0.0016607325180911848,0.0,0.0,0.02722914066163535
5.36,0.0,0.0,-0.0016277259196032798,0.0,0.0,0.02668796903812963
5.37,0.0,0.0,-0.001595383949526766,0.0,0.0,0.02615769457008653
5.38,0.0,0.0,-0.001563692885291802,0.0,0.0,0.025638092264291302
5.39,0.0,0.0,-0.0015326393010040885,0.0,0.0,0.025128941991550267
5.4,0.0,0.0,-0.0015022100605093117,0.0,0.0,0.02463002837313605
5.41,0.0,0.0,-0.0014723923106397644,0.0,0.0,0.024141140670617452
5.42,0.0,0.0,-0.0014431734746376064,0.0,0.0,0.023662072676912352
5.43,0.0,0.0,-0.0014145412457494506,0.0,0.0,0.023192622612325114
5.44,0.0,0.0,-0.001386483580987098,0.0,0.0,0.022732593021733517
5.45,0.0,0.0,-0.0013589886950494668,0.0,0.0,0.02228179067479787
5.46,0.0,0.0,-0.0013320450544009182,0.0,0.0,0.02184002646952122
5.47,0.0,0.0,-0.0013056413715013357,0.0,0.0,0.021407115336715
5.48,0.0,0.0,-0.0012797665991834991,0.0,0.0,0.0209828761486876
5.49,0.0,0.0,-0.001254409925173415,0.0,0.0,0.020567131628868158
5.5,0.0,0.0,-0.0012295607667494447,0.0,0.0,0.020159708264294397
5.51,0.0,0.0,-0.001205208765536191,0.0,0.0,0.019760436220721912
5.5200000000000005,0.0,0.0,-0.0011813437824292384,0.0,0.0,0.019369149258598634
5.53,0.0,0.0,-0.0011579558926469989,0.0,0.0,0.0189856846525729
5.54,0.0,0.0,-0.0011350353809060027,0.0,0.0,0.018609883112406442
5.55,0.0,0.0,-0.00111257273671612,0.0,0.0,0.01824158870514143
5.5600000000000005,0.0,0.0,-0.0010905586497923206,0.0,0.0,0.01788064878083265
5.57,0.0,0.0,-0.0010689840055796553,0.0,0.0,0.01752691389840492
5.58,0.0,0.0,-0.0010478398808882986,0.0,0.0,0.01718023775458794
5.59,0.0,0.0,-0.0010271175396355525,0.0,0.0,0.016840477113614458
5.6000000000000005,0.0,0.0,-0.0010068084286918436,0.0,0.0,0.016507491739648196
5.61,0.0,0.0,-0.0009869041738278152,0.0,0.0,0.01618114432997841
5.62,0.0,0.0,-0.0009673965757597303,0.0,0.0,0.015861300450239094
5.63,0.0,0.0,-0.0009482776062904799,0.0,0.0,0.015547828471240931
5.64,0.0,0.0,-0.0009295394045435736,0.0,0.0,0.015240599507186472
5.65,0.0,0.0,-0.0009111742732875815,0.0,0.0,0.014939487355312605
5.66,0.0,0.0,-0.0008931746753485719,0.0,0.0,0.014644368437142579
5.67,0.0,0.0,-0.0008755332301081619,0.0,0.0,0.014355121741061946
5.68,0.0,0.0,-0.0008582427100848804,0.0,0.0,0.014071628766298918
5.69,0.0,0.0,-0.0008412960375966073,0.0,0.0,0.013793773468203239
5.7,0.0,0.0,-0.0008246862815019252,0.0,0.0,0.013521442204651927
5.71,0.0,0.0,-0.0008084066540182877,0.0,0.0,0.013254523684083837
5.72,0.0,0.0,-0.0007924505076149676,0.0,0.0,0.01299290891468238
5.73,0.0,0.0,-0.0007768113319788124,0.0,0.0,0.012736491154073827
5.74,0.0,0.0,-0.0007614827510509024,0.0,0.0,0.01248516586138471
5.75,0.0,0.0,-0.000746458520132246,0.0,0.0,0.012238830649353766
5.76,0.0,0.0,-0.0007317325230567222,0.0,0.0,0.011997385238120025
5.7700000000000005,0.0,0.0,-0.0007172987694295215,0.0,0.0,0.01176073141004439
5.78,0.0,0.0,-0.0007031513919293907,0.0,0.0,0.01152877296534972
5.79,0.0,0.0,-0.0006892846436730427,0.0,0.0,0.011301415678954934
5.8,0.0,0.0,-0.0006756928956401334,0.0,0.0,0.011078567258133956
5.8100000000000005,0.0,0.0,-0.000662370634157261,0.0,0.0,0.010860137301534295
5.82,0.0,0.0,-0.0006493124584394788,0.0,0.0,0.01064603725860828
5.83,0.0,0.0,-0.0006365130781878724,0.0,0.0,0.010436180390355574
5.84,0.0,0.0,-0.0006239673112417753,0.0,0.0,0.010230481730757308
5.8500000000000005,0.0,0.0,-0.0006116700812842536,0.0,0.0,0.010028858049285562
5.86,0.0,0.0,-0.0005996164155995193,0.0,0.0,0.009831227813946554
5.87,0.0,0.0,-0.0005878014428809775,0.0,0.0,0.009637511155410465
5.88,0.0,0.0,-0.0005762203910886443,0.0,0.0,0.009447629832089128
5.89,0.0,0.0,-0.0005648685853547084,0.0,0.0,0.009261507195421194
5.9,0.0,0.0,-0.0005537414459360508,0.0,0.0,0.009079068156532668
5.91,0.0,0.0,-0.0005428344862125595,0.0,0.0,0.008900239153513293
5.92,0.0,0.0,-0.0005321433107301169,0.0,0.0,0.008724948119061986
5.93,0.0,0.0,-0.000521663613287166,0.0,0.0,0.008553124449278672
5.94,0.0,0.0,-0.0005113911750637918,0.0,0.0,0.008384698973028194
5.95,0.0,0.0,-0.0005013218627922834,0.0,0.0,0.008219603921739366
5.96,0.0,0.0,-0.0004914516269681722,0.0,0.0,0.008057772900427342
5.97,0.0,0.0,-0.00048177650010076576,0.0,0.0,0.007899140858525451
5.98,0.0,0.0,-0.00047229259500223067,0.0,0.0,0.00774364406230095
5.99,0.0,0.0,-0.0004629961031142923,0.0,0.0,0.007591220067158654
6.0,0.0,0.0,-0.00045388329287165697,0.0,0.0,0.0074418076908552505
6.01,0.0,0.0,-0.0004449505081012764,0.0,0.0,0.007295346987302743
6.0200000000000005,0.0,0.0,-0.0004361941664566033,0.0,0.0,0.007151779220845975
6.03,0.0,0.0,-0.000427610757886008,0.0,0.0,0.007011046841120159
6.04,0.0,0.0,-0.00041919684313454774,0.0,0.0,0.006873093458656614
6.05,0.0,0.0,-0.0004109490522783026,0.0,0.0,0.006737863820533302
6.0600000000000005,0.0,0.0,-0.0004028640832905121,0.0,0.0,0.0066053037873219115
6.07,0.0,0.0,-0.0003949387006387668,0.0,0.0,0.0064753603095217905
6.08,0.0,0.0,-0.00038716973391253034,0.0,0.0,0.006347981405662527
6.09,0.0,0.0,-0.0003795540764802813,0.0,0.0,0.006223116139799891
6.1000000000000005,0.0,0.0,-0.000372088684175591,0.0,0.0,0.0061007146001298375
6.11,0.0,0.0,-0.0003647705740114627,0.0,0.0,0.005980727878059028
6.12,0.0,0.0,-0.00035759682292227997,0.0,0.0,0.005863108047446678
6.13,0.0,0.0,-0.0003505645665327273,0.0,0.0,0.005747808144414447
6.140000000000001,0.0,0.0,-0.00034367099795306347,0.0,0.0,0.005634782147384162
6.15,0.0,0.0,-0.0003369133666001426,0.0,0.0,0.005523984958421088
6.16,0.0,0.0,-0.0003302889770435913,0.0,0.0,0.0054153723834949935
6.17,0.0,0.0,-0.0003237951878765728,0.0,0.0,0.005308901114542257
6.18,0.0,0.0,-0.00031742941061057314,0.0,0.0,0.005204528710992505
6.19,0.0,0.0,-0.0003111891085936675,0.0,0.0,0.005102213582215909
6.2,0.0,0.0,-0.0003050717959517321,0.0,0.0,0.005001914970278504
6.21,0.0,0.0,-0.0002990750365520842,0.0,0.0,0.0049035929326398334
6.22,0.0,0.0,-0.000293196442989045,0.0,0.0,0.004807208325637121
6.23,0.0,0.0,-0.000287433675590931,0.0,0.0,0.004712722788481328
6.24,0.0,0.0,-0.0002817844414479929,0.0,0.0,0.004620098726846325
6.25,0.0,0.0,-0.0002762464934608343,0.0,0.0,0.0045292992975990674
6.26,0.0,0.0,-0.00027081762940885096,0.0,0.0,0.004440288393537626
6.2700000000000005,0.0,0.0,-0.00026549569103824445,0.0,0.0,0.004353030628100501
6.28,0.0,0.0,-0.00026027856316917635,0.0,0.0,0.004267491321178304
6.29,0.0,0.0,-0.00025516417282163515,0.0,0.0,0.004183636484446966
6.3,0.0,0.0,-0.00025015048835960404,0.0,0.0,0.004101432807515764
6.3100000000000005,0.0,0.0,-0.00024523551865312355,0.0,0.0,0.00402084764398974
6.32,0.0,0.0,-0.00024041731225785405,0.0,0.0,0.003941848998341426
6.33,0.0,0.0,-0.00023569395661175377,0.0,0.0,0.003864405512457714
6.34,0.0,0.0,-0.00023106357724849504,0.0,0.0,0.003788486452900213
6.3500000000000005,0.0,0.0,-0.00022652433702725276,0.0,0.0,0.0037140616980742493
6.36,0.0,0.0,-0.0002220744353785061,0.0,0.0,0.003641101726117058
6.37,0.0,0.0,-0.00021771210756550336,0.0,0.0,0.0035695776026879967
6.38,0.0,0.0,-0.00021343562396104876,0.0,0.0,0.00349946096901968
6.390000000000001,0.0,0.0,-0.00020924328933927765,0.0,0.0,0.003430724030404102
6.4,0.0,0.0,-0.0002051334421820945,0.0,0.0,0.003363339544924621
6.41,0.0,0.0,-0.00020110445399995486,0.0,0.0,0.0032972808119183317
6.42,0.0,0.0,-0.00019715472866668233,0.0,0.0,0.003232521661641246
6.43,0.0,0.0,-0.00019328270176801512,0.0,0.0,0.0031690364442089718
6.44,0.0,0.0,-0.00018948683996358764,0.0,0.0,0.0031068000190858387
6.45,0.0,0.0,-0.00018576564036205728,0.0,0.0,0.0030457877450595604
6.46,0.0,0.0,-0.00018211762990909296,0.0,0.0,0.002985975470336093
6.47,0.0,0.0,-0.00017854136478794984,0.0,0.0,0.002927339522005656
6.48,0.0,0.0,-0.0001750354298323613,0.0,0.0,0.0028698566973735487
6.49,0.0,0.0,-0.00017159843795148226,0.0,0.0,0.0028135042539195717
6.5,0.0,0.0,-0.00016822902956662843,0.0,0.0,0.0027582599000820587
6.51,0.0,0.0,-0.00016492587205955948,0.0,0.0,0.0027041017864932355
6.5200000000000005,0.0,0.0,-0.00016168765923205882,0.0,0.0,0.002651008496872513
6.53,0.0,0.0,-0.00015851311077657134,0.0,0.0,0.0025989590394822444
6.54,0.0,0.0,-0.00015540097175766306,0.0,0.0,0.0025479328385981078
6.55,0.0,0.0,-0.00015235001210407384,0.0,0.0,0.002497909726092347
6.5600000000000005,0.0,0.0,-0.0001493590261111382,0.0,0.0,0.002448869933473051
6.57,0.0,0.0,-0.00014642683195335564,0.0,0.0,0.0024007940835823935
6.58,0.0,0.0,-0.0001435522712068951,0.0,0.0,0.0023536631831984783
6.59,0.0,0.0,-0.0001407342083818248,0.0,0.0,0.002307458614938968
6.6000000000000005,0.0,0.0,-0.00013797153046386237,0.0,0.0,0.0022621621298945637
6.61,0.0,0.0,-0.0001352631464654449,0.0,0.0,0.0022177558404918706
6.62,0.0,0.0,-0.0001326079869859226,0.0,0.0,0.0021742222128620465
6.63,0.0,0.0,-0.00013000500378068544,0.0,0.0,0.0021315440602977485
6.640000000000001,0.0,0.0,-0.00012745316933903482,0.0,0.0,0.002089704535763185
6.65,0.0,0.0,-0.00012495147647061773,0.0,0.0,0.002048687125463794
6.66,0.0,0.0,-0.00012249893790024384,0.0,0.0,0.002008475642286541
6.67,0.0,0.0,-0.00012009458587091062,0.0,0.0,0.0019690542189812693
6.68,0.0,0.0,-0.00011773747175486529,0.0,0.0,0.0019304073020065004
6.69,0.0,0.0,-0.00011542666567253631,0.0,0.0,0.0018925196450777842
6.7,0.0,0.0,-0.0001131612561191702,0.0,0.0,0.0018553763033905585
6.71,0.0,0.0,-0.00011094034959901341,0.0,0.0,0.0018189626273055245
6.72,0.0,0.0,-0.00010876307026688328,0.0,0.0,0.0017832642565176707
6.73,0.0,0.0,-0.00010662855957697382,0.0,0.0,0.0017482671144724536
6.74,0.0,0.0,-0.00010453597593874696,0.0,0.0,0.0017139574025664451
6.75,0.0,0.0,-0.00010248449437976226,0.0,0.0,0.001680321594676208
6.76,0.0,0.0,-0.00010047330621530176,0.0,0.0,0.0016473464316798271
6.7700000000000005,0.0,0.0,-9.850161872464956e-05,0.0,0.0,0.0016150189163580183
6.78,0.0,0.0,-9.65686548338881e-05,0.0,0.0,0.0015833263077489506
6.79,0.0,0.0,-9.467365280507813e-05,0.0,0.0,0.0015522561165564226
6.8,0.0,0.0,-9.281586593168917e-05,0.0,0.0,0.0015217960999255585
6.8100000000000005,0.0,0.0,-9.099456224015281e-05,0.0,0.0,0.0014919342565710837
6.82,0.0,0.0,-8.920902419741276e-05,0.0,0.0,0.0014626588217282546
6.83,0.0,0.0,-8.745854842434843e-05,0.0,0.0,0.0014339582630798586
6.84,0.0,0.0,-8.574244541495079e-05,0.0,0.0,0.001405821275555724
6.8500000000000005,0.0,0.0,-8.406003926113363e-05,0.0,0.0,0.0013782367769494422
6.86,0.0,0.0,-8.241066738306382e-05,0.0,0.0,0.0013511939037551307
6.87,0.0,0.0,-8.079368026489785e-05,0.0,0.0,0.0013246820066426853
6.88,0.0,0.0,-7.920844119581395e-05,0.0,0.0,0.0012986906461169988
6.890000000000001,0.0,0.0,-7.765432601623167e-05,0.0,0.0,0.001273209588599845
6.9,0.0,0.0,-7.61307228691127e-05,0.0,0.0,0.0012482288021041482
6.91,0.0,0.0,-7.463703195623941e-05,0.0,0.0,0.0012237384525211606
6.92,0.0,0.0,-7.317266529936918e-05,0.0,0.0,0.001199728899336007
6.93,0.0,0.0,-7.173704650616583e-05,0.0,0.0,0.0011761906921340408
6.94,0.0,0.0,-7.032961054080998e-05,0.0,0.0,0.0011531145667410324
6.95,0.0,0.0,-6.894980349919365e-05,0.0,0.0,0.0011304914413598063
6.96,0.0,0.0,-6.75970823886059e-05,0.0,0.0,0.0011083124131307104
6.97,0.0,0.0,-6.627091491181775e-05,0.0,0.0,0.0010865687546062622
6.98,0.0,0.0,-6.497077925547744e-05,0.0,0.0,0.0010652519102160724
6.99,0.0,0.0,-6.369616388272832e-05,0.0,0.0,0.0010443534928310369
7.0,0.0,0.0,-6.244656732996384e-05,0.0,0.0,0.0010238652806138792
7.01,0.0,0.0,-6.122149800763551e-05,0.0,0.0,0.0010037792134845577
7.0200000000000005,0.0,0.0,-6.002047400503213e-05,0.0,0.0,0.0009840873900553188
7.03,0.0,0.0,-5.88430228989495e-05,0.0,0.0,0.0009647820645198364
7.04,0.0,0.0,-5.768868156617199e-05,0.0,0.0,0.0009458556437091349
7.05,0.0,0.0,-5.655699599968887e-05,0.0,0.0,0.0009273006837248128
7.0600000000000005,0.0,0.0,-5.544752112857008e-05,0.0,0.0,0.0009091098871588808
7.07,0.0,0.0,-5.435982064142736e-05,0.0,0.0,0.0008912761004021893
7.08,0.0,0.0,-5.329346681338814e-05,0.0,0.0,0.0008737923105327844
7.09,0.0,0.0,-5.2248040336511866e-05,0.0,0.0,0.0008566516426556103
7.1000000000000005,0.0,0.0,-5.122313015357869e-05,0.0,0.0,0.0008398473570569505
7.11,0.0,0.0,-5.021833329518319e-05,0.0,0.0,0.0008233728467791012
7.12,0.0,0.0,-4.9233254720065896e-05,0.0,0.0,0.0008072216346938436
7.13,0.0,0.0,-4.826750715861802e-05,0.0,0.0,0.0007913873712689087
7.140000000000001,0.0,0.0,-4.7320710959494985e-05,0.0,0.0,0.0007758638317704698
7.15,0.0,0.0,-4.639249393927669e-05,0.0,0.0,0.0007606449138535218
7.16,0.0,0.0,-4.548249123511303e-05,0.0,0.0,0.0007457246353654091
7.17,0.0,0.0,-4.459034516029451e-05,0.0,0.0,0.0007310971317197967
7.18,0.0,0.0,-4.371570506268958e-05,0.0,0.0,0.0007167566536410536
7.19,0.0,0.0,-4.2858227185990874e-05,0.0,0.0,0.0007026975649573401
7.2,0.0,0.0,-4.201757453371402e-05,0.0,0.0,0.0006889143404155014
7.21,0.0,0.0,-4.119341673589384e-05,0.0,0.0,0.0006754015630832398
7.22,0.0,0.0,-4.038542991842394e-05,0.0,0.0,0.0006621539229935183
7.23,0.0,0.0,-3.959329657498636e-05,0.0,0.0,0.0006491662143236018
7.24,0.0,0.0,-3.8816705441519973e-05,0.0,0.0,0.0006364333334647011
7.25,0.0,0.0,-3.805535137317632e-05,0.0,0.0,0.0006239502774531153
7.26,0.0,0.0,-3.730893522371312e-05,0.0,0.0,0.0006117121415677746
7.2700000000000005,0.0,0.0,-3.657716372727698e-05,0.0,0.0,0.0005997141173447061
7.28,0.0,0.0,-3.585974938252735e-05,0.0,0.0,0.0005879514909172705
7.29,0.0,0.0,-3.5156410339054734e-05,0.0,0.0,0.0005764196412804731
7.3,0.0,0.0,-3.4466870286047524e-05,0.0,0.0,0.0005651140378657865
7.3100000000000005,0.0,0.0,-3.379085834316258e-05,0.0,0.0,0.0005540302396191259
7.32,0.0,0.0,-3.312810895355523e-05,0.0,0.0,0.0005431638923011227
7.33,0.0,0.0,-3.247836177902603e-05,0.0,0.0,0.0005325107275035863
7.34,0.0,0.0,-3.1841361597241586e-05,0.0,0.0,0.000522066560602242
7.3500000000000005,0.0,0.0,-3.121685820098832e-05,0.0,0.0,0.0005118272893001749
7.36,0.0,0.0,-3.060460629941859e-05,0.0,0.0,0.0005017888917971719
7.37,0.0,0.0,-3.0004365421249405e-05,0.0,0.0,0.0004919474254328641
7.38,0.0,0.0,-2.9415899819874833e-05,0.0,0.0,0.0004822990247599121
7.390000000000001,0.0,0.0,-2.8838978380354042e-05,0.0,0.0,0.00047283990066277035
7.4,0.0,0.0,-2.827337452823734e-05,0.0,0.0,0.00046356633812802135
7.41,0.0,0.0,-2.7718866140194067e-05,0.0,0.0,0.00045447469533644024
7.42,0.0,0.0,-2.7175235456406024e-05,0.0,0.0,0.0004455614018106905
7.43,0.0,0.0,-2.664226899469164e-05,0.0,0.0,0.00043682295743038146
7.44,0.0,0.0,-2.6119757466326135e-05,0.0,0.0,0.0004282559306492166
7.45,0.0,0.0,-2.5607495693524273e-05,0.0,0.0,0.00041985695748880767
7.46,0.0,0.0,-2.5105282528552326e-05,0.0,0.0,0.0004116227398813802
7.47,0.0,0.0,-2.4612920774437152e-05,0.0,0.0,0.000403550044672319
7.48,0.0,0.0,-2.4130217107240386e-05,0.0,0.0,0.0003956357021215666
7.49,0.0,0.0,-2.3656981999866875e-05,0.0,0.0,0.0003878766047325661
7.5,0.0,0.0,-2.319302964737669e-05,0.0,0.0,0.0003802697061555562
7.51,0.0,0.0,-2.2738177893770964e-05,0.0,0.0,0.00037281201970306175
7.5200000000000005,0.0,0.0,-2.22922481602223e-05,0.0,0.0,0.0003655006175224417
7.53,0.0,0.0,-2.1855065374720997e-05,0.0,0.0,0.00035833262899271024
7.54,0.0,0.0,-2.142645790310911e-05,0.0,0.0,0.00035130524012104197
7.55,0.0,0.0,-2.1006257481474667e-05,0.0,0.0,0.0003444156921827537
7.5600000000000005,0.0,0.0,-2.0594299149879157e-05,0.0,0.0,0.00033766128038467864
7.57,0.0,0.0,-2.0190421187391928e-05,0.0,0.0,0.0003310393531559675
7.58,0.0,0.0,-1.979446504840538e-05,0.0,0.0,0.0003245473110814872
7.59,0.0,0.0,-1.9406275300205708e-05,0.0,0.0,0.00031818260568103145
7.6000000000000005,0.0,0.0,-1.9025699561774274e-05,0.0,0.0,0.00031194273844848764
7.61,0.0,0.0,-1.8652588443795285e-05,0.0,0.0,0.0003058252601918522
7.62,0.0,0.0,-1.828679548984568e-05,0.0,0.0,0.0002998277694374582
7.63,0.0,0.0,-1.7928177118744173e-05,0.0,0.0,0.0002939479123174944
7.640000000000001,0.0,0.0,-1.7576592568036e-05,0.0,0.0,0.00028818338063928926
7.65,0.0,0.0,-1.7231903838591483e-05,0.0,0.0,0.00028253191191674273
7.66,0.0,0.0,-1.6893975640295745e-05,0.0,0.0,0.00027699128786831223
7.67,0.0,0.0,-1.656267533880849e-05,0.0,0.0,0.00027155933397561544
7.68,0.0,0.0,-1.6237872903372347e-05,0.0,0.0,0.0002662339182055457
7.69,0.0,0.0,-1.5919440855649195e-05,0.0,0.0,0.0002610129503093884
7.7,0.0,0.0,-1.5607254219564116e-05,0.0,0.0,0.00025589438146372546
7.71,0.0,0.0,-1.5301190472136925e-05,0.0,0.0,0.0002508762025678651
7.72,0.0,0.0,-1.5001129495281984e-05,0.0,0.0,0.0002459564443242303
7.73,0.0,0.0,-1.4706953528556878e-05,0.0,0.0,0.00024113317587060287
7.74,0.0,0.0,-1.4418547122841444e-05,0.0,0.0,0.00023640450429216175
7.75,0.0,0.0,-1.41357970949286e-05,0.0,0.0,0.0002317685739426707
7.76,0.0,0.0,-1.3858592483009011e-05,0.0,0.0,0.00022722356550329347
7.7700000000000005,0.0,0.0,-1.3586824503031955e-05,0.0,0.0,0.00022276769525146603
7.78,0.0,0.0,-1.3320386505925075e-05,0.0,0.0,0.00021839921472610805
7.79,0.0,0.0,-1.3059173935655965e-05,0.0,0.0,0.00021411640961422585
7.8,0.0,0.0,-1.2803084288119096e-05,0.0,0.0,0.00020991759914536006
7.8100000000000005,0.0,0.0,-1.2552017070831727e-05,0.0,0.0,0.0002058011357962917
7.82,0.0,0.0,-1.2305873763422738e-05,0.0,0.0,0.00020176540409104377
7.83,0.0,0.0,-1.206455777889893e-05,0.0,0.0,0.00019780882061987145
7.84,0.0,0.0,-1.1827974425673216e-05,0.0,0.0,0.0001939298327086783
7.8500000000000005,0.0,0.0,-1.1596030870339885e-05,0.0,0.0,0.0001901269182370866
7.86,0.0,0.0,-1.1368636101182031e-05,0.0,0.0,0.00018639858507539194
7.87,0.0,0.0,-1.114570089239676e-05,0.0,0.0,0.0001827433702097579
7.88,0.0,0.0,-1.0927137769024057e-05,0.0,0.0,0.0001791598394903975
7.890000000000001,0.0,0.0,-1.0712860972565337e-05,0.0,0.0,0.00017564658675296474
7.9,0.0,0.0,-1.0502786427278183e-05,0.0,0.0,0.0001722022335776033
7.91,0.0,0.0,-1.0296831707133834e-05,0.0,0.0,0.00016882542848478587
7.92,0.0,0.0,-1.0094916003424443e-05,0.0,0.0,0.00016551484650496615
7.930000000000001,0.0,0.0,-9.896960093007224e-06,0.0,0.0,0.000162269188778737
7.94,0.0,0.0,-9.702886307172968e-06,0.0,0.0,0.00015908718186307948
7.95,0.0,0.0,-9.512618501126608e-06,0.0,0.0,0.00015596757721173627
7.96,0.0,0.0,-9.326082024067787e-06,0.0,0.0,0.00015290915092118075
7.97,0.0,0.0,-9.143203689859564e-06,0.0,0.0,0.00014991070304051185
7.98,0.0,0.0,-8.963911748273704e-06,0.0,0.0,0.0001469710571880368
7.99,0.0,0.0,-8.78813585680118e-06,0.0,0.0,0.00014408905998039337
8.0,0.0,0.0,-8.615807053016745e-06,0.0,0.0,0.00014126358070518276
8.01,0.0,0.0,-8.446857727486655e-06,0.0,0.0,0.00013849351097389013
8.02,0.0,0.0,-8.281221597208847e-06,0.0,0.0,0.0001357777638513271
8.03,0.0,0.0,-8.118833679575107e-06,0.0,0.0,0.0001331152740889635
8.040000000000001,0.0,0.0,-7.95963026684489e-06,0.0,0.0,0.00013050499691092494
8.05,0.0,0.0,-7.803548901120796e-06,0.0,0.0,0.000127945908452319
8.06,0.0,0.0,-7.650528349815722e-06,0.0,0.0,0.00012543700463692612
8.07,0.0,0.0,-7.500508581602117e-06,0.0,0.0,0.00012297730129135604
8.08,0.0,0.0,-7.353430742833749e-06,0.0,0.0,0.00012056583335865745
8.09,0.0,0.0,-7.209237134430768e-06,0.0,0.0,0.00011820165490323077
8.1,0.0,0.0,-7.067871189218863e-06,0.0,0.0,0.0001158838384339081
8.11,0.0,0.0,-6.929277449713652e-06,0.0,0.0,0.00011361147463314601
8.120000000000001,0.0,0.0,-6.793401546341474e-06,0.0,0.0,0.00011138367213742082
8.13,0.0,0.0,-6.6601901760880365e-06,0.0,0.0,0.00010919955695995305
8.14,0.0,0.0,-6.529591081566482e-06,0.0,0.0,0.00010705827223221591
8.15,0.0,0.0,-6.4015530304966365e-06,0.0,0.0,0.00010495897809303437
8.16,0.0,0.0,-6.276025795587299e-06,0.0,0.0,0.00010290085088658882
8.17,0.0,0.0,-6.152960134813725e-06,0.0,0.0,0.00010088308337088678
8.18,0.0,0.0,-6.032307772082436e-06,0.0,0.0,9.890488392669027e-05
8.19,0.0,0.0,-5.914021378275821e-06,0.0,0.0,9.696547648568789e-05
8.2,0.0,0.0,-5.7980545526689925e-06,0.0,0.0,9.506410052786274e-05
8.21,0.0,0.0,-5.6843618047115925e-06,0.0,0.0,9.320000987646502e-05
8.22,0.0,0.0,-5.572898536167418e-06,0.0,0.0,9.137247359769e-05
8.23,0.0,0.0,-5.463621023604733e-06,0.0,0.0,8.958077463994571e-05
8.24,0.0,0.0,-5.356486401230471e-06,0.0,0.0,8.782421010647325e-05
8.25,0.0,0.0,-5.2514526440615016e-06,0.0,0.0,8.61020912465868e-05
8.26,0.0,0.0,-5.148478551426321e-06,0.0,0.0,8.441374222902285e-05
8.27,0.0,0.0,-5.047523730790761e-06,0.0,0.0,8.275850096169676e-05
8.28,0.0,0.0,-4.9485485819012186e-06,0.0,0.0,8.11357180711512e-05
8.290000000000001,0.0,0.0,-4.8515142812392644e-06,0.0,0.0,7.954475712583414e-05
8.3,0.0,0.0,-4.756382766781453e-06,0.0,0.0,7.798499397620644e-05
8.31,0.0,0.0,-4.663116723058364e-06,0.0,0.0,7.645581680735735e-05
8.32,0.0,0.0,-4.571679566506972e-06,0.0,0.0,7.49566258142311e-05
8.33,0.0,0.0,-4.482035431110583e-06,0.0,0.0,7.34868330258401e-05
8.34,0.0,0.0,-4.394149154320695e-06,0.0,0.0,7.204586174291641e-05
8.35,0.0,0.0,-4.307986263255247e-06,0.0,0.0,7.063314688014149e-05
8.36,0.0,0.0,-4.223512961167776e-06,0.0,0.0,6.924813438691223e-05
8.370000000000001,0.0,0.0,-4.140696114182226e-06,0.0,0.0,6.789028082575729e-05
8.38,0.0,0.0,-4.05950323828815e-06,0.0,0.0,6.655905362842119e-05
8.39,0.0,0.0,-3.979902486591189e-06,0.0,0.0,6.525393070383727e-05
8.4,0.0,0.0,-3.901862636813797e-06,0.0,0.0,6.397440011487712e-05
8.41,0.0,0.0,-3.825353079041352e-06,0.0,0.0,6.271995997702949e-05
8.42,0.0,0.0,-3.7503438037087613e-06,0.0,0.0,6.149011828730528e-05
8.43,0.0,0.0,-3.6768053898228803e-06,0.0,0.0,6.028439261934191e-05
8.44,0.0,0.0,-3.604708993416097e-06,0.0,0.0,5.9102310108215736e-05
8.45,0.0,0.0,-3.534026336226538e-06,0.0,0.0,5.794340705273567e-05
8.46,0.0,0.0,-3.46472969460045e-06,0.0,0.0,5.6807228811248086e-05
8.47,0.0,0.0,-3.3967918886123955e-06,0.0,0.0,5.5693329978553905e-05
8.48,0.0,0.0,-3.3301862713989544e-06,0.0,0.0,5.460127347960825e-05
8.49,0.0,0.0,-3.264886718701798e-06,0.0,0.0,5.353063104752505e-05
8.5,0.0,0.0,-3.2008676186159507e-06,0.0,0.0,5.2480982771813865e-05
8.51,0.0,0.0,-3.1381038615392635e-06,0.0,0.0,5.145191684654548e-05
8.52,0.0,0.0,-3.0765708303191224e-06,0.0,0.0,5.044302984761629e-05
8.53,0.0,0.0,-3.016244390592513e-06,0.0,0.0,4.94539258828221e-05
8.540000000000001,0.0,0.0,-2.957100881315672e-06,0.0,0.0,4.84842170617826e-05
8.55,0.0,0.0,-2.8991171054795655e-06,0.0,0.0,4.7533523090403465e-05
8.56,0.0,0.0,-2.8422703210075705e-06,0.0,0.0,4.6601471028618606e-05
8.57,0.0,0.0,-2.7865382318317717e-06,0.0,0.0,4.568769542454492e-05
8.58,0.0,0.0,-2.7318989791443656e-06,0.0,0.0,4.479183781533699e-05
8.59,0.0,0.0,-2.678331132820739e-06,0.0,0.0,4.3913546828010435e-05
8.6,0.0,0.0,-2.6258136830108425e-06,0.0,0.0,4.305247797201384e-05
8.61,0.0,0.0,-2.5743260318955605e-06,0.0,0.0,4.220829357975898e-05
8.620000000000001,0.0,0.0,-2.523847985604833e-06,0.0,0.0,4.1380662477461947e-05
8.63,0.0,0.0,-2.4743597462943616e-06,0.0,0.0,4.0569260123401433e-05
8.64,0.0,0.0,-2.4258419043777713e-06,0.0,0.0,3.977376834695784e-05
8.65,0.0,0.0,-2.3782754309111916e-06,0.0,0.0,3.8993875030185176e-05
8.66,0.0,0.0,-2.3316416701272587e-06,0.0,0.0,3.822927433884341e-05
8.67,0.0,0.0,-2.285922332115597e-06,0.0,0.0,3.747966644129538e-05
8.68,0.0,0.0,-2.2410994856469144e-06,0.0,0.0,3.674475719087063e-05
8.69,0.0,0.0,-2.1971555511378946e-06,0.0,0.0,3.602425854575146e-05
8.700000000000001,0.0,0.0,-2.154073293754101e-06,0.0,0.0,3.5317887797402706e-05
8.71,0.0,0.0,-2.1118358166482163e-06,0.0,0.0,3.462536795700036e-05
8.72,0.0,0.0,-2.0704265543309287e-06,0.0,0.0,3.394642741182123e-05
8.73,0.0,0.0,-2.0298292661718826e-06,0.0,0.0,3.3280799918710026e-05
8.74,0.0,0.0,-1.990028030028128e-06,0.0,0.0,3.262822431224193e-05
8.75,0.0,0.0,-1.9510072359975788e-06,0.0,0.0,3.198844481994508e-05
8.76,0.0,0.0,-1.912751580295005e-06,0.0,0.0,3.136121038518352e-05
8.77,0.0,0.0,-1.875246059248182e-06,0.0,0.0,3.0746275059101127e-05
8.78,0.0,0.0,-1.8384759634118118e-06,0.0,0.0,3.014339762315033e-05
8.790000000000001,0.0,0.0,-1.8024268717969204e-06,0.0,0.0,2.9552341706185223e-05
8.8,0.0,0.0,-1.7670846462134605e-06,0.0,0.0,2.897287547520242e-05
8.81,0.0,0.0,-1.7324354257238966e-06,0.0,0.0,2.840477159550336e-05
8.82,0.0,0.0,-1.6984656212055984e-06,0.0,0.0,2.7847807424727236e-05
8.83,0.0,0.0,-1.6651619100198969e-06,0.0,0.0,2.73017643807404e-05
8.84,0.0,0.0,-1.6325112307857252e-06,0.0,0.0,2.676642838019961e-05
8.85,0.0,0.0,-1.600500778255777e-06,0.0,0.0,2.6241589403284454e-05
8.86,0.0,0.0,-1.569117998293181e-06,0.0,0.0,2.5727041679959454e-05
8.870000000000001,0.0,0.0,-1.5383505829467093e-06,0.0,0.0,2.522258341291466e-05
8.88,0.0,0.0,-1.5081864656225963e-06,0.0,0.0,2.4728016722844444e-05
8.89,0.0,0.0,-1.4786138163510658e-06,0.0,0.0,2.424314763575697e-05
8.9,0.0,0.0,-1.4496210371457081e-06,0.0,0.0,2.376778602941852e-05
8.91,0.0,0.0,-1.4211967574538858e-06,0.0,0.0,2.3301745542345558e-05
8.92,0.0,0.0,-1.3933298296963832e-06,0.0,0.0,2.284484322839253e-05
8.93,0.0,0.0,-1.3660093248945497e-06,0.0,0.0,2.2396899997022204e-05
8.94,0.0,0.0,-1.3392245283832113e-06,0.0,0.0,2.1957740143188407e-05
8.950000000000001,0.0,0.0,-1.3129649356076804e-06,0.0,0.0,2.15271914732687e-05
8.96,0.0,0.0,-1.2872202480032015e-06,0.0,0.0,2.110508516872711e-05
8.97,0.0,0.0,-1.2619803689552248e-06,0.0,0.0,2.0691255573361677e-05
8.98,0.0,0.0,-1.2372353998389169e-06,0.0,0.0,2.028554048623588e-05
8.99,0.0,0.0,-1.2129756361363528e-06,0.0,0.0,1.9887780738069113e-05
9.0,0.0,0.0,-1.1891915636298685e-06,0.0,0.0,1.9497820412902496e-05
