# uptake constraint 
# the columns are: t and the constraint for each substrate metabolites
# the compounds are: galactose, glucose, thiosulfate, butyrate, Fprau, Styphi,  
# the nominal flux is: -5.0, -5.0, -5.0, -5.0, -5.0, -5.0,  
# the initial concentration are: 90.0, 0.0, 45.0, 20.0, 0.9026531439276171, 0.8435749515977528,  

t,galactose,glucose,thiosulfate
0.0,-5.0,-0.0,-5.0
0.01,-5.0,-0.0,-5.0
0.02,-5.0,-0.0,-5.0
0.03,-5.0,-0.0,-5.0
0.04,-5.0,-0.0,-5.0
0.05,-5.0,-0.0,-5.0
0.06,-5.0,-0.0,-5.0
0.07,-5.0,-0.0,-5.0
0.08,-5.0,-0.0,-5.0
0.09,-5.0,-0.0,-5.0
0.1,-5.0,-0.0,-5.0
0.11,-5.0,-0.0,-5.0
0.12,-5.0,-0.0,-5.0
0.13,-5.0,-0.0,-5.0
0.14,-5.0,-0.0,-5.0
0.15,-5.0,-0.0,-5.0
0.16,-5.0,-0.0,-5.0
0.17,-5.0,-0.0,-5.0
0.18,-5.0,-0.0,-5.0
0.19,-5.0,-0.0,-5.0
0.2,-5.0,-0.0,-5.0
0.21,-5.0,-0.0,-5.0
0.22,-5.0,-0.0,-5.0
0.23,-5.0,-0.0,-5.0
0.24,-5.0,-0.0,-5.0
0.25,-5.0,-0.0,-5.0
0.26,-5.0,-0.0,-5.0
0.27,-5.0,-0.0,-5.0
0.28,-5.0,-0.0,-5.0
0.29,-5.0,-0.0,-5.0
0.3,-5.0,-0.0,-5.0
0.31,-5.0,-0.0,-5.0
0.32,-5.0,-0.0,-5.0
0.33,-5.0,-0.0,-5.0
0.34,-5.0,-0.0,-5.0
0.35000000000000003,-5.0,-0.0,-5.0
0.36,-5.0,-0.0,-5.0
0.37,-5.0,-0.0,-5.0
0.38,-5.0,-0.0,-5.0
0.39,-5.0,-0.0,-5.0
0.4,-5.0,-0.0,-5.0
0.41000000000000003,-5.0,-0.0,-5.0
0.42,-5.0,-0.0,-5.0
0.43,-5.0,-0.0,-5.0
0.44,-5.0,-0.0,-5.0
0.45,-5.0,-0.0,-5.0
0.46,-5.0,-0.0,-5.0
0.47000000000000003,-5.0,-0.0,-5.0
0.48,-5.0,-0.0,-5.0
0.49,-5.0,-0.0,-5.0
0.5,-5.0,-0.0,-5.0
0.51,-5.0,-0.0,-5.0
0.52,-5.0,-0.0,-5.0
0.53,-5.0,-0.0,-5.0
0.54,-5.0,-0.0,-5.0
0.55,-5.0,-0.0,-5.0
0.56,-5.0,-0.0,-5.0
0.5700000000000001,-5.0,-0.0,-5.0
0.58,-5.0,-0.0,-5.0
0.59,-5.0,-0.0,-5.0
0.6,-5.0,-0.0,-5.0
0.61,-5.0,-0.0,-5.0
0.62,-5.0,-0.0,-5.0
0.63,-5.0,-0.0,-5.0
0.64,-5.0,-0.0,-5.0
0.65,-5.0,-0.0,-5.0
0.66,-5.0,-0.0,-5.0
0.67,-5.0,-0.0,-5.0
0.68,-5.0,-0.0,-5.0
0.6900000000000001,-5.0,-0.0,-5.0
0.7000000000000001,-5.0,-0.0,-5.0
0.71,-5.0,-0.0,-5.0
0.72,-5.0,-0.0,-5.0
0.73,-5.0,-0.0,-5.0
0.74,-5.0,-0.0,-5.0
0.75,-5.0,-0.0,-5.0
0.76,-5.0,-0.0,-5.0
0.77,-5.0,-0.0,-5.0
0.78,-5.0,-0.0,-5.0
0.79,-5.0,-0.0,-5.0
0.8,-5.0,-0.0,-5.0
0.81,-5.0,-0.0,-5.0
0.8200000000000001,-5.0,-0.0,-5.0
0.8300000000000001,-5.0,-0.0,-5.0
0.84,-5.0,-0.0,-5.0
0.85,-5.0,-0.0,-5.0
0.86,-5.0,-0.0,-5.0
0.87,-5.0,-0.0,-5.0
0.88,-5.0,-0.0,-5.0
0.89,-5.0,-0.0,-5.0
0.9,-5.0,-0.0,-5.0
0.91,-5.0,-0.0,-5.0
0.92,-5.0,-0.0,-5.0
0.93,-5.0,-0.0,-5.0
0.9400000000000001,-5.0,-0.0,-5.0
0.9500000000000001,-5.0,-0.0,-5.0
0.96,-5.0,-0.0,-5.0
0.97,-5.0,-0.0,-5.0
0.98,-5.0,-0.0,-5.0
0.99,-5.0,-0.0,-5.0
1.0,-5.0,-0.0,-5.0
1.01,-5.0,-0.0,-5.0
1.02,-5.0,-0.0,-5.0
1.03,-5.0,-0.0,-5.0
1.04,-5.0,-0.0,-5.0
1.05,-5.0,-0.0,-5.0
1.06,-5.0,-0.0,-5.0
1.07,-5.0,-0.0,-5.0
1.08,-5.0,-0.0,-5.0
1.09,-5.0,-0.0,-5.0
1.1,-5.0,-0.0,-5.0
1.11,-5.0,-0.0,-5.0
1.12,-5.0,-0.0,-5.0
1.1300000000000001,-5.0,-0.0,-5.0
1.1400000000000001,-5.0,-0.0,-5.0
1.1500000000000001,-5.0,-0.0,-5.0
1.16,-5.0,-0.0,-5.0
1.17,-5.0,-0.0,-5.0
1.18,-5.0,-0.0,-5.0
1.19,-5.0,-0.0,-5.0
1.2,-5.0,-0.0,-5.0
1.21,-5.0,-0.0,-5.0
1.22,-5.0,-0.0,-5.0
1.23,-5.0,-0.0,-5.0
1.24,-5.0,-0.0,-5.0
1.25,-5.0,-0.0,-5.0
1.26,-5.0,-0.0,-5.0
1.27,-5.0,-0.0,-5.0
1.28,-5.0,-0.0,-5.0
1.29,-5.0,-0.0,-5.0
1.3,-5.0,-0.0,-5.0
1.31,-5.0,-0.0,-5.0
1.32,-5.0,-0.0,-5.0
1.33,-5.0,-0.0,-5.0
1.34,-5.0,-0.0,-5.0
1.35,-5.0,-0.0,-5.0
1.36,-5.0,-0.0,-5.0
1.37,-5.0,-0.0,-5.0
1.3800000000000001,-5.0,-0.0,-5.0
1.3900000000000001,-5.0,-0.0,-5.0
1.4000000000000001,-5.0,-0.0,-5.0
1.41,-5.0,-0.0,-5.0
1.42,-5.0,-0.0,-5.0
1.43,-5.0,-0.0,-5.0
1.44,-5.0,-0.0,-5.0
1.45,-5.0,-0.0,-5.0
1.46,-5.0,-0.0,-5.0
1.47,-5.0,-0.0,-5.0
1.48,-5.0,-0.0,-5.0
1.49,-5.0,-0.0,-5.0
1.5,-5.0,-0.0,-5.0
1.51,-5.0,-0.0,-5.0
1.52,-5.0,-0.0,-5.0
1.53,-5.0,-0.0,-5.0
1.54,-5.0,-0.0,-5.0
1.55,-5.0,-0.0,-5.0
1.56,-5.0,-0.0,-5.0
1.57,-5.0,-0.0,-5.0
1.58,-5.0,-0.0,-5.0
1.59,-5.0,-0.0,-5.0
1.6,-5.0,-0.0,-5.0
1.61,-5.0,-0.0,-5.0
1.62,-5.0,-0.0,-5.0
1.6300000000000001,-5.0,-0.0,-5.0
1.6400000000000001,-5.0,-0.0,-5.0
1.6500000000000001,-5.0,-0.0,-5.0
1.6600000000000001,-5.0,-0.0,-5.0
1.67,-5.0,-0.0,-5.0
1.68,-5.0,-0.0,-5.0
1.69,-5.0,-0.0,-5.0
1.7,-5.0,-0.0,-5.0
1.71,-5.0,-0.0,-5.0
1.72,-5.0,-0.0,-5.0
1.73,-5.0,-0.0,-5.0
1.74,-5.0,-0.0,-5.0
1.75,-5.0,-0.0,-5.0
1.76,-5.0,-0.0,-5.0
1.77,-5.0,-0.0,-5.0
1.78,-5.0,-0.0,-5.0
1.79,-5.0,-0.0,-5.0
1.8,-5.0,-0.0,-5.0
1.81,-5.0,-0.0,-5.0
1.82,-5.0,-0.0,-5.0
1.83,-5.0,-0.0,-5.0
1.84,-5.0,-0.0,-5.0
1.85,-5.0,-0.0,-5.0
1.86,-5.0,-0.0,-5.0
1.87,-5.0,-0.0,-5.0
1.8800000000000001,-5.0,-0.0,-5.0
1.8900000000000001,-5.0,-0.0,-5.0
1.9000000000000001,-5.0,-0.0,-5.0
1.9100000000000001,-5.0,-0.0,-5.0
1.92,-5.0,-0.0,-5.0
1.93,-5.0,-0.0,-5.0
1.94,-5.0,-0.0,-5.0
1.95,-5.0,-0.0,-5.0
1.96,-5.0,-0.0,-5.0
1.97,-5.0,-0.0,-5.0
1.98,-5.0,-0.0,-5.0
1.99,-5.0,-0.0,-5.0
2.0,-5.0,-0.0,-5.0
2.0100000000000002,-5.0,-0.0,-5.0
2.02,-5.0,-0.0,-5.0
2.0300000000000002,-5.0,-0.0,-5.0
2.04,-5.0,-0.0,-5.0
2.05,-5.0,-0.0,-5.0
2.06,-5.0,-0.0,-5.0
2.07,-5.0,-0.0,-5.0
2.08,-5.0,-0.0,-5.0
2.09,-5.0,-0.0,-5.0
2.1,-5.0,-0.0,-5.0
2.11,-5.0,-0.0,-5.0
2.12,-5.0,-0.0,-5.0
2.13,-5.0,-0.0,-5.0
2.14,-5.0,-0.0,-5.0
2.15,-5.0,-0.0,-5.0
2.16,-5.0,-0.0,-5.0
2.17,-5.0,-0.0,-5.0
2.18,-5.0,-0.0,-5.0
2.19,-5.0,-0.0,-5.0
2.2,-5.0,-0.0,-5.0
2.21,-5.0,-0.0,-5.0
2.22,-5.0,-0.0,-5.0
2.23,-5.0,-0.0,-5.0
2.24,-5.0,-0.0,-5.0
2.25,-5.0,-0.0,-5.0
2.2600000000000002,-5.0,-0.0,-5.0
2.27,-5.0,-0.0,-5.0
2.2800000000000002,-5.0,-0.0,-5.0
2.29,-5.0,-0.0,-5.0
2.3000000000000003,-5.0,-0.0,-5.0
2.31,-5.0,-0.0,-5.0
2.32,-5.0,-0.0,-5.0
2.33,-5.0,-0.0,-5.0
2.34,-5.0,-0.0,-5.0
2.35,-5.0,-0.0,-5.0
2.36,-5.0,-0.0,-5.0
2.37,-5.0,-0.0,-5.0
2.38,-5.0,-0.0,-5.0
2.39,-5.0,-0.0,-5.0
2.4,-5.0,-0.0,-5.0
2.41,-5.0,-0.0,-5.0
2.42,-5.0,-0.0,-5.0
2.43,-5.0,-0.0,-5.0
2.44,-5.0,-0.0,-5.0
2.45,-5.0,-0.0,-5.0
2.46,-5.0,-0.0,-5.0
2.47,-5.0,-0.0,-5.0
2.48,-5.0,-0.0,-5.0
2.49,-5.0,-0.0,-5.0
2.5,-5.0,-0.0,-5.0
2.5100000000000002,-5.0,-0.0,-5.0
2.52,-5.0,-0.0,-5.0
2.5300000000000002,-5.0,-0.0,-5.0
2.54,-5.0,-0.0,-5.0
2.5500000000000003,-5.0,-0.0,-5.0
2.56,-5.0,-0.0,-5.0
2.57,-5.0,-0.0,-5.0
2.58,-5.0,-0.0,-5.0
2.59,-5.0,-0.0,-5.0
2.6,-5.0,-0.0,-5.0
2.61,-5.0,-0.0,-5.0
2.62,-5.0,-0.0,-5.0
2.63,-5.0,-0.0,-5.0
2.64,-5.0,-0.0,-5.0
2.65,-5.0,-0.0,-5.0
2.66,-5.0,-0.0,-5.0
2.67,-5.0,-0.0,-5.0
2.68,-5.0,-0.0,-5.0
2.69,-5.0,-0.0,-5.0
2.7,-5.0,-0.0,-5.0
2.71,-5.0,-0.0,-5.0
2.72,-5.0,-0.0,-5.0
2.73,-5.0,-0.0,-5.0
2.74,-5.0,-0.0,-5.0
2.75,-5.0,-0.0,-5.0
2.7600000000000002,-5.0,-0.0,-5.0
2.77,-5.0,-0.0,-5.0
2.7800000000000002,-5.0,-0.0,-5.0
2.79,-5.0,-0.0,-5.0
2.8000000000000003,-5.0,-0.0,-5.0
2.81,-5.0,-0.0,-5.0
2.82,-5.0,-0.0,-5.0
2.83,-5.0,-0.0,-5.0
2.84,-5.0,-0.0,-5.0
2.85,-5.0,-0.0,-5.0
2.86,-5.0,-0.0,-5.0
2.87,-5.0,-0.0,-5.0
2.88,-5.0,-0.0,-5.0
2.89,-5.0,-0.0,-5.0
2.9,-5.0,-0.0,-5.0
2.91,-5.0,-0.0,-5.0
2.92,-5.0,-0.0,-5.0
2.93,-5.0,-0.0,-5.0
2.94,-5.0,-0.0,-5.0
2.95,-5.0,-0.0,-5.0
2.96,-5.0,-0.0,-5.0
2.97,-5.0,-0.0,-5.0
2.98,-5.0,-0.0,-5.0
2.99,-5.0,-0.0,-5.0
3.0,-5.0,-0.0,-5.0
3.0100000000000002,-5.0,-0.0,-5.0
3.02,-5.0,-0.0,-5.0
3.0300000000000002,-5.0,-0.0,-5.0
3.04,-5.0,-0.0,-5.0
3.0500000000000003,-5.0,-0.0,-5.0
3.06,-5.0,-0.0,-5.0
3.0700000000000003,-5.0,-0.0,-5.0
3.08,-5.0,-0.0,-5.0
3.09,-5.0,-0.0,-5.0
3.1,-5.0,-0.0,-5.0
3.11,-5.0,-0.0,-5.0
3.12,-5.0,-0.0,-5.0
3.13,-5.0,-0.0,-5.0
3.14,-5.0,-0.0,-5.0
3.15,-5.0,-0.0,-5.0
3.16,-5.0,-0.0,-5.0
3.17,-5.0,-0.0,-5.0
3.18,-5.0,-0.0,-5.0
3.19,-5.0,-0.0,-5.0
3.2,-5.0,-0.0,-5.0
3.21,-5.0,-0.0,-5.0
3.22,-5.0,-0.0,-5.0
3.23,-5.0,-0.0,-5.0
3.24,-5.0,-0.0,-5.0
3.25,-5.0,-0.0,-4.9141841394578005
3.2600000000000002,-5.0,-0.0,-4.793656504732952
3.27,-5.0,-0.0,-4.676121631991684
3.2800000000000002,-5.0,-0.0,-4.561503435382341
3.29,-5.0,-0.0,-4.449727849257612
3.3000000000000003,-5.0,-0.0,-4.340722770404386
3.31,-5.0,-0.0,-4.234418002121082
3.3200000000000003,-5.0,-0.0,-4.130745200074427
3.33,-5.0,-0.0,-4.029637819870534
3.34,-5.0,-0.0,-3.93103106627788
3.35,-5.0,-0.0,-3.8348618440424485
3.36,-5.0,-0.0,-3.7410687102377587
3.37,-5.0,-0.0,-3.6495918280949193
3.38,-5.0,-0.0,-3.5603729222600915
3.39,-5.0,-0.0,-3.47335523542892
3.4,-5.0,-0.0,-3.3884834863095477
3.41,-5.0,-0.0,-3.305703828867789
3.42,-5.0,-0.0,-3.2249638128099267
3.43,-5.0,-0.0,-3.146212345260361
3.44,-5.0,-0.0,-3.069399653593068
3.45,-5.0,-0.0,-2.9944772493774368
3.46,-5.0,-0.0,-2.9213978934006217
3.47,-5.0,-0.0,-2.850115561730008
3.48,-5.0,-0.0,-2.780585412780842
3.49,-5.0,-0.0,-2.7127637553553927
3.5,-5.0,-0.0,-2.6466080176213396
3.5100000000000002,-5.0,-0.0,-2.582076716998292
3.52,-5.0,-0.0,-2.5191294309225483
3.5300000000000002,-5.0,-0.0,-2.4577267684613218
3.54,-5.0,-0.0,-2.3978303427487546
3.5500000000000003,-5.0,-0.0,-2.3394027442170597
3.56,-5.0,-0.0,-2.282407514597145
3.5700000000000003,-5.0,-0.0,-2.2268091216640014
3.58,-5.0,-0.0,-2.1725729347030587
3.59,-5.0,-0.0,-2.11966520067458
3.6,-5.0,-0.0,-2.068053021053999
3.61,-5.0,-0.0,-2.017704329326905
3.62,-5.0,-0.0,-1.9685878691181424
3.63,-5.0,-0.0,-1.9206731729352364
3.64,-5.0,-0.0,-1.873930541507048
3.65,-5.0,-0.0,-1.8283310236992445
3.66,-5.0,-0.0,-1.783846396988822
3.67,-5.0,-0.0,-1.7404491484805296
3.68,-5.0,-0.0,-1.6981124564486516
3.69,-5.0,-0.0,-1.656810172388173
3.7,-5.0,-0.0,-1.6165168035599018
3.71,-5.0,-0.0,-1.5772074960146554
3.72,-5.0,-0.0,-1.5388580180821223
3.73,-5.0,-0.0,-1.5014447443105015
3.74,-5.0,-0.0,-1.4649446398434849
3.75,-5.0,-0.0,-1.4293352452216126
3.7600000000000002,-5.0,-0.0,-1.3945946615954459
3.77,-5.0,-0.0,-1.3607015363384365
3.7800000000000002,-5.0,-0.0,-1.3276350490477622
3.79,-5.0,-0.0,-1.2953748979217872
3.8000000000000003,-5.0,-0.0,-1.2639012865031816
3.81,-5.0,-0.0,-1.233194910777083
3.8200000000000003,-5.0,-0.0,-1.2032369466140367
3.83,-4.994873085795883,-0.0,-1.1740090375477759
3.84,-4.877046643647305,-0.0,-1.1454948105811311
3.85,-4.7621469624955886,-0.0,-1.1177094652452209
3.86,-4.650094281236473,-0.0,-1.0906326562525344
3.87,-4.54081134586727,-0.0,-1.0642446871436182
3.88,-4.434223315269124,-0.0,-1.038526485807012
3.89,-4.330257671227635,-0.0,-1.0134595810980394
3.9,-4.2288441324691295,-0.0,-0.9890260804989046
3.91,-4.129914572503208,-0.0,-0.9652086487659768
3.92,-4.033402941074603,-0.0,-0.9419904875133437
3.93,-3.9392451890389797,-0.0,-0.9193553156847105
3.94,-3.847379196488134,-0.0,-0.897287350868508
3.95,-3.757744703960175,-0.0,-0.8757712914136907
3.96,-3.670283246579749,-0.0,-0.8547922993061453
3.97,-3.58493809098223,-0.0,-0.8343359837679192
3.98,-3.501654174884077,-0.0,-0.814388385543616
3.99,-3.4203780491693507,-0.0,-0.7949359618403143
4.0,-3.341057822369657,-0.0,-0.7759655718892389
4.01,-3.2636431074215904,-0.0,-0.7574644630991827
4.0200000000000005,-3.1880849705921883,-0.0,-0.7394202577733245
4.03,-3.1143358824688803,-0.0,-0.7218209403626394
4.04,-3.0423496709160704,-0.0,-0.7046548452305592
4.05,-2.9720814759057874,-0.0,-0.6879106449048988
4.0600000000000005,-2.90348770613481,-0.0,-0.6715773387943609
4.07,-2.8365259973453423,-0.0,-0.6556442423481277
4.08,-2.771155172270735,-0.0,-0.6401009766381932
4.09,-2.7073352021318526,-0.0,-0.6249374583451535
4.1,-2.645027169613615,-0.0,-0.6101438901291812
4.11,-2.5841943219952697,-0.0,-0.5957110646100112
4.12,-2.524803027329809,-0.0,-0.5816306379836496
4.13,-2.466817104899358,-0.0,-0.5678935001918733
4.14,-2.4102013759189704,-0.0,-0.5544907999374461
4.15,-2.354921631536282,-0.0,-0.5414139362758297
4.16,-2.30094460203987,-0.0,-0.5286545505272897
4.17,-2.248237927222681,-0.0,-0.5162045184951203
4.18,-2.1967701278496525,-0.0,-0.50405594297645
4.19,-2.1465105781811973,-0.0,-0.49220114655277125
4.2,-2.0974294795066486,-0.0,-0.48063266464798365
4.21,-2.0494978346440638,-0.0,-0.4693432388423517
4.22,-2.0026874233649217,-0.0,-0.4583258104313538
4.23,-1.9569707787043162,-0.0,-0.4475735142189445
4.24,-1.9123211641191522,-0.0,-0.4370796725352625
4.25,-1.8687125514586826,-0.0,-0.4268377894693062
4.26,-1.8261195997134592,-0.0,-0.4168415453075569
4.2700000000000005,-1.7845176345103722,-0.0,-0.4070847911699626
4.28,-1.7438826283230233,-0.0,-0.39756154383510756
4.29,-1.7041911813681172,-0.0,-0.3882659807467813
4.3,-1.665420503159951,-0.0,-0.3791924351945277
4.3100000000000005,-1.6275483946963765,-0.0,-0.3703353916611054
4.32,-1.590553231250868,-0.0,-0.3616894813301181
4.33,-1.5544139457464772,-0.0,-0.35324947774738874
4.34,-1.519110012688604,-0.0,-0.3450102926299464
4.3500000000000005,-1.4846214326345346,-0.0,-0.33696697181677654
4.36,-1.450928717178723,-0.0,-0.3291146913557507
4.37,-1.418012874433737,-0.0,-0.3214487537214078
4.38,-1.385855394987683,-0.0,-0.31396458415849465
4.39,-1.3544382383197986,-0.0,-0.3066577271464049
4.4,-1.3237438196566935,-0.0,-0.29952384297987134
4.41,-1.2937549972525135,-0.0,-0.29255870446146987
4.42,-1.264455060077023,-0.0,-0.28575819370169175
4.43,-1.2358277158963031,-0.0,-0.2791182990225247
4.44,-1.2078570797314265,-0.0,-0.2726351119606596
4.45,-1.1805278131418784,-0.0,-0.2663048658202377
4.46,-1.1538254427953365,-0.0,-0.2601240232591257
4.47,-1.1277351700202023,-0.0,-0.25408894847570324
4.48,-1.102242565067401,-0.0,-0.24819609910358634
4.49,-1.0773335570255393,-0.0,-0.24244202358806716
4.5,-1.052994424050653,-0.0,-0.2368233586460146
4.51,-1.0292117838991048,-0.0,-0.23133682680616238
4.5200000000000005,-1.0059728024482297,-0.0,-0.22597929350368548
4.53,-0.983265157988492,-0.0,-0.22074775710668101
4.54,-0.9610763768899868,-0.0,-0.21563916765364402
4.55,-0.9393942935647294,-0.0,-0.21065055292906285
4.5600000000000005,-0.9182070421701812,-0.0,-0.20577901630615786
4.57,-0.8975030485664279,-0.0,-0.20102173465719508
4.58,-0.8772710225179856,-0.0,-0.19637595632892926
4.59,-0.8574999501315873,-0.0,-0.19183899918083314
4.6000000000000005,-0.8381790865216533,-0.0,-0.18740824868386652
4.61,-0.8192979486954861,-0.0,-0.18308115607763217
4.62,-0.8008463086505568,-0.0,-0.17885523658385288
4.63,-0.7828141866765514,-0.0,-0.1747280676741888
4.64,-0.7651920515218075,-0.0,-0.17069734307271597
4.65,-0.7479703828453136,-0.0,-0.16676075475582094
4.66,-0.7311398902659115,-0.0,-0.16291605224558944
4.67,-0.714691507892355,-0.0,-0.1591610412035659
4.68,-0.6986163884906567,-0.0,-0.15549358192574642
4.69,-0.6829058978209476,-0.0,-0.1519115878825204
4.7,-0.6675516091381659,-0.0,-0.14841302430202163
4.71,-0.6525452978511093,-0.0,-0.1449959067954111
4.72,-0.6378789363346014,-0.0,-0.14165830002267119
4.73,-0.6235446888897187,-0.0,-0.13839831639754652
4.74,-0.6095349068472244,-0.0,-0.1352141148303206
4.75,-0.5958421238095336,-0.0,-0.1321038995071658
4.76,-0.5824590510267168,-0.0,-0.12906591870485565
4.7700000000000005,-0.5693785729022118,-0.0,-0.12609846363967186
4.78,-0.5565937426240819,-0.0,-0.12319986734938476
4.79,-0.5440977779178093,-0.0,-0.12036850360722719
4.8,-0.531884056916761,-0.0,-0.11760278586682306
4.8100000000000005,-0.5199461141466103,-0.0,-0.11490116623707002
4.82,-0.5082776366201273,-0.0,-0.11226213448601326
4.83,-0.49687246003888647,-0.0,-0.10968421707278309
4.84,-0.48572456509856576,-0.0,-0.10716597620670262
4.8500000000000005,-0.4748280738946236,-0.0,-0.10470600893270524
4.86,-0.46417724642526537,-0.0,-0.10230294624223198
4.87,-0.4537664771887132,-0.0,-0.09995545220880993
4.88,-0.44359029187190285,-0.0,-0.0976622231475406
4.89,-0.4336433441278304,-0.0,-0.09542198679775547
4.9,-0.423920412438871,-0.0,-0.09323350152812214
4.91,-0.41441639706348316,-0.0,-0.09109555556350975
4.92,-0.40512631706380303,-0.0,-0.08900696623294714
4.93,-0.396045307411719,-0.0,-0.08696657923802999
4.94,-0.38716861617109916,-0.0,-0.08497326794115612
4.95,-0.37849160175392427,-0.0,-0.08302593267298965
4.96,-0.3700097302481547,-0.0,-0.08112350005857487
4.97,-0.3617185728152329,-0.0,-0.0792649223615415
4.98,-0.35361380315519464,-0.0,-0.0774491768458611
4.99,-0.3456911950374279,-0.0,-0.0756752651546334
5.0,-0.3379466198951866,-0.0,-0.073942212705399
5.01,-0.3303760444820253,-0.0,-0.07224906810149115
5.0200000000000005,-0.3229755285883845,-0.0,-0.07059490255895669
5.03,-0.3157412228166129,-0.0,-0.06897880934859076
5.04,-0.3086693664127669,-0.0,-0.06739990325264593
5.05,-0.30175628515358655,-0.0,-0.06585732003579048
5.0600000000000005,-0.2949983892870926,-0.0,-0.06435021592990432
5.07,-0.2883921715253035,-0.0,-0.06287776713231508
5.08,-0.28193420508761796,-0.0,-0.06143916931708923
5.09,-0.2756211417934541,-0.0,-0.06003363715900597
5.1000000000000005,-0.2694497102027814,-0.0,-0.05866040386985334
5.11,-0.26341671380322573,-0.0,-0.05731872074669787
5.12,-0.2575190292424661,-0.0,-0.05600785673178978
5.13,-0.251753604604685,-0.0,-0.054727097983777
5.14,-0.24611745772987045,-0.0,-0.05347574745991117
5.15,-0.24060767457480572,-0.0,-0.052253124508938986
5.16,-0.23522140761461852,-0.0,-0.051058564474381805
5.17,-0.22995587428379533,-0.0,-0.04989141830791564
5.18,-0.22480835545560107,-0.0,-0.04875105219257274
5.19,-0.21977619395887493,-0.0,-0.04763684717549443
5.2,-0.21485679313120523,-0.0,-0.046548198809973206
5.21,-0.21004761540751596,-0.0,-0.045484516806530324
5.22,-0.20534618094312596,-0.0,-0.044445224692782524
5.23,-0.20075006627037054,-0.0,-0.043429759481859266
5.24,-0.19625690298790147,-0.0,-0.04243757134913899
5.25,-0.19186437648180787,-0.0,-0.04146812331707987
5.26,-0.1875702246777255,-0.0,-0.040520890947927254
5.2700000000000005,-0.183372236823126,-0.0,-0.03959536204408656
5.28,-0.1792682537046297,-0.0,-0.03869103671045781
5.29,-0.17525616384799533,-0.0,-0.03780742640260351
5.3,-0.17133390330756312,-0.0,-0.03694405388227454
5.3100000000000005,-0.1674994548838326,-0.0,-0.036100453027851864
5.32,-0.16375084704486864,-0.0,-0.03527616856996336
5.33,-0.1600861528735286,-0.0,-0.034470755833629525
5.34,-0.15650348903985054,-0.0,-0.03368378048676629
5.3500000000000005,-0.15300101479796072,-0.0,-0.03291481829487802
5.36,-0.14957693100687766,-0.0,-0.03216345488177883
5.37,-0.14622947917460657,-0.0,-0.03142928549618471
5.38,-0.14295694052493518,-0.0,-0.030711914784023766
5.39,-0.13975763508635872,-0.0,-0.03001095656631585
5.4,-0.13662992080257746,-0.0,-0.02932603362247756
5.41,-0.13357219266402523,-0.0,-0.028656777478912213
5.42,-0.13058288185990313,-0.0,-0.028002828202748613
5.43,-0.12766045495020584,-0.0,-0.02736383420059624
5.44,-0.12480341305724313,-0.0,-0.02673945202218809
5.45,-0.1220102910761722,-0.0,-0.02612934616878603
5.46,-0.11927965690406922,-0.0,-0.025533188906227185
5.47,-0.11661011068708192,-0.0,-0.024950660082492842
5.48,-0.11400028408521712,-0.0,-0.0243814469496851
5.49,-0.11144883955432859,-0.0,-0.023825243990299286
5.5,-0.1089544696448833,-0.0,-0.02328175274768347
5.51,-0.10651589631709418,-0.0,-0.022750681660579166
5.5200000000000005,-0.1041318702720195,-0.0,-0.02223174590164045
5.53,-0.10180117029823874,-0.0,-0.02172466721983129
5.54,-0.09952260263372562,-0.0,-0.021229173786603724
5.55,-0.0972950003425489,-0.0,-0.020745000045762074
5.5600000000000005,-0.09511722270604075,-0.0,-0.020271886566921093
5.57,-0.09298815462808294,-0.0,-0.019809579902468143
5.58,-0.09189543346364328,-0.0,-0.01935828200949882
5.59,-0.09082810130056555,-0.0,-0.018918660833764755
5.6000000000000005,-0.08978538926317686,-0.0,-0.01849035189394907
5.61,-0.08876655741585425,-0.0,-0.01807300490357267
5.62,-0.08777089342628973,-0.0,-0.017666283088709028
5.63,-0.08679771130226847,-0.0,-0.017269862544829467
5.64,-0.08584635019728848,-0.0,-0.016883431630182716
5.65,-0.08491617328068561,-0.0,-0.016506690393307384
5.66,-0.08400656666823676,-0.0,-0.016139350032454713
5.67,-0.08311693840949846,-0.0,-0.015781132384862853
5.68,-0.08224671752840006,-0.0,-0.015431769443974286
5.69,-0.08139535311385247,-0.0,-0.01509100290282612
5.7,-0.080562313457356,-0.0,-0.014758583721970092
5.71,-0.0797470852347969,-0.0,-0.014434271720395846
5.72,-0.0789491727298126,-0.0,-0.014117835188038707
5.73,-0.0781680970962807,-0.0,-0.013809050518552265
5.74,-0.07740339565765057,-0.0,-0.013507701861117506
5.75,-0.07665462124098602,-0.0,-0.01321358079014456
5.76,-0.0759213415437276,-0.0,-0.012926485991801047
5.7700000000000005,-0.07520313853131248,-0.0,-0.012646222966372935
5.78,-0.07449960786390955,-0.0,-0.012372603745530408
5.79,-0.07381035835063891,-0.0,-0.012105446623632818
5.8,-0.07313501142974858,-0.0,-0.01184457590226382
5.8100000000000005,-0.07247320067331688,-0.0,-0.011589821647240614
5.82,-0.07182457131513892,-0.0,-0.011341019457390208
5.83,-0.07118877980053856,-0.0,-0.011098010244431083
5.84,-0.07056549335692403,-0.0,-0.010860640023340746
5.8500000000000005,-0.06995438958397886,-0.0,-0.010628759712628997
5.86,-0.0693551560624455,-0.0,-0.010402224943972959
5.87,-0.06876748998052265,-0.0,-0.010180895880703965
5.88,-0.06819109777695559,-0.0,-0.009964637044667787
5.89,-0.06762569479995274,-0.0,-0.009753317151009121
5.9,-0.06707100498111399,-0.0,-0.009546808950458513
5.91,-0.06652676052360218,-0.0,-0.00934498907872541
5.92,-0.0659927016038354,-0.0,-0.00914773791262482
5.93,-0.06461369746855232,-0.0,-0.008954939432587171
5.94,-0.06410248969035716,-0.0,-0.008766481091221658
5.95,-0.06360069503197452,-0.0,-0.008582253687622821
5.96,-0.06310808373128392,-0.0,-0.008402151247127948
5.97,-0.06262443266137964,-0.0,-0.008226070906250016
5.98,-0.06214952510128732,-0.0,-0.00805391280252654
5.99,-0.06168315051612917,-0.0,-0.007885579969039512
6.0,-0.061225104346284386,-0.0,-0.007720978233375549
6.01,-0.060775187805116475,-0.0,-0.007560016120808217
6.0200000000000005,-0.06033320768486125,-0.0,-0.007402604761496769
6.03,-0.059898976170292474,-0.0,-0.007248657801506866
6.04,-0.05947231065980159,-0.0,-0.007098091317469574
6.05,-0.05905303359354778,-0.0,-0.006950823734705007
6.0600000000000005,-0.05864097228835227,-0.0,-0.006806775748646327
6.07,-0.05823595877902871,-0.0,-0.006665870249408763
6.08,-0.057837829665856204,-0.0,-0.006528032249356567
6.09,-0.057446425967918324,-0.0,-0.006393188813528689
6.1000000000000005,-0.057061592982044,-0.0,-0.006261268992791278
6.11,-0.05668318014710126,-0.0,-0.006132203759592098
6.12,-0.05631104091340597,-0.0,-0.00600592594619838
6.13,-0.055945032617021016,-0.0,-0.005882370185305876
6.140000000000001,-0.05558501635873151,-0.0,-0.005761472852912561
6.15,-0.05523085688749324,-0.0,-0.005643172013355965
6.16,-0.05488242248816071,-0.0,-0.005527407366418195
6.17,-0.05453958487331172,-0.0,-0.005414120196407601
6.18,-0.05420221907899303,-0.0,-0.005303253323130559
6.19,-0.05387020336422161,-0.0,-0.005194751054671229
6.2,-0.05354341911408295,-0.0,-0.005088559141901162
6.21,-0.05322175074627588,-0.0,-0.004984624734644505
6.22,-0.052905085620960676,-0.0,-0.004882896339428202
6.23,-0.0525933139537738,-0.0,-0.0047833237787499976
6.24,-0.05228632873187902,-0.0,-0.004685858151800335
6.25,-0.05198402563293123,-0.0,-0.004590451796577275
6.26,-0.05168630294683437,-0.0,-0.004497058253336534
6.2700000000000005,-0.051393061500180894,-0.0,-0.004405632229321404
6.28,-0.051104204583265304,-0.0,-0.004316129564720027
6.29,-0.05081963787956892,-0.0,-0.004228507199799879
6.3,-0.05053926939761812,-0.0,-0.00414272314317172
6.3100000000000005,-0.050263009405122544,-0.0,-0.004058736441137437
6.32,-0.049990770365303805,-0.0,-0.003976507148078354
6.33,-0.04972246687532973,-0.0,-0.0038959962978425437
6.34,-0.04945801560677228,-0.0,-0.0038171658760915747
6.3500000000000005,-0.04919733524801165,-0.0,-0.003739978793568939
6.36,-0.04894034644851178,-0.0,-0.003664398860254087
6.37,-0.04868697176489645,-0.0,-0.0035903907603676236
6.38,-0.0484371356087575,-0.0,-0.003517920028194763
6.390000000000001,-0.04819076419613042,-0.0,-0.003446953024695578
6.4,-0.04794778549857474,-0.0,-0.0033774569148720002
6.41,-0.04770812919579968,-0.0,-0.003309399645862804
6.42,-0.04747172662977801,-0.0,-0.003242749925739099
6.43,-0.047238510760293416,-0.0,-0.0031774772029740292
6.44,-0.04700841612186891,-0.0,-0.0031135516465615027
6.45,-0.04678137878202625,-0.0,-0.0030509441267598837
6.46,-0.04655733630082829,-0.0,-0.002989626196437577
6.47,-0.046336227691657975,-0.0,-0.002929570072998427
6.48,-0.04611799338319015,-0.0,-0.0028707486208657883
6.49,-0.04590257518251355,-0.0,-0.0028131353345050036
6.5,-0.04568991623936238,-0.0,-0.0027567043219648714
6.51,-0.0454799610114187,-0.0,-0.0027014302889195054
6.5200000000000005,-0.045272655230647905,-0.0,-0.002647288523192733
6.53,-0.0450679458706317,-0.0,-0.00259425487974793
6.54,-0.04486578111486393,-0.0,-0.002542305766126893
6.55,-0.04466611032597622,-0.0,-0.002491418128321986
6.5600000000000005,-0.04446888401586163,-0.0,-0.0024415694370664813
6.57,-0.04427405381666584,-0.0,-0.002392737674528577
6.58,-0.04408157245261656,-0.0,-0.002344901321395184
6.59,-0.043891393712662846,-0.0,-0.002298039344332115
6.6000000000000005,-0.043703472423897355,-0.0,-0.002252131183807838
6.61,-0.04351776442573549,-0.0,-0.0022071567422684724
6.62,-0.04333422654482623,-0.0,-0.0021630963726521693
6.63,-0.043152816570670806,-0.0,-0.002119930867231501
6.640000000000001,-0.04297349323192579,-0.0,-0.0020776414467729106
6.65,-0.042796216173368505,-0.0,-0.0020362097500027025
6.66,-0.04262094593350312,-0.0,-0.0019956178233694515
6.67,-0.04244764392278701,-0.0,-0.001955848111093105
6.68,-0.042276272402457064,-0.0,-0.0019168834454914088
6.69,-0.04210679446393738,-0.0,-0.001878707037574655
6.7,-0.04193917400880934,-0.0,-0.0018413024679000752
6.71,-0.04177337572932667,-0.0,-0.001804653677677537
6.72,-0.04160936508945816,-0.0,-0.0017687449601185084
6.73,-0.0414471083064417,-0.0,-0.0017335609520205506
6.74,-0.04128657233283351,-0.0,-0.0016990866255798861
6.75,-0.04112772483903752,-0.0,-0.0016653072804248647
6.76,-0.040970534196299785,-0.0,-0.0016322085358634057
6.7700000000000005,-0.04081496946015396,-0.0,-0.0015997763233377516
6.78,-0.040661000354304117,-0.0,-0.0015679968790801046
6.79,-0.040508597254931084,-0.0,-0.0015368567369629547
6.8,-0.04035773117541025,-0.0,-0.001506342721538117
6.8100000000000005,-0.040208373751428196,-0.0,-0.0014764419412587233
6.82,-0.040060497226485775,-0.0,-0.0014471417818786073
6.83,-0.03991407443777685,-0.0,-0.0014184299000237202
6.84,-0.03976907880243118,-0.0,-0.0013902942169303997
6.8500000000000005,-0.03962548430411068,-0.0,-0.0013627229123455056
6.86,-0.03948326547994885,-0.0,-0.0013357044185835908
6.87,-0.03934239740782311,-0.0,-0.0013092274147364603
6.88,-0.03920285569395098,-0.0,-0.0012832808210306202
6.890000000000001,-0.03906461646079952,-0.0,-0.001257853793328274
6.9,-0.03892765633530052,-0.0,-0.0012329357177676744
6.91,-0.03879195243736132,-0.0,-0.0012085162055387806
6.92,-0.03865748236866388,-0.0,-0.0011845850877902967
6.93,-0.03852422420174302,-0.0,-0.0011611324106643188
6.94,-0.03839215646933664,-0.0,-0.0011381484304549248
6.95,-0.03826125815399976,-0.0,-0.0011156236088871692
6.96,-0.03813150867797536,-0.0,-0.0010935486085130704
6.97,-0.03800288789331459,-0.0,-0.0010719142882212728
6.98,-0.03787537607223934,-0.0,-0.0010507116988571928
6.99,-0.037748953897740994,-0.0,-0.0010299320789505483
7.0,-0.03762360245440798,-0.0,-0.0010095668505472777
7.01,-0.03749930321947685,-0.0,-0.0009896076151429509
7.0200000000000005,-0.03737603805409979,-0.0,-0.0009700461497148627
7.03,-0.03725378919482349,-0.0,-0.0009508744028500997
7.04,-0.03713253924527309,-0.0,-0.0009320844909669434
7.05,-0.037012271168035994,-0.0,-0.0009136686946270661
7.0600000000000005,-0.03689296827673997,-0.0,-0.0008956194549360545
7.07,-0.036774614228320325,-0.0,-0.0008779293700298685
7.08,-0.03665719301547158,-0.0,-0.0008605911916449232
7.09,-0.03654068895927774,-0.0,-0.0008435978217695493
7.1000000000000005,-0.03642508670201761,-0.0,-0.000826942309374659
7.11,-0.03631037120013972,-0.0,-0.0008106178472215104
7.12,-0.03619652771740271,-0.0,-0.0007946177687445286
7.13,-0.03608354181817683,-0.0,-0.0007789355450072013
7.140000000000001,-0.03597139936090227,-0.0,-0.0007635647817291315
7.15,-0.035860086491700416,-0.0,-0.0007484992163823831
7.16,-0.03574958963813379,-0.0,-0.0007337327153553137
7.17,-0.03563989550311124,-0.0,-0.0007192592711821422
7.18,-0.035530991058934196,-0.0,-0.0007050729998365511
7.19,-0.03542286354148083,-0.0,-0.0006911681380876743
7.2,-0.03531550044452422,-0.0,-0.0006775390409168684
7.21,-0.035208889514181364,-0.0,-0.0006641801789937138
7.22,-0.03510301874348961,-0.0,-0.0006510861362097369
7.23,-0.034997876367107265,-0.0,-0.0006382516072683886
7.24,-0.03489345085613551,-0.0,-0.0006256713953298581
7.25,-0.03478973091305819,-0.0,-0.0006133404097093373
7.26,-0.03468670546679679,-0.0,-0.0006012536636273984
7.2700000000000005,-0.034584363667877704,-0.0,-0.0005894062720111783
7.28,-0.03448269488370892,-0.0,-0.0005777934493451055
7.29,-0.03438168869396348,-0.0,-0.0005664105075699373
7.3,-0.0342813348860672,-0.0,-0.0005552528540289143
7.3100000000000005,-0.03418162345078786,-0.0,-0.0005443159894598685
7.32,-0.034082544577923306,-0.0,-0.0005335955060321549
7.33,-0.03398408865208656,-0.0,-0.000523087085427311
7.34,-0.033886246248584946,-0.0,-0.0005127864969623752
7.3500000000000005,-0.03378900812939146,-0.0,-0.0005026895957548251
7.36,-0.03369236523920578,-0.0,-0.0004927923209281285
7.37,-0.03359630870160292,-0.0,-0.0004830906938569238
7.38,-0.033500829815267474,-0.0,-0.00047358081645087514
7.390000000000001,-0.03340592005031126,-0.0,-0.0004642588694762732
7.4,-0.03331157104467242,-0.0,-0.00045512111091447775
7.41,-0.03321777460059417,-0.0,-0.0004461638743563228
7.42,-0.033124522681180976,-0.0,-0.00043738356743162736
7.43,-0.033031807407030774,-0.0,-0.0004287766702729797
7.44,-0.03293962105294077,-0.0,-0.0004203397340129846
7.45,-0.03284795604468606,-0.0,-0.00041206937931418243
7.46,-0.032756804955868364,-0.0,-0.00040396229493087357
7.47,-0.03266616050483372,-0.0,-0.00039601523630209876
7.48,-0.032576015551657615,-0.0,-0.00038822502417504696
7.49,-0.03248636309519569,-0.0,-0.00038058854325818145
7.5,-0.032397196270198686,-0.0,-0.00037310274090339196
7.51,-0.032308508344489985,-0.0,-0.0003657646258165013
7.5200000000000005,-0.03222029271620454,-0.0,-0.0003585712667954691
7.53,-0.03213254291108741,-0.0,-0.000351519791495654
7.54,-0.03204525257985085,-0.0,-0.0003446073852215127
7.55,-0.03195841549558859,-0.0,-0.00033783128974412737
7.5600000000000005,-0.0318720255512457,-0.0,-0.0003311888021439721
7.57,-0.031786076757143,-0.0,-0.00032467727367834084
7.58,-0.031700563238554746,-0.0,-0.0003182941086728753
7.59,-0.031615479233338496,-0.0,-0.0003120367634366453
7.6000000000000005,-0.03153081908961556,-0.0,-0.00030590274520024877
7.61,-0.03144657726350128,-0.0,-0.00029988961107640856
7.62,-0.03136274831688398,-0.0,-0.00029399496704256143
7.63,-0.03127932691525124,-0.0,-0.0002882164669449417
7.640000000000001,-0.03119630782556255,-0.0,-0.0002825518115236788
7.65,-0.03111368591416748,-0.0,-0.0002769987474584369
7.66,-0.031031456144768134,-0.0,-0.0002715550664341378
7.67,-0.03094961357642471,-0.0,-0.0002662186042263192
7.68,-0.03086815336160376,-0.0,-0.0002609872398056909
7.69,-0.030787070744267838,-0.0,-0.00025585889446146364
7.7,-0.030706361058005283,-0.0,-0.000250831530943033
7.71,-0.030626019724200027,-0.0,-0.00024590315261961384
7.72,-0.030546042250239998,-0.0,-0.0002410718026574284
7.73,-0.030466424227763158,-0.0,-0.00023633556321406152
7.74,-0.030387161330940868,-0.0,-0.0002316925546496058
7.75,-0.030308249314797232,-0.0,-0.00022714093475422817
7.76,-0.03022968401356399,-0.0,-0.00022267889799179827
7.7700000000000005,-0.030151461339069915,-0.0,-0.00021830467475922785
7.78,-0.030073577279164158,-0.0,-0.00021401653066117842
7.79,-0.029996027896172672,-0.0,-0.00020981276579980202
7.8,-0.029918809325386958,-0.0,-0.00020569171407918923
7.8100000000000005,-0.029841917773584636,-0.0,-0.00020165174252420476
7.82,-0.029765349517580888,-0.0,-0.00019769125061339907
7.83,-0.02968910090281025,-0.0,-0.0001938086696256919
7.84,-0.029613168341938008,-0.0,-0.00019000246200053043
7.8500000000000005,-0.029537548313500705,-0.0,-0.00018627112071123152
7.86,-0.029462237360574968,-0.0,-0.00018261316865122486
7.87,-0.029387232089473986,-0.0,-0.0001790271580329194
7.88,-0.029312529168471355,-0.0,-0.00017551166979892313
7.890000000000001,-0.029238125326551314,-0.0,-0.00017206531304535074
7.9,-0.02916401735218513,-0.0,-0.0001686867244569622
7.91,-0.029090202092132665,-0.0,-0.00016537456775387826
7.92,-0.029016676450269296,-0.0,-0.0001621275331496272
7.930000000000001,-0.02894343738643651,-0.0,-0.00015894433682028136
7.94,-0.028870481915317044,-0.0,-0.00015582372038444806
7.95,-0.028797807105332852,-0.0,-0.00015276445039388392
7.96,-0.02872541007756604,-0.0,-0.00014976531783450868
7.97,-0.028653288004702186,-0.0,-0.00014682513763759734
7.98,-0.028581438109995416,-0.0,-0.00014394274820093628
7.99,-0.028509857666254936,-0.0,-0.00014111701091973285
8.0,-0.028438543994852485,-0.0,-0.00013834680972707293
8.01,-0.02836749446475015,-0.0,-0.00013563105064372577
8.02,-0.028296706491548494,-0.0,-0.00013296866133709914
8.03,-0.028226177536553983,-0.0,-0.00013035859068915304
8.040000000000001,-0.028155905105865846,-0.0,-0.00012779980837308448
8.05,-0.028085886749481676,-0.0,-0.00012529130443859887
8.06,-0.028016120060421323,-0.0,-0.00012283208890558902
8.07,-0.027946602673868958,-0.0,-0.00012042119136604602
8.08,-0.027877332266332697,-0.0,-0.00011805766059403009
8.09,-0.027808306554821388,-0.0,-0.00011574056416353348
8.1,-0.027739523296038536,-0.0,-0.0001134689880740711
8.11,-0.027670980285592325,-0.0,-0.00011124203638383825
8.120000000000001,-0.02760267535722242,-0.0,-0.00010905883085027812
8.13,-0.027534606382042075,-0.0,-0.00010691851057790527
8.14,-0.02746677126779607,-0.0,-0.000104820231673235
8.15,-0.02739916795813373,-0.0,-0.00010276316690667084
8.16,-0.027331794431896792,-0.0,-0.00010074650538120691
8.17,-0.027264648702421884,-0.0,-9.876945220780368e-05
8.18,-0.027197728816857215,-0.0,-9.683122818729981e-05
8.19,-0.02713103285549325,-0.0,-9.49310694987249e-05
8.2,-0.02706455893110714,-0.0,-9.306822739388147e-05
8.21,-0.02699830518832013,-0.0,-9.124196789806691e-05
8.22,-0.026932269802968603,-0.0,-8.945157151680927e-05
8.23,-0.02686645098148767,-0.0,-8.769633294849304e-05
8.24,-0.026800846960307243,-0.0,-8.597556080275428e-05
8.25,-0.026735456005260626,-0.0,-8.428857732452647e-05
8.26,-0.026670276411004848,-0.0,-8.263471812362135e-05
8.27,-0.026605306500453174,-0.0,-8.101333190973137e-05
8.28,-0.026540544624218773,-0.0,-7.942378023274274e-05
8.290000000000001,-0.026475989160069935,-0.0,-7.786543722825058e-05
8.3,-0.026411638512396283,-0.0,-7.633768936816976e-05
8.31,-0.026347491111685818,-0.0,-7.483993521633742e-05
8.32,-0.026283545414012583,-0.0,-7.337158518900533e-05
8.33,-0.026219799900534708,-0.0,-7.193206132012247e-05
8.34,-0.02615625307700267,-0.0,-7.052079703131009e-05
8.35,-0.02609290347327747,-0.0,-6.913723690643381e-05
8.36,-0.026029749642858674,-0.0,-6.778083647067933e-05
8.370000000000001,-0.02596679016242189,-0.0,-6.645106197403989e-05
8.38,-0.025904023631365656,-0.0,-6.514739017912626e-05
8.39,-0.02584144867136755,-0.0,-6.386930815321121e-05
8.4,-0.02577906392594924,-0.0,-6.261631306442257e-05
8.41,-0.025716868060050347,-0.0,-6.138791198200093e-05
8.42,-0.025654859759610835,-0.0,-6.0183621680539496e-05
8.43,-0.025593037731161932,-0.0,-5.900296844812537e-05
8.44,-0.025531400701425434,-0.0,-5.7845487898303565e-05
8.45,-0.025469947416920755,-0.0,-5.671072478578615e-05
8.46,-0.025408676643580257,-0.0,-5.5598232825830994e-05
8.47,-0.025347587166372195,-0.0,-5.4507574517215924e-05
8.48,-0.02528667778893122,-0.0,-5.3438320968735686e-05
8.49,-0.025225947333196448,-0.0,-5.2390051729150645e-05
8.5,-0.02516539463905669,-0.0,-5.1362354620517596e-05
8.51,-0.025105018564003063,-0.0,-5.035482557483452e-05
8.52,-0.02504481798278825,-0.0,-4.936706847393245e-05
8.53,-0.024984791787092973,-0.0,-4.839869499254918e-05
8.540000000000001,-0.024924938885198932,-0.0,-4.74493244445207e-05
8.55,-0.024865258201668527,-0.0,-4.651858363202758e-05
8.56,-0.02480574867703071,-0.0,-4.560610669783505e-05
8.57,-0.024746409267473617,-0.0,-4.471153498046644e-05
8.58,-0.024687238944542982,-0.0,-4.3834516872251116e-05
8.59,-0.024628236694846747,-0.0,-4.297470768018922e-05
8.6,-0.024569401519765666,-0.0,-4.213176948957668e-05
8.61,-0.0245107324351696,-0.0,-4.1305371030335035e-05
8.620000000000001,-0.024452228471139717,-0.0,-4.0495187545992e-05
8.63,-0.024393888671695937,-0.0,-3.97009006652594e-05
8.64,-0.02433571209453022,-0.0,-3.892219827615673e-05
8.65,-0.02427769781074489,-0.0,-3.815877440262908e-05
8.66,-0.024219844904596416,-0.0,-3.741032908360974e-05
8.67,-0.024162152473244294,-0.0,-3.6676568254478296e-05
8.68,-0.024104619626504772,-0.0,-3.595720363086657e-05
8.69,-0.024047245486609786,-0.0,-3.525195259476531e-05
8.700000000000001,-0.023990029187970583,-0.0,-3.4560538082885575e-05
8.71,-0.023932969876946042,-0.0,-3.3882688477230005e-05
8.72,-0.023876066711615764,-0.0,-3.32181374978296e-05
8.73,-0.023819318861557543,-0.0,-3.2566624097602875e-05
8.74,-0.023762725507629392,-0.0,-3.1927892359295e-05
8.75,-0.023706285841755964,-0.0,-3.1301691394455486e-05
8.76,-0.023649999066719087,-0.0,-3.068777524441372e-05
8.77,-0.023593864395952634,-0.0,-3.0085902783212408e-05
8.78,-0.023537881053341467,-0.0,-2.9495837622460126e-05
8.790000000000001,-0.023482048273024345,-0.0,-2.8917348018064526e-05
8.8,-0.023426365299200762,-0.0,-2.8350206778808836e-05
8.81,-0.02337083138594177,-0.0,-2.7794191176734933e-05
8.82,-0.02331544579700433,-0.0,-2.724908285929703e-05
8.83,-0.023260207805649656,-0.0,-2.6714667763250696e-05
8.84,-0.023205116694465067,-0.0,-2.619073603024274e-05
8.85,-0.023150171755189224,-0.0,-2.5677081924068076e-05
8.86,-0.02309537228854115,-0.0,-2.5173503749560472e-05
8.870000000000001,-0.02304071760405236,-0.0,-2.4679803773084615e-05
8.88,-0.022986207019902647,-0.0,-2.4195788144597798e-05
8.89,-0.02293183986275881,-0.0,-2.3721266821249894e-05
8.9,-0.02287761546761689,-0.0,-2.3256053492491197e-05
8.91,-0.022823533177647345,-0.0,-2.2799965506658046e-05
8.92,-0.0227695923440434,-0.0,-2.2352823799007033e-05
8.93,-0.022715792325872317,-0.0,-2.191445282116892e-05
8.94,-0.02266213248992985,-0.0,-2.1484680471994168e-05
8.950000000000001,-0.022608612210597262,-0.0,-2.1063338029762454e-05
8.96,-0.0225552308697015,-0.0,-2.0650260085729047e-05
8.97,-0.022501987856377942,-0.0,-2.0245284478981665e-05
8.98,-0.02244888256693599,-0.0,-1.9848252232581718e-05
8.99,-0.022395914404727206,-0.0,-1.9459007490964515e-05
9.0,-0.022343082780016114,-0.0,-1.907739745857348e-05
