# results of the FBA model for the bactery Fprau
# the columns are: t and the metabolic fluxes 
# the compounds are: galactose, glucose, thiosulfate, butyrate, Fprau, Styphi,  
# the nominal flux is: -5.0, -5.0, -5.0, -5.0, -5.0, -5.0,  
# the initial concentration are: 49.0, 0.0, 32.0, 14.0, 0.5142228701904145, 0.5360680359476373,  

t,galactose,glucose,thiosulfate,butyrate,Fprau,Styphi
0.0,-5.0,0.0,0.0,6.14542815027095,0.14423761437546928,0.0
0.01,-5.0,0.0,0.0,6.14542815027095,0.14423761437546928,0.0
0.02,-5.0,0.0,0.0,6.14542815027095,0.14423761437546928,0.0
0.03,-5.0,0.0,0.0,6.14542815027095,0.14423761437546928,0.0
0.04,-5.0,0.0,0.0,6.14542815027095,0.14423761437546928,0.0
0.05,-5.0,0.0,0.0,6.14542815027095,0.14423761437546928,0.0
0.06,-5.0,0.0,0.0,6.14542815027095,0.14423761437546928,0.0
0.07,-5.0,0.0,0.0,6.14542815027095,0.14423761437546928,0.0
0.08,-5.0,0.0,0.0,6.14542815027095,0.14423761437546928,0.0
0.09,-5.0,0.0,0.0,6.14542815027095,0.14423761437546928,0.0
0.1,-5.0,0.0,0.0,6.14542815027095,0.14423761437546928,0.0
0.11,-5.0,0.0,0.0,6.14542815027095,0.14423761437546928,0.0
0.12,-5.0,0.0,0.0,6.14542815027095,0.14423761437546928,0.0
0.13,-5.0,0.0,0.0,6.14542815027095,0.14423761437546928,0.0
0.14,-5.0,0.0,0.0,6.14542815027095,0.14423761437546928,0.0
0.15,-5.0,0.0,0.0,6.14542815027095,0.14423761437546928,0.0
0.16,-5.0,0.0,0.0,6.14542815027095,0.14423761437546928,0.0
0.17,-5.0,0.0,0.0,6.14542815027095,0.14423761437546928,0.0
0.18,-5.0,0.0,0.0,6.14542815027095,0.14423761437546928,0.0
0.19,-5.0,0.0,0.0,6.14542815027095,0.14423761437546928,0.0
0.2,-5.0,0.0,0.0,6.14542815027095,0.14423761437546928,0.0
0.21,-5.0,0.0,0.0,6.14542815027095,0.14423761437546928,0.0
0.22,-5.0,0.0,0.0,6.14542815027095,0.14423761437546928,0.0
0.23,-5.0,0.0,0.0,6.14542815027095,0.14423761437546928,0.0
0.24,-5.0,0.0,0.0,6.14542815027095,0.14423761437546928,0.0
0.25,-5.0,0.0,0.0,6.14542815027095,0.14423761437546928,0.0
0.26,-5.0,0.0,0.0,6.14542815027095,0.14423761437546928,0.0
0.27,-5.0,0.0,0.0,6.14542815027095,0.14423761437546928,0.0
0.28,-5.0,0.0,0.0,6.14542815027095,0.14423761437546928,0.0
0.29,-5.0,0.0,0.0,6.14542815027095,0.14423761437546928,0.0
0.3,-5.0,0.0,0.0,6.14542815027095,0.14423761437546928,0.0
0.31,-5.0,0.0,0.0,6.14542815027095,0.14423761437546928,0.0
0.32,-5.0,0.0,0.0,6.14542815027095,0.14423761437546928,0.0
0.33,-5.0,0.0,0.0,6.14542815027095,0.14423761437546928,0.0
0.34,-5.0,0.0,0.0,6.14542815027095,0.14423761437546928,0.0
0.35000000000000003,-5.0,0.0,0.0,6.14542815027095,0.14423761437546928,0.0
0.36,-5.0,0.0,0.0,6.14542815027095,0.14423761437546928,0.0
0.37,-5.0,0.0,0.0,6.14542815027095,0.14423761437546928,0.0
0.38,-5.0,0.0,0.0,6.14542815027095,0.14423761437546928,0.0
0.39,-5.0,0.0,0.0,6.14542815027095,0.14423761437546928,0.0
0.4,-5.0,0.0,0.0,6.14542815027095,0.14423761437546928,0.0
0.41000000000000003,-5.0,0.0,0.0,6.14542815027095,0.14423761437546928,0.0
0.42,-5.0,0.0,0.0,6.14542815027095,0.14423761437546928,0.0
0.43,-5.0,0.0,0.0,6.14542815027095,0.14423761437546928,0.0
0.44,-5.0,0.0,0.0,6.14542815027095,0.14423761437546928,0.0
0.45,-5.0,0.0,0.0,6.14542815027095,0.14423761437546928,0.0
0.46,-5.0,0.0,0.0,6.14542815027095,0.14423761437546928,0.0
0.47000000000000003,-5.0,0.0,0.0,6.14542815027095,0.14423761437546928,0.0
0.48,-5.0,0.0,0.0,6.14542815027095,0.14423761437546928,0.0
0.49,-5.0,0.0,0.0,6.14542815027095,0.14423761437546928,0.0
0.5,-5.0,0.0,0.0,6.14542815027095,0.14423761437546928,0.0
0.51,-5.0,0.0,0.0,6.14542815027095,0.14423761437546928,0.0
0.52,-5.0,0.0,0.0,6.14542815027095,0.14423761437546928,0.0
0.53,-5.0,0.0,0.0,6.14542815027095,0.14423761437546928,0.0
0.54,-5.0,0.0,0.0,6.14542815027095,0.14423761437546928,0.0
0.55,-5.0,0.0,0.0,6.14542815027095,0.14423761437546928,0.0
0.56,-5.0,0.0,0.0,6.14542815027095,0.14423761437546928,0.0
0.5700000000000001,-5.0,0.0,0.0,6.14542815027095,0.14423761437546928,0.0
0.58,-5.0,0.0,0.0,6.14542815027095,0.14423761437546928,0.0
0.59,-5.0,0.0,0.0,6.14542815027095,0.14423761437546928,0.0
0.6,-5.0,0.0,0.0,6.14542815027095,0.14423761437546928,0.0
0.61,-5.0,0.0,0.0,6.14542815027095,0.14423761437546928,0.0
0.62,-5.0,0.0,0.0,6.14542815027095,0.14423761437546928,0.0
0.63,-5.0,0.0,0.0,6.14542815027095,0.14423761437546928,0.0
0.64,-5.0,0.0,0.0,6.14542815027095,0.14423761437546928,0.0
0.65,-5.0,0.0,0.0,6.14542815027095,0.14423761437546928,0.0
0.66,-5.0,0.0,0.0,6.14542815027095,0.14423761437546928,0.0
0.67,-5.0,0.0,0.0,6.14542815027095,0.14423761437546928,0.0
0.68,-5.0,0.0,0.0,6.14542815027095,0.14423761437546928,0.0
0.6900000000000001,-5.0,0.0,0.0,6.14542815027095,0.14423761437546928,0.0
0.7000000000000001,-5.0,0.0,0.0,6.14542815027095,0.14423761437546928,0.0
0.71,-5.0,0.0,0.0,6.14542815027095,0.14423761437546928,0.0
0.72,-5.0,0.0,0.0,6.14542815027095,0.14423761437546928,0.0
0.73,-5.0,0.0,0.0,6.14542815027095,0.14423761437546928,0.0
0.74,-5.0,0.0,0.0,6.14542815027095,0.14423761437546928,0.0
0.75,-5.0,0.0,0.0,6.14542815027095,0.14423761437546928,0.0
0.76,-5.0,0.0,0.0,6.14542815027095,0.14423761437546928,0.0
0.77,-5.0,0.0,0.0,6.14542815027095,0.14423761437546928,0.0
0.78,-5.0,0.0,0.0,6.14542815027095,0.14423761437546928,0.0
0.79,-5.0,0.0,0.0,6.14542815027095,0.14423761437546928,0.0
0.8,-5.0,0.0,0.0,6.14542815027095,0.14423761437546928,0.0
0.81,-5.0,0.0,0.0,6.14542815027095,0.14423761437546928,0.0
0.8200000000000001,-5.0,0.0,0.0,6.14542815027095,0.14423761437546928,0.0
0.8300000000000001,-5.0,0.0,0.0,6.14542815027095,0.14423761437546928,0.0
0.84,-5.0,0.0,0.0,6.14542815027095,0.14423761437546928,0.0
0.85,-5.0,0.0,0.0,6.14542815027095,0.14423761437546928,0.0
0.86,-5.0,0.0,0.0,6.14542815027095,0.14423761437546928,0.0
0.87,-5.0,0.0,0.0,6.14542815027095,0.14423761437546928,0.0
0.88,-5.0,0.0,0.0,6.14542815027095,0.14423761437546928,0.0
0.89,-5.0,0.0,0.0,6.14542815027095,0.14423761437546928,0.0
0.9,-5.0,0.0,0.0,6.14542815027095,0.14423761437546928,0.0
0.91,-5.0,0.0,0.0,6.14542815027095,0.14423761437546928,0.0
0.92,-5.0,0.0,0.0,6.14542815027095,0.14423761437546928,0.0
0.93,-5.0,0.0,0.0,6.14542815027095,0.14423761437546928,0.0
0.9400000000000001,-5.0,0.0,0.0,6.14542815027095,0.14423761437546928,0.0
0.9500000000000001,-5.0,0.0,0.0,6.14542815027095,0.14423761437546928,0.0
0.96,-5.0,0.0,0.0,6.14542815027095,0.14423761437546928,0.0
0.97,-5.0,0.0,0.0,6.14542815027095,0.14423761437546928,0.0
0.98,-5.0,0.0,0.0,6.14542815027095,0.14423761437546928,0.0
0.99,-5.0,0.0,0.0,6.14542815027095,0.14423761437546928,0.0
1.0,-5.0,0.0,0.0,6.14542815027095,0.14423761437546928,0.0
1.01,-5.0,0.0,0.0,6.14542815027095,0.14423761437546928,0.0
1.02,-5.0,0.0,0.0,6.14542815027095,0.14423761437546928,0.0
1.03,-5.0,0.0,0.0,6.14542815027095,0.14423761437546928,0.0
1.04,-5.0,0.0,0.0,6.14542815027095,0.14423761437546928,0.0
1.05,-5.0,0.0,0.0,6.14542815027095,0.14423761437546928,0.0
1.06,-5.0,0.0,0.0,6.14542815027095,0.14423761437546928,0.0
1.07,-5.0,0.0,0.0,6.14542815027095,0.14423761437546928,0.0
1.08,-5.0,0.0,0.0,6.14542815027095,0.14423761437546928,0.0
1.09,-5.0,0.0,0.0,6.14542815027095,0.14423761437546928,0.0
1.1,-5.0,0.0,0.0,6.14542815027095,0.14423761437546928,0.0
1.11,-5.0,0.0,0.0,6.14542815027095,0.14423761437546928,0.0
1.12,-5.0,0.0,0.0,6.14542815027095,0.14423761437546928,0.0
1.1300000000000001,-5.0,0.0,0.0,6.14542815027095,0.14423761437546928,0.0
1.1400000000000001,-5.0,0.0,0.0,6.14542815027095,0.14423761437546928,0.0
1.1500000000000001,-5.0,0.0,0.0,6.14542815027095,0.14423761437546928,0.0
1.16,-5.0,0.0,0.0,6.14542815027095,0.14423761437546928,0.0
1.17,-5.0,0.0,0.0,6.14542815027095,0.14423761437546928,0.0
1.18,-5.0,0.0,0.0,6.14542815027095,0.14423761437546928,0.0
1.19,-5.0,0.0,0.0,6.14542815027095,0.14423761437546928,0.0
1.2,-5.0,0.0,0.0,6.14542815027095,0.14423761437546928,0.0
1.21,-5.0,0.0,0.0,6.14542815027095,0.14423761437546928,0.0
1.22,-5.0,0.0,0.0,6.14542815027095,0.14423761437546928,0.0
1.23,-5.0,0.0,0.0,6.14542815027095,0.14423761437546928,0.0
1.24,-5.0,0.0,0.0,6.14542815027095,0.14423761437546928,0.0
1.25,-5.0,0.0,0.0,6.14542815027095,0.14423761437546928,0.0
1.26,-5.0,0.0,0.0,6.14542815027095,0.14423761437546928,0.0
1.27,-5.0,0.0,0.0,6.14542815027095,0.14423761437546928,0.0
1.28,-5.0,0.0,0.0,6.14542815027095,0.14423761437546928,0.0
1.29,-5.0,0.0,0.0,6.14542815027095,0.14423761437546928,0.0
1.3,-5.0,0.0,0.0,6.14542815027095,0.14423761437546928,0.0
1.31,-5.0,0.0,0.0,6.14542815027095,0.14423761437546928,0.0
1.32,-5.0,0.0,0.0,6.14542815027095,0.14423761437546928,0.0
1.33,-5.0,0.0,0.0,6.14542815027095,0.14423761437546928,0.0
1.34,-5.0,0.0,0.0,6.14542815027095,0.14423761437546928,0.0
1.35,-5.0,0.0,0.0,6.14542815027095,0.14423761437546928,0.0
1.36,-5.0,0.0,0.0,6.14542815027095,0.14423761437546928,0.0
1.37,-5.0,0.0,0.0,6.14542815027095,0.14423761437546928,0.0
1.3800000000000001,-5.0,0.0,0.0,6.14542815027095,0.14423761437546928,0.0
1.3900000000000001,-5.0,0.0,0.0,6.14542815027095,0.14423761437546928,0.0
1.4000000000000001,-5.0,0.0,0.0,6.14542815027095,0.14423761437546928,0.0
1.41,-5.0,0.0,0.0,6.14542815027095,0.14423761437546928,0.0
1.42,-5.0,0.0,0.0,6.14542815027095,0.14423761437546928,0.0
1.43,-5.0,0.0,0.0,6.14542815027095,0.14423761437546928,0.0
1.44,-5.0,0.0,0.0,6.14542815027095,0.14423761437546928,0.0
1.45,-5.0,0.0,0.0,6.14542815027095,0.14423761437546928,0.0
1.46,-5.0,0.0,0.0,6.14542815027095,0.14423761437546928,0.0
1.47,-5.0,0.0,0.0,6.14542815027095,0.14423761437546928,0.0
1.48,-5.0,0.0,0.0,6.14542815027095,0.14423761437546928,0.0
1.49,-5.0,0.0,0.0,6.14542815027095,0.14423761437546928,0.0
1.5,-5.0,0.0,0.0,6.14542815027095,0.14423761437546928,0.0
1.51,-5.0,0.0,0.0,6.14542815027095,0.14423761437546928,0.0
1.52,-5.0,0.0,0.0,6.14542815027095,0.14423761437546928,0.0
1.53,-5.0,0.0,0.0,6.14542815027095,0.14423761437546928,0.0
1.54,-5.0,0.0,0.0,6.14542815027095,0.14423761437546928,0.0
1.55,-5.0,0.0,0.0,6.14542815027095,0.14423761437546928,0.0
1.56,-5.0,0.0,0.0,6.14542815027095,0.14423761437546928,0.0
1.57,-5.0,0.0,0.0,6.14542815027095,0.14423761437546928,0.0
1.58,-5.0,0.0,0.0,6.14542815027095,0.14423761437546928,0.0
1.59,-5.0,0.0,0.0,6.14542815027095,0.14423761437546928,0.0
1.6,-5.0,0.0,0.0,6.14542815027095,0.14423761437546928,0.0
1.61,-5.0,0.0,0.0,6.14542815027095,0.14423761437546928,0.0
1.62,-5.0,0.0,0.0,6.14542815027095,0.14423761437546928,0.0
1.6300000000000001,-5.0,0.0,0.0,6.14542815027095,0.14423761437546928,0.0
1.6400000000000001,-5.0,0.0,0.0,6.14542815027095,0.14423761437546928,0.0
1.6500000000000001,-5.0,0.0,0.0,6.14542815027095,0.14423761437546928,0.0
1.6600000000000001,-5.0,0.0,0.0,6.14542815027095,0.14423761437546928,0.0
1.67,-5.0,0.0,0.0,6.14542815027095,0.14423761437546928,0.0
1.68,-5.0,0.0,0.0,6.14542815027095,0.14423761437546928,0.0
1.69,-5.0,0.0,0.0,6.14542815027095,0.14423761437546928,0.0
1.7,-5.0,0.0,0.0,6.14542815027095,0.14423761437546928,0.0
1.71,-5.0,0.0,0.0,6.14542815027095,0.14423761437546928,0.0
1.72,-5.0,0.0,0.0,6.14542815027095,0.14423761437546928,0.0
1.73,-5.0,0.0,0.0,6.14542815027095,0.14423761437546928,0.0
1.74,-5.0,0.0,0.0,6.14542815027095,0.14423761437546928,0.0
1.75,-5.0,0.0,0.0,6.14542815027095,0.14423761437546928,0.0
1.76,-5.0,0.0,0.0,6.14542815027095,0.14423761437546928,0.0
1.77,-5.0,0.0,0.0,6.14542815027095,0.14423761437546928,0.0
1.78,-5.0,0.0,0.0,6.14542815027095,0.14423761437546928,0.0
1.79,-5.0,0.0,0.0,6.14542815027095,0.14423761437546928,0.0
1.8,-5.0,0.0,0.0,6.14542815027095,0.14423761437546928,0.0
1.81,-5.0,0.0,0.0,6.14542815027095,0.14423761437546928,0.0
1.82,-5.0,0.0,0.0,6.14542815027095,0.14423761437546928,0.0
1.83,-5.0,0.0,0.0,6.14542815027095,0.14423761437546928,0.0
1.84,-5.0,0.0,0.0,6.14542815027095,0.14423761437546928,0.0
1.85,-5.0,0.0,0.0,6.14542815027095,0.14423761437546928,0.0
1.86,-5.0,0.0,0.0,6.14542815027095,0.14423761437546928,0.0
1.87,-5.0,0.0,0.0,6.14542815027095,0.14423761437546928,0.0
1.8800000000000001,-5.0,0.0,0.0,6.14542815027095,0.14423761437546928,0.0
1.8900000000000001,-5.0,0.0,0.0,6.14542815027095,0.14423761437546928,0.0
1.9000000000000001,-5.0,0.0,0.0,6.14542815027095,0.14423761437546928,0.0
1.9100000000000001,-5.0,0.0,0.0,6.14542815027095,0.14423761437546928,0.0
1.92,-5.0,0.0,0.0,6.14542815027095,0.14423761437546928,0.0
1.93,-5.0,0.0,0.0,6.14542815027095,0.14423761437546928,0.0
1.94,-5.0,0.0,0.0,6.14542815027095,0.14423761437546928,0.0
1.95,-5.0,0.0,0.0,6.14542815027095,0.14423761437546928,0.0
1.96,-5.0,0.0,0.0,6.14542815027095,0.14423761437546928,0.0
1.97,-5.0,0.0,0.0,6.14542815027095,0.14423761437546928,0.0
1.98,-5.0,0.0,0.0,6.14542815027095,0.14423761437546928,0.0
1.99,-5.0,0.0,0.0,6.14542815027095,0.14423761437546928,0.0
2.0,-5.0,0.0,0.0,6.14542815027095,0.14423761437546928,0.0
2.0100000000000002,-5.0,0.0,0.0,6.14542815027095,0.14423761437546928,0.0
2.02,-5.0,0.0,0.0,6.14542815027095,0.14423761437546928,0.0
2.0300000000000002,-5.0,0.0,0.0,6.14542815027095,0.14423761437546928,0.0
2.04,-5.0,0.0,0.0,6.14542815027095,0.14423761437546928,0.0
2.05,-5.0,0.0,0.0,6.14542815027095,0.14423761437546928,0.0
2.06,-5.0,0.0,0.0,6.14542815027095,0.14423761437546928,0.0
2.07,-5.0,0.0,0.0,6.14542815027095,0.14423761437546928,0.0
2.08,-5.0,0.0,0.0,6.14542815027095,0.14423761437546928,0.0
2.09,-5.0,0.0,0.0,6.14542815027095,0.14423761437546928,0.0
2.1,-5.0,0.0,0.0,6.14542815027095,0.14423761437546928,0.0
2.11,-5.0,0.0,0.0,6.14542815027095,0.14423761437546928,0.0
2.12,-5.0,0.0,0.0,6.14542815027095,0.14423761437546928,0.0
2.13,-5.0,0.0,0.0,6.14542815027095,0.14423761437546928,0.0
2.14,-5.0,0.0,0.0,6.14542815027095,0.14423761437546928,0.0
2.15,-5.0,0.0,0.0,6.14542815027095,0.14423761437546928,0.0
2.16,-5.0,0.0,0.0,6.14542815027095,0.14423761437546928,0.0
2.17,-5.0,0.0,0.0,6.14542815027095,0.14423761437546928,0.0
2.18,-5.0,0.0,0.0,6.14542815027095,0.14423761437546928,0.0
2.19,-5.0,0.0,0.0,6.14542815027095,0.14423761437546928,0.0
2.2,-5.0,0.0,0.0,6.14542815027095,0.14423761437546928,0.0
2.21,-5.0,0.0,0.0,6.14542815027095,0.14423761437546928,0.0
2.22,-5.0,0.0,0.0,6.14542815027095,0.14423761437546928,0.0
2.23,-5.0,0.0,0.0,6.14542815027095,0.14423761437546928,0.0
2.24,-5.0,0.0,0.0,6.14542815027095,0.14423761437546928,0.0
2.25,-5.0,0.0,0.0,6.14542815027095,0.14423761437546928,0.0
2.2600000000000002,-5.0,0.0,0.0,6.14542815027095,0.14423761437546928,0.0
2.27,-5.0,0.0,0.0,6.14542815027095,0.14423761437546928,0.0
2.2800000000000002,-5.0,0.0,0.0,6.14542815027095,0.14423761437546928,0.0
2.29,-5.0,0.0,0.0,6.14542815027095,0.14423761437546928,0.0
2.3000000000000003,-5.0,0.0,0.0,6.14542815027095,0.14423761437546928,0.0
2.31,-5.0,0.0,0.0,6.14542815027095,0.14423761437546928,0.0
2.32,-5.0,0.0,0.0,6.14542815027095,0.14423761437546928,0.0
2.33,-5.0,0.0,0.0,6.14542815027095,0.14423761437546928,0.0
2.34,-5.0,0.0,0.0,6.14542815027095,0.14423761437546928,0.0
2.35,-5.0,0.0,0.0,6.14542815027095,0.14423761437546928,0.0
2.36,-5.0,0.0,0.0,6.14542815027095,0.14423761437546928,0.0
2.37,-5.0,0.0,0.0,6.14542815027095,0.14423761437546928,0.0
2.38,-5.0,0.0,0.0,6.14542815027095,0.14423761437546928,0.0
2.39,-5.0,0.0,0.0,6.14542815027095,0.14423761437546928,0.0
2.4,-5.0,0.0,0.0,6.14542815027095,0.14423761437546928,0.0
2.41,-5.0,0.0,0.0,6.14542815027095,0.14423761437546928,0.0
2.42,-5.0,0.0,0.0,6.14542815027095,0.14423761437546928,0.0
2.43,-5.0,0.0,0.0,6.14542815027095,0.14423761437546928,0.0
2.44,-5.0,0.0,0.0,6.14542815027095,0.14423761437546928,0.0
2.45,-5.0,0.0,0.0,6.14542815027095,0.14423761437546928,0.0
2.46,-5.0,0.0,0.0,6.14542815027095,0.14423761437546928,0.0
2.47,-5.0,0.0,0.0,6.14542815027095,0.14423761437546928,0.0
2.48,-5.0,0.0,0.0,6.14542815027095,0.14423761437546928,0.0
2.49,-5.0,0.0,0.0,6.14542815027095,0.14423761437546928,0.0
2.5,-5.0,0.0,0.0,6.14542815027095,0.14423761437546928,0.0
2.5100000000000002,-5.0,0.0,0.0,6.14542815027095,0.14423761437546928,0.0
2.52,-5.0,0.0,0.0,6.14542815027095,0.14423761437546928,0.0
2.5300000000000002,-5.0,0.0,0.0,6.14542815027095,0.14423761437546928,0.0
2.54,-5.0,0.0,0.0,6.14542815027095,0.14423761437546928,0.0
2.5500000000000003,-5.0,0.0,0.0,6.14542815027095,0.14423761437546928,0.0
2.56,-5.0,0.0,0.0,6.14542815027095,0.14423761437546928,0.0
2.57,-5.0,0.0,0.0,6.14542815027095,0.14423761437546928,0.0
2.58,-5.0,0.0,0.0,6.14542815027095,0.14423761437546928,0.0
2.59,-5.0,0.0,0.0,6.14542815027095,0.14423761437546928,0.0
2.6,-5.0,0.0,0.0,6.14542815027095,0.14423761437546928,0.0
2.61,-5.0,0.0,0.0,6.14542815027095,0.14423761437546928,0.0
2.62,-5.0,0.0,0.0,6.14542815027095,0.14423761437546928,0.0
2.63,-5.0,0.0,0.0,6.14542815027095,0.14423761437546928,0.0
2.64,-5.0,0.0,0.0,6.14542815027095,0.14423761437546928,0.0
2.65,-5.0,0.0,0.0,6.14542815027095,0.14423761437546928,0.0
2.66,-5.0,0.0,0.0,6.14542815027095,0.14423761437546928,0.0
2.67,-5.0,0.0,0.0,6.14542815027095,0.14423761437546928,0.0
2.68,-5.0,0.0,0.0,6.14542815027095,0.14423761437546928,0.0
2.69,-5.0,0.0,0.0,6.14542815027095,0.14423761437546928,0.0
2.7,-5.0,0.0,0.0,6.14542815027095,0.14423761437546928,0.0
2.71,-5.0,0.0,0.0,6.14542815027095,0.14423761437546928,0.0
2.72,-5.0,0.0,0.0,6.14542815027095,0.14423761437546928,0.0
2.73,-5.0,0.0,0.0,6.14542815027095,0.14423761437546928,0.0
2.74,-5.0,0.0,0.0,6.14542815027095,0.14423761437546928,0.0
2.75,-5.0,0.0,0.0,6.14542815027095,0.14423761437546928,0.0
2.7600000000000002,-5.0,0.0,0.0,6.14542815027095,0.14423761437546928,0.0
2.77,-5.0,0.0,0.0,6.14542815027095,0.14423761437546928,0.0
2.7800000000000002,-5.0,0.0,0.0,6.14542815027095,0.14423761437546928,0.0
2.79,-5.0,0.0,0.0,6.14542815027095,0.14423761437546928,0.0
2.8000000000000003,-5.0,0.0,0.0,6.14542815027095,0.14423761437546928,0.0
2.81,-5.0,0.0,0.0,6.14542815027095,0.14423761437546928,0.0
2.82,-5.0,0.0,0.0,6.14542815027095,0.14423761437546928,0.0
2.83,-5.0,0.0,0.0,6.14542815027095,0.14423761437546928,0.0
2.84,-5.0,0.0,0.0,6.14542815027095,0.14423761437546928,0.0
2.85,-5.0,0.0,0.0,6.14542815027095,0.14423761437546928,0.0
2.86,-5.0,0.0,0.0,6.14542815027095,0.14423761437546928,0.0
2.87,-5.0,0.0,0.0,6.14542815027095,0.14423761437546928,0.0
2.88,-5.0,0.0,0.0,6.14542815027095,0.14423761437546928,0.0
2.89,-5.0,0.0,0.0,6.14542815027095,0.14423761437546928,0.0
2.9,-5.0,0.0,0.0,6.14542815027095,0.14423761437546928,0.0
2.91,-5.0,0.0,0.0,6.14542815027095,0.14423761437546928,0.0
2.92,-5.0,0.0,0.0,6.14542815027095,0.14423761437546928,0.0
2.93,-5.0,0.0,0.0,6.14542815027095,0.14423761437546928,0.0
2.94,-5.0,0.0,0.0,6.14542815027095,0.14423761437546928,0.0
2.95,-5.0,0.0,0.0,6.14542815027095,0.14423761437546928,0.0
2.96,-5.0,0.0,0.0,6.14542815027095,0.14423761437546928,0.0
2.97,-5.0,0.0,0.0,6.14542815027095,0.14423761437546928,0.0
2.98,-5.0,0.0,0.0,6.14542815027095,0.14423761437546928,0.0
2.99,-5.0,0.0,0.0,6.14542815027095,0.14423761437546928,0.0
3.0,-5.0,0.0,0.0,6.14542815027095,0.14423761437546928,0.0
3.0100000000000002,-5.0,0.0,0.0,6.14542815027095,0.14423761437546928,0.0
3.02,-5.0,0.0,0.0,6.14542815027095,0.14423761437546928,0.0
3.0300000000000002,-5.0,0.0,0.0,6.14542815027095,0.14423761437546928,0.0
3.04,-5.0,0.0,0.0,6.14542815027095,0.14423761437546928,0.0
3.0500000000000003,-5.0,0.0,0.0,6.14542815027095,0.14423761437546928,0.0
3.06,-5.0,0.0,0.0,6.14542815027095,0.14423761437546928,0.0
3.0700000000000003,-5.0,0.0,0.0,6.14542815027095,0.14423761437546928,0.0
3.08,-5.0,0.0,0.0,6.14542815027095,0.14423761437546928,0.0
3.09,-5.0,0.0,0.0,6.14542815027095,0.14423761437546928,0.0
3.1,-5.0,0.0,0.0,6.14542815027095,0.14423761437546928,0.0
3.11,-5.0,0.0,0.0,6.14542815027095,0.14423761437546928,0.0
3.12,-5.0,0.0,0.0,6.14542815027095,0.14423761437546928,0.0
3.13,-5.0,0.0,0.0,6.14542815027095,0.14423761437546928,0.0
3.14,-5.0,0.0,0.0,6.14542815027095,0.14423761437546928,0.0
3.15,-5.0,0.0,0.0,6.14542815027095,0.14423761437546928,0.0
3.16,-5.0,0.0,0.0,6.14542815027095,0.14423761437546928,0.0
3.17,-5.0,0.0,0.0,6.14542815027095,0.14423761437546928,0.0
3.18,-5.0,0.0,0.0,6.14542815027095,0.14423761437546928,0.0
3.19,-5.0,0.0,0.0,6.14542815027095,0.14423761437546928,0.0
3.2,-5.0,0.0,0.0,6.14542815027095,0.14423761437546928,0.0
3.21,-5.0,0.0,0.0,6.14542815027095,0.14423761437546928,0.0
3.22,-5.0,0.0,0.0,6.14542815027095,0.14423761437546928,0.0
3.23,-5.0,0.0,0.0,6.14542815027095,0.14423761437546928,0.0
3.24,-5.0,0.0,0.0,6.14542815027095,0.14423761437546928,0.0
3.25,-5.0,0.0,0.0,6.14542815027095,0.14423761437546928,0.0
3.2600000000000002,-5.0,0.0,0.0,6.14542815027095,0.14423761437546928,0.0
3.27,-5.0,0.0,0.0,6.14542815027095,0.14423761437546928,0.0
3.2800000000000002,-5.0,0.0,0.0,6.14542815027095,0.14423761437546928,0.0
3.29,-5.0,0.0,0.0,6.14542815027095,0.14423761437546928,0.0
3.3000000000000003,-5.0,0.0,0.0,6.14542815027095,0.14423761437546928,0.0
3.31,-5.0,0.0,0.0,6.14542815027095,0.14423761437546928,0.0
3.3200000000000003,-5.0,0.0,0.0,6.14542815027095,0.14423761437546928,0.0
3.33,-5.0,0.0,0.0,6.14542815027095,0.14423761437546928,0.0
3.34,-5.0,0.0,0.0,6.14542815027095,0.14423761437546928,0.0
3.35,-5.0,0.0,0.0,6.14542815027095,0.14423761437546928,0.0
3.36,-5.0,0.0,0.0,6.14542815027095,0.14423761437546928,0.0
3.37,-5.0,0.0,0.0,6.14542815027095,0.14423761437546928,0.0
3.38,-5.0,0.0,0.0,6.14542815027095,0.14423761437546928,0.0
3.39,-5.0,0.0,0.0,6.14542815027095,0.14423761437546928,0.0
3.4,-5.0,0.0,0.0,6.14542815027095,0.14423761437546928,0.0
3.41,-5.0,0.0,0.0,6.14542815027095,0.14423761437546928,0.0
3.42,-5.0,0.0,0.0,6.14542815027095,0.14423761437546928,0.0
3.43,-5.0,0.0,0.0,6.14542815027095,0.14423761437546928,0.0
3.44,-5.0,0.0,0.0,6.14542815027095,0.14423761437546928,0.0
3.45,-5.0,0.0,0.0,6.14542815027095,0.14423761437546928,0.0
3.46,-5.0,0.0,0.0,6.14542815027095,0.14423761437546928,0.0
3.47,-5.0,0.0,0.0,6.14542815027095,0.14423761437546928,0.0
3.48,-5.0,0.0,0.0,6.14542815027095,0.14423761437546928,0.0
3.49,-5.0,0.0,0.0,6.14542815027095,0.14423761437546928,0.0
3.5,-5.0,0.0,0.0,6.14542815027095,0.14423761437546928,0.0
3.5100000000000002,-5.0,0.0,0.0,6.14542815027095,0.14423761437546928,0.0
3.52,-5.0,0.0,0.0,6.14542815027095,0.14423761437546928,0.0
3.5300000000000002,-5.0,0.0,0.0,6.14542815027095,0.14423761437546928,0.0
3.54,-5.0,0.0,0.0,6.14542815027095,0.14423761437546928,0.0
3.5500000000000003,-5.0,0.0,0.0,6.14542815027095,0.14423761437546928,0.0
3.56,-5.0,0.0,0.0,6.14542815027095,0.14423761437546928,0.0
3.5700000000000003,-5.0,0.0,0.0,6.14542815027095,0.14423761437546928,0.0
3.58,-5.0,0.0,0.0,6.14542815027095,0.14423761437546928,0.0
3.59,-4.888650549859635,0.0,0.0,6.008570141188991,0.14102545856541593,0.0
3.6,-4.772837785031049,0.0,0.0,5.866226336161429,0.1376845471827975,0.0
3.61,-4.659922618882856,0.0,0.0,5.727443928033386,0.13442722434438997,0.0
3.62,-4.549825161428129,0.0,0.0,5.592124725170411,0.13125118542197775,0.0
3.63,-4.442468075448435,0.0,0.0,5.460173673508003,0.1281541994283696,0.0
3.64,-4.337776478673349,0.0,0.0,5.331498736324701,0.12513410619557797,0.0
3.65,-4.235677850448949,0.0,0.0,5.206010779525752,0.12218881368235708,0.0
3.66,-4.136101942654845,0.0,0.0,5.0836234621565985,0.11931629540446215,0.0
3.67,-4.038980694643924,0.0,0.0,4.964253131853401,0.11651458798080848,0.0
3.68,-3.944248151992686,0.0,0.0,4.847818724982067,0.11378178878965693,0.0
3.69,-3.851840388862688,0.0,0.0,4.734241671213759,0.11111605372893271,0.0
3.7,-3.7616954337855675,0.0,0.0,4.623445802306244,0.10851559507526394,0.0
3.71,-3.6737531986951275,0.0,0.0,4.515357264881956,0.10597867943681018,0.0
3.72,-3.5879554110403706,0.0,0.0,4.409904436985196,0.10350362579481005,0.0
3.73,-3.5042455488230106,0.0,0.0,4.30701784823989,0.10108880362962108,0.0
3.74,-3.4225687784120535,0.0,0.0,4.20663010341847,0.09873263112682562,0.0
3.75,-3.342871894996486,0.0,0.0,4.108675809252175,0.09643357345941893,0.0
3.7600000000000002,-3.2651032655450405,0.0,0.0,4.013091504324452,0.09419014114235486,0.0
3.77,-3.189212774149428,0.0,0.0,3.9198155918922892,0.09200088845581648,0.0
3.7800000000000002,-3.1151517696343447,0.0,0.0,3.828788275495645,0.0898644119339198,0.0
3.79,-3.0428730153241133,0.0,0.0,3.7399514972147365,0.08777934891557242,0.0
3.8000000000000003,-2.9723306408618884,0.0,0.0,3.653248878453227,0.08574437615460809,0.0
3.81,-2.9034800959831055,0.0,0.0,3.56862566312133,0.08375820848625506,0.0
3.8200000000000003,-2.8362781061502123,0.0,0.0,3.486028663106535,0.08181959754729613,0.0
3.83,-2.770682629960784,0.0,0.0,3.4054062059255297,0.07992733054741846,0.0
3.84,-2.7066528182458516,0.0,0.0,3.3267080844516914,0.07808022908928529,0.0
3.85,-2.6441489747797298,0.0,0.0,3.2498855086243386,0.07627714803511534,0.0
3.86,-2.5831325185268272,0.0,0.0,3.1748910590469026,0.07451697441759912,0.0
3.87,-2.5235659473548564,0.0,0.0,3.101678642388025,0.07279862639312878,0.0
3.88,-2.465412803147557,0.0,0.0,3.030203448500161,0.07112105223534591,0.0
3.89,-2.4086376382535595,0.0,0.0,2.9604219091852517,0.06948322936733445,0.0
3.9,-2.3532059832112653,0.0,0.0,2.8922916585226295,0.06788416343049722,0.0
3.91,-2.2990843156927663,0.0,0.0,2.8257714947009425,0.0663228873887164,0.0
3.92,-2.2462400306126744,0.0,0.0,2.7608213432785162,0.06479846066605052,0.0
3.93,-2.194641411350558,0.0,0.0,2.6974022218129643,0.06330996831656648,0.0
3.94,-2.144257602038206,0.0,0.0,2.63547620579974,0.061856520224893616,0.0
3.95,-2.0950611596095143,0.0,0.0,2.5750095653609413,0.06043732472656068,0.0
3.96,-2.0470236773105634,0.0,0.0,2.515967386163101,0.05905156235707522,0.0
3.97,-2.000116411803201,0.0,0.0,2.4583143401829197,0.057698403942344635,0.0
3.98,-1.9543113995361523,0.0,0.0,2.4020160578210223,0.05637704280317673,0.0
3.99,-1.9095814325574954,0.0,0.0,2.3470390981747737,0.05508669405755811,0.0
4.0,-1.8659000352103177,0.0,0.0,2.2933509203947104,0.053826593948370166,0.0
4.01,-1.823241441673653,0.0,0.0,2.2409198560806427,0.05259599919550538,0.0
4.0200000000000005,-1.7815805743126945,0.0,0.0,2.1897150826716087,0.051394186371312094,0.0
4.03,-1.7408930228040163,0.0,0.0,2.139706597789977,0.05022045129842932,0.0
4.04,-1.7011550240032192,0.0,0.0,2.090865194496959,0.049074108469016,0.0
4.05,-1.6623434425239834,0.0,0.0,2.0431624374211252,0.04795449048447463,0.0
4.0600000000000005,-1.6244357519989931,0.0,0.0,1.9965706397282628,0.046860947514911835,0.0
4.07,-1.5874100169946253,0.0,0.0,1.9510628408922026,0.04579284677740622,0.0
4.08,-1.5512448755526107,0.0,0.0,1.906612785237006,0.04474957203237795,0.0
4.09,-1.51591952233315,0.0,0.0,1.8631949012183715,0.043730523097308655,0.0
4.1,-1.481413692335154,0.0,0.0,1.820784281414694,0.04273511537711638,0.0
4.11,-1.4477076451704183,0.0,0.0,1.7793566631985247,0.0417627794105013,0.0
4.12,-1.4147821498696165,0.0,0.0,1.7388884100620623,0.04081296043164117,0.0
4.13,-1.3826184701990036,0.0,0.0,1.6993564935690713,0.039885117946592365,0.0
4.14,-1.351198350467697,0.0,0.0,1.6607384759127775,0.03897872532390609,0.0
4.15,-1.320504001806317,0.0,0.0,1.6230124930492686,0.03809326939876217,0.0
4.16,-1.290518088898632,0.0,0.0,1.586157238390382,0.0372282500902273,0.0
4.17,-1.2612237171486853,0.0,0.0,1.5501519470309946,0.036383180031057935,0.0
4.18,-1.2326044202666513,0.0,0.0,1.5149763804910255,0.03555758420958421,0.0
4.19,-1.2046441482574342,0.0,0.0,1.4806108119521373,0.03475099962320542,0.0
4.2,-1.1773272557967023,0.0,0.0,1.4470360119707881,0.03396297494306533,0.0
4.21,-1.150638490979743,0.0,0.0,1.414233234650267,0.03319307018949805,0.0
4.22,-1.124562984429149,0.0,0.0,1.3821842042525774,0.03244085641780072,0.0
4.23,-1.0990862387479643,0.0,0.0,1.3508711022355002,0.03170591541398418,0.0
4.24,-1.07419411830548,0.0,0.0,1.3202765546980346,0.03098783940010941,0.0
4.25,-1.0498728393434367,0.0,0.0,1.2903836202212313,0.030286230748899974,0.0
4.26,-1.0261089603908955,0.0,0.0,1.2611757780863477,0.02960070170721625,0.0
4.2700000000000005,-1.0028893729765522,0.0,0.0,1.2326369168595428,0.028930874128129724,0.0
4.28,-0.9802013891674387,0.0,0.0,1.2047514419849257,0.028276381996207946,0.0
4.29,-0.9580331027489978,0.0,0.0,1.1775047197051374,0.027636881846651227,0.0
4.3,-0.9363722923991411,0.0,0.0,1.1508817289687254,0.027012021124589128,0.0
4.3100000000000005,-0.9152070390617063,0.0,0.0,1.12486782023515,0.026401455994778722,0.0
4.32,-0.8945257177953322,0.0,0.0,1.0994487054562139,0.025804851106461864,0.0
4.33,-0.8743169898718134,0.0,0.0,1.0746104483637078,0.02522187936541089,0.0
4.34,-0.8545697951150472,0.0,0.0,1.0503394550542722,0.024652221712945874,0.0
4.3500000000000005,-0.8352733444720581,0.0,0.0,1.0266224648579128,0.024095566911613894,0.0
4.36,-0.8164171128079304,0.0,0.0,1.0034465414826026,0.023551611337345763,0.0
4.37,-0.7979908319168169,0.0,0.0,0.9807990644240244,0.023020058777837128,0.0
4.38,-0.7799844837415061,0.0,0.0,0.9586677206319609,0.022500620236952186,0.0
4.39,-0.7623882937943322,0.0,0.0,0.9370404964241765,0.021993013744936413,0.0
4.4,-0.7451927247725082,0.0,0.0,0.915905669638829,0.021496964174228694,0.0
4.41,-0.7283884703612299,0.0,0.0,0.895251802018203,0.0210122030607015,0.0
4.42,-0.7119664492181675,0.0,0.0,0.8750677318147633,0.02053846843012058,0.0
4.43,-0.6959177991332128,0.0,0.0,0.8553425666135819,0.020075504629680562,0.0
4.44,-0.6802338713575887,0.0,0.0,0.8360656763617608,0.019623062164402055,0.0
4.45,-0.6649062250966581,0.0,0.0,0.8172266865998581,0.0191808975382677,0.0
4.46,-0.6499266221609888,0.0,0.0,0.7988154718877244,0.018748773099921467,0.0
4.47,-0.6352870217704442,0.0,0.0,0.7808221494180044,0.01832645689277372,0.0
4.48,-0.6209795755062606,0.0,0.0,0.7632370728119335,0.0179137225093837,0.0
4.49,-0.6069966224062777,0.0,0.0,0.7460508260909845,0.017510348949969785,0.0
4.5,-0.5933306841986604,0.0,0.0,0.7292542178188178,0.017116120484916425,0.0
4.51,-0.5799744606696307,0.0,0.0,0.7128382754074947,0.01673082652113786,0.0
4.5200000000000005,-0.5669208251608978,0.0,0.0,0.6967942395837459,0.01635426147219654,0.0
4.53,-0.5541628201926333,0.0,0.0,0.6811135590090764,0.01598622463203365,0.0
4.54,-0.5416936532079907,0.0,0.0,0.6657878850495507,0.015626520052211733,0.0
4.55,-0.5295066924353207,0.0,0.0,0.650809066689786,0.015274956422543399,0.0
4.5600000000000005,-0.517595462864371,0.0,0.0,0.6361691455878469,0.01493134695502475,0.0
4.57,-0.5059537822576531,0.0,0.0,0.6218605232444585,0.014595513307418114,0.0
4.58,-0.4945756579985451,0.0,0.0,0.6078758342206251,0.014267282607577982,0.0
4.59,-0.4834550335526901,0.0,0.0,0.5942076345169869,0.013946480139490673,0.0
4.6000000000000005,-0.4725859958917973,0.0,0.0,0.5808486565154956,0.013632935326938437,0.0
4.61,-0.46196277189423707,0.0,0.0,0.5677918045552133,0.013326481629660865,0.0
4.62,-0.45157972484476494,0.0,0.0,0.5550301506305482,0.01302695644238841,0.0
4.63,-0.4414313510302663,0.0,0.0,0.5425569302067358,0.012734200996629785,0.0
4.64,-0.43151227642852746,0.0,0.0,0.5303655381502873,0.012448060265156033,0.0
4.65,-0.4218172534871467,0.0,0.0,0.5184495247699744,0.012168382869079656,0.0
4.66,-0.4123411579898009,0.0,0.0,0.5068025919651722,0.011895020987453542,0.0
4.67,-0.4030789860071842,0.0,0.0,0.4954185894782484,0.011627830269311974,0.0
4.68,-0.394025850930031,0.0,0.0,0.4842915112479988,0.01136666974808287,0.0
4.69,-0.3851769805817243,0.0,0.0,0.4734154918606683,0.011111401758291062,0.0
4.7,-0.3765277144080807,0.0,0.0,0.46278480309613085,0.010861891854494134,0.0
4.71,-0.3680735007419869,0.0,0.0,0.45239385056571735,0.010618008732370357,0.0
4.72,-0.35980989414064163,0.0,0.0,0.44223717043961724,0.010379624151907983,0.0
4.73,-0.3517325527932374,0.0,0.0,0.43230942626045765,0.010146612862618337,0.0
4.74,-0.34383723599698807,0.0,0.0,0.4226054058414124,0.009918852530731392,0.0
4.75,-0.33611980169948225,0.0,0.0,0.41312001824549893,0.009696223668297848,0.0
4.76,-0.32857620410540916,0.0,0.0,0.40384829084371215,0.009478609564142322,0.0
4.7700000000000005,-0.32120249134577145,0.0,0.0,0.3947853664506955,0.009265896216634333,0.0
4.78,-0.3139948032077612,0.0,0.0,0.3859265005343377,0.009057972268196178,0.0
4.79,-0.30694936892353886,0.0,0.0,0.3772670584981349,0.008854728941517637,0.0
4.8,-0.30006250501621023,0.0,0.0,0.3688025130335001,0.008656059977413356,0.0
4.8100000000000005,-0.29333061320135584,0.0,0.0,0.3605284415407919,0.008461861574291865,0.0
4.82,-0.28675017834252026,0.0,0.0,0.35244052361628403,0.008272032329173434,0.0
4.83,-0.2803177664591213,0.0,0.0,0.3445345386038197,0.008086473180225281,0.0
4.84,-0.27403002278528893,0.0,0.0,0.336806363208829,0.007905087350761278,0.0
4.8500000000000005,-0.26788366987819207,0.0,0.0,0.3292519691734819,0.007727780294675558,0.0
4.86,-0.26187550577445967,0.0,0.0,0.3218674210105563,0.007554459643255394,0.0
4.87,-0.2560024280063158,0.0,0.0,0.3146489055215649,0.007385035897992168,0.0
4.88,-0.25026142196709034,0.0,0.0,0.3075927174966832,0.007219422094949242,0.0
4.89,-0.24464949548948348,0.0,0.0,0.3006951793061491,0.007057531917513405,0.0
4.9,-0.2391637253357668,0.0,0.0,0.2939526980404323,0.006899281037516488,0.0
4.91,-0.2338012555557232,0.0,0.0,0.28736176349216647,0.006744587067869381,0.0
4.92,-0.22855929588616222,0.0,0.0,0.2809189461890081,0.006593369516391872,0.0
4.93,-0.22343512019085185,0.0,0.0,0.27462089547602303,0.006445549740805278,0.0
4.94,-0.21842606493974293,0.0,0.0,0.2684643376467335,0.006301050904866222,0.0
4.95,-0.21352952772639874,0.0,0.0,0.2624460741207861,0.006159797935595514,0.0
4.96,-0.2087429658225765,0.0,0.0,0.25656297966742714,0.006021717481581822,0.0
4.97,-0.20406389476893963,0.0,0.0,0.25081200067341103,0.0058867378723280826,0.0
4.98,-0.19948988700091275,0.0,0.0,0.24519015345396133,0.0057547890786088275,0.0
4.99,-0.19501857050872068,0.0,0.0,0.2396945226059824,0.005625802673818506,0.0
5.0,-0.1906476275306833,0.0,0.0,0.234322259401889,0.0054997117962738125,0.0
5.01,-0.18637479327886589,0.0,0.0,0.22907058022339172,0.0053764511124533305,0.0
5.0200000000000005,-0.18219785469621283,0.0,0.0,0.2239367650338284,0.0052559567811422715,0.0
5.03,-0.17811464924431802,0.0,0.0,0.21891815588832997,0.0051381664184647026,0.0
5.04,-0.17412306372101213,0.0,0.0,0.21401215548051108,0.005023019063773425,0.0
5.05,-0.17022103310697073,0.0,0.0,0.20921622572475013,0.0049104551463753175,0.0
5.0600000000000005,-0.1664065394405714,0.0,0.0,0.20452788637346037,0.00480041645307726,0.0
5.07,-0.1626776107202515,0.0,0.0,0.19994471366782987,0.004692846096518464,0.0
5.08,-0.1590323198336393,0.0,0.0,0.19546433902171217,0.004587688484280237,0.0
5.09,-0.15546878351275417,0.0,0.0,0.19108444773752795,0.004484889288747106,0.0
5.1000000000000005,-0.15198516131459097,0.0,0.0,0.18680277775323134,0.004384395417697484,0.0
5.11,-0.14857965462642522,0.0,0.0,0.1826171184197558,0.004286154985609388,0.0
5.12,-0.1452505056951932,0.0,0.0,0.17852530930806196,0.004190117285660946,0.0
5.13,-0.14199599668032195,0.0,0.0,0.17452523904501432,0.004096232762407503,0.0
5.14,-0.13881444872940055,0.0,0.0,0.17061484417720446,0.004004452985115011,0.0
5.15,-0.13570422107610292,0.0,0.0,0.166792108062345,0.003914730621739877,0.0
5.16,-0.13266371015978787,0.0,0.0,0.16305505978707047,0.0038270194135293254,0.0
5.17,-0.12969134876622024,0.0,0.0,0.15940177311091433,0.003741274150235454,0.0
5.18,-0.1267856051888714,0.0,0.0,0.15583036543537288,0.003657450645918729,0.0
5.19,-0.12394498241027337,0.0,0.0,0.15233899679779894,0.0035755057153337264,0.0
5.2,-0.12116801730291574,0.0,0.0,0.14892586888918785,0.0034953971508759722,0.0
5.21,-0.11845327984918877,0.0,0.0,0.1455892240954166,0.0034170837000791843,0.0
5.22,-0.11579937237988967,0.0,0.0,0.14232734456142357,0.0033405250436505263,0.0
5.23,-0.11320492883082327,0.0,0.0,0.13913855127727437,0.0032656817740205923,0.0
5.24,-0.1106686140170406,0.0,0.0,0.13602120318636493,0.0031925153744116483,0.0
5.25,-0.108189122924272,0.0,0.0,0.13297369631439487,0.003120988198394397,0.0
5.26,-0.10576518001712348,0.0,0.0,0.12999446291914338,0.0030510634499324365,0.0
5.2700000000000005,-0.10339553856361677,0.0,0.0,0.1270819706602549,0.0029827051638965773,0.0
5.28,-0.1010789799756651,0.0,0.0,0.12423472178862113,0.002915878187039068,0.0
5.29,-0.09881431316508811,0.0,0.0,0.12145125235488718,0.002850548159416626,0.0
5.3,-0.09660037391477953,0.0,0.0,0.11873013143651578,0.0027866814962491937,0.0
5.3100000000000005,-0.09443602426465242,0.0,0.0,0.11606996038313194,0.0027242453702074542,0.0
5.32,-0.09232015191199618,0.0,0.0,0.11346937207945887,0.0026632076941135417,0.0
5.33,-0.09025166962588987,0.0,0.0,0.11092703022558427,0.0026035371040483697,0.0
5.34,-0.08822951467532596,0.0,0.0,0.10844162863410509,0.002545202942855031,0.0
5.3500000000000005,-0.0862526482707073,0.0,0.0,0.10601189054364674,0.0024881752440266943,0.0
5.36,-0.08432005501838986,0.0,0.0,0.1036365679484803,0.0024324247159721443,0.0
5.37,-0.08243074238795169,0.0,0.0,0.10131444094373673,0.0023779227266475405,0.0
5.38,-0.0805837401918777,0.0,0.0,0.09904431708585497,0.0023246412885457655,0.0
5.39,-0.07877810007735762,0.0,0.0,0.0968250307680559,0.002272553044038105,0.0
5.4,-0.07701289502990258,0.0,0.0,0.09465544261012544,0.002221631251052325,0.0
5.41,-0.07528721888849328,0.0,0.0,0.09253443886258791,0.002171849769087934,0.0
5.42,-0.07360018587198096,0.0,0.0,0.09046093082456307,0.002123183045553004,0.0
5.43,-0.07195093011646819,0.0,0.0,0.08843385427518276,0.002075606102419063,0.0
5.44,-0.0703386052234054,0.0,0.0,0.08645216891814803,0.002029094523184503,0.0
5.45,-0.06876238381814427,0.0,0.0,0.0845148578391536,0.0019836244401399343,0.0
5.46,-0.06722145711869691,0.0,0.0,0.08262092697589064,0.0019391725219286733,0.0
5.47,-0.0657150345144556,0.0,0.0,0.08076940460023377,0.0018957159613933658,0.0
5.48,-0.06424234315463435,0.0,0.0,0.0789593408123726,0.0018532324637029716,0.0
5.49,-0.0628026275461999,0.0,0.0,0.077189807046682,0.0018117002347550473,0.0
5.5,-0.061395149553702594,0.0,0.0,0.07545989607147992,0.0017710979811701628,0.0
5.51,-0.06001918739670559,0.0,0.0,0.07376872075682145,0.0017314048813710313,0.0
5.5200000000000005,-0.05867403528414202,0.0,0.0,0.07211541362503536,0.001692600575033432,0.0
5.53,-0.057359003267946074,0.0,0.0,0.07049912667086103,0.0016546651588645993,0.0
5.54,-0.056073416884981235,0.0,0.0,0.06891903092136842,0.0016175791762741698,0.0
5.55,-0.05481661680718903,0.0,0.0,0.06737431600590613,0.0015813236072807035,0.0
5.5600000000000005,-0.05358795849976319,0.0,0.0,0.06586418973599519,0.0015458798586514147,0.0
5.57,-0.05238681188715947,0.0,0.0,0.06438787769486047,0.001511229754268086,0.0
5.58,-0.05121256102675602,0.0,0.0,0.06294462283626258,0.0014773555257115555,0.0
5.59,-0.050064603789983654,0.0,0.0,0.06153368509262766,0.0014442398030641097,0.0
5.6000000000000005,-0.04894235155075027,0.0,0.0,0.06015434099208924,0.0014118656059211884,0.0
5.61,-0.047845228880987474,0.0,0.0,0.0588058832842749,0.0013802163346083762,0.0
5.62,-0.04677267325315224,0.0,0.0,0.057487620574669177,0.0013492757615995953,0.0
5.63,-0.0457241347495203,0.0,0.0,0.056198876967294246,0.0013190280231306069,0.0
5.64,-0.04469907577811203,0.0,0.0,0.054938991715585986,0.001289457611004747,0.0
5.65,-0.043696970795095616,0.0,0.0,0.05370731888115158,0.0012605493645838689,0.0
5.66,-0.04271730603351591,0.0,0.0,0.05250322700042038,0.0012322884629642104,0.0
5.67,-0.041759579238201415,0.0,0.0,0.0513260987587836,0.0012046604173283288,0.0
5.68,-0.04082329940670496,0.0,0.0,0.050175330672180316,0.0011776510634717162,0.0
5.69,-0.03990798653613782,0.0,0.0,0.049050332775962484,0.0011512465545001611,0.0
5.7,-0.03901317137575975,0.0,0.0,0.0479505283207866,0.0011254333536921618,0.0
5.71,-0.03813839518519127,0.0,0.0,0.04687535347544764,0.0011001982275241975,0.0
5.72,-0.03728320949811762,0.0,0.0,0.04582425703643823,0.0010755282388539046,0.0
5.73,-0.03644717589135678,0.0,0.0,0.04479670014412576,0.001051410740258517,0.0
5.74,-0.03562986575916733,0.0,0.0,0.04379215600534927,0.0010278333675240385,0.0
5.75,-0.03483086009267487,0.0,0.0,0.04281010962233591,0.0010047840332826575,0.0
5.76,-0.03404974926429831,0.0,0.0,0.04185005752769759,0.0009822509207930619,0.0
5.7700000000000005,-0.03328613281706074,0.0,0.0,0.04091150752552393,0.0009602224778635587,0.0
5.78,-0.032539619258671916,0.0,0.0,0.03999397843826797,0.0009386874109113771,0.0
5.79,-0.03180982586027226,0.0,0.0,0.03909699985938901,0.0009176346791570019,0.0
5.8,-0.03164774828463477,0.0,0.0,0.038897792640221494,0.0009129591425863113,0.0
5.8100000000000005,-0.03148870979109555,0.0,0.0,0.03870232071318037,0.0009083712760057816,0.0
5.82,-0.0313326175756926,0.0,0.0,0.03851047001426965,0.0009038684022514118,0.0
5.83,-0.03117938237114018,0.0,0.0,0.03832213082633638,0.0008994479461828273,0.0
5.84,-0.031028918282704165,0.0,0.0,0.03813719757739775,0.0008951074299497327,0.0
5.8500000000000005,-0.03088114263313084,0.0,0.0,0.037955568650035985,0.0008908444685182997,0.0
5.86,-0.030735975816051538,0.0,0.0,0.03777714620120168,0.0008866567654418704,0.0
5.87,-0.03059334115732747,0.0,0.0,0.037601835991818475,0.0008825421088615921,0.0
5.88,-0.030453164783837243,0.0,0.0,0.037429547225490425,0.0008784983677208249,0.0
5.89,-0.03031537549924493,0.0,0.0,0.037260192395820006,0.0008745234881815521,0.0
5.9,-0.030179904666319056,0.0,0.0,0.03709368714177904,0.0008706154902298097,0.0
5.91,-0.030046686095402658,0.0,0.0,0.03692995011060868,0.0008667724644578975,0.0
5.92,-0.029915655938662373,0.0,0.0,0.03676890282785297,0.0008629925690139536,0.0
5.93,-0.029786752589769826,0.0,0.0,0.036610469574064074,0.0008592740267081157,0.0
5.94,-0.029659916588692284,0.0,0.0,0.03645457726776946,0.0008556151222657148,0.0
5.95,-0.029535090531291188,0.0,0.0,0.03630115535436148,0.0008520141997194298,0.0
5.96,-0.029412218983447428,0.0,0.0,0.036150135700563316,0.0008484696599322907,0.0
5.97,-0.02929124839945061,0.0,0.0,0.036001452494113136,0.0008449799582432196,0.0
5.98,-0.02917212704440722,0.0,0.0,0.035855042148397326,0.0008415436022287064,0.0
5.99,-0.029054804920438146,0.0,0.0,0.035710843211738175,0.0008381591495737262,0.0
6.0,-0.02893923369645113,0.0,0.0,0.03556879628108809,0.0008348252060460609,0.0
6.01,-0.02882536664128745,0.0,0.0,0.03542884391985063,0.0008315404235675239,0.0
6.0200000000000005,-0.028713158560054762,0.0,0.0,0.035290930579631466,0.0008283034983773906,0.0
6.03,-0.02860256573347008,0.0,0.0,0.035155002525690884,0.0008251131692827041,0.0
6.04,-0.028493545860047757,0.0,0.0,0.035021007765876716,0.0008219682159903034,0.0
6.05,-0.028386058000977755,0.0,0.0,0.03488889598288668,0.0008188674575169496,0.0
6.0600000000000005,-0.028280062527548822,0.0,0.0,0.034758618469644356,0.0008158097506725516,0.0
6.07,-0.028175521070980345,0.0,0.0,0.03463012806763327,0.0008127939886128419,0.0
6.08,-0.028072396474534737,0.0,0.0,0.034503379108036705,0.0008098190994578893,0.0
6.09,-0.027970652747789995,0.0,0.0,0.03437832735554697,0.0008068840449732312,0.0
6.1000000000000005,-0.027870255022959357,0.0,0.0,0.034254929954666245,0.0008039878193095458,0.0
6.11,-0.027771169513151568,0.0,0.0,0.03413314537841364,0.0008011294477987492,0.0
6.12,-0.027673363472471697,0.0,0.0,0.034012933379283135,0.0007983079858029478,0.0
6.13,-0.027576805157868114,0.0,0.0,0.0338942549423425,0.0007955225176136591,0.0
6.140000000000001,-0.027481463792636968,0.0,0.0,0.033777072240384724,0.0007927721553991608,0.0
6.15,-0.02738730953150041,0.0,0.0,0.0336613485910152,0.0007900560381972728,0.0
6.16,-0.027294313427179744,0.0,0.0,0.033547048415544144,0.0007873733309505982,0.0
6.17,-0.02720244739838905,0.0,0.0,0.033434137199664656,0.0007847232235835588,0.0
6.18,-0.027111684199179264,0.0,0.0,0.03332258145577865,0.0007821049301181478,0.0
6.19,-0.02702199738956627,0.0,0.0,0.03321234868687919,0.0007795176878262694,0.0
6.2,-0.0269333613073806,0.0,0.0,0.03310340735196076,0.0007769607564178653,0.0
6.21,-0.026845751041279647,0.0,0.0,0.03299572683284955,0.000774433417262398,0.0
6.22,-0.026759142404866522,0.0,0.0,0.03288927740239585,0.0007719349726422951,0.0
6.23,-0.026673511911862766,0.0,0.0,0.03278403019394896,0.0007694647450365322,0.0
6.24,-0.026588836752285027,0.0,0.0,0.032679957172089824,0.0007670220764336698,0.0
6.25,-0.02650509476957848,0.0,0.0,0.032577031104514584,0.00076460632767197,0.0
6.26,-0.026422264438662236,0.0,0.0,0.032475225535055295,0.0007622168778061642,0.0
6.2700000000000005,-0.026340324844844432,0.0,0.0,0.03237451475775853,0.0007598531234990711,0.0
6.28,-0.026259255663566988,0.0,0.0,0.03227487379200847,0.0007575144784376695,0.0
6.29,-0.026179037140941882,0.0,0.0,0.03217627835858672,0.0007552003727712549,0.0
6.3,-0.02609965007504312,0.0,0.0,0.03207870485667959,0.0007529102525717788,0.0
6.3100000000000005,-0.02602107579792011,0.0,0.0,0.031982130341773995,0.0007506435793150414,0.0
6.32,-0.025943296158300162,0.0,0.0,0.03188653250440785,0.00074839982938192,0.0
6.33,-0.025866293504949293,0.0,0.0,0.03179188964969834,0.0007461784935779398,0.0
6.34,-0.025790050670662274,0.0,0.0,0.031698180677679835,0.0007439790766717472,0.0
6.3500000000000005,-0.025714550956854126,0.0,0.0,0.031605385064367386,0.0007418010969506519,0.0
6.36,-0.02563977811872681,0.0,0.0,0.031513482843505386,0.0007396440857923109,0.0
6.37,-0.025565716350986145,0.0,0.0,0.031422454589040374,0.000737507587253272,0.0
6.38,-0.0254923502740851,0.0,0.0,0.03133228139818672,0.00073539115767159,0.0
6.390000000000001,-0.025419664920971006,0.0,0.0,0.031242944875158087,0.0007332943652849327,0.0
6.4,-0.02534764572431513,0.0,0.0,0.03115442711546105,0.0007312167898619721,0.0
6.41,-0.025276278504204157,0.0,0.0,0.031066710690766944,0.0007291580223473138,0.0
6.42,-0.025205549456274193,0.0,0.0,0.030979778634329127,0.0007271176645192271,0.0
6.43,-0.025135445140268768,0.0,0.0,0.030893614426920634,0.0007250953286595874,0.0
6.44,-0.025065952469003155,0.0,0.0,0.030808201983273113,0.0007230906372355838,0.0
6.45,-0.024997058697718313,0.0,0.0,0.030723525638986785,0.0007211032225924948,0.0
6.46,-0.02492875141380834,0.0,0.0,0.03063957013790497,0.0007191327266573656,0.0
6.47,-0.024861018526906274,0.0,0.0,0.030556320619930733,0.0007171788006530449,0.0
6.48,-0.024793848259313692,0.0,0.0,0.030473762609267027,0.0007152411048221673,0.0
6.49,-0.02472722913676025,0.0,0.0,0.030391882003050215,0.0007133193081603973,0.0
6.5,-0.02466114997947985,0.0,0.0,0.030310665060391335,0.0007114130881591955,0.0
6.51,-0.02459559989359097,0.0,0.0,0.03023009839177606,0.0007095221305570424,0.0
6.5200000000000005,-0.024530568262769028,0.0,0.0,0.030150168948835335,0.0007076461290993327,0.0
6.53,-0.024466044740199238,0.0,0.0,0.030070864014443446,0.0007057847853060016,0.0
6.54,-0.024402019240799093,0.0,0.0,0.02999217119317472,0.0007039378082474882,0.0
6.55,-0.024338481933699942,0.0,0.0,0.029914078402046712,0.0007021049143275211,0.0
6.5600000000000005,-0.024275423234977556,0.0,0.0,0.02983657386159578,0.0007002858270736261,0.0
6.57,-0.024212833800622252,0.0,0.0,0.029759646087235716,0.000698480276934307,0.0
6.58,-0.02415070451973933,0.0,0.0,0.02968328388089883,0.000696688001082863,0.0
6.59,-0.024089026507971064,0.0,0.0,0.02960747632294369,0.0006949087432274781,0.0
6.6000000000000005,-0.02402779110113192,0.0,0.0,0.029532212764345263,0.0006931422534278811,0.0
6.61,-0.023966989849049,0.0,0.0,0.02945748281912234,0.0006913882879176152,0.0
6.62,-0.023906614509599966,0.0,0.0,0.02938327635699507,0.0006896466089317504,0.0
6.63,-0.023846657042941165,0.0,0.0,0.029309583496310146,0.000687916984540776,0.0
6.640000000000001,-0.023787109605918982,0.0,0.0,0.029236394597159373,0.0006861991884891201,0.0
6.65,-0.023727964546657574,0.0,0.0,0.029163700254731452,0.0006844930000391073,0.0
6.66,-0.023669214399316577,0.0,0.0,0.02909149129287191,0.0006827982038197896,0.0
6.67,-0.023610851879012764,0.0,0.0,0.029019758757832276,0.0006811145896802676,0.0
6.68,-0.02355286987689945,0.0,0.0,0.028948493912233995,0.00067944195254798,0.0
6.69,-0.023495261455398247,0.0,0.0,0.02887768822919607,0.0006777800922909117,0.0
6.7,-0.023438019843577605,0.0,0.0,0.02880733338666697,0.0006761288135845243,0.0
6.71,-0.023381138432672838,0.0,0.0,0.02873742126190662,0.0006744879257822801,0.0
6.72,-0.023324610771742863,0.0,0.0,0.028667943926156608,0.0006728572427905186,0.0
6.73,-0.023268430563458623,0.0,0.0,0.028598893639462088,0.000671236582946934,0.0
6.74,-0.02321259166001873,0.0,0.0,0.02853026284564536,0.0006696257689026157,0.0
6.75,-0.023157088059187845,0.0,0.0,0.028462044167447038,0.0006680246275079791,0.0
6.76,-0.023101913900453533,0.0,0.0,0.028394230401796016,0.0006664329897017704,0.0
6.7700000000000005,-0.02304706346129761,0.0,0.0,0.028326814515229337,0.0006648506904035525,0.0
6.78,-0.022992531153577963,0.0,0.0,0.028259789639436008,0.0006632775684091489,0.0
6.79,-0.022938311520017098,0.0,0.0,0.02819314906696096,0.0006617134662897522,0.0
6.8,-0.0228843992307939,0.0,0.0,0.028126886246991528,0.0006601582302930983,0.0
6.8100000000000005,-0.022830789080234976,0.0,0.0,0.02806099478131802,0.0006586117102485851,0.0
6.82,-0.02277747598360235,0.0,0.0,0.0279954684203507,0.0006570737594738825,0.0
6.83,-0.022724454973974295,0.0,0.0,0.027930301059325854,0.0006555442346857759,0.0
6.84,-0.02267172119921611,0.0,0.0,0.027865486734550967,0.0006540229959121267,0.0
6.8500000000000005,-0.02261926991903804,0.0,0.0,0.027801019619807174,0.000652509906407383,0.0
6.86,-0.02256709650213731,0.0,0.0,0.027736894022823057,0.0006510048325698544,0.0
6.87,-0.022515196423421625,0.0,0.0,0.027673104381876177,0.0006495076438619106,0.0
6.88,-0.022463565261311484,0.0,0.0,0.027609645262462186,0.000648018212731841,0.0
6.890000000000001,-0.022412198695118693,0.0,0.0,0.027546511354091495,0.000646536414538623,0.0
6.9,-0.022361092502498677,0.0,0.0,0.027483697467134475,0.000645062127477938,0.0
6.91,-0.022310242556974245,0.0,0.0,0.027421198529800128,0.0006435952325111993,0.0
6.92,-0.022259644825528436,0.0,0.0,0.027359009585166964,0.0006421356132958929,0.0
6.93,-0.022209295366264394,0.0,0.0,0.027297125788304802,0.0006406831561180304,0.0
6.94,-0.02215919032613001,0.0,0.0,0.027235542403483543,0.0006392377498266212,0.0
6.95,-0.0221093259387054,0.0,0.0,0.027174254801446543,0.0006377992857696968,0.0
6.96,-0.022059698522051193,0.0,0.0,0.027113258456780455,0.0006363676577325391,0.0
6.97,-0.022010304476615804,0.0,0.0,0.02705254894532615,0.0006349427618769603,0.0
6.98,-0.021961140283199745,0.0,0.0,0.026992121941687,0.0006335244966827906,0.0
6.99,-0.021912202500975357,0.0,0.0,0.026931973216785757,0.0006321127628905642,0.0
7.0,-0.021863487765560144,0.0,0.0,0.026872098635516276,0.0006307074634463453,0.0
7.01,-0.02181499278714216,0.0,0.0,0.026812494154410674,0.0006293085034470588,0.0
7.0200000000000005,-0.021766714348655777,0.0,0.0,0.026753155819425747,0.0006279157900884519,0.0
7.03,-0.02171864930400639,0.0,0.0,0.026694079763740237,0.0006265292326134562,0.0
7.04,-0.021670794576342522,0.0,0.0,0.026635262205637642,0.0006251487422624752,0.0
7.05,-0.021623147156373975,0.0,0.0,0.026576699446444706,0.000623774232224984,0.0
7.0600000000000005,-0.021575704100734516,0.0,0.0,0.02651838786851528,0.0006224056175922204,0.0
7.07,-0.02152846253038798,0.0,0.0,0.026460323933259988,0.0006210428153109694,0.0
7.08,-0.021481419629076272,0.0,0.0,0.026402504179263493,0.0006196857441393058,0.0
7.09,-0.021434572641808248,0.0,0.0,0.026344925220399294,0.0006183343246024264,0.0
7.1000000000000005,-0.021387918873388076,0.0,0.0,0.02628758374404801,0.0006169884789507538,0.0
7.11,-0.021341455686982074,0.0,0.0,0.02623047650930822,0.0006156481311180227,0.0
7.12,-0.02129518050272286,0.0,0.0,0.02617360034530566,0.0006143132066815262,0.0
7.13,-0.02124909079634963,0.0,0.0,0.026116952149511433,0.0006129836328226703,0.0
7.140000000000001,-0.02120318409788372,0.0,0.0,0.026060528886103378,0.0006116593382885467,0.0
7.15,-0.02115745799033824,0.0,0.0,0.026004327584401542,0.000610340253355153,0.0
7.16,-0.021111910108460922,0.0,0.0,0.025948345337306573,0.0006090263097907815,0.0
7.17,-0.021066538137509198,0.0,0.0,0.02589257929980183,0.0006077174408208483,0.0
7.18,-0.021021339812056568,0.0,0.0,0.02583702668748647,0.0006064135810934577,0.0
7.19,-0.020976312914829414,0.0,0.0,0.025781684775137814,0.0006051146666456859,0.0
7.2,-0.020931455275573396,0.0,0.0,0.02572655089533002,0.0006038206348711237,0.0
7.21,-0.02088676476994853,0.0,0.0,0.025671622437066506,0.0006025314244878083,0.0
7.22,-0.020842239318452267,0.0,0.0,0.025616896844461657,0.0006012469755072638,0.0
7.23,-0.020797876885369677,0.0,0.0,0.02556237161544594,0.0005999672292041261,0.0
7.24,-0.02075367547775003,0.0,0.0,0.025508044300511207,0.0005986921280866808,0.0
7.25,-0.020709633144409087,0.0,0.0,0.025453912501488065,0.0005974216158681608,0.0
7.26,-0.020665747974956277,0.0,0.0,0.02539997387033991,0.000596155637438469,0.0
7.2700000000000005,-0.020622018098846236,0.0,0.0,0.025346226108010603,0.0005948941388370921,0.0
7.28,-0.020578441684453854,0.0,0.0,0.025292666963268352,0.0005936370672260254,0.0
7.29,-0.020535016938172373,0.0,0.0,0.02523929423162776,0.0005923843708643819,0.0
7.3,-0.02049174210353377,0.0,0.0,0.025186105754229138,0.000591135999082201,0.0
7.3100000000000005,-0.02044861546035089,0.0,0.0,0.02513309941682023,0.0005898919022564497,0.0
7.32,-0.020405635323880705,0.0,0.0,0.025080273148707904,0.0005886520317864708,0.0
7.33,-0.020362800044008204,0.0,0.0,0.02502762492175669,0.0005874163400704756,0.0
7.34,-0.02032010800445021,0.0,0.0,0.0249751527494195,0.0005861847804827679,0.0
7.3500000000000005,-0.020277557621978807,0.0,0.0,0.02492285468577126,0.0005849573073510939,0.0
7.36,-0.020235147345663625,0.0,0.0,0.024870728824584992,0.0005837338759349393,0.0
7.37,-0.020192875656132658,0.0,0.0,0.02481877329842279,0.0005825144424041933,0.0
7.38,-0.020150741064851024,0.0,0.0,0.024766986277749724,0.0005812989638183511,0.0
7.390000000000001,-0.020108742113417257,0.0,0.0,0.02471536597006732,0.0005800873981061806,0.0
7.4,-0.020066877372876605,0.0,0.0,0.024663910619063104,0.0005788797040457796,0.0
7.41,-0.02002514544305095,0.0,0.0,0.024612618503800223,0.0005776758412455177,0.0
7.42,-0.019983544951884882,0.0,0.0,0.024561487937903703,0.0005764757701249661,0.0
7.43,-0.019942074554807475,0.0,0.0,0.02451051726878357,0.0005752794518966438,0.0
7.44,-0.019900732934109443,0.0,0.0,0.024459704876860017,0.0005740868485478546,0.0
7.45,-0.019859518798335234,0.0,0.0,0.024409049174825174,0.0005728979228233378,0.0
7.46,-0.019818430881689584,0.0,0.0,0.02435854860690683,0.0005717126382080061,0.0
7.47,-0.019777467943458357,0.0,0.0,0.024308201648162404,0.0005705309589103573,0.0
7.48,-0.019736628767443105,0.0,0.0,0.024258006803779035,0.0005693528498460624,0.0
7.49,-0.019695912161409118,0.0,0.0,0.024207962608398293,0.0005681782766221048,0.0
7.5,-0.019655316956546594,0.0,0.0,0.024158067625452948,0.0005670072055212201,0.0
7.51,-0.019614842006944536,0.0,0.0,0.02410832044651796,0.0005658396034866665,0.0
7.5200000000000005,-0.01957448618907716,0.0,0.0,0.02405871969068766,0.0005646754381075855,0.0
7.53,-0.019534248401302398,0.0,0.0,0.0240092640039511,0.0005635146776043627,0.0
7.54,-0.019494127563372248,0.0,0.0,0.02395995205858438,0.0005623572908143838,0.0
7.55,-0.01945412261595464,0.0,0.0,0.023910782552583523,0.0005612032471786616,0.0
7.5600000000000005,-0.01941423252016654,0.0,0.0,0.023861754209066877,0.0005600525167278837,0.0
7.57,-0.01937445625711805,0.0,0.0,0.02381286577573711,0.0005589050700697146,0.0
7.58,-0.01933479282746714,0.0,0.0,0.023764116024314393,0.0005577608783755524,0.0
7.59,-0.01929524125098481,0.0,0.0,0.023715503750016992,0.0005566199133682951,0.0
7.6000000000000005,-0.019255800566130462,0.0,0.0,0.02366702777102165,0.0005554821473097218,0.0
7.61,-0.01921646982963708,0.0,0.0,0.02361868692797664,0.0005543475529890033,0.0
7.62,-0.019177248116106188,0.0,0.0,0.023570480083489213,0.0005532161037107092,0.0
7.63,-0.019138134517612114,0.0,0.0,0.023522406121640978,0.0005520877732834357,0.0
7.640000000000001,-0.01909912814331552,0.0,0.0,0.023474463947513728,0.0005509625360086653,0.0
7.65,-0.019060228119085882,0.0,0.0,0.023426652486723227,0.0005498403666698364,0.0
7.66,-0.019021433587132677,0.0,0.0,0.02337897068497469,0.0005487212405218838,0.0
7.67,-0.018982743705645136,0.0,0.0,0.023331417507609652,0.0005476051332806331,0.0
7.68,-0.018944157648440305,0.0,0.0,0.023283991939180633,0.0005464920211127967,0.0
7.69,-0.018905674604619224,0.0,0.0,0.02323669298301937,0.0005453818806258642,0.0
7.7,-0.018867293778231008,0.0,0.0,0.023189519660834716,0.0005442746888586382,0.0
7.71,-0.018829014387944695,0.0,0.0,0.023142471012306907,0.0005431704232717155,0.0
7.72,-0.018790835666728598,0.0,0.0,0.02309554609468678,0.0005420690617381016,0.0
7.73,-0.01875275686153702,0.0,0.0,0.023048743982413522,0.000540970582534226,0.0
7.74,-0.018714777233004156,0.0,0.0,0.023002063766751322,0.0005398749643313852,0.0
7.75,-0.018676896055145022,0.0,0.0,0.022955504555393316,0.0005387821861865209,0.0
7.76,-0.018639112615063173,0.0,0.0,0.022909065472136992,0.0005376922275345073,0.0
7.7700000000000005,-0.018601426212665133,0.0,0.0,0.022862745656500965,0.0005366050681792471,0.0
7.78,-0.01856383616038133,0.0,0.0,0.022816544263403654,0.000535520688286066,0.0
7.79,-0.0185263417828934,0.0,0.0,0.022770460462825815,0.0005344390683738035,0.0
7.8,-0.01848894241686767,0.0,0.0,0.022724493439472096,0.0005333601893068964,0.0
7.8100000000000005,-0.018451637410694707,0.0,0.0,0.022678642392454228,0.0005322840322879333,0.0
7.82,-0.01841442612423483,0.0,0.0,0.022632906534992413,0.0005312105788506087,0.0
7.83,-0.0183773079285693,0.0,0.0,0.022587285094085374,0.000530139810852045,0.0
7.84,-0.01834028220575726,0.0,0.0,0.022541777310234754,0.0005290717104662582,0.0
7.8500000000000005,-0.018303348348598092,0.0,0.0,0.02249638243713535,0.0005280062601769401,0.0
7.86,-0.01826650576039917,0.0,0.0,0.022451099741409276,0.0005269434427711605,0.0
7.87,-0.0182297538547489,0.0,0.0,0.022405928502296706,0.0005258832413321963,0.0
7.88,-0.018193092055294836,0.0,0.0,0.022360868011417928,0.000524825639233847,0.0
7.890000000000001,-0.018156519795526793,0.0,0.0,0.022315917572476477,0.0005237706201335543,0.0
7.9,-0.018120036518564916,0.0,0.0,0.02227107650102478,0.0005227181679668264,0.0
7.91,-0.018083641676952436,0.0,0.0,0.02222634412419384,0.0005216682669409386,0.0
7.92,-0.01804733473245313,0.0,0.0,0.022181719780435635,0.0005206209015289095,0.0
7.930000000000001,-0.01801111515585333,0.0,0.0,0.022137202819310295,0.0005195760564644228,0.0
7.94,-0.017974982426768368,0.0,0.0,0.02209279260121885,0.0005185337167356367,0.0
7.95,-0.017938936033453364,0.0,0.0,0.02204848849717734,0.0005174938675798604,0.0
7.96,-0.017902975472618245,0.0,0.0,0.022004289888605703,0.0005164564944785576,0.0
7.97,-0.01786710024924692,0.0,0.0,0.02196019616708659,0.0005154215831517365,0.0
7.98,-0.017831309876420502,0.0,0.0,0.021916206734150945,0.00051438911955291,0.0
7.99,-0.017795603875144474,0.0,0.0,0.02187232100107951,0.000513359089864396,0.0
8.0,-0.0177599817741797,0.0,0.0,0.02182853838866989,0.0005123314804919256,0.0
8.01,-0.01772444310987723,0.0,0.0,0.021784858327062697,0.0005113062780604744,0.0
8.02,-0.017688987426016788,0.0,0.0,0.02174128025552826,0.0005102834694093031,0.0
8.03,-0.017653614273648848,0.0,0.0,0.021697803622261733,0.0005092630415871768,0.0
8.040000000000001,-0.017618323210940232,0.0,0.0,0.021654427884216794,0.0005082449818483945,0.0
8.05,-0.01758311380302313,0.0,0.0,0.021611152506902785,0.0005072292776480798,0.0
8.06,-0.0175479856218475,0.0,0.0,0.02156797696421045,0.0005062159166380668,0.0
8.07,-0.01751293824603673,0.0,0.0,0.02152490073822924,0.0005052048866626318,0.0
8.08,-0.01747797126074652,0.0,0.0,0.021481923319083957,0.0005041961757546241,0.0
8.09,-0.01744308425752687,0.0,0.0,0.02143904420475015,0.0005031897721311836,0.0
8.1,-0.017408276834187143,0.0,0.0,0.021396262900904232,0.0005021856641901706,0.0
8.11,-0.017373548594664133,0.0,0.0,0.021353578920749752,0.0005011838405061261,0.0
8.120000000000001,-0.017338899148893014,0.0,0.0,0.021310991784863287,0.0005001842898266375,0.0
8.13,-0.01730432811268119,0.0,0.0,0.02126850102103932,0.0004991870010687031,0.0
8.14,-0.01726983510758489,0.0,0.0,0.0212261061641387,0.0004981919633151694,0.0
8.15,-0.01723541976078853,0.0,0.0,0.021183806755937656,0.0004971991658112007,0.0
8.16,-0.01720108170498671,0.0,0.0,0.021141602344988207,0.0004962085979609834,0.0
8.17,-0.017166820578268835,0.0,0.0,0.021099492486469862,0.0004952202493242646,0.0
8.18,-0.017132636024006248,0.0,0.0,0.021057476742055364,0.0004942341096131882,0.0
8.19,-0.017098527690741907,0.0,0.0,0.02101555467977545,0.0004932501686891217,0.0
8.2,-0.01706449523208245,0.0,0.0,0.02097372587388187,0.000492268416559451,0.0
8.21,-0.017030538306592617,0.0,0.0,0.020931989904720612,0.000491288843374597,0.0
8.22,-0.01699665657769206,0.0,0.0,0.02089034635860822,0.0004903114394251045,0.0
8.23,-0.016962849713554363,0.0,0.0,0.020848794827700613,0.0004893361951385821,0.0
8.24,-0.016929117387008325,0.0,0.0,0.020807334909872698,0.0004883631010768762,0.0
8.25,-0.016895459275441376,0.0,0.0,0.020765966208611635,0.00048739214793352953,0.0
8.26,-0.016861875060705106,0.0,0.0,0.02072468833288188,0.0004864233265306673,0.0
8.27,-0.01682836442902294,0.0,0.0,0.020683500897027293,0.0004854566278166574,0.0
8.28,-0.016794927070899742,0.0,0.0,0.02064240352065036,0.00048449204286330074,0.0
8.290000000000001,-0.016761562681033463,0.0,0.0,0.020601395828510734,0.0004835295628634308,0.0
8.3,-0.016728270958228698,0.0,0.0,0.020560477450411813,0.0004825691791282722,0.0
8.31,-0.016695051605312147,0.0,0.0,0.020519648021102142,0.0004816108830851112,0.0
8.32,-0.016661904329049928,0.0,0.0,0.020478907180173863,0.0004806546662749116,0.0
8.33,-0.016628828840066678,0.0,0.0,0.020438254571957897,0.00047970052034986986,0.0
8.34,-0.01659582485276645,0.0,0.0,0.020397689845432408,0.00047874843707125146,0.0
8.35,-0.016562892085255312,0.0,0.0,0.020357212654124043,0.00047779840830708165,0.0
8.36,-0.016530030259265666,0.0,0.0,0.020316822656023702,0.0004768504260301461,0.0
8.370000000000001,-0.016497239100082193,0.0,0.0,0.020276519513480015,0.0004759044823155316,0.0
8.38,-0.01646451833646942,0.0,0.0,0.02023630289311909,0.00047496056933872034,0.0
8.39,-0.01643186770060088,0.0,0.0,0.02019617246576117,0.00047401867937362104,0.0
8.4,-0.0163992869279898,0.0,0.0,0.02015612790632796,0.0004730788047904171,0.0
8.41,-0.016366775757421303,0.0,0.0,0.020116168893766474,0.00047214093805375627,0.0
8.42,-0.016334333930886086,0.0,0.0,0.020076295110958958,0.0004712050717206639,0.0
8.43,-0.016301961193515558,0.0,0.0,0.020036506244652474,0.00047027119843886226,0.0
8.44,-0.016269657293518366,0.0,0.0,0.019996801985369766,0.00046933931094470855,0.0
8.45,-0.016237421982118305,0.0,0.0,0.019957182027346698,0.00046840940206169024,0.0
8.46,-0.01620525501349359,0.0,0.0,0.019917646068449504,0.00046748146469850467,0.0
8.47,-0.016173156144717447,0.0,0.0,0.01987819381009464,0.0004665554918471972,0.0
8.48,-0.016141125135699964,0.0,0.0,0.01983882495719572,0.0004656314765818654,0.0
8.49,-0.01610916174913126,0.0,0.0,0.019799539218075556,0.00046470941205664466,0.0
8.5,-0.01607726575042583,0.0,0.0,0.019760336304410455,0.0004637892915043651,0.0
8.51,-0.016045436907668128,0.0,0.0,0.019721215931156645,0.00046287110823484427,0.0
8.52,-0.01601367499155934,0.0,0.0,0.019682177816484313,0.00046195485563333837,0.0
8.53,-0.015981979775365265,0.0,0.0,0.019643221681718375,0.0004610405271591417,0.0
8.540000000000001,-0.015950351034865386,0.0,0.0,0.019604347251272535,0.00046012811634404613,0.0
8.55,-0.015918788548302983,0.0,0.0,0.019565554252590704,0.00045921761679095874,0.0
8.56,-0.01588729209633637,0.0,0.0,0.019526842416081117,0.000458309022172373,0.0
8.57,-0.015855861461991184,0.0,0.0,0.019488211475062966,0.0004574023262291011,0.0
8.58,-0.015824496430613656,0.0,0.0,0.019449661165711996,0.00045649752276898765,0.0
8.59,-0.015793196789824965,0.0,0.0,0.019411191226991784,0.0004555946056653336,0.0
8.6,-0.01576196232947652,0.0,0.0,0.01937280140061504,0.0004546935688559411,0.0
8.61,-0.015730792841606247,0.0,0.0,0.01933449143097817,0.00045379440634161166,0.0
8.620000000000001,-0.015699688120395783,0.0,0.0,0.01929626106511093,0.0004528971121849563,0.0
8.63,-0.015668647962128638,0.0,0.0,0.01925811005263047,0.0004520016805093046,0.0
8.64,-0.0156376721651492,0.0,0.0,0.019220038145684157,0.00045110810549737806,0.0
8.65,-0.015606760529822707,0.0,0.0,0.01918204509890258,0.00045021638139018416,0.0
8.66,-0.015575912858495982,0.0,0.0,0.019144130669354345,0.00044932650248594467,0.0
8.67,-0.015545128955459099,0.0,0.0,0.019106294616493498,0.00044843846313887833,0.0
8.68,-0.01551440862690783,0.0,0.0,0.019068536702122715,0.00044755225775830904,0.0
8.69,-0.0154837516809069,0.0,0.0,0.019030856690330354,0.0004466678808072402,0.0
8.700000000000001,-0.015453157927354069,0.0,0.0,0.018993254347469526,0.00044578532680179795,0.0
8.71,-0.01542262717794494,0.0,0.0,0.018955729442096267,0.0004449045903098303,0.0
8.72,-0.015392159246138553,0.0,0.0,0.01891828174493587,0.00044402566595009484,0.0
8.73,-0.015361753947123701,0.0,0.0,0.018880911028838814,0.00044314854839123166,0.0
8.74,-0.015331411097785992,0.0,0.0,0.018843617068741998,0.0004422732323508469,0.0
8.75,-0.01530113051667559,0.0,0.0,0.01880639964162956,0.0004413997125945945,0.0
8.76,-0.015270912023975678,0.0,0.0,0.018769258526490806,0.0004405279839351955,0.0
8.77,-0.015240755441471568,0.0,0.0,0.01873219350428414,0.0004396580412315876,0.0
8.78,-0.015210660592520485,0.0,0.0,0.018695204357899717,0.0004387898793880488,0.0
8.790000000000001,-0.015180627302022033,0.0,0.0,0.01865829087212389,0.00043792349335336126,0.0
8.8,-0.015150655396389216,0.0,0.0,0.01862145283360631,0.00043705887812002997,0.0
8.81,-0.015120744703520164,0.0,0.0,0.018584690030815185,0.00043619602872326343,0.0
8.82,-0.015090895052770403,0.0,0.0,0.01854800225401731,0.0004353349402404623,0.0
8.83,-0.015061106274925757,0.0,0.0,0.018511389295229105,0.00043447560779011666,0.0
8.84,-0.015031378202175797,0.0,0.0,0.01847485094820383,0.0004336180265314487,0.0
8.85,-0.015001710668087887,0.0,0.0,0.01843838700837681,0.0004327621916631911,0.0
8.86,-0.014972103507581765,0.0,0.0,0.01840199727285373,0.0004319080984232597,0.0
8.870000000000001,-0.014942556556904685,0.0,0.0,0.018365681540363284,0.00043105574208768586,0.0
8.88,-0.014913069653607064,0.0,0.0,0.018329439611246525,0.00043020511797031566,0.0
8.89,-0.01488364263651867,0.0,0.0,0.018293271287407386,0.0004293562214217032,0.0
8.9,-0.014854275345725323,0.0,0.0,0.01825717637229916,0.00042850904782875245,0.0
8.91,-0.01482496762254606,0.0,0.0,0.018221154670890326,0.00042766359261392994,0.0
8.92,-0.014795719309510819,0.0,0.0,0.018185205989635137,0.00042681985123458287,0.0
8.93,-0.014766530250338585,0.0,0.0,0.018149330136453118,0.0004259778191824378,0.0
8.94,-0.014737400289916004,0.0,0.0,0.018113526920693263,0.00042513749198278846,0.0
8.950000000000001,-0.014708329274276453,0.0,0.0,0.01807779615312046,0.00042429886519414174,0.0
8.96,-0.014679317050579557,0.0,0.0,0.018042137645878514,0.00042346193440738456,0.0
8.97,-0.014650363467091122,0.0,0.0,0.018006551212471758,0.0004226266952453333,0.0
8.98,-0.01462146837316353,0.0,0.0,0.017971036667747867,0.0004217931433623118,0.0
8.99,-0.014592631619216517,0.0,0.0,0.017935593827854007,0.0004209612744431782,0.0
9.0,-0.014563853056718387,0.0,0.0,0.017900222510233214,0.0004201310842031861,0.0
